time,AdrenergicStimulus,CorticalStimulus,EmotionalStimulus,NutritiveStimulus,EvaluationStimulus,FocusStimulus,MuscularStimulus,ProprioceptiveStimulus,SomaticStimulus,VisualStimulus
0.0,1182,1181,1182,5,5,1181,1181,1077,0,962
1.0,1271,1272,1271,4,4,1270,1270,1160,0,989
2.0,1252,1252,1252,0,0,1250,1250,1068,0,1008
3.0,1174,1174,1174,0,0,1177,1177,981,0,981
4.0,1270,1264,1270,0,0,1264,1264,1138,0,1046
5.0,1285,1286,1285,1,1,1287,1287,1210,0,1148
6.0,1217,1222,1217,0,0,1222,1222,1022,0,1007
7.0,1104,1104,1104,0,0,1104,1104,835,0,835
8.0,963,963,963,1,1,963,963,691,0,666
9.0,938,937,938,0,0,933,933,649,0,649
10.0,1207,1207,1207,0,0,1210,1210,1057,0,1057
11.0,1162,1163,1162,1,1,1164,1164,974,0,942
12.0,1158,1155,1158,0,0,1155,1155,1060,0,1037
13.0,1227,1229,1227,0,0,1226,1226,969,0,969
14.0,1152,1153,1152,0,0,1154,1154,895,0,895
15.0,1288,1285,1288,0,0,1287,1287,1165,0,1165
16.0,1156,1158,1156,0,0,1158,1158,960,0,962
17.0,1279,1280,1279,0,0,1280,1280,1170,0,1165
18.0,1099,1097,1099,0,0,1097,1097,821,0,821
19.0,1219,1216,1219,0,0,1216,1216,1101,0,1101
20.0,1374,1379,1374,0,0,1379,1379,1299,0,1303
21.0,1297,1297,1297,2,2,1295,1295,1282,0,1252
22.0,1194,1193,1194,0,0,1195,1195,1061,0,1060
23.0,1126,1126,1126,0,0,1125,1125,1001,0,1005
24.0,1285,1283,1285,0,0,1284,1284,1228,0,1227
25.0,1302,1305,1302,0,0,1305,1305,1248,0,1245
26.0,1290,1289,1290,0,0,1284,1284,1270,0,1270
27.0,1164,1165,1164,0,0,1170,1170,1085,0,1085
28.0,1248,1248,1248,9,9,1244,1244,1278,0,1190
29.0,1138,1138,1138,0,0,1142,1142,1006,0,1003
30.0,1312,1304,1312,0,0,1298,1298,1197,0,1192
31.0,1212,1220,1212,0,0,1226,1226,1077,0,1076
32.0,1176,1176,1176,0,0,1175,1175,960,0,960
33.0,1193,1193,1193,0,0,1194,1194,911,0,911
34.0,1171,1170,1171,0,0,1170,1170,985,0,985
35.0,1244,1245,1244,0,0,1245,1245,992,0,992
36.0,1134,1134,1134,0,0,1132,1132,855,0,856
37.0,1274,1272,1274,0,0,1272,1272,1049,0,1048
38.0,1186,1188,1186,0,0,1188,1188,1008,0,1008
39.0,1171,1169,1171,0,0,1171,1171,983,0,988
40.0,1164,1166,1164,0,0,1160,1160,860,0,855
41.0,1186,1186,1186,0,0,1192,1192,934,0,934
42.0,1137,1136,1137,0,0,1136,1136,852,0,852
43.0,1144,1144,1144,0,0,1142,1142,926,0,926
44.0,1206,1204,1206,0,0,1206,1206,966,0,966
45.0,1267,1270,1267,0,0,1270,1270,1043,0,1043
46.0,1099,1099,1099,0,0,1099,1099,847,0,847
47.0,1247,1244,1247,0,0,1244,1244,1067,0,1067
48.0,1237,1240,1237,0,0,1237,1237,971,0,971
49.0,1264,1262,1264,0,0,1265,1265,1037,0,1037
50.0,1304,1306,1304,0,0,1306,1306,1134,0,1134
51.0,1209,1208,1209,0,0,1208,1208,934,0,934
52.0,1192,1193,1192,0,0,1193,1193,1014,0,1014
53.0,1157,1147,1157,0,0,1147,1147,857,0,859
54.0,1118,1128,1118,0,0,1128,1128,800,0,798
55.0,1305,1305,1305,0,0,1305,1305,828,0,828
56.0,874,873,874,0,0,873,873,475,0,476
57.0,0,0,0,0,0,0,0,0,0,0
