time,AdrenergicStimulus,CorticalStimulus,EmotionalStimulus,NutritiveStimulus,EvaluationStimulus,FocusStimulus,MuscularStimulus,ProprioceptiveStimulus,SomaticStimulus,VisualStimulus
0.0,1732,1732,1732,5,5,1732,1732,1669,0,1503
1.0,1798,1798,1798,0,0,1795,1795,1264,0,1264
2.0,1728,1728,1728,0,0,1731,1731,1145,0,1145
3.0,1679,1678,1679,1,1,1678,1678,1097,0,1084
4.0,1680,1680,1680,0,0,1680,1680,1100,0,1100
5.0,1648,1649,1648,0,0,1649,1649,1120,0,1120
6.0,1694,1693,1694,0,0,1692,1692,1114,0,1114
7.0,1665,1666,1665,0,0,1666,1666,1125,0,1125
8.0,1710,1709,1710,0,0,1709,1709,1213,0,1213
9.0,1667,1668,1667,0,0,1669,1669,1102,0,1102
10.0,1607,1607,1607,5,5,1605,1605,1144,0,1063
11.0,1633,1633,1633,0,0,1634,1634,1182,0,1174
12.0,1764,1764,1764,5,5,1761,1761,1352,0,1217
13.0,1691,1689,1691,17,17,1693,1693,1301,0,1102
14.0,1714,1716,1714,12,12,1716,1716,1366,0,1204
15.0,1655,1655,1655,7,7,1655,1655,1307,0,1074
16.0,1637,1637,1637,0,0,1635,1635,1161,0,1099
17.0,1690,1690,1690,17,16,1689,1689,1374,0,1057
18.0,1655,1653,1655,2,3,1655,1655,1120,0,1036
19.0,1735,1737,1735,14,14,1737,1737,1428,0,1228
20.0,1802,1802,1802,9,9,1803,1803,1539,0,1411
21.0,1835,1832,1835,0,0,1831,1831,1555,0,1556
22.0,1743,1746,1743,11,1,1747,1747,1476,0,1301
23.0,1745,1744,1745,2,10,1743,1743,1491,0,1221
24.0,1772,1773,1772,5,7,1773,1773,1550,0,1305
25.0,1709,1709,1709,0,0,1709,1709,1435,0,1203
26.0,1827,1822,1827,2,2,1821,1821,1594,0,1456
27.0,1769,1774,1769,7,7,1776,1776,1707,0,1391
28.0,1829,1829,1829,2,1,1825,1825,1746,0,1527
29.0,1856,1856,1856,1,2,1859,1859,1761,0,1662
30.0,1791,1790,1791,2,0,1791,1791,1612,0,1525
31.0,1759,1759,1759,0,2,1759,1759,1377,0,1325
32.0,1854,1854,1854,6,0,1851,1851,1527,0,1335
33.0,1701,1702,1701,0,6,1703,1703,1281,0,1247
34.0,1795,1795,1795,0,0,1797,1797,1459,0,1459
35.0,1799,1797,1799,0,0,1797,1797,1524,0,1519
36.0,1711,1713,1711,0,0,1712,1712,1474,0,1474
37.0,1743,1743,1743,0,0,1744,1744,1391,0,1391
38.0,1746,1744,1746,0,0,1744,1744,1470,0,1409
39.0,1599,1601,1599,0,0,1601,1601,1302,0,1127
40.0,1081,1081,1081,1,0,1081,1081,915,0,734
41.0,0,0,0,0,0,0,0,0,0,0
