time,AdrenergicStimulus,CorticalStimulus,EmotionalStimulus,NutritiveStimulus,EvaluationStimulus,FocusStimulus,MuscularStimulus,ProprioceptiveStimulus,SomaticStimulus,VisualStimulus
0.0,1224,1224,1224,8,8,1222,1222,1414,0,1105
1.0,1334,1330,1334,0,0,1325,1325,1228,0,1204
2.0,1364,1368,1364,0,0,1374,1374,1158,0,1158
3.0,1378,1368,1378,0,0,1367,1367,1185,0,1185
4.0,802,812,802,0,0,814,814,428,0,428
5.0,1003,1003,1003,0,0,1003,1003,586,0,586
6.0,1172,1172,1172,0,0,1172,1172,720,0,720
7.0,1123,1123,1123,0,0,1122,1122,664,0,664
8.0,1237,1236,1237,0,0,1236,1236,945,0,946
9.0,1228,1229,1228,0,0,1230,1230,964,0,963
10.0,1221,1220,1221,0,0,1217,1217,830,0,830
11.0,1282,1283,1282,0,0,1286,1286,976,0,976
12.0,1283,1275,1283,2,2,1275,1275,905,0,888
13.0,1314,1322,1314,4,4,1319,1319,1013,0,986
14.0,1220,1220,1220,0,0,1222,1222,1062,0,1062
15.0,1306,1306,1306,0,0,1304,1304,1138,0,1138
16.0,1159,1157,1159,0,0,1157,1157,869,0,865
17.0,1235,1237,1235,1,1,1240,1240,976,0,970
18.0,1258,1258,1258,0,0,1258,1258,964,0,964
19.0,1144,1137,1144,0,0,1136,1136,832,0,832
20.0,1043,1050,1043,0,0,1051,1051,704,0,704
21.0,1060,1060,1060,0,0,1060,1060,669,0,669
22.0,1211,1208,1211,4,4,1208,1208,909,0,823
23.0,1149,1148,1149,5,5,1145,1145,930,0,861
24.0,1292,1294,1292,1,1,1292,1292,1170,0,1162
25.0,1227,1227,1227,1,1,1232,1232,1215,0,1161
26.0,1272,1268,1272,3,3,1266,1266,1099,0,1026
27.0,1124,1129,1124,1,1,1130,1130,917,0,846
28.0,1279,1280,1279,3,3,1278,1278,1155,0,1022
29.0,1353,1350,1353,15,14,1350,1350,1361,0,1058
30.0,1113,1116,1113,0,1,1118,1118,820,0,771
31.0,1041,1040,1041,2,2,1041,1041,625,0,618
32.0,1300,1301,1300,0,0,1301,1301,1057,0,1056
33.0,1291,1290,1291,2,2,1289,1289,1143,0,1132
34.0,1314,1315,1314,6,6,1314,1314,1272,0,1220
35.0,1182,1179,1182,0,0,1180,1180,864,0,863
36.0,1208,1211,1208,0,0,1211,1211,985,0,984
37.0,1235,1233,1235,0,0,1234,1234,926,0,927
38.0,1199,1199,1199,0,0,1199,1199,944,0,943
39.0,1188,1189,1188,0,0,1189,1189,876,0,876
40.0,1217,1218,1217,0,0,1216,1216,882,0,882
41.0,1214,1211,1214,0,0,1211,1211,854,0,854
42.0,1212,1214,1212,0,0,1213,1213,946,0,945
43.0,1131,1131,1131,0,0,1134,1134,888,0,888
44.0,1173,1174,1173,0,0,1174,1174,835,0,835
45.0,1253,1248,1253,0,0,1248,1248,986,0,986
46.0,1219,1210,1219,0,0,1210,1210,979,0,979
47.0,1303,1307,1303,0,0,1304,1304,1172,0,1172
48.0,1221,1231,1221,0,0,1230,1230,1058,0,1058
49.0,1151,1151,1151,0,0,1155,1155,920,0,920
50.0,1303,1303,1303,0,0,1303,1303,1217,0,1220
51.0,1298,1297,1298,0,0,1297,1297,1210,0,1207
52.0,1238,1239,1238,0,0,1238,1238,1022,0,1022
53.0,1152,1148,1152,0,0,1143,1143,868,0,868
54.0,1232,1236,1232,0,0,1235,1235,1057,0,1057
55.0,1443,1437,1443,0,0,1443,1443,1240,0,1240
56.0,75,81,75,0,0,81,81,52,0,52
57.0,0,0,0,0,0,0,0,0,0,0
