time,AdrenergicStimulus,CorticalStimulus,EmotionalStimulus,NutritiveStimulus,EvaluationStimulus,FocusStimulus,MuscularStimulus,ProprioceptiveStimulus,SomaticStimulus,VisualStimulus
0.0,1745,1745,1745,7,7,1745,1745,1618,0,1472
1.0,1305,1305,1305,0,0,1305,1305,691,0,691
2.0,1565,1565,1565,0,0,1565,1565,923,0,923
3.0,1338,1337,1338,0,0,1336,1336,748,0,748
4.0,1535,1536,1535,0,0,1537,1537,954,0,954
5.0,1490,1490,1490,0,0,1486,1486,945,0,945
6.0,1442,1442,1442,0,0,1446,1446,862,0,862
7.0,1482,1482,1482,0,0,1480,1480,978,0,978
8.0,1616,1616,1616,2,2,1618,1618,1126,0,1079
9.0,1695,1689,1695,12,9,1689,1689,1446,0,1212
10.0,1690,1696,1690,19,22,1694,1694,1574,0,1209
11.0,1632,1632,1632,18,18,1633,1633,1284,0,990
12.0,1511,1510,1511,8,8,1511,1511,1106,0,976
13.0,1664,1665,1664,20,20,1665,1665,1472,0,1241
14.0,1799,1796,1799,0,0,1796,1796,1559,0,1558
15.0,1764,1767,1764,3,3,1767,1767,1468,0,1441
16.0,1719,1719,1719,1,1,1715,1715,1532,0,1519
17.0,1720,1720,1720,0,0,1724,1724,1474,0,1474
18.0,1665,1665,1665,0,0,1661,1661,1429,0,1429
19.0,1749,1749,1749,0,0,1752,1752,1582,0,1582
20.0,1698,1697,1698,0,0,1697,1697,1443,0,1444
21.0,1691,1692,1691,0,0,1692,1692,1491,0,1490
22.0,1700,1699,1700,0,0,1700,1700,1539,0,1539
23.0,1675,1674,1675,0,0,1674,1674,1399,0,1399
24.0,1761,1763,1761,0,0,1763,1763,1562,0,1563
25.0,1674,1674,1674,0,0,1674,1674,1416,0,1415
26.0,1702,1702,1702,0,0,1699,1699,1450,0,1450
27.0,1749,1746,1749,0,0,1748,1748,1565,0,1565
28.0,1751,1754,1751,1,0,1755,1755,1534,0,1527
29.0,1706,1706,1706,5,0,1705,1705,1508,0,1480
30.0,1723,1719,1723,0,6,1717,1717,1458,0,1457
31.0,1748,1751,1748,0,0,1754,1754,1413,0,1413
32.0,1727,1726,1727,0,0,1726,1726,1558,0,1558
33.0,1787,1789,1787,0,0,1785,1785,1476,0,1476
34.0,1655,1655,1655,0,0,1657,1657,1243,0,1243
35.0,1561,1557,1561,0,0,1559,1559,1049,0,1049
36.0,1466,1470,1466,0,0,1470,1470,1018,0,1018
37.0,1365,1365,1365,0,0,1364,1364,910,0,910
38.0,1285,1285,1285,0,0,1286,1286,779,0,779
39.0,1313,1313,1313,0,0,1312,1312,816,0,816
40.0,1353,1353,1353,0,0,1354,1354,657,0,657
41.0,1315,1315,1315,0,0,1315,1315,673,0,673
42.0,673,672,673,0,0,672,672,368,0,370
43.0,0,0,0,0,0,0,0,0,0,0
