time,AdrenergicStimulus,CorticalStimulus,EmotionalStimulus,NutritiveStimulus,EvaluationStimulus,FocusStimulus,MuscularStimulus,ProprioceptiveStimulus,SomaticStimulus,VisualStimulus
0.0,2383,2377,2383,18,18,2377,2377,2385,0,1948
1.0,2177,2180,2177,0,0,2178,2178,1664,0,1664
2.0,2000,2001,2000,0,0,2003,2003,1561,0,1561
3.0,1707,1709,1707,0,0,1709,1709,1080,0,1080
4.0,1598,1598,1598,0,0,1598,1598,881,0,881
5.0,1708,1707,1708,0,0,1707,1707,970,0,970
6.0,1748,1749,1748,0,0,1748,1748,1022,0,1022
7.0,1950,1950,1950,1,1,1951,1951,1383,0,1380
8.0,1958,1954,1958,1,1,1951,1951,1332,0,1323
9.0,1867,1870,1867,0,0,1873,1873,1256,0,1256
10.0,1914,1914,1914,0,0,1914,1914,1253,0,1254
11.0,1902,1903,1902,0,0,1903,1903,1268,0,1268
12.0,2181,2181,2181,0,0,2180,2180,1549,0,1548
13.0,2097,2097,2097,0,0,2098,2098,1550,0,1550
14.0,2009,2009,2009,11,11,2008,2008,1512,0,1316
15.0,2161,2160,2161,7,7,2161,2161,1741,0,1590
16.0,2104,2105,2104,15,14,2104,2104,1793,0,1539
17.0,2223,2223,2223,26,20,2224,2224,1964,0,1628
18.0,2183,2183,2183,20,24,2183,2183,1937,0,1649
19.0,2135,2134,2135,18,20,2133,2133,1731,0,1518
20.0,2110,2111,2110,8,4,2112,2112,1721,0,1548
21.0,2159,2159,2159,11,16,2159,2159,1893,0,1584
22.0,2174,2169,2174,22,13,2167,2167,2064,0,1704
23.0,2135,2140,2135,27,29,2141,2141,1944,0,1676
24.0,2056,2054,2056,0,7,2052,2052,1520,0,1520
25.0,2046,2048,2046,0,0,2051,2051,1555,0,1555
26.0,2035,2033,2035,0,0,2032,2032,1560,0,1560
27.0,2049,2051,2049,0,0,2052,2052,1555,0,1555
28.0,2060,2055,2060,0,0,2051,2051,1571,0,1571
29.0,2016,2020,2016,0,0,2024,2024,1582,0,1583
30.0,2076,2076,2076,0,0,2073,2073,1673,0,1672
31.0,2046,2047,2046,0,0,2049,2049,1600,0,1600
32.0,2025,2025,2025,0,0,2024,2024,1517,0,1517
33.0,2090,2085,2090,0,0,2086,2086,1637,0,1637
34.0,461,465,461,0,0,466,466,330,0,333
35.0,0,0,0,0,0,0,0,0,0,0
