time,target distance,affordance,memory,random,short term memory
8232.0,0,0,0,1,0
8323.0,0,1,0,1,0
8423.0,0,2,0,1,0
8482.0,0,2,0,2,0
8565.0,0,2,0,3,0
8598.0,0,3,0,3,0
8816.0,0,4,0,3,0
10325.0,0,5,0,3,0
10442.0,0,6,0,3,0
11077.0,0,7,0,3,0
11135.0,0,8,0,3,0
11160.0,0,9,0,3,0
11193.0,0,9,0,4,0
11577.0,0,10,0,4,0
13830.0,0,11,0,4,0
13980.0,0,12,0,4,0
14472.0,0,13,0,4,0
14489.0,0,14,0,4,0
14974.0,0,15,0,4,0
15316.0,0,16,0,4,0
15558.0,0,17,0,4,0
15667.0,0,18,0,4,0
15750.0,0,19,0,4,0
16000.0,0,20,0,4,0
16334.0,0,21,0,4,0
16492.0,0,22,0,4,0
16568.0,0,22,0,5,0
16684.0,0,23,0,5,0
16802.0,0,24,0,5,0
18520.0,0,25,0,5,0
18629.0,0,26,0,5,0
19037.0,0,27,0,5,0
20298.0,0,28,0,5,0
20381.0,0,29,0,5,0
20557.0,0,30,0,5,0
21249.0,0,31,0,5,0
26861.0,0,32,0,5,0
26936.0,0,33,0,5,0
26995.0,0,34,0,5,0
27145.0,0,34,0,6,0
27287.0,0,34,0,7,0
27529.0,0,34,0,8,0
27921.0,0,34,0,9,0
27963.0,0,35,0,9,0
29006.0,0,36,0,9,0
29993.0,0,36,0,10,0
30251.0,0,37,0,10,0
32145.0,0,38,0,10,0
32179.0,0,38,0,11,0
32221.0,0,39,0,11,0
32237.0,0,40,0,11,0
32329.0,0,41,0,11,0
32412.0,0,42,0,11,0
32479.0,0,43,0,11,0
32587.0,0,44,0,11,0
32654.0,0,45,0,11,0
32738.0,0,45,0,12,0
33230.0,0,45,0,13,0
33264.0,0,46,0,13,0
33480.0,0,47,0,13,0
33497.0,0,48,0,13,0
33547.0,0,49,0,13,0
33564.0,0,50,0,13,0
33614.0,0,51,0,13,0
35716.0,0,52,0,13,0
36059.0,0,52,0,14,0
38520.0,0,53,0,14,0
38854.0,0,54,0,14,0
40715.0,0,54,0,15,0
41457.0,0,55,0,15,0
41633.0,0,55,0,16,0
49518.0,0,56,0,16,0
50169.0,0,57,0,16,0
50694.0,0,58,0,16,0
50853.0,0,59,0,16,0
51671.0,0,60,0,16,0
51712.0,0,60,0,17,0
51879.0,0,61,0,17,0
52071.0,0,62,0,17,0
52597.0,0,63,0,17,0
52955.0,0,64,0,17,0
53473.0,0,64,0,18,0
53548.0,0,65,0,18,0
53581.0,0,66,0,18,0
53715.0,0,67,0,18,0
53840.0,0,68,0,18,0
54091.0,0,69,0,18,0
54233.0,0,70,0,18,0
54283.0,0,71,0,18,0
54324.0,0,72,0,18,0
54425.0,0,73,0,18,0
54850.0,0,74,0,18,0
54959.0,0,75,0,18,0
82505.0,0,76,0,18,0
82622.0,0,77,0,18,0
83056.0,0,78,0,18,0
83215.0,0,79,0,18,0
83348.0,0,80,0,18,0
83557.0,0,81,0,18,0
83691.0,0,82,0,18,0
83849.0,0,83,0,18,0
84083.0,0,84,0,18,0
84292.0,0,85,0,18,0
84392.0,0,85,0,19,0
85026.0,0,86,0,19,0
85702.0,0,87,0,19,0
85868.0,0,88,0,19,0
86094.0,0,88,0,20,0
86219.0,0,89,0,20,0
86636.0,0,90,0,20,0
86761.0,0,91,0,20,0
98928.0,0,91,0,21,0
99103.0,0,91,0,22,0
99178.0,0,92,0,22,0
99278.0,0,93,0,22,0
99403.0,0,94,0,22,0
100121.0,0,94,0,23,0
101056.0,0,95,0,23,0
101073.0,0,96,0,23,0
101657.0,0,97,0,23,0
103500.0,0,98,0,23,0
103601.0,0,98,0,24,0
108591.0,0,99,0,24,0
114699.0,0,100,0,24,0
114891.0,0,101,0,24,0
115058.0,0,102,0,24,0
115092.0,0,103,0,24,0
116977.0,0,104,0,24,0
117061.0,0,105,0,24,0
117361.0,0,106,0,24,0
120522.0,0,107,0,24,0
120990.0,0,108,0,24,0
121156.0,0,109,0,24,0
121223.0,0,110,0,24,0
121391.0,0,111,0,24,0
121574.0,0,112,0,24,0
125187.0,0,113,0,24,0
125312.0,0,113,0,25,0
125354.0,0,114,0,25,0
126447.0,0,115,0,25,0
126998.0,0,116,0,25,0
127140.0,0,117,0,25,0
127331.0,0,118,0,25,0
128341.0,0,119,0,25,0
128391.0,0,120,0,25,0
128658.0,0,121,0,25,0
128750.0,0,121,0,26,0
129000.0,0,122,0,26,0
129041.0,0,123,0,26,0
129108.0,0,124,0,26,0
129309.0,0,125,0,26,0
129342.0,0,125,0,27,0
129392.0,0,126,0,27,0
129409.0,0,126,0,28,0
129618.0,0,126,0,29,0
129710.0,0,127,0,29,0
129809.0,0,128,0,29,0
129860.0,0,129,0,29,0
130244.0,0,130,0,29,0
130327.0,0,131,0,29,0
130377.0,0,132,0,29,0
130444.0,0,133,0,29,0
130594.0,0,134,0,29,0
130661.0,0,135,0,29,0
130694.0,0,136,0,29,0
130853.0,0,137,0,29,0
130869.0,0,138,0,29,0
130911.0,0,139,0,29,0
131111.0,0,140,0,29,0
131270.0,0,141,0,29,0
131345.0,0,141,0,30,0
131396.0,0,142,0,30,0
131520.0,0,143,0,30,0
131745.0,0,144,0,30,0
132079.0,0,145,0,30,0
132288.0,0,146,0,30,0
132405.0,0,147,0,30,0
132513.0,0,148,0,30,0
132563.0,0,149,0,30,0
132597.0,0,150,0,30,0
132722.0,0,151,0,30,0
132788.0,0,152,0,30,0
132839.0,0,153,0,30,0
133623.0,0,154,0,30,0
133732.0,0,155,0,30,0
133932.0,0,156,0,30,0
134057.0,0,157,0,30,0
134073.0,0,158,0,30,0
134123.0,0,159,0,30,0
134365.0,0,160,0,30,0
138079.0,0,161,0,30,0
138104.0,0,162,0,30,0
138221.0,0,163,0,30,0
138430.0,0,164,0,30,0
138555.0,0,165,0,30,0
138638.0,0,166,0,30,0
139790.0,0,167,0,30,0
139840.0,0,168,0,30,0
139923.0,0,168,0,31,0
140007.0,0,169,0,31,0
145498.0,0,169,0,32,0
145599.0,0,170,0,32,0
145674.0,0,171,0,32,0
146116.0,0,171,0,33,0
146217.0,0,171,0,34,0
146350.0,0,172,0,34,0
146392.0,0,173,0,34,0
146726.0,0,174,0,34,0
146775.0,0,175,0,34,0
146851.0,0,176,0,34,0
146901.0,0,177,0,34,0
146959.0,0,178,0,34,0
147018.0,0,178,0,35,0
147118.0,0,179,0,35,0
147368.0,0,179,0,36,0
147836.0,0,180,0,36,0
148019.0,0,181,0,36,0
148052.0,0,182,0,36,0
148244.0,0,182,0,37,0
148361.0,0,183,0,37,0
148587.0,0,183,0,38,0
148628.0,0,183,0,39,0
155438.0,0,184,0,39,0
155988.0,0,185,0,39,0
156247.0,0,186,0,39,0
156530.0,0,186,0,40,0
159076.0,0,187,0,40,0
159134.0,0,188,0,40,0
159234.0,0,189,0,40,0
159368.0,0,190,0,40,0
159643.0,0,191,0,40,0
159660.0,0,192,0,40,0
162547.0,0,192,0,41,0
162664.0,0,193,0,41,0
162731.0,0,193,0,42,0
163190.0,0,193,0,43,0
163816.0,0,194,0,43,0
164224.0,0,194,0,44,0
164358.0,0,195,0,44,0
164375.0,0,196,0,44,0
164658.0,0,197,0,44,0
164691.0,0,198,0,44,0
164750.0,0,199,0,44,0
164783.0,0,200,0,44,0
164833.0,0,201,0,44,0
164875.0,0,202,0,44,0
164959.0,0,202,0,45,0
168389.0,0,203,0,45,0
168564.0,0,204,0,45,0
168647.0,0,204,0,46,0
168664.0,0,204,0,47,0
168714.0,0,204,0,48,0
168981.0,0,205,0,48,0
169065.0,0,206,0,48,0
169290.0,0,207,0,48,0
169448.0,0,208,0,48,0
169465.0,0,209,0,48,0
172094.0,0,210,0,48,0
172169.0,0,211,0,48,0
172252.0,0,212,0,48,0
172336.0,0,213,0,48,0
174480.0,0,214,0,48,0
174556.0,0,214,0,49,0
175874.0,0,215,0,49,0
176049.0,0,215,0,50,0
176123.0,0,216,0,50,0
176164.0,0,217,0,50,0
176273.0,0,218,0,50,0
176323.0,0,218,0,51,0
179501.0,0,219,0,51,0
179611.0,0,220,0,51,0
179919.0,0,221,0,51,0
181788.0,0,222,0,51,0
181847.0,0,223,0,51,0
181997.0,0,224,0,51,0
182422.0,0,224,0,52,0
182497.0,0,225,0,52,0
182714.0,0,226,0,52,0
182831.0,0,227,0,52,0
183048.0,0,228,0,52,0
183432.0,0,229,0,52,0
184008.0,0,230,0,52,0
184099.0,0,231,0,52,0
184158.0,0,232,0,52,0
184400.0,0,232,0,53,0
184450.0,0,232,0,54,0
184467.0,0,232,0,55,0
184567.0,0,233,0,55,0
185134.0,0,234,0,55,0
186219.0,0,235,0,55,0
187996.0,0,236,0,55,0
188204.0,0,237,0,55,0
188271.0,0,238,0,55,0
188304.0,0,238,0,56,0
188505.0,0,239,0,56,0
193453.0,0,240,0,56,0
193554.0,0,240,0,57,0
193745.0,0,241,0,57,0
193779.0,0,242,0,57,0
193837.0,0,242,0,58,0
194054.0,0,243,0,58,0
194112.0,0,244,0,58,0
194229.0,0,245,0,58,0
194521.0,0,246,0,58,0
194631.0,0,247,0,58,0
194680.0,0,248,0,58,0
194755.0,0,249,0,58,0
194988.0,0,250,0,58,0
195072.0,0,251,0,58,0
195205.0,0,252,0,58,0
195456.0,0,253,0,58,0
195473.0,0,254,0,58,0
195572.0,0,255,0,58,0
195748.0,0,256,0,58,0
198151.0,0,256,0,59,0
198410.0,0,257,0,59,0
198719.0,0,258,0,59,0
198769.0,0,259,0,59,0
199153.0,0,260,0,59,0
199211.0,0,261,0,59,0
199244.0,0,262,0,59,0
201956.0,0,263,0,59,0
202123.0,0,264,0,59,0
202181.0,0,265,0,59,0
202407.0,0,266,0,59,0
202824.0,0,267,0,59,0
202949.0,0,268,0,59,0
202966.0,0,269,0,59,0
202999.0,0,269,0,60,0
203033.0,0,269,0,61,0
203116.0,0,270,0,61,0
204560.0,0,270,0,62,0
204877.0,0,271,0,62,0
204952.0,0,272,0,62,0
205035.0,0,273,0,62,0
205102.0,0,274,0,62,0
206721.0,0,274,0,63,0
206771.0,0,275,0,63,0
207125.0,0,276,0,63,0
212009.0,0,277,0,63,0
212109.0,0,277,0,64,0
212351.0,0,278,0,64,0
212810.0,0,279,0,64,0
213578.0,0,280,0,64,0
213678.0,0,281,0,64,0
213695.0,0,282,0,64,0
213812.0,0,283,0,64,0
214213.0,0,284,0,64,0
214315.0,0,285,0,64,0
216966.0,0,286,0,64,0
217633.0,0,287,0,64,0
218935.0,0,288,0,64,0
218968.0,0,289,0,64,0
219044.0,0,289,0,65,0
219177.0,0,290,0,65,0
219461.0,0,291,0,65,0
219920.0,0,292,0,65,0
220512.0,0,293,0,65,0
222006.0,0,294,0,65,0
225135.0,0,295,0,65,0
225502.0,0,296,0,65,0
225603.0,0,297,0,65,0
225644.0,0,298,0,65,0
225694.0,0,299,0,65,0
225870.0,0,300,0,65,0
226086.0,0,301,0,65,0
226912.0,0,302,0,65,0
228164.0,0,303,0,65,0
228306.0,0,304,0,65,0
228339.0,0,304,0,66,0
229960.0,0,305,0,66,0
230019.0,0,305,0,67,0
230035.0,0,305,0,68,0
230127.0,0,306,0,68,0
231754.0,0,307,0,68,0
231838.0,0,307,0,69,0
231921.0,0,307,0,70,0
232022.0,0,307,0,71,0
232071.0,0,308,0,71,0
232088.0,0,309,0,71,0
232121.0,0,310,0,71,0
232138.0,0,311,0,71,0
232239.0,0,312,0,71,0
232347.0,0,313,0,71,0
232455.0,0,314,0,71,0
232472.0,0,314,0,72,0
232489.0,0,315,0,72,0
232597.0,0,316,0,72,0
233382.0,0,316,0,73,0
235001.0,0,316,0,74,0
235635.0,0,317,0,74,0
235676.0,0,318,0,74,0
235935.0,0,319,0,74,0
236052.0,0,320,0,74,0
236252.0,0,321,0,74,0
236302.0,0,322,0,74,0
236411.0,0,322,0,75,0
236553.0,0,323,0,75,0
236636.0,0,324,0,75,0
236728.0,0,325,0,75,0
236770.0,0,326,0,75,0
236862.0,0,327,0,75,0
236971.0,0,327,0,76,0
237054.0,0,328,0,76,0
237070.0,0,328,0,77,0
237137.0,0,329,0,77,0
237221.0,0,330,0,77,0
237271.0,0,331,0,77,0
237329.0,0,332,0,77,0
237513.0,0,332,0,78,0
237655.0,0,333,0,78,0
237688.0,0,333,0,79,0
237705.0,0,333,0,80,0
238323.0,0,334,0,80,0
238464.0,0,335,0,80,0
240250.0,0,336,0,80,0
242077.0,0,336,0,81,0
242111.0,0,337,0,81,0
242160.0,0,338,0,81,0
242236.0,0,339,0,81,0
242253.0,0,340,0,81,0
242386.0,0,341,0,81,0
242419.0,0,342,0,81,0
242586.0,0,343,0,81,0
243387.0,0,344,0,81,0
243421.0,0,345,0,81,0
243512.0,0,346,0,81,0
244873.0,0,347,0,81,0
244973.0,0,348,0,81,0
245065.0,0,349,0,81,0
245449.0,0,350,0,81,0
245507.0,0,351,0,81,0
246400.0,0,351,0,82,0
246609.0,0,351,0,83,0
247018.0,0,352,0,83,0
247443.0,0,353,0,83,0
249212.0,0,353,0,84,0
249329.0,0,354,0,84,0
249479.0,0,355,0,84,0
249788.0,0,356,0,84,0
249947.0,0,357,0,84,0
250063.0,0,357,0,85,0
250172.0,0,358,0,85,0
251608.0,0,359,0,85,0
251707.0,0,359,0,86,0
251941.0,0,360,0,86,0
251958.0,0,361,0,86,0
252066.0,0,361,0,87,0
253068.0,0,362,0,87,0
257223.0,0,363,0,87,0
258803.0,0,363,0,88,0
258861.0,0,364,0,88,0
259503.0,0,364,0,89,0
261873.0,0,365,0,89,0
262015.0,0,366,0,89,0
262190.0,0,367,0,89,0
262215.0,0,367,0,90,0
262340.0,0,368,0,90,0
262490.0,0,369,0,90,0
266120.0,0,370,0,90,0
266429.0,0,371,0,90,0
267832.0,0,372,0,90,0
267998.0,0,373,0,90,0
268031.0,0,374,0,90,0
268265.0,0,375,0,90,0
268332.0,0,375,0,91,0
268974.0,0,376,0,91,0
268991.0,0,377,0,91,0
269033.0,0,378,0,91,0
269275.0,0,379,0,91,0
269367.0,0,380,0,91,0
269584.0,0,381,0,91,0
269725.0,0,382,0,91,0
273947.0,0,383,0,91,0
274040.0,0,383,0,92,0
274090.0,0,384,0,92,0
274257.0,0,384,0,93,0
274849.0,0,385,0,93,0
274941.0,0,386,0,93,0
274991.0,0,386,0,94,0
275224.0,0,387,0,94,0
275249.0,0,388,0,94,0
275325.0,0,389,0,94,0
275391.0,0,389,0,95,0
275608.0,0,390,0,95,0
276443.0,0,390,0,96,0
277828.0,0,391,0,96,0
277894.0,0,392,0,96,0
277978.0,0,393,0,96,0
278237.0,0,394,0,96,0
280890.0,0,395,0,96,0
280974.0,0,396,0,96,0
283620.0,0,397,0,96,0
286531.0,0,398,0,96,0
286548.0,0,399,0,96,0
286681.0,0,399,0,97,0
289803.0,0,400,0,97,0
290429.0,0,401,0,97,0
290545.0,0,402,0,97,0
290604.0,0,403,0,97,0
290621.0,0,404,0,97,0
291221.0,0,405,0,97,0
291647.0,0,406,0,97,0
294158.0,0,407,0,97,0
294233.0,0,408,0,97,0
295610.0,0,409,0,97,0
297688.0,0,410,0,97,0
297755.0,0,411,0,97,0
297771.0,0,412,0,97,0
297830.0,0,413,0,97,0
297914.0,0,414,0,97,0
298156.0,0,415,0,97,0
298323.0,0,415,0,98,0
298423.0,0,416,0,98,0
299541.0,0,417,0,98,0
299716.0,0,418,0,98,0
299733.0,0,419,0,98,0
299975.0,0,420,0,98,0
300327.0,0,421,0,98,0
300453.0,0,421,0,99,0
300512.0,0,422,0,99,0
303992.0,0,423,0,99,0
304092.0,0,424,0,99,0
305794.0,0,424,0,100,0
306578.0,0,425,0,100,0
306611.0,0,425,0,101,0
306711.0,0,426,0,101,0
306745.0,0,427,0,101,0
306803.0,0,427,0,102,0
309490.0,0,427,0,103,0
309932.0,0,428,0,103,0
310525.0,0,429,0,103,0
310625.0,0,430,0,103,0
313504.0,0,430,0,104,0
313537.0,0,431,0,104,0
313596.0,0,432,0,104,0
313988.0,0,432,0,105,0
314022.0,0,433,0,105,0
314272.0,0,433,0,106,0
314305.0,0,434,0,106,0
315123.0,0,434,0,107,0
315214.0,0,435,0,107,0
315314.0,0,436,0,107,0
315598.0,0,437,0,107,0
316658.0,0,438,0,107,0
316750.0,0,438,0,108,0
316842.0,0,439,0,108,0
318285.0,0,440,0,108,0
318444.0,0,441,0,108,0
318619.0,0,442,0,108,0
318719.0,0,443,0,108,0
318786.0,0,444,0,108,0
319462.0,0,445,0,108,0
319595.0,0,446,0,108,0
319613.0,0,447,0,108,0
319679.0,0,448,0,108,0
320122.0,0,449,0,108,0
320372.0,0,450,0,108,0
320455.0,0,451,0,108,0
320555.0,0,452,0,108,0
320630.0,0,453,0,108,0
320655.0,0,454,0,108,0
320722.0,0,454,0,109,0
320964.0,0,455,0,109,0
320981.0,0,456,0,109,0
320997.0,0,457,0,109,0
321047.0,0,458,0,109,0
321114.0,0,459,0,109,0
321198.0,0,460,0,109,0
321248.0,0,461,0,109,0
321264.0,0,462,0,109,0
321456.0,0,463,0,109,0
321531.0,0,463,0,110,0
321598.0,0,464,0,110,0
321615.0,0,465,0,110,0
321665.0,0,466,0,110,0
321915.0,0,466,0,111,0
321999.0,0,467,0,111,0
323008.0,0,468,0,111,0
323201.0,0,468,0,112,0
323217.0,0,469,0,112,0
323476.0,0,470,0,112,0
323610.0,0,471,0,112,0
323627.0,0,472,0,112,0
323760.0,0,472,0,113,0
323810.0,0,473,0,113,0
324978.0,0,474,0,113,0
325012.0,0,475,0,113,0
325036.0,0,476,0,113,0
325053.0,0,477,0,113,0
325078.0,0,478,0,113,0
325337.0,0,478,0,114,0
326764.0,0,479,0,114,0
326830.0,0,480,0,114,0
326905.0,0,481,0,114,0
327092.0,0,482,0,114,0
327615.0,0,483,0,114,0
327890.0,0,484,0,114,0
328574.0,0,485,0,114,0
331562.0,0,486,0,114,0
331579.0,0,487,0,114,0
331696.0,0,488,0,114,0
331996.0,0,489,0,114,0
332063.0,0,490,0,114,0
332097.0,0,491,0,114,0
332113.0,0,492,0,114,0
335460.0,0,493,0,114,0
338281.0,0,493,0,115,0
341585.0,0,494,0,115,0
341702.0,0,495,0,115,0
341835.0,0,496,0,115,0
341927.0,0,497,0,115,0
341977.0,0,498,0,115,0
342036.0,0,499,0,115,0
342194.0,0,499,0,116,0
342295.0,0,500,0,116,0
342361.0,0,501,0,116,0
342378.0,0,502,0,116,0
342603.0,0,503,0,116,0
342712.0,0,504,0,116,0
342745.0,0,504,0,117,0
342804.0,0,505,0,117,0
343096.0,0,506,0,117,0
343480.0,0,507,0,117,0
343906.0,0,508,0,117,0
344248.0,0,509,0,117,0
344390.0,0,510,0,117,0
344548.0,0,511,0,117,0
344598.0,0,512,0,117,0
344932.0,0,513,0,117,0
348837.0,0,514,0,117,0
348879.0,0,514,0,118,0
349004.0,0,515,0,118,0
349138.0,0,515,0,119,0
349346.0,0,516,0,119,0
349689.0,0,517,0,119,0
350056.0,0,518,0,119,0
350423.0,0,519,0,119,0
350532.0,0,519,0,120,0
351842.0,0,520,0,120,0
357868.0,0,521,0,120,0
358043.0,0,522,0,120,0
359806.0,0,523,0,120,0
359872.0,0,524,0,120,0
362134.0,0,525,0,120,0
362268.0,0,526,0,120,0
362651.0,0,527,0,120,0
362810.0,0,528,0,120,0
363979.0,0,529,0,120,0
364129.0,0,529,0,121,0
365289.0,0,530,0,121,0
365664.0,0,531,0,121,0
365697.0,0,532,0,121,0
366106.0,0,533,0,121,0
366298.0,0,534,0,121,0
366749.0,0,535,0,121,0
366916.0,0,535,0,122,0
368402.0,0,535,0,123,0
370614.0,0,536,0,123,0
370797.0,0,537,0,123,0
370872.0,0,537,0,124,0
370981.0,0,538,0,124,0
371056.0,0,539,0,124,0
371123.0,0,540,0,124,0
371206.0,0,541,0,124,0
373918.0,0,542,0,124,0
374085.0,0,543,0,124,0
374152.0,0,544,0,124,0
375387.0,0,545,0,124,0
375538.0,0,546,0,124,0
375638.0,0,547,0,124,0
376422.0,0,548,0,124,0
376489.0,0,549,0,124,0
376522.0,0,550,0,124,0
376631.0,0,551,0,124,0
376706.0,0,552,0,124,0
376790.0,0,553,0,124,0
376823.0,0,554,0,124,0
377933.0,0,554,0,125,0
378049.0,0,555,0,125,0
378125.0,0,556,0,125,0
378258.0,0,557,0,125,0
378275.0,0,558,0,125,0
394335.0,0,559,0,125,0
394852.0,0,560,0,125,0
395336.0,0,561,0,125,0
395469.0,0,561,0,126,0
395611.0,0,562,0,126,0
397005.0,0,563,0,126,0
397071.0,0,564,0,126,0
397105.0,0,564,0,127,0
397197.0,0,565,0,127,0
397246.0,0,566,0,127,0
397263.0,0,567,0,127,0
398223.0,0,568,0,127,0
398256.0,0,569,0,127,0
398315.0,0,570,0,127,0
398674.0,0,571,0,127,0
399116.0,0,572,0,127,0
399133.0,0,573,0,127,0
399250.0,0,573,0,128,0
399333.0,0,573,0,129,0
399350.0,0,574,0,129,0
399409.0,0,575,0,129,0
399434.0,0,576,0,129,0
399501.0,0,576,0,130,0
399575.0,0,577,0,130,0
399643.0,0,578,0,130,0
399692.0,0,579,0,130,0
399734.0,0,580,0,130,0
401687.0,0,581,0,130,0
401785.0,0,582,0,130,0
401828.0,0,583,0,130,0
401862.0,0,584,0,130,0
405675.0,0,585,0,130,0
405992.0,0,586,0,130,0
406042.0,0,587,0,130,0
406852.0,0,588,0,130,0
406886.0,0,589,0,130,0
406978.0,0,590,0,130,0
407011.0,0,591,0,130,0
407111.0,0,592,0,130,0
407303.0,0,593,0,130,0
407337.0,0,593,0,131,0
408672.0,0,593,0,132,0
408780.0,0,593,0,133,0
408939.0,0,594,0,133,0
409690.0,0,595,0,133,0
410149.0,0,596,0,133,0
410374.0,0,597,0,133,0
410508.0,0,598,0,133,0
410549.0,0,599,0,133,0
410650.0,0,600,0,133,0
410700.0,0,601,0,133,0
410833.0,0,601,0,134,0
410933.0,0,601,0,135,0
410967.0,0,602,0,135,0
413813.0,0,603,0,135,0
415682.0,0,604,0,135,0
416266.0,0,604,0,136,0
425631.0,0,605,0,136,0
426148.0,0,606,0,136,0
426231.0,0,607,0,136,0
426248.0,0,608,0,136,0
426465.0,0,608,0,137,0
426540.0,0,609,0,137,0
428685.0,0,610,0,137,0
428735.0,0,611,0,137,0
428752.0,0,612,0,137,0
428810.0,0,612,0,138,0
428852.0,0,613,0,138,0
428927.0,0,614,0,138,0
429010.0,0,615,0,138,0
429136.0,0,616,0,138,0
429210.0,0,617,0,138,0
430596.0,0,618,0,138,0
430880.0,0,619,0,138,0
430980.0,0,620,0,138,0
431088.0,0,620,0,139,0
431188.0,0,621,0,139,0
432073.0,0,622,0,139,0
432423.0,0,623,0,139,0
432473.0,0,624,0,139,0
432490.0,0,625,0,139,0
432573.0,0,626,0,139,0
435403.0,0,627,0,139,0
435528.0,0,627,0,140,0
435661.0,0,628,0,140,0
435678.0,0,629,0,140,0
435720.0,0,630,0,140,0
435778.0,0,631,0,140,0
435795.0,0,632,0,140,0
435845.0,0,633,0,140,0
436037.0,0,634,0,140,0
436104.0,0,635,0,140,0
436154.0,0,636,0,140,0
436246.0,0,637,0,140,0
436437.0,0,638,0,140,0
436621.0,0,639,0,140,0
438431.0,0,640,0,140,0
445959.0,0,641,0,140,0
446034.0,0,642,0,140,0
447486.0,0,643,0,140,0
447561.0,0,644,0,140,0
447744.0,0,645,0,140,0
447761.0,0,646,0,140,0
448128.0,0,647,0,140,0
448363.0,0,647,0,141,0
448412.0,0,647,0,142,0
448462.0,0,648,0,142,0
448513.0,0,649,0,142,0
454359.0,0,650,0,142,0
454433.0,0,651,0,142,0
454842.0,0,652,0,142,0
454917.0,0,653,0,142,0
454934.0,0,654,0,142,0
455220.0,0,655,0,142,0
458124.0,0,655,0,143,0
458157.0,0,655,0,144,0
458174.0,0,656,0,144,0
458399.0,0,657,0,144,0
458816.0,0,658,0,144,0
458842.0,0,658,0,145,0
459467.0,0,659,0,145,0
459551.0,0,660,0,145,0
459751.0,0,661,0,145,0
459943.0,0,662,0,145,0
460051.0,0,663,0,145,0
460118.0,0,664,0,145,0
460151.0,0,665,0,145,0
460193.0,0,665,0,146,0
460285.0,0,666,0,146,0
461069.0,0,667,0,146,0
461127.0,0,668,0,146,0
461311.0,0,668,0,147,0
461854.0,0,668,0,148,0
462095.0,0,669,0,148,0
462237.0,0,670,0,148,0
463522.0,0,671,0,148,0
463582.0,0,672,0,148,0
463665.0,0,673,0,148,0
463806.0,0,673,0,149,0
463840.0,0,674,0,149,0
464365.0,0,675,0,149,0
464382.0,0,676,0,149,0
465508.0,0,677,0,149,0
465709.0,0,678,0,149,0
465759.0,0,679,0,149,0
466009.0,0,680,0,149,0
466326.0,0,681,0,149,0
466568.0,0,682,0,149,0
466651.0,0,683,0,149,0
466760.0,0,684,0,149,0
467085.0,0,685,0,149,0
467102.0,0,686,0,149,0
467119.0,0,686,0,150,0
467169.0,0,686,0,151,0
467236.0,0,686,0,152,0
467386.0,0,687,0,152,0
467427.0,0,688,0,152,0
467536.0,0,689,0,152,0
467602.0,0,689,0,153,0
467636.0,0,690,0,153,0
467669.0,0,691,0,153,0
467744.0,0,692,0,153,0
467761.0,0,693,0,153,0
467861.0,0,693,0,154,0
467878.0,0,694,0,154,0
467945.0,0,695,0,154,0
468086.0,0,696,0,154,0
469389.0,0,697,0,154,0
469555.0,0,698,0,154,0
469672.0,0,699,0,154,0
469872.0,0,700,0,154,0
470056.0,0,701,0,154,0
470156.0,0,702,0,154,0
470173.0,0,703,0,154,0
470248.0,0,704,0,154,0
470398.0,0,705,0,154,0
470623.0,0,706,0,154,0
470690.0,0,707,0,154,0
471600.0,0,708,0,154,0
471676.0,0,709,0,154,0
471775.0,0,710,0,154,0
472009.0,0,710,0,155,0
473269.0,0,711,0,155,0
473394.0,0,712,0,155,0
473794.0,0,713,0,155,0
473844.0,0,714,0,155,0
473894.0,0,715,0,155,0
473978.0,0,715,0,156,0
474604.0,0,716,0,156,0
474695.0,0,717,0,156,0
474712.0,0,718,0,156,0
474896.0,0,719,0,156,0
474913.0,0,719,0,157,0
475113.0,0,720,0,157,0
475188.0,0,721,0,157,0
475288.0,0,721,0,158,0
475321.0,0,722,0,158,0
475371.0,0,723,0,158,0
475455.0,0,723,0,159,0
475588.0,0,724,0,159,0
475680.0,0,725,0,159,0
475697.0,0,726,0,159,0
475772.0,0,727,0,159,0
475939.0,0,728,0,159,0
476005.0,0,729,0,159,0
476072.0,0,729,0,160,0
476089.0,0,730,0,160,0
476122.0,0,731,0,160,0
476139.0,0,731,0,161,0
476189.0,0,732,0,161,0
476206.0,0,733,0,161,0
476256.0,0,734,0,161,0
476398.0,0,734,0,162,0
476589.0,0,735,0,162,0
486372.0,0,736,0,162,0
486447.0,0,736,0,163,0
486864.0,0,736,0,164,0
486965.0,0,737,0,164,0
487098.0,0,738,0,164,0
487115.0,0,739,0,164,0
487874.0,0,739,0,165,0
487991.0,0,740,0,165,0
488041.0,0,741,0,165,0
488158.0,0,742,0,165,0
488183.0,0,742,0,166,0
488216.0,0,743,0,166,0
488325.0,0,744,0,166,0
488483.0,0,745,0,166,0
488533.0,0,746,0,166,0
488642.0,0,747,0,166,0
488834.0,0,748,0,166,0
490044.0,0,748,0,167,0
490169.0,0,749,0,167,0
490202.0,0,750,0,167,0
490711.0,0,751,0,167,0
490819.0,0,752,0,167,0
490869.0,0,753,0,167,0
491178.0,0,754,0,167,0
491229.0,0,755,0,167,0
491303.0,0,756,0,167,0
491320.0,0,757,0,167,0
491337.0,0,757,0,168,0
491570.0,0,757,0,169,0
491679.0,0,757,0,170,0
511123.0,0,758,0,170,0
511240.0,0,759,0,170,0
511274.0,0,760,0,170,0
511307.0,0,761,0,170,0
511357.0,0,762,0,170,0
511491.0,0,763,0,170,0
511691.0,0,764,0,170,0
512075.0,0,765,0,170,0
512166.0,0,766,0,170,0
512483.0,0,767,0,170,0
517014.0,0,768,0,170,0
517048.0,0,769,0,170,0
517148.0,0,770,0,170,0
517231.0,0,771,0,170,0
517273.0,0,772,0,170,0
520294.0,0,773,0,170,0
520402.0,0,774,0,170,0
520603.0,0,775,0,170,0
520669.0,0,776,0,170,0
520686.0,0,777,0,170,0
520761.0,0,778,0,170,0
521095.0,0,779,0,170,0
521128.0,0,780,0,170,0
521187.0,0,781,0,170,0
521228.0,0,782,0,170,0
521278.0,0,783,0,170,0
521520.0,0,784,0,170,0
521687.0,0,785,0,170,0
521721.0,0,786,0,170,0
521737.0,0,787,0,170,0
521812.0,0,787,0,171,0
521988.0,0,788,0,171,0
522096.0,0,789,0,171,0
522138.0,0,790,0,171,0
522205.0,0,790,0,172,0
522338.0,0,790,0,173,0
524315.0,0,791,0,173,0
524391.0,0,792,0,173,0
524441.0,0,792,0,174,0
524516.0,0,793,0,174,0
524549.0,0,794,0,174,0
524616.0,0,795,0,174,0
524641.0,0,796,0,174,0
524741.0,0,797,0,174,0
524866.0,0,798,0,174,0
524883.0,0,799,0,174,0
524941.0,0,800,0,174,0
525100.0,0,801,0,174,0
525150.0,0,802,0,174,0
525184.0,0,802,0,175,0
525426.0,0,803,0,175,0
525509.0,0,804,0,175,0
525559.0,0,805,0,175,0
525659.0,0,806,0,175,0
525735.0,0,807,0,175,0
525818.0,0,808,0,175,0
525852.0,0,809,0,175,0
526151.0,0,810,0,175,0
526369.0,0,811,0,175,0
526410.0,0,812,0,175,0
526485.0,0,813,0,175,0
526552.0,0,813,0,176,0
532193.0,0,814,0,176,0
532393.0,0,815,0,176,0
532409.0,0,816,0,176,0
532627.0,0,817,0,176,0
532685.0,0,818,0,176,0
532760.0,0,819,0,176,0
532951.0,0,820,0,176,0
532977.0,0,820,0,177,0
533536.0,0,821,0,177,0
533669.0,0,822,0,177,0
533694.0,0,823,0,177,0
533728.0,0,824,0,177,0
533778.0,0,824,0,178,0
533794.0,0,825,0,178,0
533861.0,0,826,0,178,0
533894.0,0,827,0,178,0
533912.0,0,828,0,178,0
533928.0,0,829,0,178,0
534012.0,0,830,0,178,0
534045.0,0,831,0,178,0
534079.0,0,832,0,178,0
534137.0,0,833,0,178,0
534163.0,0,834,0,178,0
534187.0,0,835,0,178,0
534321.0,0,836,0,178,0
534379.0,0,837,0,178,0
534421.0,0,838,0,178,0
534479.0,0,839,0,178,0
534563.0,0,839,0,179,0
544331.0,0,840,0,179,0
544365.0,0,840,0,180,0
544464.0,0,841,0,180,0
544723.0,0,841,0,181,0
544856.0,0,842,0,181,0
544956.0,0,843,0,181,0
545048.0,0,844,0,181,0
545082.0,0,845,0,181,0
545098.0,0,845,0,182,0
545115.0,0,846,0,182,0
545675.0,0,847,0,182,0
546017.0,0,848,0,182,0
548503.0,0,849,0,182,0
548579.0,0,850,0,182,0
548670.0,0,850,0,183,0
549012.0,0,851,0,183,0
549029.0,0,852,0,183,0
549079.0,0,853,0,183,0
549162.0,0,854,0,183,0
549196.0,0,855,0,183,0
549346.0,0,855,0,184,0
549379.0,0,856,0,184,0
549688.0,0,856,0,185,0
549738.0,0,857,0,185,0
549813.0,0,858,0,185,0
549947.0,0,859,0,185,0
550248.0,0,860,0,185,0
550364.0,0,861,0,185,0
550648.0,0,862,0,185,0
550748.0,0,863,0,185,0
550798.0,0,864,0,185,0
550956.0,0,865,0,185,0
551057.0,0,866,0,185,0
551123.0,0,867,0,185,0
566953.0,0,868,0,185,0
566995.0,0,869,0,185,0
567045.0,0,870,0,185,0
567079.0,0,871,0,185,0
567170.0,0,872,0,185,0
567496.0,0,872,0,186,0
567546.0,0,872,0,187,0
567771.0,0,873,0,187,0
567788.0,0,873,0,188,0
568139.0,0,874,0,188,0
568339.0,0,875,0,188,0
568356.0,0,876,0,188,0
568398.0,0,876,0,189,0
568481.0,0,876,0,190,0
568564.0,0,877,0,190,0
568665.0,0,878,0,190,0
568706.0,0,878,0,191,0
568731.0,0,879,0,191,0
569048.0,0,880,0,191,0
569190.0,0,881,0,191,0
569307.0,0,882,0,191,0
569365.0,0,883,0,191,0
569399.0,0,884,0,191,0
569516.0,0,885,0,191,0
569566.0,0,885,0,192,0
569774.0,0,886,0,192,0
570008.0,0,887,0,192,0
570083.0,0,888,0,192,0
570217.0,0,889,0,192,0
570233.0,0,890,0,192,0
570300.0,0,891,0,192,0
570317.0,0,892,0,192,0
570450.0,0,893,0,192,0
570467.0,0,894,0,192,0
570500.0,0,895,0,192,0
570583.0,0,896,0,192,0
570617.0,0,897,0,192,0
570634.0,0,897,0,193,0
570700.0,0,898,0,193,0
570784.0,0,899,0,193,0
570867.0,0,900,0,193,0
570901.0,0,901,0,193,0
571193.0,0,902,0,193,0
571301.0,0,903,0,193,0
571351.0,0,904,0,193,0
571384.0,0,905,0,193,0
571468.0,0,906,0,193,0
571551.0,0,907,0,193,0
571601.0,0,908,0,193,0
571754.0,0,909,0,193,0
571789.0,0,910,0,193,0
572081.0,0,911,0,193,0
572435.0,0,912,0,193,0
572899.0,0,913,0,193,0
573015.0,0,914,0,193,0
573083.0,0,915,0,193,0
573144.0,0,916,0,193,0
573236.0,0,917,0,193,0
573295.0,0,918,0,193,0
573378.0,0,919,0,193,0
573428.0,0,920,0,193,0
573503.0,0,921,0,193,0
573787.0,0,922,0,193,0
573887.0,0,923,0,193,0
573937.0,0,924,0,193,0
575330.0,0,925,0,193,0
575505.0,0,926,0,193,0
575806.0,0,926,0,194,0
575965.0,0,927,0,194,0
576006.0,0,928,0,194,0
576048.0,0,929,0,194,0
576148.0,0,930,0,194,0
576223.0,0,930,0,195,0
576273.0,0,931,0,195,0
576340.0,0,932,0,195,0
576382.0,0,933,0,195,0
576440.0,0,934,0,195,0
576490.0,0,935,0,195,0
576649.0,0,936,0,195,0
577008.0,0,937,0,195,0
585795.0,0,938,0,195,0
585853.0,0,939,0,195,0
585995.0,0,940,0,195,0
586571.0,0,941,0,195,0
586654.0,0,941,0,196,0
586796.0,0,942,0,196,0
586913.0,0,942,0,197,0
586963.0,0,943,0,197,0
587314.0,0,944,0,197,0
587330.0,0,944,0,198,0
587414.0,0,944,0,199,0
587430.0,0,945,0,199,0
587589.0,0,946,0,199,0
587639.0,0,947,0,199,0
587714.0,0,948,0,199,0
587831.0,0,949,0,199,0
588081.0,0,950,0,199,0
588223.0,0,951,0,199,0
588298.0,0,951,0,200,0
588331.0,0,952,0,200,0
588365.0,0,953,0,200,0
588465.0,0,954,0,200,0
597319.0,0,955,0,200,0
597352.0,0,956,0,200,0
597436.0,0,957,0,200,0
597527.0,0,957,0,201,0
597611.0,0,958,0,201,0
597639.0,0,959,0,201,0
598696.0,0,960,0,201,0
598738.0,0,961,0,201,0
598771.0,0,962,0,201,0
598912.0,0,963,0,201,0
599038.0,0,964,0,201,0
599063.0,0,965,0,201,0
599096.0,0,966,0,201,0
599163.0,0,967,0,201,0
599639.0,0,968,0,201,0
599714.0,0,968,0,202,0
599906.0,0,969,0,202,0
601650.0,0,970,0,202,0
601934.0,0,971,0,202,0
602067.0,0,972,0,202,0
602242.0,0,973,0,202,0
602292.0,0,974,0,202,0
602367.0,0,975,0,202,0
602401.0,0,976,0,202,0
602417.0,0,977,0,202,0
602651.0,0,978,0,202,0
602977.0,0,979,0,202,0
603027.0,0,979,0,203,0
603168.0,0,980,0,203,0
603235.0,0,981,0,203,0
603359.0,0,982,0,203,0
603393.0,0,983,0,203,0
603493.0,0,984,0,203,0
603584.0,0,985,0,203,0
603777.0,0,985,0,204,0
603985.0,0,986,0,204,0
604069.0,0,987,0,204,0
604168.0,0,988,0,204,0
604294.0,0,989,0,204,0
604436.0,0,990,0,204,0
604486.0,0,991,0,204,0
604536.0,0,992,0,204,0
605445.0,0,993,0,204,0
605604.0,0,994,0,204,0
605671.0,0,994,0,205,0
605821.0,0,995,0,205,0
605887.0,0,996,0,205,0
606021.0,0,997,0,205,0
606430.0,0,997,0,206,0
606463.0,0,998,0,206,0
606597.0,0,999,0,206,0
606664.0,0,1000,0,206,0
606680.0,0,1001,0,206,0
606930.0,0,1002,0,206,0
606956.0,0,1003,0,206,0
606989.0,0,1003,0,207,0
607022.0,0,1004,0,207,0
607123.0,0,1005,0,207,0
607448.0,0,1006,0,207,0
607532.0,0,1006,0,208,0
607782.0,0,1007,0,208,0
608166.0,0,1008,0,208,0
608374.0,0,1009,0,208,0
608424.0,0,1010,0,208,0
608466.0,0,1011,0,208,0
608533.0,0,1012,0,208,0
610519.0,0,1013,0,208,0
610569.0,0,1014,0,208,0
610652.0,0,1015,0,208,0
610677.0,0,1016,0,208,0
610744.0,0,1017,0,208,0
610802.0,0,1018,0,208,0
611061.0,0,1019,0,208,0
611128.0,0,1020,0,208,0
611328.0,0,1021,0,208,0
611378.0,0,1022,0,208,0
611428.0,0,1023,0,208,0
611470.0,0,1024,0,208,0
611579.0,0,1025,0,208,0
611645.0,0,1026,0,208,0
611670.0,0,1027,0,208,0
611687.0,0,1028,0,208,0
611779.0,0,1028,0,209,0
611845.0,0,1029,0,209,0
614682.0,0,1030,0,209,0
614716.0,0,1031,0,209,0
614816.0,0,1031,0,210,0
614899.0,0,1032,0,210,0
614991.0,0,1032,0,211,0
615024.0,0,1033,0,211,0
615108.0,0,1033,0,212,0
615175.0,0,1033,0,213,0
615459.0,0,1033,0,214,0
626281.0,0,1034,0,214,0
626415.0,0,1035,0,214,0
626724.0,0,1036,0,214,0
626782.0,0,1037,0,214,0
626832.0,0,1038,0,214,0
626848.0,0,1039,0,214,0
643212.0,0,1040,0,214,0
643378.0,0,1041,0,214,0
643462.0,0,1042,0,214,0
643504.0,0,1043,0,214,0
643670.0,0,1044,0,214,0
643737.0,0,1045,0,214,0
643770.0,0,1046,0,214,0
643821.0,0,1047,0,214,0
644096.0,0,1048,0,214,0
644163.0,0,1049,0,214,0
644221.0,0,1050,0,214,0
644321.0,0,1051,0,214,0
644347.0,0,1052,0,214,0
644480.0,0,1053,0,214,0
644580.0,0,1054,0,214,0
645398.0,0,1055,0,214,0
645414.0,0,1056,0,214,0
645473.0,0,1057,0,214,0
645581.0,0,1058,0,214,0
645623.0,0,1059,0,214,0
645765.0,0,1060,0,214,0
645807.0,0,1061,0,214,0
645840.0,0,1062,0,214,0
646082.0,0,1063,0,214,0
646174.0,0,1064,0,214,0
646215.0,0,1064,0,215,0
646249.0,0,1065,0,215,0
646372.0,0,1066,0,215,0
646407.0,0,1066,0,216,0
646616.0,0,1067,0,216,0
646632.0,0,1068,0,216,0
646666.0,0,1069,0,216,0
647308.0,0,1070,0,216,0
647325.0,0,1071,0,216,0
647426.0,0,1072,0,216,0
647492.0,0,1072,0,217,0
647793.0,0,1073,0,217,0
649804.0,0,1074,0,217,0
649854.0,0,1075,0,217,0
649954.0,0,1076,0,217,0
650046.0,0,1077,0,217,0
650121.0,0,1078,0,217,0
650238.0,0,1079,0,217,0
650555.0,0,1080,0,217,0
650630.0,0,1081,0,217,0
650713.0,0,1082,0,217,0
650814.0,0,1083,0,217,0
650872.0,0,1084,0,217,0
651055.0,0,1084,0,218,0
651322.0,0,1084,0,219,0
651397.0,0,1085,0,219,0
651473.0,0,1086,0,219,0
651506.0,0,1086,0,220,0
651631.0,0,1086,0,221,0
651648.0,0,1086,0,222,0
651748.0,0,1087,0,222,0
651840.0,0,1088,0,222,0
651965.0,0,1089,0,222,0
652082.0,0,1089,0,223,0
652174.0,0,1090,0,223,0
657574.0,0,1090,0,224,0
657708.0,0,1091,0,224,0
657775.0,0,1092,0,224,0
657866.0,0,1092,0,225,0
657983.0,0,1093,0,225,0
658084.0,0,1094,0,225,0
658150.0,0,1095,0,225,0
658201.0,0,1096,0,225,0
658284.0,0,1097,0,225,0
658384.0,0,1098,0,225,0
658409.0,0,1099,0,225,0
658493.0,0,1099,0,226,0
658568.0,0,1099,0,227,0
658710.0,0,1100,0,227,0
658843.0,0,1101,0,227,0
659260.0,0,1102,0,227,0
659410.0,0,1103,0,227,0
659578.0,0,1104,0,227,0
678415.0,0,1105,0,227,0
678507.0,0,1106,0,227,0
678607.0,0,1107,0,227,0
678699.0,0,1108,0,227,0
678741.0,0,1109,0,227,0
679008.0,0,1110,0,227,0
679041.0,0,1111,0,227,0
679074.0,0,1112,0,227,0
679141.0,0,1113,0,227,0
679224.0,0,1114,0,227,0
688720.0,0,1115,0,227,0
688779.0,0,1116,0,227,0
689079.0,0,1117,0,227,0
689129.0,0,1118,0,227,0
689238.0,0,1119,0,227,0
689296.0,0,1120,0,227,0
689346.0,0,1121,0,227,0
689396.0,0,1122,0,227,0
689505.0,0,1123,0,227,0
690439.0,0,1124,0,227,0
690456.0,0,1125,0,227,0
690506.0,0,1126,0,227,0
690556.0,0,1127,0,227,0
690798.0,0,1128,0,227,0
690831.0,0,1129,0,227,0
690881.0,0,1130,0,227,0
691156.0,0,1131,0,227,0
691189.0,0,1132,0,227,0
691365.0,0,1133,0,227,0
691440.0,0,1134,0,227,0
691573.0,0,1135,0,227,0
693010.0,0,1136,0,227,0
693110.0,0,1137,0,227,0
693294.0,0,1138,0,227,0
693352.0,0,1139,0,227,0
693477.0,0,1140,0,227,0
693494.0,0,1141,0,227,0
693553.0,0,1142,0,227,0
693711.0,0,1143,0,227,0
693786.0,0,1144,0,227,0
693820.0,0,1145,0,227,0
693920.0,0,1146,0,227,0
693945.0,0,1147,0,227,0
694011.0,0,1148,0,227,0
694078.0,0,1149,0,227,0
694095.0,0,1149,0,228,0
694254.0,0,1150,0,228,0
694279.0,0,1151,0,228,0
694304.0,0,1152,0,228,0
694437.0,0,1153,0,228,0
694662.0,0,1154,0,228,0
694704.0,0,1155,0,228,0
694721.0,0,1156,0,228,0
694904.0,0,1157,0,228,0
694929.0,0,1158,0,228,0
694980.0,0,1159,0,228,0
695029.0,0,1159,0,229,0
695088.0,0,1160,0,229,0
695180.0,0,1161,0,229,0
695246.0,0,1162,0,229,0
695263.0,0,1162,0,230,0
695330.0,0,1162,0,231,0
695363.0,0,1163,0,231,0
695497.0,0,1164,0,231,0
695530.0,0,1164,0,232,0
695572.0,0,1165,0,232,0
695597.0,0,1166,0,232,0
695622.0,0,1167,0,232,0
695689.0,0,1168,0,232,0
695789.0,0,1169,0,232,0
695872.0,0,1170,0,232,0
695889.0,0,1171,0,232,0
701647.0,0,1171,0,233,0
701730.0,0,1172,0,233,0
701780.0,0,1173,0,233,0
701855.0,0,1174,0,233,0
702389.0,0,1175,0,233,0
702589.0,0,1176,0,233,0
702681.0,0,1177,0,233,0
702748.0,0,1178,0,233,0
702957.0,0,1179,0,233,0
703023.0,0,1180,0,233,0
703115.0,0,1180,0,234,0
703182.0,0,1181,0,234,0
703252.0,0,1182,0,234,0
703390.0,0,1183,0,234,0
703457.0,0,1183,0,235,0
703549.0,0,1184,0,235,0
708114.0,0,1184,0,236,0
708790.0,0,1185,0,236,0
708806.0,0,1186,0,236,0
718010.0,0,1187,0,236,0
718035.0,0,1188,0,236,0
718327.0,0,1189,0,236,0
718394.0,0,1190,0,236,0
718502.0,0,1191,0,236,0
718519.0,0,1192,0,236,0
718769.0,0,1193,0,236,0
718953.0,0,1194,0,236,0
719303.0,0,1195,0,236,0
719395.0,0,1196,0,236,0
719562.0,0,1197,0,236,0
719729.0,0,1198,0,236,0
719846.0,0,1198,0,237,0
720497.0,0,1199,0,237,0
720513.0,0,1200,0,237,0
720588.0,0,1201,0,237,0
720755.0,0,1202,0,237,0
720805.0,0,1203,0,237,0
720864.0,0,1204,0,237,0
720939.0,0,1205,0,237,0
721231.0,0,1206,0,237,0
721322.0,0,1206,0,238,0
721364.0,0,1206,0,239,0
721448.0,0,1206,0,240,0
722349.0,0,1207,0,240,0
722483.0,0,1208,0,240,0
722700.0,0,1209,0,240,0
722783.0,0,1210,0,240,0
722808.0,0,1211,0,240,0
722858.0,0,1211,0,241,0
723117.0,0,1211,0,242,0
723184.0,0,1212,0,242,0
723242.0,0,1213,0,242,0
723284.0,0,1213,0,243,0
723325.0,0,1213,0,244,0
723559.0,0,1214,0,244,0
723684.0,0,1214,0,245,0
723726.0,0,1215,0,245,0
723826.0,0,1216,0,245,0
723926.0,0,1216,0,246,0
723993.0,0,1217,0,246,0
724202.0,0,1218,0,246,0
724452.0,0,1219,0,246,0
724477.0,0,1219,0,247,0
724510.0,0,1220,0,247,0
724579.0,0,1221,0,247,0
724847.0,0,1222,0,247,0
724947.0,0,1223,0,247,0
724963.0,0,1224,0,247,0
724980.0,0,1225,0,247,0
725080.0,0,1225,0,248,0
725164.0,0,1226,0,248,0
725189.0,0,1227,0,248,0
725214.0,0,1227,0,249,0
725297.0,0,1228,0,249,0
725339.0,0,1229,0,249,0
725406.0,0,1230,0,249,0
725422.0,0,1231,0,249,0
725497.0,0,1232,0,249,0
725573.0,0,1232,0,250,0
725614.0,0,1233,0,250,0
725756.0,0,1234,0,250,0
725864.0,0,1235,0,250,0
725898.0,0,1235,0,251,0
726156.0,0,1235,0,252,0
726273.0,0,1236,0,252,0
726407.0,0,1237,0,252,0
726440.0,0,1238,0,252,0
726457.0,0,1238,0,253,0
726498.0,0,1239,0,253,0
726632.0,0,1239,0,254,0
726857.0,0,1240,0,254,0
726983.0,0,1241,0,254,0
727066.0,0,1241,0,255,0
727141.0,0,1242,0,255,0
727183.0,0,1243,0,255,0
727233.0,0,1244,0,255,0
727366.0,0,1244,0,256,0
727400.0,0,1245,0,256,0
727433.0,0,1245,0,257,0
731071.0,0,1246,0,257,0
731197.0,0,1247,0,257,0
731322.0,0,1248,0,257,0
731355.0,0,1249,0,257,0
731380.0,0,1250,0,257,0
731489.0,0,1251,0,257,0
731556.0,0,1252,0,257,0
731580.0,0,1253,0,257,0
731631.0,0,1253,0,258,0
731714.0,0,1254,0,258,0
735627.0,0,1255,0,258,0
735719.0,0,1256,0,258,0
735736.0,0,1257,0,258,0
735819.0,0,1258,0,258,0
735853.0,0,1259,0,258,0
735945.0,0,1260,0,258,0
736086.0,0,1261,0,258,0
736237.0,0,1262,0,258,0
736278.0,0,1262,0,259,0
736445.0,0,1263,0,259,0
736545.0,0,1264,0,259,0
736645.0,0,1265,0,259,0
736770.0,0,1266,0,259,0
736820.0,0,1267,0,259,0
736937.0,0,1268,0,259,0
737187.0,0,1269,0,259,0
737321.0,0,1269,0,260,0
737371.0,0,1270,0,260,0
737530.0,0,1271,0,260,0
737597.0,0,1272,0,260,0
737688.0,0,1273,0,260,0
737780.0,0,1274,0,260,0
737880.0,0,1274,0,261,0
737931.0,0,1275,0,261,0
738006.0,0,1276,0,261,0
738289.0,0,1277,0,261,0
738339.0,0,1278,0,261,0
738389.0,0,1278,0,262,0
738456.0,0,1279,0,262,0
738473.0,0,1279,0,263,0
738581.0,0,1280,0,263,0
738632.0,0,1280,0,264,0
738648.0,0,1281,0,264,0
755806.0,0,1282,0,264,0
755890.0,0,1283,0,264,0
755965.0,0,1284,0,264,0
756429.0,0,1285,0,264,0
756695.0,0,1286,0,264,0
756845.0,0,1287,0,264,0
757178.0,0,1288,0,264,0
757332.0,0,1289,0,264,0
757783.0,0,1290,0,264,0
759335.0,0,1291,0,264,0
759861.0,0,1292,0,264,0
759977.0,0,1293,0,264,0
760086.0,0,1294,0,264,0
760270.0,0,1295,0,264,0
760303.0,0,1296,0,264,0
760394.0,0,1297,0,264,0
760470.0,0,1298,0,264,0
760587.0,0,1299,0,264,0
763241.0,0,1300,0,264,0
763415.0,0,1301,0,264,0
763482.0,0,1302,0,264,0
763583.0,0,1302,0,265,0
763841.0,0,1302,0,266,0
763875.0,0,1303,0,266,0
764008.0,0,1304,0,266,0
764191.0,0,1305,0,266,0
764208.0,0,1306,0,266,0
764242.0,0,1307,0,266,0
764392.0,0,1308,0,266,0
764559.0,0,1309,0,266,0
764625.0,0,1310,0,266,0
764701.0,0,1311,0,266,0
764751.0,0,1312,0,266,0
764851.0,0,1313,0,266,0
770291.0,0,1314,0,266,0
770358.0,0,1315,0,266,0
770392.0,0,1315,0,267,0
770642.0,0,1316,0,267,0
770659.0,0,1317,0,267,0
770934.0,0,1318,0,267,0
771084.0,0,1319,0,267,0
771118.0,0,1320,0,267,0
778653.0,0,1321,0,267,0
778719.0,0,1322,0,267,0
778853.0,0,1323,0,267,0
778920.0,0,1324,0,267,0
779003.0,0,1325,0,267,0
779053.0,0,1326,0,267,0
779070.0,0,1327,0,267,0
779153.0,0,1328,0,267,0
779187.0,0,1329,0,267,0
779304.0,0,1329,0,268,0
779445.0,0,1329,0,269,0
779512.0,0,1330,0,269,0
779546.0,0,1330,0,270,0
779562.0,0,1331,0,270,0
779621.0,0,1332,0,270,0
779637.0,0,1333,0,270,0
779788.0,0,1333,0,271,0
779854.0,0,1334,0,271,0
779921.0,0,1335,0,271,0
779946.0,0,1336,0,271,0
780046.0,0,1336,0,272,0
780096.0,0,1337,0,272,0
780130.0,0,1338,0,272,0
780363.0,0,1339,0,272,0
780463.0,0,1339,0,273,0
780530.0,0,1340,0,273,0
780630.0,0,1341,0,273,0
780656.0,0,1342,0,273,0
782216.0,0,1343,0,273,0
782432.0,0,1344,0,273,0
782449.0,0,1345,0,273,0
782483.0,0,1346,0,273,0
782741.0,0,1347,0,273,0
782933.0,0,1348,0,273,0
783083.0,0,1348,0,274,0
783100.0,0,1349,0,274,0
783117.0,0,1350,0,274,0
783142.0,0,1351,0,274,0
783159.0,0,1352,0,274,0
783217.0,0,1352,0,275,0
783634.0,0,1353,0,275,0
783784.0,0,1354,0,275,0
784110.0,0,1355,0,275,0
784177.0,0,1356,0,275,0
784193.0,0,1357,0,275,0
784260.0,0,1358,0,275,0
784318.0,0,1359,0,275,0
784369.0,0,1359,0,276,0
786146.0,0,1359,0,277,0
786221.0,0,1359,0,278,0
786271.0,0,1360,0,278,0
786372.0,0,1360,0,279,0
786455.0,0,1361,0,279,0
786488.0,0,1362,0,279,0
786530.0,0,1363,0,279,0
786588.0,0,1364,0,279,0
786664.0,0,1365,0,279,0
786764.0,0,1366,0,279,0
786780.0,0,1367,0,279,0
786839.0,0,1368,0,279,0
787081.0,0,1368,0,280,0
787114.0,0,1369,0,280,0
787181.0,0,1370,0,280,0
787197.0,0,1371,0,280,0
787281.0,0,1372,0,280,0
787298.0,0,1373,0,280,0
787356.0,0,1374,0,280,0
787373.0,0,1375,0,280,0
787464.0,0,1376,0,280,0
787481.0,0,1377,0,280,0
787506.0,0,1378,0,280,0
787548.0,0,1379,0,280,0
787565.0,0,1380,0,280,0
787656.0,0,1381,0,280,0
787732.0,0,1382,0,280,0
787840.0,0,1383,0,280,0
787890.0,0,1384,0,280,0
787924.0,0,1384,0,281,0
787949.0,0,1385,0,281,0
788010.0,0,1386,0,281,0
788082.0,0,1387,0,281,0
788107.0,0,1388,0,281,0
788124.0,0,1389,0,281,0
788165.0,0,1390,0,281,0
788182.0,0,1391,0,281,0
788224.0,0,1392,0,281,0
788241.0,0,1393,0,281,0
788257.0,0,1394,0,281,0
788442.0,0,1395,0,281,0
788492.0,0,1396,0,281,0
788576.0,0,1397,0,281,0
788592.0,0,1398,0,281,0
788642.0,0,1399,0,281,0
788801.0,0,1400,0,281,0
788968.0,0,1401,0,281,0
789051.0,0,1401,0,282,0
789068.0,0,1402,0,282,0
789335.0,0,1403,0,282,0
789469.0,0,1403,0,283,0
789544.0,0,1404,0,283,0
789636.0,0,1405,0,283,0
790220.0,0,1406,0,283,0
790237.0,0,1407,0,283,0
790788.0,0,1408,0,283,0
790804.0,0,1408,0,284,0
790821.0,0,1409,0,284,0
790930.0,0,1410,0,284,0
790963.0,0,1411,0,284,0
791088.0,0,1412,0,284,0
791105.0,0,1413,0,284,0
791138.0,0,1413,0,285,0
791172.0,0,1414,0,285,0
791263.0,0,1415,0,285,0
791314.0,0,1416,0,285,0
791338.0,0,1417,0,285,0
791422.0,0,1418,0,285,0
791506.0,0,1418,0,286,0
791572.0,0,1418,0,287,0
791606.0,0,1419,0,287,0
791680.0,0,1420,0,287,0
791772.0,0,1421,0,287,0
791806.0,0,1422,0,287,0
791898.0,0,1423,0,287,0
791948.0,0,1424,0,287,0
791981.0,0,1425,0,287,0
792165.0,0,1426,0,287,0
792215.0,0,1426,0,288,0
792273.0,0,1427,0,288,0
792457.0,0,1428,0,288,0
792631.0,0,1429,0,288,0
792724.0,0,1430,0,288,0
792740.0,0,1431,0,288,0
792774.0,0,1432,0,288,0
792816.0,0,1433,0,288,0
792882.0,0,1434,0,288,0
793116.0,0,1435,0,288,0
793250.0,0,1435,0,289,0
793325.0,0,1435,0,290,0
793433.0,0,1436,0,290,0
793491.0,0,1437,0,290,0
793608.0,0,1438,0,290,0
793750.0,0,1439,0,290,0
794309.0,0,1440,0,290,0
794334.0,0,1441,0,290,0
794443.0,0,1442,0,290,0
794493.0,0,1443,0,290,0
794927.0,0,1444,0,290,0
794960.0,0,1444,0,291,0
795010.0,0,1445,0,291,0
795035.0,0,1446,0,291,0
795094.0,0,1447,0,291,0
795135.0,0,1448,0,291,0
795219.0,0,1448,0,292,0
795327.0,0,1449,0,292,0
795428.0,0,1449,0,293,0
795461.0,0,1450,0,293,0
795611.0,0,1451,0,293,0
805192.0,0,1452,0,293,0
805401.0,0,1453,0,293,0
805434.0,0,1454,0,293,0
805484.0,0,1455,0,293,0
805601.0,0,1456,0,293,0
805643.0,0,1457,0,293,0
805735.0,0,1457,0,294,0
805935.0,0,1457,0,295,0
806052.0,0,1457,0,296,0
806252.0,0,1458,0,296,0
806286.0,0,1459,0,296,0
806327.0,0,1460,0,296,0
806452.0,0,1461,0,296,0
806469.0,0,1462,0,296,0
806503.0,0,1463,0,296,0
806686.0,0,1464,0,296,0
806770.0,0,1465,0,296,0
806945.0,0,1466,0,296,0
807045.0,0,1467,0,296,0
807061.0,0,1467,0,297,0
807111.0,0,1467,0,298,0
807153.0,0,1468,0,298,0
807253.0,0,1469,0,298,0
807329.0,0,1470,0,298,0
807395.0,0,1471,0,298,0
807487.0,0,1472,0,298,0
807587.0,0,1473,0,298,0
807704.0,0,1474,0,298,0
807771.0,0,1475,0,298,0
807838.0,0,1476,0,298,0
807871.0,0,1477,0,298,0
809407.0,0,1478,0,298,0
809490.0,0,1479,0,298,0
809649.0,0,1479,0,299,0
809690.0,0,1480,0,299,0
809757.0,0,1481,0,299,0
809807.0,0,1482,0,299,0
809857.0,0,1483,0,299,0
809874.0,0,1484,0,299,0
809958.0,0,1485,0,299,0
810008.0,0,1486,0,299,0
810049.0,0,1486,0,300,0
814974.0,0,1487,0,300,0
815066.0,0,1488,0,300,0
815199.0,0,1488,0,301,0
815382.0,0,1489,0,301,0
815558.0,0,1490,0,301,0
815699.0,0,1490,0,302,0
815833.0,0,1491,0,302,0
815958.0,0,1492,0,302,0
816142.0,0,1493,0,302,0
816509.0,0,1494,0,302,0
816592.0,0,1494,0,303,0
816651.0,0,1495,0,303,0
816701.0,0,1496,0,303,0
816751.0,0,1497,0,303,0
817093.0,0,1498,0,303,0
817160.0,0,1499,0,303,0
817243.0,0,1500,0,303,0
817319.0,0,1500,0,304,0
817368.0,0,1500,0,305,0
825885.0,0,1501,0,305,0
826034.0,0,1502,0,305,0
826694.0,0,1503,0,305,0
827003.0,0,1504,0,305,0
827019.0,0,1504,0,306,0
827061.0,0,1505,0,306,0
827170.0,0,1506,0,306,0
827312.0,0,1507,0,306,0
827379.0,0,1508,0,306,0
827395.0,0,1509,0,306,0
831334.0,0,1510,0,306,0
831401.0,0,1510,0,307,0
831468.0,0,1511,0,307,0
831651.0,0,1512,0,307,0
832160.0,0,1512,0,308,0
832177.0,0,1513,0,308,0
832335.0,0,1514,0,308,0
832452.0,0,1514,0,309,0
832469.0,0,1515,0,309,0
832519.0,0,1516,0,309,0
832912.0,0,1516,0,310,0
833053.0,0,1517,0,310,0
833462.0,0,1517,0,311,0
833646.0,0,1517,0,312,0
833687.0,0,1518,0,312,0
833721.0,0,1519,0,312,0
833804.0,0,1520,0,312,0
833971.0,0,1521,0,312,0
834054.0,0,1522,0,312,0
834405.0,0,1523,0,312,0
836007.0,0,1524,0,312,0
836132.0,0,1525,0,312,0
836216.0,0,1526,0,312,0
836266.0,0,1527,0,312,0
836425.0,0,1528,0,312,0
836616.0,0,1529,0,312,0
836708.0,0,1530,0,312,0
836759.0,0,1531,0,312,0
837150.0,0,1532,0,312,0
837209.0,0,1533,0,312,0
837368.0,0,1533,0,313,0
837401.0,0,1534,0,313,0
837451.0,0,1534,0,314,0
837468.0,0,1535,0,314,0
837584.0,0,1536,0,314,0
838035.0,0,1537,0,314,0
838094.0,0,1538,0,314,0
838127.0,0,1539,0,314,0
838219.0,0,1540,0,314,0
838486.0,0,1540,0,315,0
838544.0,0,1541,0,315,0
838736.0,0,1542,0,315,0
838803.0,0,1542,0,316,0
838853.0,0,1543,0,316,0
838920.0,0,1544,0,316,0
838953.0,0,1544,0,317,0
839079.0,0,1545,0,317,0
839170.0,0,1545,0,318,0
839279.0,0,1546,0,318,0
839296.0,0,1547,0,318,0
839362.0,0,1548,0,318,0
839421.0,0,1549,0,318,0
840063.0,0,1550,0,318,0
840130.0,0,1551,0,318,0
840164.0,0,1551,0,319,0
840213.0,0,1552,0,319,0
840480.0,0,1552,0,320,0
840539.0,0,1553,0,320,0
840614.0,0,1553,0,321,0
840806.0,0,1554,0,321,0
840914.0,0,1554,0,322,0
840940.0,0,1555,0,322,0
841148.0,0,1556,0,322,0
841223.0,0,1556,0,323,0
841707.0,0,1557,0,323,0
841808.0,0,1557,0,324,0
846313.0,0,1558,0,324,0
848199.0,0,1559,0,324,0
848216.0,0,1560,0,324,0
848399.0,0,1561,0,324,0
849159.0,0,1562,0,324,0
849210.0,0,1562,0,325,0
849285.0,0,1563,0,325,0
851132.0,0,1564,0,325,0
851173.0,0,1565,0,325,0
851332.0,0,1566,0,325,0
851415.0,0,1567,0,325,0
851465.0,0,1568,0,325,0
851482.0,0,1569,0,325,0
851741.0,0,1570,0,325,0
851774.0,0,1571,0,325,0
851966.0,0,1572,0,325,0
852000.0,0,1572,0,326,0
852100.0,0,1573,0,326,0
856698.0,0,1574,0,326,0
864776.0,0,1575,0,326,0
864818.0,0,1576,0,326,0
864851.0,0,1577,0,326,0
864910.0,0,1578,0,326,0
865402.0,0,1579,0,326,0
865811.0,0,1580,0,326,0
865861.0,0,1581,0,326,0
865936.0,0,1582,0,326,0
866044.0,0,1582,0,327,0
866094.0,0,1583,0,327,0
866244.0,0,1584,0,327,0
868682.0,0,1585,0,327,0
868765.0,0,1586,0,327,0
869174.0,0,1586,0,328,0
869266.0,0,1587,0,328,0
869441.0,0,1588,0,328,0
869508.0,0,1588,0,329,0
869541.0,0,1589,0,329,0
869638.0,0,1590,0,329,0
869683.0,0,1591,0,329,0
869700.0,0,1591,0,330,0
869858.0,0,1591,0,331,0
870184.0,0,1591,0,332,0
870259.0,0,1592,0,332,0
870309.0,0,1593,0,332,0
870343.0,0,1594,0,332,0
870484.0,0,1595,0,332,0
870634.0,0,1596,0,332,0
870768.0,0,1597,0,332,0
870818.0,0,1598,0,332,0
870851.0,0,1599,0,332,0
880477.0,0,1600,0,332,0
880544.0,0,1601,0,332,0
880645.0,0,1601,0,333,0
880769.0,0,1602,0,333,0
880786.0,0,1603,0,333,0
880803.0,0,1604,0,333,0
880836.0,0,1605,0,333,0
880870.0,0,1605,0,334,0
880912.0,0,1606,0,334,0
880962.0,0,1606,0,335,0
881261.0,0,1606,0,336,0
881311.0,0,1607,0,336,0
881345.0,0,1608,0,336,0
881429.0,0,1609,0,336,0
881579.0,0,1609,0,337,0
881696.0,0,1609,0,338,0
881720.0,0,1610,0,338,0
881812.0,0,1611,0,338,0
881896.0,0,1612,0,338,0
881912.0,0,1613,0,338,0
881946.0,0,1613,0,339,0
882071.0,0,1614,0,339,0
882129.0,0,1615,0,339,0
882146.0,0,1616,0,339,0
882190.0,0,1616,0,340,0
882257.0,0,1617,0,340,0
882373.0,0,1617,0,341,0
882440.0,0,1618,0,341,0
882540.0,0,1619,0,341,0
882616.0,0,1620,0,341,0
882732.0,0,1620,0,342,0
882782.0,0,1621,0,342,0
882866.0,0,1622,0,342,0
882991.0,0,1622,0,343,0
886362.0,0,1622,0,344,0
886428.0,0,1623,0,344,0
886645.0,0,1623,0,345,0
886721.0,0,1623,0,346,0
886804.0,0,1624,0,346,0
886854.0,0,1625,0,346,0
886904.0,0,1626,0,346,0
886971.0,0,1627,0,346,0
887071.0,0,1628,0,346,0
887146.0,0,1629,0,346,0
887229.0,0,1630,0,346,0
887730.0,0,1631,0,346,0
887755.0,0,1632,0,346,0
887805.0,0,1633,0,346,0
887864.0,0,1634,0,346,0
887897.0,0,1635,0,346,0
887981.0,0,1636,0,346,0
892170.0,0,1637,0,346,0
892261.0,0,1638,0,346,0
892345.0,0,1639,0,346,0
892378.0,0,1639,0,347,0
892495.0,0,1640,0,347,0
895907.0,0,1641,0,347,0
896233.0,0,1642,0,347,0
896316.0,0,1643,0,347,0
896333.0,0,1644,0,347,0
896383.0,0,1644,0,348,0
896450.0,0,1644,0,349,0
896467.0,0,1645,0,349,0
896758.0,0,1646,0,349,0
896825.0,0,1646,0,350,0
896842.0,0,1646,0,351,0
897401.0,0,1647,0,351,0
897451.0,0,1648,0,351,0
897501.0,0,1649,0,351,0
903885.0,0,1650,0,351,0
903902.0,0,1651,0,351,0
903976.0,0,1652,0,351,0
904027.0,0,1653,0,351,0
904085.0,0,1654,0,351,0
904118.0,0,1654,0,352,0
904185.0,0,1655,0,352,0
904235.0,0,1656,0,352,0
904302.0,0,1657,0,352,0
904344.0,0,1658,0,352,0
904444.0,0,1659,0,352,0
904477.0,0,1659,0,353,0
904569.0,0,1660,0,353,0
904586.0,0,1661,0,353,0
904619.0,0,1661,0,354,0
905078.0,0,1662,0,354,0
905186.0,0,1663,0,354,0
905220.0,0,1664,0,354,0
905236.0,0,1665,0,354,0
905253.0,0,1666,0,354,0
905270.0,0,1667,0,354,0
905336.0,0,1668,0,354,0
905353.0,0,1669,0,354,0
905437.0,0,1669,0,355,0
905495.0,0,1670,0,355,0
905537.0,0,1670,0,356,0
905671.0,0,1671,0,356,0
905770.0,0,1672,0,356,0
905787.0,0,1673,0,356,0
905820.0,0,1674,0,356,0
905837.0,0,1675,0,356,0
905854.0,0,1676,0,356,0
905896.0,0,1677,0,356,0
905929.0,0,1678,0,356,0
905946.0,0,1679,0,356,0
906447.0,0,1680,0,356,0
906480.0,0,1681,0,356,0
906605.0,0,1682,0,356,0
906672.0,0,1682,0,357,0
906764.0,0,1683,0,357,0
906813.0,0,1684,0,357,0
906914.0,0,1685,0,357,0
906930.0,0,1686,0,357,0
906948.0,0,1687,0,357,0
906997.0,0,1687,0,358,0
909417.0,0,1688,0,358,0
909534.0,0,1689,0,358,0
909584.0,0,1690,0,358,0
909767.0,0,1691,0,358,0
909867.0,0,1692,0,358,0
910002.0,0,1693,0,358,0
910077.0,0,1694,0,358,0
910202.0,0,1695,0,358,0
910235.0,0,1695,0,359,0
910302.0,0,1696,0,359,0
910795.0,0,1696,0,360,0
910911.0,0,1697,0,360,0
911412.0,0,1698,0,360,0
911487.0,0,1699,0,360,0
911570.0,0,1700,0,360,0
911629.0,0,1701,0,360,0
923828.0,0,1702,0,360,0
923861.0,0,1703,0,360,0
945581.0,0,1704,0,360,0
945615.0,0,1705,0,360,0
945665.0,0,1706,0,360,0
945682.0,0,1707,0,360,0
945834.0,0,1708,0,360,0
945924.0,0,1709,0,360,0
945957.0,0,1710,0,360,0
945974.0,0,1711,0,360,0
946233.0,0,1711,0,361,0
946358.0,0,1711,0,362,0
946425.0,0,1712,0,362,0
946508.0,0,1713,0,362,0
946575.0,0,1713,0,363,0
963484.0,0,1714,0,363,0
963525.0,0,1715,0,363,0
963634.0,0,1716,0,363,0
963759.0,0,1717,0,363,0
963892.0,0,1717,0,364,0
963976.0,0,1718,0,364,0
964059.0,0,1719,0,364,0
964109.0,0,1720,0,364,0
964192.0,0,1721,0,364,0
964285.0,0,1722,0,364,0
964401.0,0,1723,0,364,0
964518.0,0,1723,0,365,0
976083.0,0,1724,0,365,0
976217.0,0,1725,0,365,0
976734.0,0,1726,0,365,0
981515.0,0,1727,0,365,0
981673.0,0,1728,0,365,0
981707.0,0,1729,0,365,0
981756.0,0,1730,0,365,0
981840.0,0,1731,0,365,0
981907.0,0,1732,0,365,0
981923.0,0,1733,0,365,0
982090.0,0,1734,0,365,0
982107.0,0,1735,0,365,0
982174.0,0,1735,0,366,0
982224.0,0,1736,0,366,0
982366.0,0,1737,0,366,0
982466.0,0,1738,0,366,0
982733.0,0,1739,0,366,0
982842.0,0,1739,0,367,0
982909.0,0,1739,0,368,0
983359.0,0,1740,0,368,0
983409.0,0,1741,0,368,0
984719.0,0,1741,0,369,0
984778.0,0,1741,0,370,0
984853.0,0,1741,0,371,0
985029.0,0,1742,0,371,0
985111.0,0,1743,0,371,0
985420.0,0,1744,0,371,0
985503.0,0,1745,0,371,0
992947.0,0,1746,0,371,0
993013.0,0,1747,0,371,0
993130.0,0,1748,0,371,0
993238.0,0,1749,0,371,0
993322.0,0,1750,0,371,0
993455.0,0,1751,0,371,0
1005925.0,0,1751,0,372,0
1006555.0,0,1752,0,372,0
1006621.0,0,1753,0,372,0
1008099.0,0,1754,0,372,0
1008149.0,0,1755,0,372,0
1008199.0,0,1755,0,373,0
1008299.0,0,1756,0,373,0
1008349.0,0,1757,0,373,0
1008399.0,0,1757,0,374,0
1010627.0,0,1758,0,374,0
1010685.0,0,1759,0,374,0
1010786.0,0,1760,0,374,0
1010994.0,0,1761,0,374,0
1011186.0,0,1762,0,374,0
1011228.0,0,1763,0,374,0
1011278.0,0,1764,0,374,0
1013097.0,0,1765,0,374,0
1013113.0,0,1766,0,374,0
1013147.0,0,1767,0,374,0
1013231.0,0,1768,0,374,0
1013380.0,0,1769,0,374,0
1013531.0,0,1770,0,374,0
1013631.0,0,1770,0,375,0
1013714.0,0,1770,0,376,0
1013748.0,0,1771,0,376,0
1013773.0,0,1772,0,376,0
1013789.0,0,1773,0,376,0
1013906.0,0,1774,0,376,0
1013956.0,0,1775,0,376,0
1014156.0,0,1776,0,376,0
1014207.0,0,1777,0,376,0
1014440.0,0,1778,0,376,0
1014532.0,0,1779,0,376,0
1014574.0,0,1779,0,377,0
1014765.0,0,1780,0,377,0
1014832.0,0,1781,0,377,0
1015016.0,0,1782,0,377,0
1015057.0,0,1783,0,377,0
1015107.0,0,1784,0,377,0
1015183.0,0,1785,0,377,0
1015258.0,0,1786,0,377,0
1015274.0,0,1787,0,377,0
1015316.0,0,1788,0,377,0
1015366.0,0,1788,0,378,0
1015391.0,0,1789,0,378,0
1015509.0,0,1790,0,378,0
1015734.0,0,1791,0,378,0
1015792.0,0,1792,0,378,0
1015834.0,0,1793,0,378,0
1015900.0,0,1794,0,378,0
1016151.0,0,1794,0,379,0
1016226.0,0,1795,0,379,0
1016268.0,0,1796,0,379,0
1016284.0,0,1797,0,379,0
1016334.0,0,1798,0,379,0
1017236.0,0,1798,0,380,0
1017394.0,0,1799,0,380,0
1017481.0,0,1800,0,380,0
1017553.0,0,1801,0,380,0
1017619.0,0,1802,0,380,0
1017778.0,0,1803,0,380,0
1020440.0,0,1804,0,380,0
1020456.0,0,1805,0,380,0
1020590.0,0,1806,0,380,0
1021269.0,0,1807,0,380,0
1021399.0,0,1808,0,380,0
1029278.0,0,1808,0,381,0
1029295.0,0,1809,0,381,0
1029370.0,0,1810,0,381,0
1029921.0,0,1811,0,381,0
1030138.0,0,1812,0,381,0
1030180.0,0,1813,0,381,0
1030288.0,0,1814,0,381,0
1030322.0,0,1815,0,381,0
1030355.0,0,1816,0,381,0
1030388.0,0,1817,0,381,0
1033803.0,0,1818,0,381,0
1033828.0,0,1819,0,381,0
1033862.0,0,1820,0,381,0
1033896.0,0,1821,0,381,0
1033929.0,0,1822,0,381,0
1033987.0,0,1823,0,381,0
1034187.0,0,1824,0,381,0
1034221.0,0,1825,0,381,0
1034254.0,0,1826,0,381,0
1034330.0,0,1827,0,381,0
1034396.0,0,1828,0,381,0
1034463.0,0,1829,0,381,0
1034538.0,0,1830,0,381,0
1034588.0,0,1831,0,381,0
1034605.0,0,1832,0,381,0
1034671.0,0,1833,0,381,0
1034821.0,0,1834,0,381,0
1034855.0,0,1834,0,382,0
1034922.0,0,1835,0,382,0
1034947.0,0,1836,0,382,0
1034980.0,0,1836,0,383,0
1035013.0,0,1837,0,383,0
1035047.0,0,1838,0,383,0
1035138.0,0,1839,0,383,0
1035172.0,0,1839,0,384,0
1035222.0,0,1840,0,384,0
1035289.0,0,1841,0,384,0
1035564.0,0,1842,0,384,0
1035656.0,0,1843,0,384,0
1035673.0,0,1843,0,385,0
1035714.0,0,1844,0,385,0
1035748.0,0,1845,0,385,0
1035764.0,0,1846,0,385,0
1035848.0,0,1847,0,385,0
1035873.0,0,1848,0,385,0
1035890.0,0,1849,0,385,0
1035931.0,0,1849,0,386,0
1036148.0,0,1850,0,386,0
1036165.0,0,1851,0,386,0
1036232.0,0,1852,0,386,0
1036332.0,0,1853,0,386,0
1036707.0,0,1854,0,386,0
1036774.0,0,1855,0,386,0
1036807.0,0,1856,0,386,0
1036891.0,0,1857,0,386,0
1036908.0,0,1858,0,386,0
1036966.0,0,1859,0,386,0
1037008.0,0,1860,0,386,0
1037275.0,0,1861,0,386,0
1037349.0,0,1862,0,386,0
1037383.0,0,1863,0,386,0
1037810.0,0,1864,0,386,0
1038177.0,0,1864,0,387,0
1038293.0,0,1864,0,388,0
1039921.0,0,1865,0,388,0
1040472.0,0,1866,0,388,0
1040630.0,0,1867,0,388,0
1040705.0,0,1867,0,389,0
1040830.0,0,1868,0,389,0
1040864.0,0,1869,0,389,0
1040947.0,0,1870,0,389,0
1041106.0,0,1871,0,389,0
1041122.0,0,1872,0,389,0
1041206.0,0,1873,0,389,0
1041289.0,0,1874,0,389,0
1041339.0,0,1875,0,389,0
1041356.0,0,1876,0,389,0
1041539.0,0,1876,0,390,0
1041681.0,0,1877,0,390,0
1041740.0,0,1878,0,390,0
1041815.0,0,1879,0,390,0
1041831.0,0,1880,0,390,0
1041940.0,0,1881,0,390,0
1042007.0,0,1882,0,390,0
1042249.0,0,1883,0,390,0
1042407.0,0,1883,0,391,0
1042591.0,0,1884,0,391,0
1042666.0,0,1885,0,391,0
1042766.0,0,1886,0,391,0
1042791.0,0,1887,0,391,0
1047447.0,0,1887,0,392,0
1047556.0,0,1887,0,393,0
1047589.0,0,1888,0,393,0
1047648.0,0,1889,0,393,0
1047940.0,0,1890,0,393,0
1048073.0,0,1891,0,393,0
1048215.0,0,1892,0,393,0
1048340.0,0,1893,0,393,0
1048440.0,0,1894,0,393,0
1048565.0,0,1895,0,393,0
1048649.0,0,1896,0,393,0
1048749.0,0,1897,0,393,0
1048908.0,0,1898,0,393,0
1048966.0,0,1899,0,393,0
1049116.0,0,1900,0,393,0
1049166.0,0,1901,0,393,0
1049450.0,0,1902,0,393,0
1051578.0,0,1902,0,394,0
1051611.0,0,1903,0,394,0
1051661.0,0,1903,0,395,0
1052103.0,0,1904,0,395,0
1052186.0,0,1905,0,395,0
1052379.0,0,1906,0,395,0
1052412.0,0,1907,0,395,0
1052495.0,0,1908,0,395,0
1052562.0,0,1909,0,395,0
1052629.0,0,1910,0,395,0
1052737.0,0,1911,0,395,0
1052804.0,0,1912,0,395,0
1052871.0,0,1913,0,395,0
1052979.0,0,1914,0,395,0
1053089.0,0,1915,0,395,0
1053297.0,0,1916,0,395,0
1055024.0,0,1916,0,396,0
1055074.0,0,1917,0,396,0
1066524.0,0,1918,0,396,0
1066624.0,0,1919,0,396,0
1066707.0,0,1920,0,396,0
1066741.0,0,1921,0,396,0
1066766.0,0,1921,0,397,0
1066824.0,0,1922,0,397,0
1067158.0,0,1922,0,398,0
1067342.0,0,1923,0,398,0
1067542.0,0,1924,0,398,0
1067617.0,0,1925,0,398,0
1067700.0,0,1926,0,398,0
1067759.0,0,1927,0,398,0
1082778.0,0,1928,0,398,0
1082887.0,0,1929,0,398,0
1082920.0,0,1929,0,399,0
1083004.0,0,1930,0,399,0
1083087.0,0,1931,0,399,0
1083333.0,0,1932,0,399,0
1083404.0,0,1933,0,399,0
1083471.0,0,1934,0,399,0
1083604.0,0,1935,0,399,0
1083746.0,0,1936,0,399,0
1083913.0,0,1937,0,399,0
1083946.0,0,1938,0,399,0
1083963.0,0,1939,0,399,0
1084322.0,0,1940,0,399,0
1084405.0,0,1941,0,399,0
1084439.0,0,1941,0,400,0
1084497.0,0,1942,0,400,0
1084539.0,0,1942,0,401,0
1084689.0,0,1943,0,401,0
1084814.0,0,1944,0,401,0
1093873.0,0,1945,0,401,0
1098805.0,0,1946,0,401,0
1098905.0,0,1946,0,402,0
1099022.0,0,1947,0,402,0
1099055.0,0,1948,0,402,0
1099122.0,0,1949,0,402,0
1099565.0,0,1950,0,402,0
1099681.0,0,1951,0,402,0
1099731.0,0,1952,0,402,0
1099781.0,0,1953,0,402,0
1099798.0,0,1954,0,402,0
1103061.0,0,1954,0,403,0
1103203.0,0,1954,0,404,0
1103311.0,0,1955,0,404,0
1103345.0,0,1956,0,404,0
1103478.0,0,1957,0,404,0
1103545.0,0,1958,0,404,0
1103762.0,0,1959,0,404,0
1121318.0,0,1960,0,404,0
1121410.0,0,1961,0,404,0
1121460.0,0,1962,0,404,0
1121660.0,0,1963,0,404,0
1121927.0,0,1964,0,404,0
1121994.0,0,1964,0,405,0
1122069.0,0,1965,0,405,0
1122111.0,0,1966,0,405,0
1122219.0,0,1967,0,405,0
1122303.0,0,1968,0,405,0
1125641.0,0,1968,0,406,0
1125691.0,0,1969,0,406,0
1125732.0,0,1970,0,406,0
1125991.0,0,1971,0,406,0
1126091.0,0,1972,0,406,0
1126124.0,0,1972,0,407,0
1126216.0,0,1973,0,407,0
1126316.0,0,1974,0,407,0
1127151.0,0,1975,0,407,0
1127234.0,0,1976,0,407,0
1127301.0,0,1977,0,407,0
1127335.0,0,1978,0,407,0
1127877.0,0,1978,0,408,0
1127993.0,0,1979,0,408,0
1128010.0,0,1980,0,408,0
1128027.0,0,1981,0,408,0
1128119.0,0,1982,0,408,0
1128185.0,0,1983,0,408,0
1128261.0,0,1984,0,408,0
1128344.0,0,1985,0,408,0
1128428.0,0,1986,0,408,0
1128486.0,0,1987,0,408,0
1128578.0,0,1988,0,408,0
1128612.0,0,1989,0,408,0
1128745.0,0,1990,0,408,0
1131941.0,0,1991,0,408,0
1131983.0,0,1991,0,409,0
1132074.0,0,1991,0,410,0
1132116.0,0,1992,0,410,0
1132200.0,0,1993,0,410,0
1132216.0,0,1994,0,410,0
1132442.0,0,1995,0,410,0
1132608.0,0,1996,0,410,0
1132692.0,0,1997,0,410,0
1132759.0,0,1997,0,411,0
1132800.0,0,1998,0,411,0
1132900.0,0,1999,0,411,0
1132950.0,0,2000,0,411,0
1135445.0,0,2001,0,411,0
1135529.0,0,2001,0,412,0
1135646.0,0,2002,0,412,0
1135663.0,0,2002,0,413,0
1135679.0,0,2003,0,413,0
1135888.0,0,2004,0,413,0
1135930.0,0,2004,0,414,0
1137407.0,0,2005,0,414,0
1137449.0,0,2006,0,414,0
1137599.0,0,2007,0,414,0
1137715.0,0,2008,0,414,0
1137799.0,0,2009,0,414,0
1138066.0,0,2010,0,414,0
1138116.0,0,2011,0,414,0
1147971.0,0,2012,0,414,0
1148071.0,0,2013,0,414,0
1148171.0,0,2014,0,414,0
1148188.0,0,2014,0,415,0
1148288.0,0,2015,0,415,0
1148397.0,0,2016,0,415,0
1148580.0,0,2017,0,415,0
1148639.0,0,2018,0,415,0
1148705.0,0,2019,0,415,0
1148749.0,0,2020,0,415,0
1148997.0,0,2021,0,415,0
1149047.0,0,2022,0,415,0
1149081.0,0,2023,0,415,0
1149098.0,0,2024,0,415,0
1149181.0,0,2025,0,415,0
1149198.0,0,2025,0,416,0
1149281.0,0,2026,0,416,0
1155226.0,0,2027,0,416,0
1155301.0,0,2028,0,416,0
1160182.0,0,2029,0,416,0
1160216.0,0,2030,0,416,0
1160499.0,0,2031,0,416,0
1160708.0,0,2032,0,416,0
1160766.0,0,2033,0,416,0
1160959.0,0,2033,0,417,0
1161058.0,0,2034,0,417,0
1161159.0,0,2035,0,417,0
1161225.0,0,2036,0,417,0
1161242.0,0,2037,0,417,0
1161300.0,0,2038,0,417,0
1161467.0,0,2038,0,418,0
1161484.0,0,2039,0,418,0
1161509.0,0,2040,0,418,0
1161542.0,0,2041,0,418,0
1161559.0,0,2042,0,418,0
1161609.0,0,2043,0,418,0
1161676.0,0,2044,0,418,0
1161710.0,0,2044,0,419,0
1161751.0,0,2045,0,419,0
1161843.0,0,2046,0,419,0
1161960.0,0,2047,0,419,0
1161985.0,0,2048,0,419,0
1167484.0,0,2049,0,419,0
1167501.0,0,2050,0,419,0
1168043.0,0,2051,0,419,0
1168110.0,0,2052,0,419,0
1168177.0,0,2053,0,419,0
1168277.0,0,2054,0,419,0
1168361.0,0,2055,0,419,0
1168427.0,0,2056,0,419,0
1168460.0,0,2057,0,419,0
1168677.0,0,2058,0,419,0
1168728.0,0,2059,0,419,0
1168761.0,0,2060,0,419,0
1168894.0,0,2061,0,419,0
1168945.0,0,2062,0,419,0
1169019.0,0,2063,0,419,0
1169078.0,0,2064,0,419,0
1169145.0,0,2065,0,419,0
1169245.0,0,2066,0,419,0
1169311.0,0,2067,0,419,0
1169420.0,0,2068,0,419,0
1169437.0,0,2069,0,419,0
1169495.0,0,2070,0,419,0
1169637.0,0,2071,0,419,0
1169754.0,0,2072,0,419,0
1169946.0,0,2073,0,419,0
1170046.0,0,2074,0,419,0
1170221.0,0,2075,0,419,0
1170304.0,0,2076,0,419,0
1170422.0,0,2077,0,419,0
1170522.0,0,2078,0,419,0
1170580.0,0,2079,0,419,0
1170647.0,0,2080,0,419,0
1170680.0,0,2080,0,420,0
1170705.0,0,2081,0,420,0
1170747.0,0,2082,0,420,0
1171581.0,0,2083,0,420,0
1171656.0,0,2084,0,420,0
1171706.0,0,2085,0,420,0
1171765.0,0,2086,0,420,0
1171832.0,0,2086,0,421,0
1171981.0,0,2087,0,421,0
1172048.0,0,2088,0,421,0
1172124.0,0,2089,0,421,0
1172199.0,0,2090,0,421,0
1172215.0,0,2091,0,421,0
1172274.0,0,2092,0,421,0
1172299.0,0,2093,0,421,0
1172399.0,0,2094,0,421,0
1172516.0,0,2094,0,422,0
1172599.0,0,2095,0,422,0
1172616.0,0,2095,0,423,0
1172674.0,0,2096,0,423,0
1172708.0,0,2097,0,423,0
1172725.0,0,2097,0,424,0
1172741.0,0,2098,0,424,0
1172766.0,0,2098,0,425,0
1172783.0,0,2099,0,425,0
1172891.0,0,2099,0,426,0
1172925.0,0,2100,0,426,0
1172958.0,0,2101,0,426,0
1173066.0,0,2102,0,426,0
1173100.0,0,2102,0,427,0
1173150.0,0,2103,0,427,0
1173233.0,0,2104,0,427,0
1173250.0,0,2105,0,427,0
1173467.0,0,2106,0,427,0
1173484.0,0,2107,0,427,0
1173617.0,0,2108,0,427,0
1177466.0,0,2109,0,427,0
1178034.0,0,2110,0,427,0
1178175.0,0,2110,0,428,0
1178209.0,0,2111,0,428,0
1178259.0,0,2112,0,428,0
1178317.0,0,2113,0,428,0
1178342.0,0,2114,0,428,0
1178509.0,0,2115,0,428,0
1178685.0,0,2115,0,429,0
1178868.0,0,2116,0,429,0
1179193.0,0,2117,0,429,0
1179243.0,0,2118,0,429,0
1179319.0,0,2119,0,429,0
1179352.0,0,2119,0,430,0
1179385.0,0,2120,0,430,0
1179452.0,0,2121,0,430,0
1179536.0,0,2122,0,430,0
1179569.0,0,2123,0,430,0
1179619.0,0,2124,0,430,0
1179686.0,0,2125,0,430,0
1179719.0,0,2125,0,431,0
1179769.0,0,2126,0,431,0
1179811.0,0,2127,0,431,0
1179878.0,0,2128,0,431,0
1180003.0,0,2129,0,431,0
1180053.0,0,2129,0,432,0
1180095.0,0,2130,0,432,0
1180186.0,0,2131,0,432,0
1180278.0,0,2132,0,432,0
1185285.0,0,2133,0,432,0
1185502.0,0,2134,0,432,0
1185569.0,0,2135,0,432,0
1185919.0,0,2136,0,432,0
1185978.0,0,2137,0,432,0
1186161.0,0,2138,0,432,0
1188064.0,0,2138,0,433,0
1199671.0,0,2138,0,434,0
1199905.0,0,2139,0,434,0
1199972.0,0,2140,0,434,0
1200064.0,0,2141,0,434,0
1200130.0,0,2142,0,434,0
1200230.0,0,2143,0,434,0
1200389.0,0,2144,0,434,0
1203009.0,0,2145,0,434,0
1203168.0,0,2146,0,434,0
1203309.0,0,2147,0,434,0
1203368.0,0,2148,0,434,0
1203401.0,0,2149,0,434,0
1203418.0,0,2149,0,435,0
1203502.0,0,2150,0,435,0
1203577.0,0,2151,0,435,0
1203660.0,0,2152,0,435,0
1203718.0,0,2153,0,435,0
1203785.0,0,2154,0,435,0
1203877.0,0,2154,0,436,0
1203944.0,0,2155,0,436,0
1204436.0,0,2156,0,436,0
1204528.0,0,2157,0,436,0
1204578.0,0,2158,0,436,0
1204620.0,0,2159,0,436,0
1204703.0,0,2160,0,436,0
1204786.0,0,2160,0,437,0
1204836.0,0,2161,0,437,0
1204870.0,0,2162,0,437,0
1204920.0,0,2163,0,437,0
1205070.0,0,2164,0,437,0
1209126.0,0,2165,0,437,0
1209351.0,0,2166,0,437,0
1209385.0,0,2166,0,438,0
1209460.0,0,2166,0,439,0
1209643.0,0,2167,0,439,0
1209710.0,0,2168,0,439,0
1209852.0,0,2168,0,440,0
1209994.0,0,2169,0,440,0
1210103.0,0,2170,0,440,0
1210194.0,0,2171,0,440,0
1210211.0,0,2172,0,440,0
1210253.0,0,2173,0,440,0
1210461.0,0,2174,0,440,0
1210478.0,0,2174,0,441,0
1210519.0,0,2175,0,441,0
1210536.0,0,2176,0,441,0
1210628.0,0,2177,0,441,0
1210695.0,0,2178,0,441,0
1210728.0,0,2179,0,441,0
1210762.0,0,2180,0,441,0
1210795.0,0,2181,0,441,0
1210945.0,0,2182,0,441,0
1215126.0,0,2183,0,441,0
1215143.0,0,2184,0,441,0
1215260.0,0,2185,0,441,0
1215327.0,0,2186,0,441,0
1215368.0,0,2187,0,441,0
1215602.0,0,2187,0,442,0
1215660.0,0,2188,0,442,0
1215760.0,0,2189,0,442,0
1215860.0,0,2190,0,442,0
1216102.0,0,2191,0,442,0
1216230.0,0,2192,0,442,0
1218175.0,0,2193,0,442,0
1218209.0,0,2194,0,442,0
1218776.0,0,2195,0,442,0
1218860.0,0,2196,0,442,0
1218952.0,0,2197,0,442,0
1219127.0,0,2198,0,442,0
1219244.0,0,2198,0,443,0
1219678.0,0,2199,0,443,0
1219712.0,0,2200,0,443,0
1219762.0,0,2200,0,444,0
1219837.0,0,2201,0,444,0
1219937.0,0,2201,0,445,0
1219970.0,0,2202,0,445,0
1219987.0,0,2203,0,445,0
1224160.0,0,2204,0,445,0
1224252.0,0,2205,0,445,0
1224318.0,0,2206,0,445,0
1224335.0,0,2207,0,445,0
1224369.0,0,2208,0,445,0
1224436.0,0,2209,0,445,0
1224452.0,0,2210,0,445,0
1224528.0,0,2211,0,445,0
1224561.0,0,2212,0,445,0
1224611.0,0,2213,0,445,0
1224661.0,0,2214,0,445,0
1225295.0,0,2215,0,445,0
1225312.0,0,2216,0,445,0
1225387.0,0,2216,0,446,0
1225421.0,0,2217,0,446,0
1225537.0,0,2218,0,446,0
1225587.0,0,2219,0,446,0
1225621.0,0,2219,0,447,0
1227506.0,0,2220,0,447,0
1227582.0,0,2221,0,447,0
1227615.0,0,2222,0,447,0
1227690.0,0,2223,0,447,0
1227773.0,0,2224,0,447,0
1227849.0,0,2225,0,447,0
1227999.0,0,2226,0,447,0
1228283.0,0,2227,0,447,0
1228316.0,0,2228,0,447,0
1228383.0,0,2229,0,447,0
1228516.0,0,2230,0,447,0
1228566.0,0,2231,0,447,0
1228633.0,0,2232,0,447,0
1229718.0,0,2233,0,447,0
1229843.0,0,2234,0,447,0
1229918.0,0,2235,0,447,0
1229977.0,0,2236,0,447,0
1229993.0,0,2237,0,447,0
1230044.0,0,2238,0,447,0
1230077.0,0,2239,0,447,0
1230728.0,0,2240,0,447,0
1230762.0,0,2241,0,447,0
1230937.0,0,2242,0,447,0
1231120.0,0,2243,0,447,0
1231137.0,0,2243,0,448,0
1231154.0,0,2244,0,448,0
1231187.0,0,2245,0,448,0
1231329.0,0,2246,0,448,0
1231362.0,0,2247,0,448,0
1231379.0,0,2248,0,448,0
1231413.0,0,2249,0,448,0
1231446.0,0,2250,0,448,0
1231504.0,0,2251,0,448,0
1231721.0,0,2252,0,448,0
1231755.0,0,2253,0,448,0
1231805.0,0,2254,0,448,0
1231972.0,0,2255,0,448,0
1232014.0,0,2256,0,448,0
1232080.0,0,2256,0,449,0
1232189.0,0,2257,0,449,0
1232306.0,0,2257,0,450,0
1232339.0,0,2258,0,450,0
1233132.0,0,2259,0,450,0
1233174.0,0,2260,0,450,0
1233224.0,0,2261,0,450,0
1233274.0,0,2262,0,450,0
1233307.0,0,2263,0,450,0
1233324.0,0,2264,0,450,0
1233340.0,0,2264,0,451,0
1233382.0,0,2265,0,451,0
1233449.0,0,2266,0,451,0
1233516.0,0,2267,0,451,0
1233607.0,0,2268,0,451,0
1233682.0,0,2269,0,451,0
1233724.0,0,2270,0,451,0
1233766.0,0,2271,0,451,0
1233866.0,0,2271,0,452,0
1233883.0,0,2271,0,453,0
1233933.0,0,2272,0,453,0
1233950.0,0,2273,0,453,0
1234167.0,0,2273,0,454,0
1234200.0,0,2274,0,454,0
1234217.0,0,2275,0,454,0
1234317.0,0,2276,0,454,0
1234333.0,0,2277,0,454,0
1235752.0,0,2278,0,454,0
1235852.0,0,2279,0,454,0
1235936.0,0,2280,0,454,0
1235969.0,0,2281,0,454,0
1236003.0,0,2282,0,454,0
1236203.0,0,2283,0,454,0
1236394.0,0,2284,0,454,0
1236444.0,0,2285,0,454,0
1236478.0,0,2286,0,454,0
1236494.0,0,2287,0,454,0
1236511.0,0,2288,0,454,0
1236536.0,0,2289,0,454,0
1236703.0,0,2290,0,454,0
1236853.0,0,2291,0,454,0
1236887.0,0,2292,0,454,0
1236987.0,0,2292,0,455,0
1237004.0,0,2293,0,455,0
1237054.0,0,2294,0,455,0
1252063.0,0,2295,0,455,0
1252339.0,0,2296,0,455,0
1252355.0,0,2297,0,455,0
1252372.0,0,2298,0,455,0
1252522.0,0,2299,0,455,0
1252664.0,0,2300,0,455,0
1252706.0,0,2301,0,455,0
1259533.0,0,2301,0,456,0
1259700.0,0,2301,0,457,0
1259809.0,0,2301,0,458,0
1259909.0,0,2302,0,458,0
1260000.0,0,2303,0,458,0
1260059.0,0,2304,0,458,0
1260117.0,0,2305,0,458,0
1260276.0,0,2306,0,458,0
1260360.0,0,2307,0,458,0
1260510.0,0,2308,0,458,0
1260568.0,0,2309,0,458,0
1260585.0,0,2310,0,458,0
1260660.0,0,2311,0,458,0
1260718.0,0,2311,0,459,0
1260902.0,0,2312,0,459,0
1261227.0,0,2313,0,459,0
1261244.0,0,2313,0,460,0
1261369.0,0,2314,0,460,0
1261477.0,0,2315,0,460,0
1268346.0,0,2316,0,460,0
1268379.0,0,2316,0,461,0
1268404.0,0,2317,0,461,0
1268479.0,0,2318,0,461,0
1268546.0,0,2319,0,461,0
1268563.0,0,2320,0,461,0
1268663.0,0,2320,0,462,0
1268763.0,0,2321,0,462,0
1268805.0,0,2322,0,462,0
1268871.0,0,2323,0,462,0
1268905.0,0,2324,0,462,0
1268980.0,0,2325,0,462,0
1269013.0,0,2326,0,462,0
1269097.0,0,2327,0,462,0
1269172.0,0,2328,0,462,0
1269205.0,0,2329,0,462,0
1270357.0,0,2330,0,462,0
1270390.0,0,2331,0,462,0
1270457.0,0,2332,0,462,0
1270474.0,0,2333,0,462,0
1271216.0,0,2333,0,463,0
1271351.0,0,2334,0,463,0
1271533.0,0,2335,0,463,0
1271558.0,0,2335,0,464,0
1271717.0,0,2335,0,465,0
1271775.0,0,2336,0,465,0
1271875.0,0,2337,0,465,0
1271976.0,0,2337,0,466,0
1272009.0,0,2338,0,466,0
1272034.0,0,2339,0,466,0
1272084.0,0,2340,0,466,0
1272151.0,0,2341,0,466,0
1272184.0,0,2342,0,466,0
1272201.0,0,2343,0,466,0
1272217.0,0,2344,0,466,0
1272251.0,0,2345,0,466,0
1272301.0,0,2345,0,467,0
1272326.0,0,2346,0,467,0
1272426.0,0,2347,0,467,0
1272468.0,0,2348,0,467,0
1272485.0,0,2349,0,467,0
1272526.0,0,2350,0,467,0
1272543.0,0,2351,0,467,0
1275086.0,0,2351,0,468,0
1275102.0,0,2352,0,468,0
1275119.0,0,2353,0,468,0
1275152.0,0,2353,0,469,0
1275478.0,0,2354,0,469,0
1277063.0,0,2355,0,469,0
1277138.0,0,2356,0,469,0
1277313.0,0,2357,0,469,0
1277497.0,0,2358,0,469,0
1277547.0,0,2359,0,469,0
1277564.0,0,2360,0,469,0
1277664.0,0,2361,0,469,0
1277764.0,0,2362,0,469,0
1277898.0,0,2362,0,470,0
1277914.0,0,2363,0,470,0
1277981.0,0,2364,0,470,0
1278032.0,0,2365,0,470,0
1278257.0,0,2366,0,470,0
1278382.0,0,2367,0,470,0
1278423.0,0,2368,0,470,0
1278440.0,0,2368,0,471,0
1278499.0,0,2369,0,471,0
1278599.0,0,2369,0,472,0
1279309.0,0,2370,0,472,0
1279342.0,0,2371,0,472,0
1279459.0,0,2372,0,472,0
1279526.0,0,2372,0,473,0
1279576.0,0,2372,0,474,0
1279592.0,0,2373,0,474,0
1279642.0,0,2374,0,474,0
1279759.0,0,2375,0,474,0
1279826.0,0,2376,0,474,0
1279876.0,0,2377,0,474,0
1279893.0,0,2378,0,474,0
1279909.0,0,2378,0,475,0
1279959.0,0,2379,0,475,0
1279993.0,0,2379,0,476,0
1280011.0,0,2380,0,476,0
1280026.0,0,2381,0,476,0
1280093.0,0,2382,0,476,0
1280151.0,0,2383,0,476,0
1280185.0,0,2384,0,476,0
1280235.0,0,2385,0,476,0
1280377.0,0,2386,0,476,0
1280477.0,0,2387,0,476,0
1281321.0,0,2388,0,476,0
1281470.0,0,2389,0,476,0
1281946.0,0,2390,0,476,0
1282037.0,0,2390,0,477,0
1282179.0,0,2391,0,477,0
1282246.0,0,2392,0,477,0
1282262.0,0,2393,0,477,0
1285249.0,0,2394,0,477,0
1285341.0,0,2394,0,478,0
1285474.0,0,2395,0,478,0
1285591.0,0,2396,0,478,0
1285641.0,0,2397,0,478,0
1285725.0,0,2397,0,479,0
1285858.0,0,2398,0,479,0
1286083.0,0,2398,0,480,0
1286167.0,0,2399,0,480,0
1286292.0,0,2400,0,480,0
1286351.0,0,2401,0,480,0
1286392.0,0,2402,0,480,0
1286409.0,0,2403,0,480,0
1286492.0,0,2404,0,480,0
1286551.0,0,2405,0,480,0
1286626.0,0,2406,0,480,0
1286642.0,0,2407,0,480,0
1286718.0,0,2408,0,480,0
1288195.0,0,2409,0,480,0
1288228.0,0,2410,0,480,0
1288312.0,0,2411,0,480,0
1288379.0,0,2412,0,480,0
1288395.0,0,2413,0,480,0
1288470.0,0,2414,0,480,0
1288529.0,0,2415,0,480,0
1288904.0,0,2416,0,480,0
1288988.0,0,2417,0,480,0
1289004.0,0,2418,0,480,0
1295780.0,0,2419,0,480,0
1295847.0,0,2420,0,480,0
1296530.0,0,2421,0,480,0
1296606.0,0,2421,0,481,0
1296639.0,0,2422,0,481,0
1296672.0,0,2423,0,481,0
1303749.0,0,2424,0,481,0
1303799.0,0,2425,0,481,0
1303816.0,0,2426,0,481,0
1303833.0,0,2427,0,481,0
1303974.0,0,2428,0,481,0
1303991.0,0,2429,0,481,0
1304174.0,0,2430,0,481,0
1304266.0,0,2431,0,481,0
1307671.0,0,2432,0,481,0
1307729.0,0,2433,0,481,0
1307762.0,0,2434,0,481,0
1307779.0,0,2434,0,482,0
1307796.0,0,2435,0,482,0
1307879.0,0,2436,0,482,0
1307904.0,0,2437,0,482,0
1307954.0,0,2438,0,482,0
1308055.0,0,2439,0,482,0
1308088.0,0,2440,0,482,0
1308163.0,0,2440,0,483,0
1308180.0,0,2441,0,483,0
1308246.0,0,2441,0,484,0
1308272.0,0,2442,0,484,0
1308338.0,0,2442,0,485,0
1308355.0,0,2443,0,485,0
1308397.0,0,2444,0,485,0
1308439.0,0,2444,0,486,0
1308530.0,0,2445,0,486,0
1308547.0,0,2446,0,486,0
1308630.0,0,2447,0,486,0
1308655.0,0,2448,0,486,0
1308914.0,0,2448,0,487,0
1308989.0,0,2448,0,488,0
1309089.0,0,2449,0,488,0
1309214.0,0,2450,0,488,0
1309265.0,0,2451,0,488,0
1309281.0,0,2452,0,488,0
1309323.0,0,2453,0,488,0
1309398.0,0,2454,0,488,0
1309465.0,0,2455,0,488,0
1310024.0,0,2456,0,488,0
1310090.0,0,2457,0,488,0
1310316.0,0,2458,0,488,0
1310416.0,0,2459,0,488,0
1310499.0,0,2460,0,488,0
1310533.0,0,2461,0,488,0
1310616.0,0,2462,0,488,0
1310700.0,0,2463,0,488,0
1310775.0,0,2464,0,488,0
1310809.0,0,2465,0,488,0
1310842.0,0,2466,0,488,0
1315265.0,0,2467,0,488,0
1315473.0,0,2468,0,488,0
1315757.0,0,2469,0,488,0
1315773.0,0,2470,0,488,0
1315848.0,0,2471,0,488,0
1316015.0,0,2471,0,489,0
1316149.0,0,2472,0,489,0
1316165.0,0,2473,0,489,0
1316240.0,0,2474,0,489,0
1316307.0,0,2475,0,489,0
1318886.0,0,2475,0,490,0
1319061.0,0,2476,0,490,0
1319145.0,0,2477,0,490,0
1319228.0,0,2478,0,490,0
1319262.0,0,2479,0,490,0
1319278.0,0,2480,0,490,0
1319312.0,0,2481,0,490,0
1319328.0,0,2482,0,490,0
1319353.0,0,2483,0,490,0
1319370.0,0,2484,0,490,0
1319487.0,0,2485,0,490,0
1319537.0,0,2485,0,491,0
1319687.0,0,2486,0,491,0
1319704.0,0,2487,0,491,0
1319854.0,0,2487,0,492,0
1327539.0,0,2488,0,492,0
1327573.0,0,2489,0,492,0
1327590.0,0,2490,0,492,0
1327715.0,0,2491,0,492,0
1327781.0,0,2491,0,493,0
1327957.0,0,2492,0,493,0
1328107.0,0,2493,0,493,0
1328140.0,0,2493,0,494,0
1328215.0,0,2494,0,494,0
1328424.0,0,2494,0,495,0
1328524.0,0,2494,0,496,0
1328566.0,0,2494,0,497,0
1328657.0,0,2495,0,497,0
1328774.0,0,2495,0,498,0
1328841.0,0,2496,0,498,0
1328883.0,0,2497,0,498,0
1328958.0,0,2498,0,498,0
1330068.0,0,2499,0,498,0
1330694.0,0,2500,0,498,0
1330744.0,0,2501,0,498,0
1330827.0,0,2502,0,498,0
1330919.0,0,2503,0,498,0
1330977.0,0,2504,0,498,0
1331311.0,0,2504,0,499,0
1332020.0,0,2505,0,499,0
1332145.0,0,2506,0,499,0
1332229.0,0,2507,0,499,0
1333681.0,0,2508,0,499,0
1333789.0,0,2509,0,499,0
1333839.0,0,2510,0,499,0
1333939.0,0,2511,0,499,0
1335867.0,0,2511,0,500,0
1335984.0,0,2512,0,500,0
1336051.0,0,2513,0,500,0
1336143.0,0,2514,0,500,0
1336293.0,0,2515,0,500,0
1340054.0,0,2516,0,500,0
1340096.0,0,2517,0,500,0
1340179.0,0,2518,0,500,0
1340313.0,0,2519,0,500,0
1340438.0,0,2520,0,500,0
1340472.0,0,2521,0,500,0
1340581.0,0,2522,0,500,0
1340630.0,0,2523,0,500,0
1340697.0,0,2524,0,500,0
1340731.0,0,2525,0,500,0
1340781.0,0,2526,0,500,0
1340831.0,0,2527,0,500,0
1340872.0,0,2528,0,500,0
1340898.0,0,2529,0,500,0
1340956.0,0,2530,0,500,0
1340989.0,0,2531,0,500,0
1341139.0,0,2532,0,500,0
1341214.0,0,2532,0,501,0
1341290.0,0,2533,0,501,0
1341340.0,0,2533,0,502,0
1342549.0,0,2534,0,502,0
1342641.0,0,2535,0,502,0
1342850.0,0,2536,0,502,0
1342950.0,0,2537,0,502,0
1350827.0,0,2538,0,502,0
1350877.0,0,2539,0,502,0
1350894.0,0,2540,0,502,0
1350944.0,0,2541,0,502,0
1351111.0,0,2541,0,503,0
1352562.0,0,2542,0,503,0
1352604.0,0,2543,0,503,0
1352704.0,0,2544,0,503,0
1352729.0,0,2545,0,503,0
1352796.0,0,2546,0,503,0
1352813.0,0,2547,0,503,0
1352871.0,0,2548,0,503,0
1352905.0,0,2548,0,504,0
1352980.0,0,2549,0,504,0
1352996.0,0,2550,0,504,0
1353022.0,0,2551,0,504,0
1353196.0,0,2552,0,504,0
1353297.0,0,2553,0,504,0
1353355.0,0,2554,0,504,0
1353397.0,0,2555,0,504,0
1353463.0,0,2556,0,504,0
1353647.0,0,2557,0,504,0
1353722.0,0,2558,0,504,0
1353806.0,0,2559,0,504,0
1353822.0,0,2560,0,504,0
1353872.0,0,2561,0,504,0
1353931.0,0,2562,0,504,0
1354523.0,0,2563,0,504,0
1354607.0,0,2564,0,504,0
1354632.0,0,2564,0,505,0
1354665.0,0,2565,0,505,0
1354757.0,0,2566,0,505,0
1354790.0,0,2567,0,505,0
1354807.0,0,2568,0,505,0
1354840.0,0,2569,0,505,0
1354894.0,0,2570,0,505,0
1354932.0,0,2571,0,505,0
1356059.0,0,2572,0,505,0
1356134.0,0,2573,0,505,0
1356217.0,0,2574,0,505,0
1356442.0,0,2575,0,505,0
1357970.0,0,2575,0,506,0
1358003.0,0,2576,0,506,0
1358061.0,0,2577,0,506,0
1358137.0,0,2578,0,506,0
1358153.0,0,2579,0,506,0
1358237.0,0,2580,0,506,0
1358470.0,0,2581,0,506,0
1358662.0,0,2582,0,506,0
1360323.0,0,2583,0,506,0
1360439.0,0,2584,0,506,0
1360548.0,0,2585,0,506,0
1362709.0,0,2586,0,506,0
1362876.0,0,2586,0,507,0
1362967.0,0,2587,0,507,0
1363026.0,0,2588,0,507,0
1363260.0,0,2589,0,507,0
1363376.0,0,2590,0,507,0
1363451.0,0,2591,0,507,0
1363927.0,0,2591,0,508,0
1363977.0,0,2592,0,508,0
1364010.0,0,2593,0,508,0
1364027.0,0,2594,0,508,0
1364094.0,0,2595,0,508,0
1364161.0,0,2596,0,508,0
1364177.0,0,2597,0,508,0
1365087.0,0,2598,0,508,0
1365204.0,0,2599,0,508,0
1365279.0,0,2600,0,508,0
1365446.0,0,2601,0,508,0
1367432.0,0,2602,0,508,0
1368708.0,0,2603,0,508,0
1368742.0,0,2603,0,509,0
1368825.0,0,2604,0,509,0
1368909.0,0,2605,0,509,0
1368976.0,0,2606,0,509,0
1369204.0,0,2606,0,510,0
1369434.0,0,2607,0,510,0
1369551.0,0,2608,0,510,0
1369601.0,0,2609,0,510,0
1369693.0,0,2610,0,510,0
1369726.0,0,2610,0,511,0
1369802.0,0,2610,0,512,0
1369873.0,0,2611,0,512,0
1369952.0,0,2612,0,512,0
1369977.0,0,2613,0,512,0
1370027.0,0,2613,0,513,0
1371837.0,0,2614,0,513,0
1371854.0,0,2615,0,513,0
1371871.0,0,2616,0,513,0
1371887.0,0,2617,0,513,0
1371946.0,0,2618,0,513,0
1372421.0,0,2619,0,513,0
1372438.0,0,2620,0,513,0
1372538.0,0,2621,0,513,0
1372571.0,0,2622,0,513,0
1372647.0,0,2623,0,513,0
1372664.0,0,2624,0,513,0
1372681.0,0,2625,0,513,0
1383361.0,0,2626,0,513,0
1383461.0,0,2627,0,513,0
1383536.0,0,2628,0,513,0
1383603.0,0,2628,0,514,0
1385447.0,0,2629,0,514,0
1386573.0,0,2630,0,514,0
1386598.0,0,2630,0,515,0
1386615.0,0,2631,0,515,0
1386790.0,0,2632,0,515,0
1387950.0,0,2633,0,515,0
1387967.0,0,2634,0,515,0
1388008.0,0,2635,0,515,0
1388033.0,0,2635,0,516,0
1388083.0,0,2635,0,517,0
1388150.0,0,2635,0,518,0
1388267.0,0,2635,0,519,0
1388317.0,0,2635,0,520,0
1388417.0,0,2635,0,521,0
1388467.0,0,2636,0,521,0
1388500.0,0,2637,0,521,0
1388551.0,0,2637,0,522,0
1388584.0,0,2638,0,522,0
1388920.0,0,2639,0,522,0
1388953.0,0,2640,0,522,0
1389029.0,0,2640,0,523,0
1389079.0,0,2641,0,523,0
1389162.0,0,2642,0,523,0
1389195.0,0,2643,0,523,0
1389262.0,0,2644,0,523,0
1389863.0,0,2645,0,523,0
1389880.0,0,2646,0,523,0
1389955.0,0,2647,0,523,0
1389971.0,0,2648,0,523,0
1390071.0,0,2649,0,523,0
1390105.0,0,2650,0,523,0
1390138.0,0,2651,0,523,0
1390222.0,0,2652,0,523,0
1390322.0,0,2652,0,524,0
1390372.0,0,2653,0,524,0
1390439.0,0,2654,0,524,0
1390472.0,0,2655,0,524,0
1390489.0,0,2656,0,524,0
1392625.0,0,2657,0,524,0
1392650.0,0,2658,0,524,0
1392717.0,0,2659,0,524,0
1392784.0,0,2660,0,524,0
1392850.0,0,2661,0,524,0
1393226.0,0,2662,0,524,0
1393243.0,0,2663,0,524,0
1393318.0,0,2664,0,524,0
1393409.0,0,2665,0,524,0
1393435.0,0,2666,0,524,0
1393451.0,0,2667,0,524,0
1393510.0,0,2668,0,524,0
1393551.0,0,2669,0,524,0
1393602.0,0,2670,0,524,0
1393693.0,0,2671,0,524,0
1394411.0,0,2672,0,524,0
1394494.0,0,2672,0,525,0
1394627.0,0,2673,0,525,0
1394645.0,0,2674,0,525,0
1394745.0,0,2675,0,525,0
1395204.0,0,2676,0,525,0
1399743.0,0,2677,0,525,0
1399877.0,0,2678,0,525,0
1399935.0,0,2679,0,525,0
1400327.0,0,2679,0,526,0
1400360.0,0,2679,0,527,0
1400461.0,0,2680,0,527,0
1400569.0,0,2681,0,527,0
1400753.0,0,2681,0,528,0
1400820.0,0,2681,0,529,0
1400878.0,0,2682,0,529,0
1400911.0,0,2683,0,529,0
1400961.0,0,2684,0,529,0
1401003.0,0,2684,0,530,0
1401053.0,0,2685,0,530,0
1401437.0,0,2686,0,530,0
1401646.0,0,2687,0,530,0
1401746.0,0,2688,0,530,0
1401854.0,0,2688,0,531,0
1402105.0,0,2689,0,531,0
1402205.0,0,2689,0,532,0
1402288.0,0,2690,0,532,0
1402305.0,0,2691,0,532,0
1402339.0,0,2692,0,532,0
1402455.0,0,2693,0,532,0
1402489.0,0,2694,0,532,0
1402622.0,0,2695,0,532,0
1403849.0,0,2696,0,532,0
1403899.0,0,2697,0,532,0
1403999.0,0,2698,0,532,0
1404058.0,0,2699,0,532,0
1404116.0,0,2700,0,532,0
1404241.0,0,2701,0,532,0
1404433.0,0,2702,0,532,0
1404483.0,0,2703,0,532,0
1404700.0,0,2704,0,532,0
1404742.0,0,2705,0,532,0
1404833.0,0,2706,0,532,0
1404883.0,0,2706,0,533,0
1404984.0,0,2707,0,533,0
1405100.0,0,2708,0,533,0
1405159.0,0,2709,0,533,0
1405192.0,0,2710,0,533,0
1405593.0,0,2711,0,533,0
1405643.0,0,2712,0,533,0
1405735.0,0,2713,0,533,0
1405993.0,0,2714,0,533,0
1406157.0,0,2715,0,533,0
1406202.0,0,2716,0,533,0
1406269.0,0,2717,0,533,0
1406294.0,0,2718,0,533,0
1406386.0,0,2719,0,533,0
1406511.0,0,2720,0,533,0
1406661.0,0,2720,0,534,0
1406711.0,0,2721,0,534,0
1406786.0,0,2722,0,534,0
1406894.0,0,2723,0,534,0
1406911.0,0,2724,0,534,0
1406978.0,0,2725,0,534,0
1407095.0,0,2726,0,534,0
1407178.0,0,2727,0,534,0
1407445.0,0,2728,0,534,0
1407537.0,0,2729,0,534,0
1407704.0,0,2730,0,534,0
1410850.0,0,2731,0,534,0
1410900.0,0,2732,0,534,0
1410975.0,0,2733,0,534,0
1411042.0,0,2734,0,534,0
1411351.0,0,2735,0,534,0
1417125.0,0,2736,0,534,0
1417200.0,0,2737,0,534,0
1417351.0,0,2738,0,534,0
1417401.0,0,2739,0,534,0
1417418.0,0,2739,0,535,0
1417459.0,0,2739,0,536,0
1417826.0,0,2740,0,536,0
1417860.0,0,2741,0,536,0
1417943.0,0,2742,0,536,0
1419303.0,0,2742,0,537,0
1419353.0,0,2743,0,537,0
1419411.0,0,2744,0,537,0
1419428.0,0,2745,0,537,0
1419470.0,0,2746,0,537,0
1419537.0,0,2747,0,537,0
1419570.0,0,2747,0,538,0
1419603.0,0,2748,0,538,0
1419720.0,0,2749,0,538,0
1419779.0,0,2750,0,538,0
1419829.0,0,2750,0,539,0
1419895.0,0,2751,0,539,0
1419954.0,0,2752,0,539,0
1419987.0,0,2753,0,539,0
1420004.0,0,2754,0,539,0
1420104.0,0,2755,0,539,0
1421840.0,0,2756,0,539,0
1421898.0,0,2757,0,539,0
1421998.0,0,2758,0,539,0
1422090.0,0,2759,0,539,0
1422157.0,0,2760,0,539,0
1422182.0,0,2761,0,539,0
1422232.0,0,2762,0,539,0
1422273.0,0,2763,0,539,0
1422365.0,0,2764,0,539,0
1422507.0,0,2765,0,539,0
1422599.0,0,2765,0,540,0
1422632.0,0,2766,0,540,0
1422691.0,0,2767,0,540,0
1422741.0,0,2768,0,540,0
1422841.0,0,2769,0,540,0
1422874.0,0,2770,0,540,0
1422950.0,0,2771,0,540,0
1423016.0,0,2772,0,540,0
1423033.0,0,2772,0,541,0
1423083.0,0,2773,0,541,0
1423116.0,0,2774,0,541,0
1423233.0,0,2774,0,542,0
1423283.0,0,2775,0,542,0
1423367.0,0,2776,0,542,0
1423517.0,0,2777,0,542,0
1423600.0,0,2778,0,542,0
1423617.0,0,2779,0,542,0
1423692.0,0,2780,0,542,0
1423725.0,0,2781,0,542,0
1423792.0,0,2782,0,542,0
1429396.0,0,2783,0,542,0
1429488.0,0,2784,0,542,0
1429521.0,0,2785,0,542,0
1430990.0,0,2786,0,542,0
1431240.0,0,2786,0,543,0
1433036.0,0,2787,0,543,0
1433053.0,0,2787,0,544,0
1433112.0,0,2788,0,544,0
1433153.0,0,2789,0,544,0
1434129.0,0,2789,0,545,0
1435298.0,0,2790,0,545,0
1435331.0,0,2791,0,545,0
1435356.0,0,2792,0,545,0
1435389.0,0,2792,0,546,0
1435423.0,0,2793,0,546,0
1435456.0,0,2794,0,546,0
1435581.0,0,2795,0,546,0
1435657.0,0,2796,0,546,0
1435732.0,0,2796,0,547,0
1435765.0,0,2797,0,547,0
1436599.0,0,2798,0,547,0
1436724.0,0,2799,0,547,0
1436799.0,0,2800,0,547,0
1436866.0,0,2801,0,547,0
1436991.0,0,2802,0,547,0
1437258.0,0,2803,0,547,0
1437308.0,0,2804,0,547,0
1437342.0,0,2804,0,548,0
1437392.0,0,2805,0,548,0
1437409.0,0,2806,0,548,0
1437542.0,0,2807,0,548,0
1443583.0,0,2807,0,549,0
1443709.0,0,2807,0,550,0
1443742.0,0,2808,0,550,0
1443967.0,0,2809,0,550,0
1444042.0,0,2810,0,550,0
1444143.0,0,2811,0,550,0
1445044.0,0,2812,0,550,0
1445077.0,0,2813,0,550,0
1445152.0,0,2814,0,550,0
1445202.0,0,2815,0,550,0
1445269.0,0,2816,0,550,0
1445302.0,0,2817,0,550,0
1449483.0,0,2817,0,551,0
1449783.0,0,2818,0,551,0
1449816.0,0,2819,0,551,0
1449841.0,0,2820,0,551,0
1449900.0,0,2821,0,551,0
1452695.0,0,2822,0,551,0
1453087.0,0,2823,0,551,0
1453204.0,0,2824,0,551,0
1453897.0,0,2825,0,551,0
1453922.0,0,2826,0,551,0
1454005.0,0,2827,0,551,0
1454180.0,0,2827,0,552,0
1454222.0,0,2828,0,552,0
1454239.0,0,2829,0,552,0
1454297.0,0,2830,0,552,0
1454356.0,0,2831,0,552,0
1454439.0,0,2832,0,552,0
1454481.0,0,2833,0,552,0
1454514.0,0,2834,0,552,0
1454539.0,0,2835,0,552,0
1454639.0,0,2836,0,552,0
1454689.0,0,2837,0,552,0
1454706.0,0,2837,0,553,0
1454806.0,0,2838,0,553,0
1454873.0,0,2839,0,553,0
1454990.0,0,2840,0,553,0
1455131.0,0,2841,0,553,0
1455165.0,0,2842,0,553,0
1455248.0,0,2842,0,554,0
1455298.0,0,2843,0,554,0
1455365.0,0,2844,0,554,0
1455457.0,0,2845,0,554,0
1455549.0,0,2846,0,554,0
1455565.0,0,2847,0,554,0
1458203.0,0,2848,0,554,0
1458336.0,0,2849,0,554,0
1458420.0,0,2850,0,554,0
1458478.0,0,2851,0,554,0
1458553.0,0,2852,0,554,0
1458653.0,0,2853,0,554,0
1459180.0,0,2854,0,554,0
1459375.0,0,2855,0,554,0
1459447.0,0,2856,0,554,0
1462167.0,0,2856,0,555,0
1462250.0,0,2857,0,555,0
1462284.0,0,2858,0,555,0
1462351.0,0,2859,0,555,0
1462434.0,0,2860,0,555,0
1463051.0,0,2861,0,555,0
1463068.0,0,2862,0,555,0
1463544.0,0,2863,0,555,0
1463585.0,0,2863,0,556,0
1463619.0,0,2864,0,556,0
1463836.0,0,2865,0,556,0
1466038.0,0,2866,0,556,0
1466305.0,0,2866,0,557,0
1466372.0,0,2867,0,557,0
1466389.0,0,2868,0,557,0
1466489.0,0,2869,0,557,0
1466514.0,0,2869,0,558,0
1466773.0,0,2869,0,559,0
1466814.0,0,2870,0,559,0
1467824.0,0,2871,0,559,0
1467883.0,0,2872,0,559,0
1467966.0,0,2873,0,559,0
1467983.0,0,2874,0,559,0
1468091.0,0,2875,0,559,0
1468133.0,0,2875,0,560,0
1468225.0,0,2876,0,560,0
1469209.0,0,2877,0,560,0
1469468.0,0,2878,0,560,0
1469735.0,0,2879,0,560,0
1469868.0,0,2880,0,560,0
1469952.0,0,2880,0,561,0
1470002.0,0,2881,0,561,0
1470060.0,0,2881,0,562,0
1470144.0,0,2881,0,563,0
1470978.0,0,2882,0,563,0
1470995.0,0,2883,0,563,0
1471445.0,0,2884,0,563,0
1471520.0,0,2885,0,563,0
1471537.0,0,2886,0,563,0
1471595.0,0,2886,0,564,0
1471746.0,0,2887,0,564,0
1471779.0,0,2888,0,564,0
1471821.0,0,2889,0,564,0
1471879.0,0,2890,0,564,0
1471896.0,0,2891,0,564,0
1471946.0,0,2892,0,564,0
1471963.0,0,2893,0,564,0
1472088.0,0,2894,0,564,0
1472113.0,0,2895,0,564,0
1472146.0,0,2896,0,564,0
1472180.0,0,2897,0,564,0
1472213.0,0,2898,0,564,0
1472230.0,0,2899,0,564,0
1472297.0,0,2900,0,564,0
1472330.0,0,2901,0,564,0
1472372.0,0,2902,0,564,0
1472430.0,0,2903,0,564,0
1472538.0,0,2904,0,564,0
1472681.0,0,2905,0,564,0
1481383.0,0,2906,0,564,0
1481400.0,0,2906,0,565,0
1481417.0,0,2907,0,565,0
1481466.0,0,2908,0,565,0
1481483.0,0,2909,0,565,0
1481517.0,0,2909,0,566,0
1481775.0,0,2910,0,566,0
1481792.0,0,2911,0,566,0
1481859.0,0,2912,0,566,0
1481934.0,0,2913,0,566,0
1481976.0,0,2914,0,566,0
1482042.0,0,2915,0,566,0
1482093.0,0,2916,0,566,0
1482159.0,0,2917,0,566,0
1482376.0,0,2918,0,566,0
1482426.0,0,2919,0,566,0
1482451.0,0,2920,0,566,0
1482802.0,0,2920,0,567,0
1482843.0,0,2921,0,567,0
1482910.0,0,2921,0,568,0
1483019.0,0,2922,0,568,0
1484671.0,0,2923,0,568,0
1484738.0,0,2924,0,568,0
1487825.0,0,2925,0,568,0
1487842.0,0,2925,0,569,0
1487959.0,0,2926,0,569,0
1490051.0,0,2927,0,569,0
1490212.0,0,2927,0,570,0
1490295.0,0,2928,0,570,0
1490429.0,0,2929,0,570,0
1490537.0,0,2930,0,570,0
1490587.0,0,2931,0,570,0
1490729.0,0,2932,0,570,0
1490762.0,0,2933,0,570,0
1490863.0,0,2934,0,570,0
1492223.0,0,2934,0,571,0
1492365.0,0,2935,0,571,0
1492456.0,0,2936,0,571,0
1492473.0,0,2937,0,571,0
1492573.0,0,2937,0,572,0
1494368.0,0,2938,0,572,0
1494384.0,0,2939,0,572,0
1494735.0,0,2940,0,572,0
1494827.0,0,2940,0,573,0
1496337.0,0,2941,0,573,0
1496370.0,0,2942,0,573,0
1496421.0,0,2943,0,573,0
1496471.0,0,2944,0,573,0
1496488.0,0,2944,0,574,0
1497506.0,0,2945,0,574,0
1497589.0,0,2946,0,574,0
1499725.0,0,2947,0,574,0
1499809.0,0,2948,0,574,0
1499842.0,0,2949,0,574,0
1499875.0,0,2950,0,574,0
1499951.0,0,2951,0,574,0
1500702.0,0,2952,0,574,0
1500718.0,0,2953,0,574,0
1500810.0,0,2953,0,575,0
1500894.0,0,2954,0,575,0
1500952.0,0,2955,0,575,0
1501152.0,0,2956,0,575,0
1501311.0,0,2956,0,576,0
1501328.0,0,2957,0,576,0
1501378.0,0,2957,0,577,0
1501411.0,0,2958,0,577,0
1501445.0,0,2959,0,577,0
1503022.0,0,2960,0,577,0
1503122.0,0,2961,0,577,0
1503289.0,0,2961,0,578,0
1503389.0,0,2962,0,578,0
1503657.0,0,2962,0,579,0
1503790.0,0,2963,0,579,0
1503857.0,0,2964,0,579,0
1503890.0,0,2965,0,579,0
1503957.0,0,2966,0,579,0
1504174.0,0,2966,0,580,0
1504283.0,0,2967,0,580,0
1504307.0,0,2968,0,580,0
1505459.0,0,2968,0,581,0
1505526.0,0,2969,0,581,0
1506577.0,0,2970,0,581,0
1506628.0,0,2971,0,581,0
1507253.0,0,2972,0,581,0
1507429.0,0,2973,0,581,0
1507478.0,0,2974,0,581,0
1507529.0,0,2975,0,581,0
1508605.0,0,2976,0,581,0
1508730.0,0,2977,0,581,0
1508830.0,0,2978,0,581,0
1508897.0,0,2978,0,582,0
1509915.0,0,2978,0,583,0
1509982.0,0,2979,0,583,0
1512670.0,0,2980,0,583,0
1512912.0,0,2981,0,583,0
1513112.0,0,2982,0,583,0
1515741.0,0,2983,0,583,0
1515807.0,0,2984,0,583,0
1517377.0,0,2985,0,583,0
1517393.0,0,2986,0,583,0
1517577.0,0,2987,0,583,0
1520091.0,0,2988,0,583,0
1520167.0,0,2989,0,583,0
1520333.0,0,2990,0,583,0
1520367.0,0,2991,0,583,0
1520383.0,0,2992,0,583,0
1520475.0,0,2993,0,583,0
1520792.0,0,2993,0,584,0
1520967.0,0,2994,0,584,0
1520984.0,0,2995,0,584,0
1521051.0,0,2996,0,584,0
1521176.0,0,2996,0,585,0
1521201.0,0,2997,0,585,0
1526984.0,0,2998,0,585,0
1527310.0,0,2998,0,586,0
1527527.0,0,2999,0,586,0
1527543.0,0,2999,0,587,0
1527602.0,0,3000,0,587,0
1527744.0,0,3001,0,587,0
1530697.0,0,3002,0,587,0
1530714.0,0,3003,0,587,0
1530839.0,0,3004,0,587,0
1530864.0,0,3005,0,587,0
1530881.0,0,3006,0,587,0
1530931.0,0,3007,0,587,0
1531273.0,0,3008,0,587,0
1531373.0,0,3009,0,587,0
1531432.0,0,3010,0,587,0
1531448.0,0,3011,0,587,0
1531557.0,0,3012,0,587,0
