time,AdrenergicStimulus,CorticalStimulus,EmotionalStimulus,NutritiveStimulus,EvaluationStimulus,FocusStimulus,MuscularStimulus,ProprioceptiveStimulus,SomaticStimulus,VisualStimulus
0.0,2303,2303,2303,21,19,2303,2303,2193,0,1694
1.0,2323,2321,2323,22,20,2319,2319,2419,0,1663
2.0,2332,2334,2332,15,18,2335,2335,2417,0,1755
3.0,2483,2481,2483,27,19,2481,2481,2594,0,1998
4.0,2378,2380,2378,34,24,2380,2380,2514,0,1686
5.0,2376,2375,2376,25,24,2376,2376,2486,0,1834
6.0,2353,2351,2353,28,29,2348,2348,2507,0,1899
7.0,2331,2331,2331,32,29,2334,2334,2485,0,1887
8.0,2390,2386,2390,29,27,2385,2385,2539,0,1859
9.0,2366,2373,2366,25,28,2373,2373,2483,0,1975
10.0,2413,2412,2413,31,21,2413,2413,2513,0,1793
11.0,2349,2340,2349,29,25,2340,2340,2451,0,1756
12.0,2362,2372,2362,23,28,2372,2372,2499,0,1812
13.0,2428,2428,2428,22,19,2428,2428,2522,0,1863
14.0,2239,2239,2239,23,22,2234,2234,2392,0,1802
15.0,2394,2394,2394,25,23,2398,2398,2527,0,1682
16.0,2353,2353,2353,15,25,2349,2349,2475,0,1909
17.0,2318,2315,2318,24,16,2319,2319,2425,0,1872
18.0,2391,2394,2391,20,16,2394,2394,2484,0,2003
19.0,2348,2348,2348,13,22,2347,2347,2447,0,1902
20.0,2365,2359,2365,15,16,2358,2358,2488,0,1880
21.0,2422,2427,2422,22,13,2430,2430,2561,0,1769
22.0,2421,2420,2421,11,15,2420,2420,2527,0,1946
23.0,2456,2455,2456,10,17,2450,2450,2571,0,1960
24.0,2402,2404,2402,18,14,2409,2409,2525,0,2060
25.0,2384,2382,2384,9,7,2378,2378,2511,0,1997
26.0,2492,2494,2492,10,13,2496,2496,2594,0,1997
27.0,2338,2338,2338,15,16,2339,2339,2460,0,1977
28.0,2429,2430,2429,9,5,2419,2419,2524,0,2013
29.0,2357,2354,2357,9,9,2365,2365,2447,0,1927
30.0,2341,2342,2341,3,15,2343,2343,2457,0,1672
31.0,1581,1582,1581,2,7,1582,1582,1677,0,1336
32.0,0,0,0,0,0,0,0,0,0,0
