time,AdrenergicStimulus,CorticalStimulus,EmotionalStimulus,NutritiveStimulus,EvaluationStimulus,FocusStimulus,MuscularStimulus,ProprioceptiveStimulus,SomaticStimulus,VisualStimulus
0.0,2551,2551,2551,13,13,2551,2551,2100,0,2004
1.0,2383,2382,2383,0,0,2382,2382,1713,0,1713
2.0,2087,2088,2087,0,0,2088,2088,1336,0,1336
3.0,2061,2061,2061,0,0,2060,2060,1253,0,1253
4.0,2213,2213,2213,0,0,2214,2214,1546,0,1546
5.0,2308,2307,2308,0,0,2307,2307,1615,0,1615
6.0,2231,2231,2231,0,0,2231,2231,1488,0,1488
7.0,2239,2239,2239,0,0,2239,2239,1566,0,1567
8.0,2292,2293,2292,28,12,2293,2293,1722,0,1510
9.0,2270,2270,2270,5,17,2270,2270,1586,0,1560
10.0,2205,2205,2205,4,8,2205,2205,1557,0,1522
11.0,2292,2291,2292,0,0,2291,2291,1576,0,1576
12.0,2308,2309,2308,0,0,2309,2309,1619,0,1619
13.0,2378,2377,2378,0,0,2377,2377,1714,0,1714
14.0,2266,2266,2266,0,0,2266,2266,1671,0,1671
15.0,2410,2410,2410,0,0,2410,2410,1812,0,1812
16.0,2316,2316,2316,3,0,2316,2316,1750,0,1724
17.0,2369,2370,2369,1,4,2369,2369,1781,0,1779
18.0,2414,2414,2414,27,27,2415,2415,1918,0,1744
19.0,2369,2369,2369,0,0,2369,2369,1730,0,1730
20.0,2396,2395,2396,0,0,2395,2395,1784,0,1784
21.0,2382,2383,2382,13,6,2382,2382,1779,0,1693
22.0,2581,2580,2581,0,7,2581,2581,2060,0,2059
23.0,2518,2519,2518,0,0,2519,2519,1983,0,1983
24.0,2325,2324,2325,0,0,2324,2324,1707,0,1707
25.0,2470,2470,2470,0,0,2470,2470,1901,0,1901
26.0,2535,2535,2535,0,0,2535,2535,2040,0,2041
27.0,2386,2387,2386,0,0,2387,2387,1812,0,1811
28.0,2479,2478,2479,0,0,2478,2478,1871,0,1871
29.0,2311,2311,2311,0,0,2311,2311,1609,0,1609
30.0,2268,2268,2268,0,0,2268,2268,1641,0,1644
31.0,0,0,0,0,0,0,0,0,0,0
