time,AdrenergicStimulus,CorticalStimulus,EmotionalStimulus,NutritiveStimulus,EvaluationStimulus,FocusStimulus,MuscularStimulus,ProprioceptiveStimulus,SomaticStimulus,VisualStimulus
0.0,1465,1465,1465,1,1,1465,1465,1284,0,1278
1.0,1180,1180,1180,0,0,1180,1180,763,0,763
2.0,1408,1408,1408,0,0,1407,1407,1066,0,1066
3.0,1375,1375,1375,0,0,1375,1375,1001,0,1001
4.0,1364,1362,1364,0,0,1361,1361,887,0,887
5.0,1334,1336,1334,0,0,1337,1337,946,0,946
6.0,1354,1354,1354,0,0,1355,1355,923,0,923
7.0,1306,1306,1306,0,0,1306,1306,919,0,919
8.0,1314,1313,1314,0,0,1313,1313,888,0,888
9.0,1413,1414,1413,0,0,1414,1414,1017,0,1017
10.0,1299,1298,1299,0,0,1298,1298,935,0,936
11.0,1395,1396,1395,0,0,1395,1395,1002,0,1001
12.0,1458,1458,1458,0,0,1459,1459,1083,0,1083
13.0,1355,1355,1355,0,0,1355,1355,980,0,980
14.0,1390,1389,1390,0,0,1389,1389,1123,0,1123
15.0,1413,1413,1413,0,0,1410,1410,1106,0,1106
16.0,1512,1513,1512,2,2,1516,1516,1258,0,1210
17.0,1396,1396,1396,0,0,1396,1396,1115,0,1115
18.0,1412,1412,1412,0,0,1412,1412,1137,0,1137
19.0,1425,1424,1425,2,2,1422,1422,1128,0,1104
20.0,1454,1455,1454,0,0,1456,1456,1145,0,1145
21.0,1430,1428,1430,0,0,1428,1428,1108,0,1108
22.0,1353,1355,1353,2,2,1354,1354,1048,0,1031
23.0,1455,1455,1455,0,0,1457,1457,1156,0,1156
24.0,1371,1370,1371,0,0,1370,1370,1082,0,1082
25.0,1418,1419,1418,0,0,1419,1419,1171,0,1172
26.0,1336,1336,1336,0,0,1335,1335,1134,0,1133
27.0,1378,1377,1378,2,2,1375,1375,1110,0,1099
28.0,1392,1386,1392,0,0,1388,1388,1161,0,1159
29.0,1341,1347,1341,0,0,1346,1346,1015,0,1015
30.0,1382,1383,1382,0,0,1385,1385,1109,0,1109
31.0,1398,1398,1398,0,0,1398,1398,1092,0,1092
32.0,1374,1374,1374,0,0,1374,1374,1040,0,1040
33.0,1285,1285,1285,0,0,1285,1285,942,0,942
34.0,1518,1518,1518,0,0,1517,1517,1325,0,1325
35.0,1399,1399,1399,0,0,1398,1398,1248,0,1248
36.0,1415,1413,1415,0,0,1415,1415,1212,0,1212
37.0,1362,1364,1362,0,0,1362,1362,992,0,992
38.0,1396,1394,1396,0,0,1387,1387,1199,0,1199
39.0,1397,1398,1397,0,0,1406,1406,1194,0,1194
40.0,1335,1334,1335,0,0,1335,1335,1052,0,1052
41.0,1386,1387,1386,0,0,1387,1387,1123,0,1123
42.0,1342,1341,1342,0,0,1339,1339,1079,0,1079
43.0,1339,1339,1339,0,0,1341,1341,1074,0,1074
44.0,1449,1451,1449,0,0,1451,1451,1178,0,1178
45.0,1441,1439,1441,0,0,1439,1439,1167,0,1168
46.0,1390,1385,1390,0,0,1382,1382,1144,0,1143
47.0,1381,1387,1381,0,0,1389,1389,1132,0,1132
48.0,1395,1396,1395,0,0,1397,1397,1115,0,1115
49.0,330,330,330,0,0,330,330,234,0,234
50.0,0,0,0,0,0,0,0,0,0,0
