time,AdrenergicStimulus,CorticalStimulus,EmotionalStimulus,NutritiveStimulus,EvaluationStimulus,FocusStimulus,MuscularStimulus,ProprioceptiveStimulus,SomaticStimulus,VisualStimulus
0.0,1368,1368,1368,4,4,1368,1368,1225,0,1068
1.0,1398,1397,1398,0,0,1397,1397,1135,0,1135
2.0,1244,1245,1244,0,0,1245,1245,812,0,812
3.0,1366,1366,1366,0,0,1366,1366,1009,0,1009
4.0,1334,1333,1334,0,0,1332,1332,1071,0,1071
5.0,1477,1475,1477,0,0,1475,1475,1244,0,1244
6.0,1398,1401,1398,0,0,1402,1402,1089,0,1089
7.0,1379,1379,1379,1,1,1379,1379,915,0,907
8.0,1291,1291,1291,0,0,1291,1291,884,0,884
9.0,1311,1311,1311,0,0,1311,1311,870,0,870
10.0,1177,1177,1177,0,0,1175,1175,645,0,645
11.0,1327,1327,1327,0,0,1329,1329,801,0,801
12.0,1299,1297,1299,1,1,1294,1294,858,0,842
13.0,1422,1422,1422,0,0,1425,1425,1080,0,1080
14.0,1415,1417,1415,0,0,1417,1417,1014,0,1014
15.0,1359,1358,1359,0,0,1358,1358,1071,0,1072
16.0,1377,1377,1377,0,0,1376,1376,1052,0,1051
17.0,1417,1418,1417,0,0,1413,1413,1104,0,1104
18.0,1526,1526,1526,39,38,1530,1530,1604,0,1208
19.0,1443,1443,1443,16,16,1445,1445,1281,0,974
20.0,1381,1380,1381,11,12,1376,1376,1164,0,1061
21.0,1492,1493,1492,12,12,1496,1496,1257,0,1122
22.0,1423,1417,1423,1,1,1418,1418,1066,0,1057
23.0,1480,1486,1480,0,0,1486,1486,1189,0,1188
24.0,1481,1481,1481,0,0,1478,1478,1106,0,1106
25.0,1417,1415,1417,1,1,1416,1416,1042,0,1030
26.0,1383,1385,1383,0,0,1387,1387,1008,0,1008
27.0,1431,1431,1431,5,5,1431,1431,1128,0,1077
28.0,1379,1379,1379,0,0,1379,1379,931,0,931
29.0,1412,1411,1412,0,0,1409,1409,987,0,987
30.0,1428,1427,1428,0,0,1429,1429,940,0,940
31.0,1472,1474,1472,0,0,1474,1474,1137,0,1137
32.0,1383,1383,1383,0,0,1383,1383,1003,0,1003
33.0,1410,1410,1410,0,0,1410,1410,958,0,958
34.0,1513,1511,1513,0,0,1511,1511,1216,0,1216
35.0,1557,1557,1557,0,0,1556,1556,1426,0,1427
36.0,1571,1568,1571,0,0,1569,1569,1494,0,1493
37.0,1552,1556,1552,0,0,1552,1552,1407,0,1407
38.0,1521,1522,1521,0,0,1526,1526,1302,0,1302
39.0,1473,1473,1473,1,1,1473,1473,1183,0,1181
40.0,1371,1370,1371,0,0,1364,1364,1096,0,1096
41.0,1463,1462,1463,0,0,1464,1464,1345,0,1345
42.0,1531,1532,1531,0,0,1535,1535,1507,0,1507
43.0,1543,1541,1543,0,0,1542,1542,1465,0,1466
44.0,1581,1584,1581,0,0,1584,1584,1456,0,1455
45.0,1574,1570,1574,0,0,1567,1567,1418,0,1420
46.0,1521,1517,1521,0,0,1520,1520,1298,0,1296
47.0,1219,1227,1219,0,0,1227,1227,978,0,978
48.0,0,0,0,0,0,0,0,0,0,0
