time,AdrenergicStimulus,CorticalStimulus,EmotionalStimulus,NutritiveStimulus,EvaluationStimulus,FocusStimulus,MuscularStimulus,ProprioceptiveStimulus,SomaticStimulus,VisualStimulus
0.0,1461,1461,1461,16,16,1459,1459,1594,0,1249
1.0,1536,1536,1536,17,17,1534,1534,1630,0,1235
2.0,1598,1596,1598,8,8,1600,1600,1594,0,1284
3.0,1520,1522,1520,9,9,1520,1520,1543,0,1242
4.0,1567,1565,1567,1,1,1567,1567,1229,0,1200
5.0,1462,1464,1462,5,4,1457,1457,1195,0,1083
6.0,1580,1577,1580,6,7,1582,1582,1432,0,1221
7.0,1551,1554,1551,6,6,1556,1556,1334,0,1189
8.0,1461,1461,1461,9,9,1460,1460,1288,0,1112
9.0,1531,1530,1531,6,6,1531,1531,1298,0,1160
10.0,1500,1500,1500,3,3,1499,1499,1208,0,1144
11.0,1499,1500,1499,5,5,1501,1501,1439,0,1161
12.0,971,971,971,8,8,971,971,588,0,505
13.0,1383,1383,1383,16,16,1383,1383,1258,0,919
14.0,1102,1102,1102,3,3,1093,1093,851,0,659
15.0,1487,1482,1487,3,3,1486,1486,1409,0,1362
16.0,1497,1502,1497,7,7,1505,1505,1355,0,1225
17.0,1286,1286,1286,5,5,1288,1288,1027,0,968
18.0,1338,1337,1338,8,8,1337,1337,1082,0,959
19.0,1447,1447,1447,6,6,1447,1447,1357,0,1197
20.0,1283,1284,1283,0,0,1284,1284,948,0,943
21.0,1260,1260,1260,0,0,1260,1260,922,0,917
22.0,1546,1546,1546,0,0,1546,1546,1387,0,1372
23.0,1451,1451,1451,2,2,1451,1451,1126,0,1053
24.0,1448,1448,1448,0,0,1446,1446,1228,0,1203
25.0,1381,1381,1381,1,1,1383,1383,1069,0,1048
26.0,1439,1439,1439,0,0,1439,1439,1228,0,1224
27.0,1342,1342,1342,0,0,1342,1342,989,0,989
28.0,1431,1429,1431,0,0,1429,1429,1246,0,1237
29.0,1565,1566,1565,0,0,1563,1563,1381,0,1381
30.0,1208,1209,1208,0,0,1212,1212,930,0,835
31.0,1361,1361,1361,0,0,1358,1358,1071,0,1071
32.0,1509,1509,1509,0,0,1512,1512,1263,0,1261
33.0,1444,1442,1444,4,4,1441,1441,1294,0,1251
34.0,1519,1521,1519,0,0,1520,1520,1219,0,1184
35.0,1523,1523,1523,2,2,1523,1523,1394,0,1288
36.0,1534,1528,1534,1,1,1526,1526,1399,0,1383
37.0,1488,1494,1488,1,0,1498,1498,1292,0,1254
38.0,1461,1460,1461,2,3,1460,1460,1308,0,1263
39.0,1438,1434,1438,0,0,1434,1434,1224,0,1224
40.0,1447,1445,1447,0,0,1444,1444,1172,0,1172
41.0,1366,1373,1366,0,0,1373,1373,1057,0,1057
42.0,1411,1411,1411,0,0,1410,1410,1130,0,1127
43.0,1533,1533,1533,0,0,1532,1532,1376,0,1323
44.0,1441,1438,1441,0,0,1441,1441,1387,0,1268
45.0,1409,1412,1409,0,0,1410,1410,1120,0,1108
46.0,1390,1390,1390,0,0,1391,1391,1104,0,1101
47.0,813,810,813,0,0,811,811,680,0,680
48.0,0,0,0,0,0,0,0,0,0,0
