time,AdrenergicStimulus,CorticalStimulus,EmotionalStimulus,NutritiveStimulus,EvaluationStimulus,FocusStimulus,MuscularStimulus,ProprioceptiveStimulus,SomaticStimulus,VisualStimulus,OlfactoryStimulus,TouchStimulus
0.0,2058,2058,2058,16,465,2058,2058,2667,111,1850,2412,0
1.0,2111,2111,2111,16,466,2110,2110,2655,65,1687,2292,0
2.0,2104,2104,2104,20,459,2105,2105,2625,130,1740,2249,0
3.0,2166,2165,2166,23,481,2164,2164,2680,111,1644,2234,0
4.0,2197,2197,2197,8,471,2198,2198,2712,34,1606,2224,0
5.0,2173,2174,2173,13,491,2174,2174,2651,79,1630,2216,0
6.0,2174,2174,2174,10,453,2174,2174,2677,45,1663,2226,0
7.0,2161,2161,2161,17,461,2161,2161,2629,250,1625,2176,0
8.0,2129,2128,2129,3,480,2128,2128,2584,86,1649,2167,0
9.0,2163,2164,2163,8,442,2164,2164,2642,104,1563,2206,0
10.0,2151,2151,2151,4,493,2151,2151,2645,67,1526,2175,0
11.0,2128,2127,2128,4,455,2127,2127,2612,56,1574,2147,0
12.0,2174,2175,2174,13,429,2175,2175,2701,114,1613,2200,0
13.0,2162,2161,2162,22,462,2161,2161,2647,183,1580,2199,0
14.0,2131,2132,2131,10,468,2132,2132,2641,134,1529,2184,0
15.0,2168,2167,2168,8,455,2167,2167,2683,178,1587,2212,0
16.0,2156,2157,2156,6,432,2156,2156,2629,110,1654,2212,0
17.0,2092,2092,2092,6,459,2093,2093,2583,130,1616,2172,0
18.0,2168,2168,2168,5,448,2167,2167,2659,194,1575,2217,0
19.0,2152,2152,2152,2,454,2153,2153,2637,145,1580,2167,0
20.0,2117,2117,2117,7,458,2117,2117,2594,164,1587,2182,0
21.0,2192,2192,2192,5,452,2191,2191,2658,149,1724,2208,0
22.0,2168,2168,2168,9,447,2168,2168,2666,236,1519,2177,0
23.0,2120,2120,2120,15,424,2121,2121,2596,197,1695,2172,0
24.0,2181,2180,2181,8,455,2178,2178,2672,242,1633,2216,0
25.0,2093,2094,2093,11,468,2096,2096,2576,168,1597,2148,0
26.0,2110,2109,2110,3,444,2109,2109,2607,135,1599,2158,0
27.0,2186,2186,2186,4,462,2186,2186,2672,173,1676,2220,0
28.0,2160,2160,2160,9,455,2159,2159,2686,148,1542,2241,0
29.0,2115,2116,2115,6,429,2117,2117,2613,142,1719,2213,0
30.0,2137,2136,2137,3,428,2136,2136,2649,211,1645,2243,0
31.0,2118,2118,2118,4,472,2118,2118,2640,185,1485,2219,0
32.0,2127,2128,2127,4,411,2127,2127,2662,157,1635,2235,0
33.0,700,699,700,0,144,700,700,867,50,533,730,0
34.0,0,0,0,0,0,0,0,0,0,0,0,0
