time,AdrenergicStimulus,CorticalStimulus,EmotionalStimulus,NutritiveStimulus,EvaluationStimulus,FocusStimulus,MuscularStimulus,ProprioceptiveStimulus,SomaticStimulus,VisualStimulus
0.0,1393,1391,1393,8,8,1390,1390,1401,0,1207
1.0,1709,1710,1709,0,0,1705,1705,1401,0,1401
2.0,1745,1744,1745,0,0,1750,1750,1426,0,1428
3.0,1668,1670,1668,0,0,1669,1669,1304,0,1302
4.0,1684,1684,1684,0,0,1684,1684,1312,0,1312
5.0,1707,1707,1707,0,0,1708,1708,1370,0,1370
6.0,1758,1758,1758,0,0,1757,1757,1416,0,1416
7.0,1730,1729,1730,0,0,1730,1730,1385,0,1386
8.0,1780,1781,1780,0,0,1781,1781,1338,0,1337
9.0,1733,1732,1733,10,1,1730,1730,1450,0,1346
10.0,1686,1687,1686,0,9,1683,1683,1328,0,1328
11.0,1782,1782,1782,3,0,1788,1788,1465,0,1454
12.0,1705,1705,1705,0,3,1705,1705,1399,0,1399
13.0,1692,1686,1692,11,0,1685,1685,1423,0,1259
14.0,1764,1770,1764,17,28,1770,1770,1600,0,1426
15.0,1759,1759,1759,1,1,1759,1759,1406,0,1398
16.0,1769,1769,1769,32,0,1770,1770,1700,0,1433
17.0,1769,1769,1769,11,43,1767,1767,1500,0,1380
18.0,1735,1735,1735,0,0,1736,1736,1384,0,1383
19.0,1690,1690,1690,1,0,1691,1691,1354,0,1353
20.0,1737,1734,1737,0,1,1734,1734,1343,0,1340
21.0,1770,1772,1770,54,1,1770,1770,1821,0,1282
22.0,1717,1717,1717,4,55,1719,1719,1408,0,1388
23.0,1760,1760,1760,3,2,1760,1760,1444,0,1420
24.0,1630,1631,1630,0,3,1631,1631,1341,0,1340
25.0,1682,1680,1682,1,0,1680,1680,1297,0,1285
26.0,1702,1703,1702,0,1,1703,1703,1285,0,1285
27.0,1699,1698,1699,0,0,1698,1698,1399,0,1400
28.0,1713,1715,1713,2,0,1715,1715,1410,0,1394
29.0,1758,1757,1758,0,2,1757,1757,1459,0,1459
30.0,1758,1759,1758,0,0,1759,1759,1504,0,1504
31.0,1677,1677,1677,0,0,1677,1677,1375,0,1375
32.0,1737,1735,1737,0,0,1735,1735,1413,0,1413
33.0,1666,1668,1666,0,0,1662,1662,1381,0,1381
34.0,1657,1657,1657,0,0,1662,1662,1281,0,1282
35.0,1711,1711,1711,0,0,1712,1712,1415,0,1414
36.0,1709,1709,1709,0,0,1709,1709,1342,0,1342
37.0,1714,1714,1714,0,0,1714,1714,1305,0,1305
38.0,1720,1718,1720,0,0,1718,1718,1313,0,1313
39.0,1695,1697,1695,0,0,1697,1697,1376,0,1376
40.0,1651,1650,1651,0,0,1650,1650,1265,0,1266
41.0,0,0,0,0,0,0,0,0,0,0
