time,target distance,affordance,memory,random,short term memory
7165.0,0,1,0,0,0
8133.0,0,2,0,0,0
8341.0,0,3,0,0,0
8475.0,0,4,0,0,0
9001.0,0,4,0,1,0
9293.0,0,4,0,2,0
9477.0,0,4,0,3,0
9527.0,0,4,0,4,0
9610.0,0,4,0,5,0
9852.0,0,5,0,5,0
9868.0,0,6,0,5,0
10052.0,0,7,0,5,0
10161.0,0,7,0,6,0
10461.0,0,8,0,6,0
10495.0,0,9,0,6,0
10553.0,0,10,0,6,0
10787.0,0,11,0,6,0
10837.0,0,11,0,7,0
11145.0,0,12,0,7,0
11229.0,0,13,0,7,0
11546.0,0,14,0,7,0
11772.0,0,15,0,7,0
15009.0,0,16,0,7,0
15051.0,0,17,0,7,0
15092.0,0,18,0,7,0
15301.0,0,19,0,7,0
15359.0,0,19,0,8,0
15493.0,0,19,0,9,0
15518.0,0,20,0,9,0
15802.0,0,21,0,9,0
15868.0,0,22,0,9,0
16035.0,0,23,0,9,0
16103.0,0,24,0,9,0
16136.0,0,25,0,9,0
16411.0,0,26,0,9,0
16770.0,0,27,0,9,0
17137.0,0,28,0,9,0
18481.0,0,29,0,9,0
18673.0,0,30,0,9,0
18948.0,0,31,0,9,0
19140.0,0,32,0,9,0
19273.0,0,33,0,9,0
19374.0,0,34,0,9,0
22811.0,0,35,0,9,0
22862.0,0,35,0,10,0
24156.0,0,35,0,11,0
24798.0,0,36,0,11,0
25057.0,0,36,0,12,0
25424.0,0,37,0,12,0
25508.0,0,38,0,12,0
25524.0,0,39,0,12,0
26050.0,0,39,0,13,0
26100.0,0,40,0,13,0
26400.0,0,41,0,13,0
26826.0,0,42,0,13,0
28244.0,0,43,0,13,0
30714.0,0,43,0,14,0
30732.0,0,43,0,15,0
30797.0,0,44,0,15,0
31265.0,0,45,0,15,0
31390.0,0,46,0,15,0
31491.0,0,47,0,15,0
31641.0,0,48,0,15,0
31791.0,0,49,0,15,0
31924.0,0,50,0,15,0
38844.0,0,50,0,16,0
38911.0,0,51,0,16,0
39893.0,0,52,0,16,0
40521.0,0,52,0,17,0
40605.0,0,53,0,17,0
40680.0,0,54,0,17,0
40805.0,0,54,0,18,0
41214.0,0,55,0,18,0
41456.0,0,55,0,19,0
41589.0,0,55,0,20,0
41706.0,0,55,0,21,0
42040.0,0,56,0,21,0
42457.0,0,57,0,21,0
44009.0,0,58,0,21,0
48047.0,0,59,0,21,0
48139.0,0,60,0,21,0
48289.0,0,61,0,21,0
48382.0,0,62,0,21,0
48549.0,0,62,0,22,0
50226.0,0,63,0,22,0
50326.0,0,64,0,22,0
50468.0,0,65,0,22,0
50609.0,0,66,0,22,0
50885.0,0,67,0,22,0
50985.0,0,68,0,22,0
51494.0,0,69,0,22,0
51928.0,0,70,0,22,0
52036.0,0,71,0,22,0
52170.0,0,72,0,22,0
52537.0,0,73,0,22,0
52620.0,0,74,0,22,0
55090.0,0,75,0,22,0
55240.0,0,76,0,22,0
55324.0,0,77,0,22,0
55849.0,0,78,0,22,0
55883.0,0,78,0,23,0
56083.0,0,79,0,23,0
56292.0,0,79,0,24,0
56325.0,0,80,0,24,0
56526.0,0,81,0,24,0
57093.0,0,82,0,24,0
57143.0,0,83,0,24,0
64688.0,0,84,0,24,0
64997.0,0,85,0,24,0
65013.0,0,86,0,24,0
65080.0,0,87,0,24,0
65341.0,0,88,0,24,0
65589.0,0,88,0,25,0
65789.0,0,89,0,25,0
69936.0,0,90,0,25,0
70212.0,0,91,0,25,0
70420.0,0,92,0,25,0
71563.0,0,93,0,25,0
71688.0,0,94,0,25,0
71722.0,0,95,0,25,0
72289.0,0,95,0,26,0
84881.0,0,96,0,26,0
85056.0,0,96,0,27,0
85106.0,0,97,0,27,0
85156.0,0,98,0,27,0
88101.0,0,99,0,27,0
88293.0,0,100,0,27,0
88368.0,0,101,0,27,0
88402.0,0,102,0,27,0
88510.0,0,103,0,27,0
88770.0,0,104,0,27,0
88828.0,0,104,0,28,0
88845.0,0,105,0,28,0
88920.0,0,106,0,28,0
88995.0,0,107,0,28,0
103569.0,0,108,0,28,0
105880.0,0,109,0,28,0
105947.0,0,110,0,28,0
106047.0,0,111,0,28,0
106097.0,0,112,0,28,0
106131.0,0,113,0,28,0
106707.0,0,113,0,29,0
109293.0,0,114,0,29,0
109327.0,0,115,0,29,0
110962.0,0,116,0,29,0
111864.0,0,117,0,29,0
112698.0,0,118,0,29,0
112765.0,0,119,0,29,0
112848.0,0,120,0,29,0
113224.0,0,121,0,29,0
113282.0,0,122,0,29,0
117697.0,0,122,0,30,0
117755.0,0,123,0,30,0
117772.0,0,124,0,30,0
118406.0,0,125,0,30,0
118565.0,0,126,0,30,0
118723.0,0,127,0,30,0
118790.0,0,128,0,30,0
127773.0,0,129,0,30,0
128040.0,0,129,0,31,0
128099.0,0,130,0,31,0
128149.0,0,130,0,32,0
128358.0,0,130,0,33,0
134133.0,0,131,0,33,0
134200.0,0,132,0,33,0
134392.0,0,133,0,33,0
134567.0,0,134,0,33,0
138465.0,0,135,0,33,0
138548.0,0,136,0,33,0
139098.0,0,137,0,33,0
139216.0,0,138,0,33,0
139475.0,0,139,0,33,0
139501.0,0,140,0,33,0
139584.0,0,140,0,34,0
139708.0,0,141,0,34,0
141694.0,0,142,0,34,0
142161.0,0,143,0,34,0
142295.0,0,144,0,34,0
142328.0,0,145,0,34,0
142820.0,0,146,0,34,0
142870.0,0,147,0,34,0
144348.0,0,148,0,34,0
144381.0,0,149,0,34,0
144615.0,0,149,0,35,0
144757.0,0,150,0,35,0
145925.0,0,151,0,35,0
145958.0,0,152,0,35,0
146183.0,0,153,0,35,0
150998.0,0,154,0,35,0
153201.0,0,155,0,35,0
154661.0,0,156,0,35,0
154711.0,0,157,0,35,0
154781.0,0,158,0,35,0
154923.0,0,159,0,35,0
155006.0,0,160,0,35,0
155131.0,0,161,0,35,0
155815.0,0,162,0,35,0
156066.0,0,163,0,35,0
164460.0,0,164,0,35,0
164902.0,0,165,0,35,0
164919.0,0,166,0,35,0
166696.0,0,166,0,36,0
166930.0,0,167,0,36,0
167522.0,0,168,0,36,0
170710.0,0,169,0,36,0
171085.0,0,169,0,37,0
171361.0,0,169,0,38,0
177194.0,0,170,0,38,0
180473.0,0,171,0,38,0
180798.0,0,172,0,38,0
181198.0,0,173,0,38,0
181249.0,0,174,0,38,0
184228.0,0,175,0,38,0
184278.0,0,176,0,38,0
184378.0,0,177,0,38,0
192113.0,0,178,0,38,0
192322.0,0,179,0,38,0
192364.0,0,179,0,39,0
194383.0,0,180,0,39,0
194492.0,0,181,0,39,0
195076.0,0,181,0,40,0
195351.0,0,182,0,40,0
198054.0,0,182,0,41,0
198121.0,0,183,0,41,0
198288.0,0,184,0,41,0
198371.0,0,185,0,41,0
199248.0,0,186,0,41,0
199616.0,0,187,0,41,0
199691.0,0,188,0,41,0
199924.0,0,189,0,41,0
199958.0,0,190,0,41,0
200216.0,0,191,0,41,0
200383.0,0,192,0,41,0
200467.0,0,193,0,41,0
200550.0,0,194,0,41,0
201001.0,0,195,0,41,0
201184.0,0,196,0,41,0
201310.0,0,197,0,41,0
201368.0,0,198,0,41,0
201835.0,0,199,0,41,0
201886.0,0,200,0,41,0
202469.0,0,201,0,41,0
202536.0,0,201,0,42,0
202845.0,0,202,0,42,0
202912.0,0,203,0,42,0
203529.0,0,204,0,42,0
204280.0,0,204,0,43,0
208411.0,0,205,0,43,0
209020.0,0,206,0,43,0
209087.0,0,207,0,43,0
209254.0,0,207,0,44,0
210438.0,0,208,0,44,0
210589.0,0,209,0,44,0
210739.0,0,209,0,45,0
211265.0,0,210,0,45,0
211373.0,0,211,0,45,0
211840.0,0,212,0,45,0
211999.0,0,213,0,45,0
215171.0,0,213,0,46,0
215296.0,0,213,0,47,0
216666.0,0,213,0,48,0
217492.0,0,214,0,48,0
220155.0,0,215,0,48,0
220197.0,0,215,0,49,0
221515.0,0,216,0,49,0
221557.0,0,216,0,50,0
221573.0,0,217,0,50,0
221624.0,0,217,0,51,0
221682.0,0,218,0,51,0
221816.0,0,219,0,51,0
221941.0,0,220,0,51,0
222083.0,0,221,0,51,0
222099.0,0,221,0,52,0
222166.0,0,222,0,52,0
222199.0,0,222,0,53,0
222550.0,0,222,0,54,0
222900.0,0,223,0,54,0
228442.0,0,224,0,54,0
231780.0,0,225,0,54,0
231930.0,0,225,0,55,0
231997.0,0,226,0,55,0
232298.0,0,227,0,55,0
234076.0,0,227,0,56,0
234109.0,0,228,0,56,0
234443.0,0,229,0,56,0
237038.0,0,230,0,56,0
237447.0,0,231,0,56,0
237956.0,0,232,0,56,0
241687.0,0,233,0,56,0
244691.0,0,233,0,57,0
244724.0,0,234,0,57,0
244833.0,0,235,0,57,0
244925.0,0,235,0,58,0
245067.0,0,236,0,58,0
245325.0,0,236,0,59,0
245376.0,0,236,0,60,0
245409.0,0,237,0,60,0
245492.0,0,238,0,60,0
245576.0,0,239,0,60,0
248468.0,0,240,0,60,0
248676.0,0,241,0,60,0
248910.0,0,242,0,60,0
249044.0,0,243,0,60,0
251622.0,0,244,0,60,0
252056.0,0,245,0,60,0
252139.0,0,245,0,61,0
252949.0,0,245,0,62,0
253074.0,0,246,0,62,0
253825.0,0,247,0,62,0
253850.0,0,248,0,62,0
253925.0,0,249,0,62,0
254059.0,0,250,0,62,0
258214.0,0,251,0,62,0
258415.0,0,252,0,62,0
258507.0,0,253,0,62,0
260276.0,0,254,0,62,0
264932.0,0,255,0,62,0
265483.0,0,256,0,62,0
265617.0,0,257,0,62,0
265759.0,0,258,0,62,0
268638.0,0,259,0,62,0
268763.0,0,260,0,62,0
268838.0,0,261,0,62,0
268938.0,0,262,0,62,0
269022.0,0,262,0,63,0
269122.0,0,263,0,63,0
269606.0,0,264,0,63,0
273711.0,0,264,0,64,0
274020.0,0,265,0,64,0
274037.0,0,266,0,64,0
276640.0,0,267,0,64,0
276891.0,0,268,0,64,0
278281.0,0,268,0,65,0
278632.0,0,269,0,65,0
278665.0,0,270,0,65,0
278698.0,0,271,0,65,0
278749.0,0,272,0,65,0
278934.0,0,273,0,65,0
282300.0,0,274,0,65,0
283488.0,0,275,0,65,0
285040.0,0,276,0,65,0
287076.0,0,276,0,66,0
287260.0,0,277,0,66,0
287310.0,0,278,0,66,0
288127.0,0,279,0,66,0
288653.0,0,280,0,66,0
288962.0,0,281,0,66,0
289037.0,0,282,0,66,0
289146.0,0,283,0,66,0
289179.0,0,284,0,66,0
290230.0,0,285,0,66,0
293034.0,0,286,0,66,0
293093.0,0,287,0,66,0
293251.0,0,288,0,66,0
298783.0,0,289,0,66,0
299601.0,0,290,0,66,0
299667.0,0,291,0,66,0
299751.0,0,291,0,67,0
299793.0,0,292,0,67,0
299809.0,0,293,0,67,0
300026.0,0,294,0,67,0
300302.0,0,295,0,67,0
300444.0,0,295,0,68,0
300653.0,0,296,0,68,0
300753.0,0,297,0,68,0
301721.0,0,298,0,68,0
301754.0,0,298,0,69,0
302588.0,0,299,0,69,0
302788.0,0,300,0,69,0
302863.0,0,301,0,69,0
303139.0,0,302,0,69,0
303673.0,0,303,0,69,0
303731.0,0,304,0,69,0
303932.0,0,305,0,69,0
304032.0,0,306,0,69,0
304090.0,0,307,0,69,0
305350.0,0,307,0,70,0
305584.0,0,308,0,70,0
309356.0,0,309,0,70,0
309532.0,0,310,0,70,0
309699.0,0,310,0,71,0
310091.0,0,311,0,71,0
310183.0,0,312,0,71,0
310283.0,0,313,0,71,0
310475.0,0,314,0,71,0
310533.0,0,315,0,71,0
310833.0,0,316,0,71,0
312987.0,0,317,0,71,0
313037.0,0,318,0,71,0
313071.0,0,319,0,71,0
313196.0,0,320,0,71,0
313246.0,0,320,0,72,0
321066.0,0,321,0,72,0
321125.0,0,322,0,72,0
321191.0,0,322,0,73,0
321242.0,0,322,0,74,0
321309.0,0,322,0,75,0
321442.0,0,323,0,75,0
321492.0,0,323,0,76,0
321559.0,0,324,0,76,0
321625.0,0,325,0,76,0
321851.0,0,325,0,77,0
322068.0,0,325,0,78,0
322201.0,0,326,0,78,0
322277.0,0,326,0,79,0
322418.0,0,327,0,79,0
322452.0,0,328,0,79,0
324788.0,0,329,0,79,0
325030.0,0,330,0,79,0
325097.0,0,331,0,79,0
325164.0,0,331,0,80,0
325231.0,0,332,0,80,0
325314.0,0,333,0,80,0
325381.0,0,334,0,80,0
325564.0,0,335,0,80,0
325715.0,0,336,0,80,0
326775.0,0,336,0,81,0
326792.0,0,337,0,81,0
326883.0,0,338,0,81,0
326950.0,0,339,0,81,0
327009.0,0,340,0,81,0
327134.0,0,341,0,81,0
327167.0,0,341,0,82,0
327442.0,0,342,0,82,0
327476.0,0,342,0,83,0
327509.0,0,343,0,83,0
327559.0,0,344,0,83,0
327605.0,0,345,0,83,0
327693.0,0,345,0,84,0
328352.0,0,346,0,84,0
328368.0,0,347,0,84,0
329737.0,0,348,0,84,0
330163.0,0,349,0,84,0
330396.0,0,350,0,84,0
330463.0,0,351,0,84,0
330547.0,0,352,0,84,0
331181.0,0,353,0,84,0
331223.0,0,354,0,84,0
331256.0,0,355,0,84,0
331323.0,0,356,0,84,0
331365.0,0,357,0,84,0
331456.0,0,358,0,84,0
331540.0,0,359,0,84,0
331690.0,0,360,0,84,0
331740.0,0,361,0,84,0
331857.0,0,362,0,84,0
331890.0,0,363,0,84,0
331907.0,0,364,0,84,0
332032.0,0,365,0,84,0
332132.0,0,366,0,84,0
332549.0,0,367,0,84,0
332807.0,0,368,0,84,0
334527.0,0,369,0,84,0
334561.0,0,370,0,84,0
334611.0,0,371,0,84,0
334761.0,0,372,0,84,0
334778.0,0,373,0,84,0
339804.0,0,373,0,85,0
339871.0,0,373,0,86,0
342325.0,0,374,0,86,0
342525.0,0,375,0,86,0
342750.0,0,376,0,86,0
343301.0,0,377,0,86,0
343602.0,0,377,0,87,0
343668.0,0,378,0,87,0
343702.0,0,379,0,87,0
343810.0,0,380,0,87,0
343835.0,0,381,0,87,0
347840.0,0,382,0,87,0
353173.0,0,383,0,87,0
353290.0,0,384,0,87,0
353365.0,0,384,0,88,0
353389.0,0,385,0,88,0
353607.0,0,386,0,88,0
353623.0,0,387,0,88,0
353907.0,0,387,0,89,0
356595.0,0,388,0,89,0
356661.0,0,388,0,90,0
356753.0,0,389,0,90,0
357162.0,0,389,0,91,0
361643.0,0,390,0,91,0
361910.0,0,390,0,92,0
362010.0,0,391,0,92,0
362044.0,0,392,0,92,0
362144.0,0,392,0,93,0
362577.0,0,393,0,93,0
362753.0,0,393,0,94,0
362919.0,0,394,0,94,0
363044.0,0,395,0,94,0
363195.0,0,396,0,94,0
363312.0,0,397,0,94,0
363396.0,0,397,0,95,0
363571.0,0,398,0,95,0
363654.0,0,398,0,96,0
363738.0,0,399,0,96,0
374192.0,0,400,0,96,0
374234.0,0,401,0,96,0
374293.0,0,402,0,96,0
374326.0,0,403,0,96,0
374410.0,0,404,0,96,0
378523.0,0,405,0,96,0
378556.0,0,406,0,96,0
378623.0,0,406,0,97,0
388679.0,0,407,0,97,0
388829.0,0,408,0,97,0
389271.0,0,409,0,97,0
393744.0,0,410,0,97,0
393827.0,0,411,0,97,0
393969.0,0,411,0,98,0
394069.0,0,412,0,98,0
395213.0,0,413,0,98,0
395247.0,0,414,0,98,0
395321.0,0,415,0,98,0
395405.0,0,416,0,98,0
395756.0,0,417,0,98,0
395781.0,0,418,0,98,0
395856.0,0,419,0,98,0
395994.0,0,420,0,98,0
396006.0,0,421,0,98,0
396148.0,0,422,0,98,0
396314.0,0,423,0,98,0
396348.0,0,424,0,98,0
396782.0,0,425,0,98,0
398696.0,0,425,0,99,0
398763.0,0,426,0,99,0
398813.0,0,427,0,99,0
399138.0,0,427,0,100,0
399188.0,0,428,0,100,0
399247.0,0,429,0,100,0
399272.0,0,430,0,100,0
399288.0,0,431,0,100,0
399330.0,0,431,0,101,0
399480.0,0,432,0,101,0
399589.0,0,433,0,101,0
399639.0,0,434,0,101,0
401908.0,0,435,0,101,0
402125.0,0,436,0,101,0
402175.0,0,437,0,101,0
402225.0,0,438,0,101,0
402375.0,0,439,0,101,0
402501.0,0,440,0,101,0
402517.0,0,441,0,101,0
402559.0,0,442,0,101,0
402592.0,0,443,0,101,0
402851.0,0,444,0,101,0
403635.0,0,445,0,101,0
403702.0,0,446,0,101,0
404094.0,0,447,0,101,0
404128.0,0,448,0,101,0
404311.0,0,449,0,101,0
404946.0,0,450,0,101,0
404963.0,0,451,0,101,0
405104.0,0,451,0,102,0
405355.0,0,452,0,102,0
405413.0,0,452,0,103,0
405472.0,0,453,0,103,0
405580.0,0,454,0,103,0
405689.0,0,455,0,103,0
406907.0,0,456,0,103,0
407124.0,0,457,0,103,0
407399.0,0,458,0,103,0
407583.0,0,459,0,103,0
407599.0,0,460,0,103,0
407658.0,0,461,0,103,0
407691.0,0,462,0,103,0
407741.0,0,463,0,103,0
408000.0,0,464,0,103,0
408142.0,0,465,0,103,0
408267.0,0,466,0,103,0
408609.0,0,467,0,103,0
408826.0,0,468,0,103,0
408909.0,0,469,0,103,0
408951.0,0,469,0,104,0
409126.0,0,470,0,104,0
413557.0,0,471,0,104,0
413582.0,0,472,0,104,0
413766.0,0,473,0,104,0
413849.0,0,473,0,105,0
414133.0,0,474,0,105,0
414242.0,0,475,0,105,0
414258.0,0,476,0,105,0
414342.0,0,477,0,105,0
414358.0,0,478,0,105,0
414817.0,0,479,0,105,0
414867.0,0,480,0,105,0
420633.0,0,481,0,105,0
420784.0,0,482,0,105,0
420842.0,0,483,0,105,0
420875.0,0,484,0,105,0
420917.0,0,485,0,105,0
421000.0,0,486,0,105,0
421351.0,0,487,0,105,0
421443.0,0,488,0,105,0
421718.0,0,489,0,105,0
423086.0,0,489,0,106,0
423133.0,0,490,0,106,0
423228.0,0,490,0,107,0
423328.0,0,490,0,108,0
423378.0,0,491,0,108,0
423562.0,0,492,0,108,0
423704.0,0,493,0,108,0
423820.0,0,494,0,108,0
427183.0,0,495,0,108,0
427601.0,0,496,0,108,0
427667.0,0,497,0,108,0
428379.0,0,498,0,108,0
428496.0,0,499,0,108,0
428730.0,0,499,0,109,0
428779.0,0,500,0,109,0
428812.0,0,501,0,109,0
428938.0,0,502,0,109,0
429030.0,0,503,0,109,0
429063.0,0,504,0,109,0
429188.0,0,505,0,109,0
429230.0,0,506,0,109,0
429271.0,0,507,0,109,0
429388.0,0,508,0,109,0
429522.0,0,509,0,109,0
429639.0,0,510,0,109,0
429689.0,0,511,0,109,0
429739.0,0,512,0,109,0
432851.0,0,512,0,110,0
433168.0,0,513,0,110,0
433260.0,0,514,0,110,0
433301.0,0,515,0,110,0
433368.0,0,516,0,110,0
433669.0,0,516,0,111,0
433752.0,0,517,0,111,0
433919.0,0,518,0,111,0
436121.0,0,519,0,111,0
436222.0,0,519,0,112,0
436398.0,0,520,0,112,0
436731.0,0,521,0,112,0
436790.0,0,522,0,112,0
436823.0,0,523,0,112,0
439142.0,0,524,0,112,0
439217.0,0,525,0,112,0
439234.0,0,526,0,112,0
440019.0,0,527,0,112,0
440286.0,0,528,0,112,0
440411.0,0,529,0,112,0
441871.0,0,530,0,112,0
442163.0,0,531,0,112,0
444767.0,0,531,0,113,0
444967.0,0,532,0,113,0
445801.0,0,533,0,113,0
445851.0,0,534,0,113,0
446427.0,0,534,0,114,0
446494.0,0,535,0,114,0
446569.0,0,535,0,115,0
446794.0,0,536,0,115,0
447645.0,0,537,0,115,0
447738.0,0,537,0,116,0
447829.0,0,538,0,116,0
447912.0,0,539,0,116,0
447937.0,0,540,0,116,0
448013.0,0,541,0,116,0
448029.0,0,542,0,116,0
448079.0,0,543,0,116,0
448096.0,0,544,0,116,0
448505.0,0,544,0,117,0
448538.0,0,545,0,117,0
448571.0,0,546,0,117,0
448713.0,0,547,0,117,0
448755.0,0,548,0,117,0
448797.0,0,548,0,118,0
449598.0,0,549,0,118,0
449773.0,0,550,0,118,0
449856.0,0,551,0,118,0
450040.0,0,552,0,118,0
450098.0,0,553,0,118,0
450140.0,0,554,0,118,0
450215.0,0,555,0,118,0
451717.0,0,556,0,118,0
451767.0,0,557,0,118,0
451934.0,0,557,0,119,0
451959.0,0,558,0,119,0
452059.0,0,559,0,119,0
452084.0,0,560,0,119,0
452109.0,0,561,0,119,0
452376.0,0,562,0,119,0
452410.0,0,563,0,119,0
452460.0,0,564,0,119,0
452535.0,0,564,0,120,0
452585.0,0,565,0,120,0
452602.0,0,566,0,120,0
452644.0,0,567,0,120,0
452702.0,0,568,0,120,0
452760.0,0,569,0,120,0
452794.0,0,570,0,120,0
452861.0,0,571,0,120,0
452911.0,0,572,0,120,0
452961.0,0,573,0,120,0
453161.0,0,574,0,120,0
453311.0,0,575,0,120,0
455038.0,0,575,0,121,0
455230.0,0,576,0,121,0
455255.0,0,577,0,121,0
455556.0,0,578,0,121,0
456515.0,0,579,0,121,0
458801.0,0,579,0,122,0
458819.0,0,579,0,123,0
458968.0,0,580,0,123,0
459043.0,0,581,0,123,0
459052.0,0,582,0,123,0
459102.0,0,582,0,124,0
459321.0,0,583,0,124,0
459354.0,0,584,0,124,0
459371.0,0,584,0,125,0
459480.0,0,585,0,125,0
459555.0,0,586,0,125,0
459588.0,0,586,0,126,0
459630.0,0,587,0,126,0
459747.0,0,588,0,126,0
459881.0,0,589,0,126,0
460181.0,0,589,0,127,0
460231.0,0,590,0,127,0
460248.0,0,591,0,127,0
460323.0,0,592,0,127,0
460340.0,0,593,0,127,0
460398.0,0,594,0,127,0
460423.0,0,594,0,128,0
460465.0,0,595,0,128,0
460732.0,0,596,0,128,0
460748.0,0,597,0,128,0
460815.0,0,598,0,128,0
460873.0,0,599,0,128,0
460982.0,0,600,0,128,0
461834.0,0,601,0,128,0
461900.0,0,602,0,128,0
461934.0,0,603,0,128,0
461951.0,0,604,0,128,0
462534.0,0,605,0,128,0
462584.0,0,606,0,128,0
462651.0,0,607,0,128,0
462818.0,0,608,0,128,0
463711.0,0,608,0,129,0
463744.0,0,609,0,129,0
463778.0,0,610,0,129,0
464061.0,0,611,0,129,0
464245.0,0,612,0,129,0
464612.0,0,613,0,129,0
465221.0,0,614,0,129,0
465238.0,0,614,0,130,0
465288.0,0,615,0,130,0
465355.0,0,616,0,130,0
465371.0,0,616,0,131,0
465422.0,0,617,0,131,0
465480.0,0,618,0,131,0
465713.0,0,619,0,131,0
465747.0,0,619,0,132,0
465789.0,0,620,0,132,0
465855.0,0,621,0,132,0
465947.0,0,622,0,132,0
465980.0,0,623,0,132,0
466014.0,0,624,0,132,0
466031.0,0,625,0,132,0
466072.0,0,626,0,132,0
471605.0,0,626,0,133,0
471755.0,0,627,0,133,0
471955.0,0,628,0,133,0
472089.0,0,629,0,133,0
472131.0,0,630,0,133,0
472306.0,0,630,0,134,0
472339.0,0,631,0,134,0
472364.0,0,632,0,134,0
473081.0,0,633,0,134,0
475384.0,0,634,0,134,0
475543.0,0,635,0,134,0
475601.0,0,635,0,135,0
475676.0,0,636,0,135,0
475777.0,0,637,0,135,0
475843.0,0,638,0,135,0
476077.0,0,638,0,136,0
476385.0,0,639,0,136,0
476703.0,0,640,0,136,0
478864.0,0,641,0,136,0
479148.0,0,642,0,136,0
479231.0,0,643,0,136,0
479432.0,0,644,0,136,0
479457.0,0,644,0,137,0
479657.0,0,645,0,137,0
479782.0,0,646,0,137,0
480024.0,0,646,0,138,0
480091.0,0,646,0,139,0
480124.0,0,647,0,139,0
483094.0,0,648,0,139,0
483128.0,0,649,0,139,0
483253.0,0,650,0,139,0
483545.0,0,651,0,139,0
483645.0,0,652,0,139,0
484012.0,0,652,0,140,0
484137.0,0,653,0,140,0
484504.0,0,653,0,141,0
484638.0,0,654,0,141,0
484796.0,0,655,0,141,0
484863.0,0,656,0,141,0
484921.0,0,657,0,141,0
485172.0,0,658,0,141,0
485247.0,0,659,0,141,0
485272.0,0,660,0,141,0
485305.0,0,661,0,141,0
485389.0,0,662,0,141,0
486424.0,0,663,0,141,0
486607.0,0,664,0,141,0
486658.0,0,664,0,142,0
486716.0,0,665,0,142,0
487058.0,0,666,0,142,0
487141.0,0,666,0,143,0
499607.0,0,667,0,143,0
499633.0,0,668,0,143,0
499691.0,0,669,0,143,0
499724.0,0,670,0,143,0
499791.0,0,671,0,143,0
499824.0,0,672,0,143,0
499933.0,0,673,0,143,0
500000.0,0,674,0,143,0
500501.0,0,675,0,143,0
500585.0,0,676,0,143,0
500676.0,0,677,0,143,0
500726.0,0,678,0,143,0
500943.0,0,679,0,143,0
501043.0,0,680,0,143,0
501629.0,0,681,0,143,0
501678.0,0,682,0,143,0
501728.0,0,683,0,143,0
501753.0,0,684,0,143,0
501887.0,0,685,0,143,0
502454.0,0,686,0,143,0
502546.0,0,687,0,143,0
502804.0,0,688,0,143,0
502838.0,0,689,0,143,0
502905.0,0,690,0,143,0
503072.0,0,691,0,143,0
503138.0,0,692,0,143,0
503171.0,0,693,0,143,0
503355.0,0,693,0,144,0
503555.0,0,694,0,144,0
503622.0,0,694,0,145,0
503814.0,0,695,0,145,0
504173.0,0,696,0,145,0
504223.0,0,697,0,145,0
504256.0,0,698,0,145,0
504431.0,0,699,0,145,0
504465.0,0,700,0,145,0
504498.0,0,701,0,145,0
504581.0,0,702,0,145,0
504698.0,0,703,0,145,0
504765.0,0,704,0,145,0
504915.0,0,705,0,145,0
504940.0,0,706,0,145,0
505166.0,0,707,0,145,0
513329.0,0,708,0,145,0
513454.0,0,709,0,145,0
513520.0,0,710,0,145,0
513554.0,0,711,0,145,0
513587.0,0,712,0,145,0
513637.0,0,713,0,145,0
513763.0,0,714,0,145,0
513938.0,0,715,0,145,0
514096.0,0,716,0,145,0
514121.0,0,717,0,145,0
514138.0,0,718,0,145,0
514180.0,0,719,0,145,0
514196.0,0,720,0,145,0
514255.0,0,721,0,145,0
514438.0,0,722,0,145,0
525521.0,0,723,0,145,0
525704.0,0,724,0,145,0
525846.0,0,725,0,145,0
525871.0,0,726,0,145,0
526021.0,0,727,0,145,0
526330.0,0,728,0,145,0
526363.0,0,729,0,145,0
526430.0,0,730,0,145,0
526522.0,0,731,0,145,0
526639.0,0,732,0,145,0
526714.0,0,733,0,145,0
526789.0,0,734,0,145,0
526981.0,0,734,0,146,0
535609.0,0,735,0,146,0
535684.0,0,736,0,146,0
535726.0,0,737,0,146,0
535910.0,0,737,0,147,0
536310.0,0,738,0,147,0
536435.0,0,739,0,147,0
536711.0,0,740,0,147,0
536769.0,0,741,0,147,0
537954.0,0,742,0,147,0
538021.0,0,742,0,148,0
538129.0,0,743,0,148,0
538238.0,0,744,0,148,0
538271.0,0,745,0,148,0
538313.0,0,746,0,148,0
538388.0,0,747,0,148,0
538555.0,0,748,0,148,0
538605.0,0,749,0,148,0
538875.0,0,749,0,149,0
538974.0,0,749,0,150,0
539058.0,0,750,0,150,0
539275.0,0,751,0,150,0
539341.0,0,752,0,150,0
539475.0,0,753,0,150,0
553017.0,0,754,0,150,0
553100.0,0,755,0,150,0
553117.0,0,756,0,150,0
553233.0,0,757,0,150,0
553258.0,0,758,0,150,0
553275.0,0,759,0,150,0
553350.0,0,760,0,150,0
553367.0,0,761,0,150,0
553400.0,0,762,0,150,0
553442.0,0,763,0,150,0
553534.0,0,764,0,150,0
553601.0,0,765,0,150,0
553618.0,0,766,0,150,0
553684.0,0,766,0,151,0
553734.0,0,767,0,151,0
553868.0,0,768,0,151,0
553909.0,0,769,0,151,0
553935.0,0,770,0,151,0
554018.0,0,771,0,151,0
554135.0,0,771,0,152,0
554168.0,0,772,0,152,0
554185.0,0,773,0,152,0
554285.0,0,774,0,152,0
554327.0,0,775,0,152,0
554352.0,0,776,0,152,0
554402.0,0,777,0,152,0
554544.0,0,778,0,152,0
554594.0,0,779,0,152,0
554660.0,0,780,0,152,0
554694.0,0,781,0,152,0
554727.0,0,782,0,152,0
554752.0,0,783,0,152,0
554827.0,0,784,0,152,0
556030.0,0,784,0,153,0
556146.0,0,784,0,154,0
556280.0,0,785,0,154,0
556321.0,0,786,0,154,0
561454.0,0,787,0,154,0
561679.0,0,788,0,154,0
561704.0,0,789,0,154,0
561787.0,0,790,0,154,0
564099.0,0,790,0,155,0
564116.0,0,791,0,155,0
564158.0,0,792,0,155,0
564391.0,0,793,0,155,0
564425.0,0,793,0,156,0
565426.0,0,794,0,156,0
565610.0,0,795,0,156,0
565676.0,0,796,0,156,0
566544.0,0,797,0,156,0
566611.0,0,797,0,157,0
566661.0,0,798,0,157,0
566702.0,0,798,0,158,0
567337.0,0,799,0,158,0
567353.0,0,799,0,159,0
567428.0,0,800,0,159,0
567645.0,0,801,0,159,0
567745.0,0,802,0,159,0
567979.0,0,803,0,159,0
568079.0,0,804,0,159,0
568580.0,0,805,0,159,0
568597.0,0,806,0,159,0
568630.0,0,807,0,159,0
568688.0,0,808,0,159,0
568705.0,0,809,0,159,0
568830.0,0,810,0,159,0
568889.0,0,811,0,159,0
568972.0,0,812,0,159,0
569047.0,0,813,0,159,0
569097.0,0,814,0,159,0
569131.0,0,815,0,159,0
569756.0,0,816,0,159,0
569840.0,0,817,0,159,0
569865.0,0,818,0,159,0
569932.0,0,819,0,159,0
569990.0,0,820,0,159,0
570007.0,0,821,0,159,0
572686.0,0,822,0,159,0
572728.0,0,823,0,159,0
572936.0,0,824,0,159,0
573295.0,0,825,0,159,0
574321.0,0,826,0,159,0
574372.0,0,827,0,159,0
574388.0,0,828,0,159,0
574438.0,0,829,0,159,0
575139.0,0,830,0,159,0
575173.0,0,831,0,159,0
582820.0,0,832,0,159,0
582837.0,0,833,0,159,0
582929.0,0,834,0,159,0
583095.0,0,835,0,159,0
583346.0,0,836,0,159,0
583479.0,0,837,0,159,0
583580.0,0,838,0,159,0
583638.0,0,839,0,159,0
583655.0,0,840,0,159,0
583730.0,0,840,0,160,0
583880.0,0,841,0,160,0
584097.0,0,842,0,160,0
604674.0,0,843,0,160,0
604749.0,0,843,0,161,0
604766.0,0,844,0,161,0
604816.0,0,845,0,161,0
604833.0,0,846,0,161,0
604891.0,0,847,0,161,0
604941.0,0,848,0,161,0
605016.0,0,849,0,161,0
605601.0,0,850,0,161,0
605701.0,0,851,0,161,0
605734.0,0,852,0,161,0
605818.0,0,853,0,161,0
605868.0,0,854,0,161,0
605951.0,0,855,0,161,0
605984.0,0,856,0,161,0
606051.0,0,857,0,161,0
606443.0,0,858,0,161,0
606527.0,0,859,0,161,0
606577.0,0,860,0,161,0
606610.0,0,861,0,161,0
606769.0,0,862,0,161,0
607169.0,0,863,0,161,0
607186.0,0,864,0,161,0
607252.0,0,865,0,161,0
607937.0,0,866,0,161,0
608070.0,0,867,0,161,0
608112.0,0,868,0,161,0
608253.0,0,869,0,161,0
608270.0,0,870,0,161,0
608371.0,0,871,0,161,0
608487.0,0,871,0,162,0
608537.0,0,871,0,163,0
608554.0,0,871,0,164,0
608604.0,0,872,0,164,0
608721.0,0,873,0,164,0
608737.0,0,874,0,164,0
608996.0,0,875,0,164,0
609105.0,0,876,0,164,0
609188.0,0,877,0,164,0
609221.0,0,878,0,164,0
611209.0,0,879,0,164,0
611226.0,0,880,0,164,0
611293.0,0,881,0,164,0
611543.0,0,882,0,164,0
612227.0,0,883,0,164,0
612244.0,0,883,0,165,0
612394.0,0,884,0,165,0
612544.0,0,885,0,165,0
612644.0,0,886,0,165,0
612728.0,0,887,0,165,0
612761.0,0,888,0,165,0
612803.0,0,889,0,165,0
612870.0,0,889,0,166,0
612920.0,0,889,0,167,0
613070.0,0,890,0,167,0
613095.0,0,891,0,167,0
614322.0,0,892,0,167,0
614372.0,0,893,0,167,0
614405.0,0,894,0,167,0
614606.0,0,894,0,168,0
614714.0,0,895,0,168,0
614755.0,0,896,0,168,0
614856.0,0,897,0,168,0
614998.0,0,898,0,168,0
619804.0,0,899,0,168,0
619904.0,0,900,0,168,0
619988.0,0,901,0,168,0
624319.0,0,902,0,168,0
624444.0,0,903,0,168,0
624628.0,0,904,0,168,0
624670.0,0,905,0,168,0
624703.0,0,906,0,168,0
624861.0,0,907,0,168,0
624878.0,0,908,0,168,0
624895.0,0,908,0,169,0
625053.0,0,908,0,170,0
627932.0,0,909,0,170,0
627999.0,0,910,0,170,0
628208.0,0,911,0,170,0
628274.0,0,912,0,170,0
628383.0,0,913,0,170,0
628433.0,0,914,0,170,0
628466.0,0,915,0,170,0
628483.0,0,916,0,170,0
628558.0,0,917,0,170,0
628700.0,0,918,0,170,0
629084.0,0,919,0,170,0
629151.0,0,920,0,170,0
629267.0,0,921,0,170,0
634191.0,0,922,0,170,0
634208.0,0,922,0,171,0
634391.0,0,922,0,172,0
634808.0,0,923,0,172,0
634917.0,0,924,0,172,0
634967.0,0,925,0,172,0
636352.0,0,926,0,172,0
636377.0,0,927,0,172,0
636452.0,0,928,0,172,0
636678.0,0,929,0,172,0
637170.0,0,929,0,173,0
637228.0,0,930,0,173,0
637345.0,0,931,0,173,0
637403.0,0,932,0,173,0
637470.0,0,933,0,173,0
637570.0,0,934,0,173,0
637737.0,0,935,0,173,0
637804.0,0,936,0,173,0
638280.0,0,937,0,173,0
638330.0,0,937,0,174,0
638363.0,0,938,0,174,0
638530.0,0,939,0,174,0
640291.0,0,940,0,174,0
640374.0,0,941,0,174,0
640408.0,0,941,0,175,0
640600.0,0,942,0,175,0
640708.0,0,942,0,176,0
640901.0,0,943,0,176,0
643914.0,0,944,0,176,0
643931.0,0,944,0,177,0
643964.0,0,945,0,177,0
644031.0,0,945,0,178,0
644474.0,0,946,0,178,0
644608.0,0,946,0,179,0
644666.0,0,947,0,179,0
647103.0,0,948,0,179,0
647169.0,0,949,0,179,0
647261.0,0,950,0,179,0
647478.0,0,951,0,179,0
648229.0,0,952,0,179,0
648337.0,0,953,0,179,0
648354.0,0,954,0,179,0
648521.0,0,955,0,179,0
648579.0,0,956,0,179,0
648838.0,0,957,0,179,0
648888.0,0,958,0,179,0
649122.0,0,958,0,180,0
649297.0,0,959,0,180,0
649447.0,0,960,0,180,0
649589.0,0,960,0,181,0
649673.0,0,961,0,181,0
657041.0,0,962,0,181,0
657133.0,0,963,0,181,0
657208.0,0,964,0,181,0
657358.0,0,965,0,181,0
657625.0,0,966,0,181,0
657717.0,0,966,0,182,0
657809.0,0,967,0,182,0
657992.0,0,968,0,182,0
658109.0,0,969,0,182,0
658142.0,0,970,0,182,0
658376.0,0,971,0,182,0
658518.0,0,972,0,182,0
668765.0,0,972,0,183,0
668848.0,0,973,0,183,0
668915.0,0,974,0,183,0
669007.0,0,974,0,184,0
669307.0,0,975,0,184,0
669499.0,0,976,0,184,0
669532.0,0,977,0,184,0
669641.0,0,977,0,185,0
669883.0,0,977,0,186,0
669958.0,0,978,0,186,0
670044.0,0,979,0,186,0
670184.0,0,980,0,186,0
670267.0,0,981,0,186,0
670342.0,0,982,0,186,0
670409.0,0,983,0,186,0
670484.0,0,984,0,186,0
670584.0,0,985,0,186,0
670684.0,0,986,0,186,0
670776.0,0,987,0,186,0
670793.0,0,988,0,186,0
670851.0,0,989,0,186,0
670948.0,0,990,0,186,0
670989.0,0,991,0,186,0
671048.0,0,991,0,187,0
671090.0,0,992,0,187,0
671148.0,0,993,0,187,0
671398.0,0,994,0,187,0
671465.0,0,995,0,187,0
671590.0,0,996,0,187,0
671607.0,0,997,0,187,0
671807.0,0,997,0,188,0
671874.0,0,998,0,188,0
672149.0,0,999,0,188,0
672182.0,0,1000,0,188,0
672583.0,0,1001,0,188,0
672633.0,0,1002,0,188,0
672700.0,0,1003,0,188,0
672842.0,0,1004,0,188,0
672875.0,0,1005,0,188,0
674410.0,0,1005,0,189,0
674477.0,0,1006,0,189,0
674561.0,0,1007,0,189,0
674610.0,0,1008,0,189,0
674813.0,0,1009,0,189,0
674830.0,0,1010,0,189,0
674988.0,0,1011,0,189,0
675005.0,0,1012,0,189,0
675022.0,0,1013,0,189,0
675164.0,0,1014,0,189,0
675406.0,0,1015,0,189,0
675472.0,0,1016,0,189,0
675531.0,0,1017,0,189,0
675815.0,0,1018,0,189,0
675856.0,0,1019,0,189,0
675906.0,0,1020,0,189,0
675923.0,0,1021,0,189,0
675990.0,0,1022,0,189,0
676232.0,0,1023,0,189,0
676299.0,0,1024,0,189,0
676474.0,0,1025,0,189,0
676565.0,0,1025,0,190,0
676590.0,0,1025,0,191,0
677174.0,0,1026,0,191,0
680604.0,0,1027,0,191,0
680754.0,0,1028,0,191,0
680770.0,0,1029,0,191,0
680812.0,0,1030,0,191,0
680871.0,0,1031,0,191,0
680912.0,0,1032,0,191,0
680979.0,0,1033,0,191,0
681338.0,0,1034,0,191,0
681388.0,0,1035,0,191,0
681580.0,0,1036,0,191,0
681646.0,0,1037,0,191,0
681730.0,0,1038,0,191,0
683533.0,0,1039,0,191,0
683708.0,0,1040,0,191,0
683758.0,0,1041,0,191,0
683841.0,0,1042,0,191,0
683891.0,0,1042,0,192,0
683916.0,0,1043,0,192,0
683950.0,0,1044,0,192,0
683983.0,0,1045,0,192,0
684125.0,0,1046,0,192,0
684192.0,0,1047,0,192,0
684259.0,0,1048,0,192,0
684309.0,0,1049,0,192,0
684392.0,0,1050,0,192,0
684476.0,0,1051,0,192,0
684559.0,0,1052,0,192,0
684668.0,0,1053,0,192,0
684709.0,0,1054,0,192,0
684726.0,0,1055,0,192,0
684759.0,0,1056,0,192,0
685235.0,0,1056,0,193,0
685269.0,0,1057,0,193,0
685335.0,0,1058,0,193,0
685352.0,0,1059,0,193,0
685510.0,0,1060,0,193,0
685560.0,0,1061,0,193,0
685752.0,0,1062,0,193,0
685769.0,0,1063,0,193,0
692186.0,0,1064,0,193,0
692986.0,0,1064,0,194,0
693203.0,0,1065,0,194,0
693320.0,0,1066,0,194,0
703242.0,0,1067,0,194,0
703325.0,0,1068,0,194,0
703341.0,0,1069,0,194,0
703776.0,0,1070,0,194,0
703842.0,0,1071,0,194,0
703926.0,0,1072,0,194,0
703968.0,0,1073,0,194,0
704059.0,0,1074,0,194,0
706847.0,0,1075,0,194,0
707022.0,0,1076,0,194,0
707105.0,0,1077,0,194,0
707197.0,0,1078,0,194,0
707289.0,0,1078,0,195,0
707406.0,0,1079,0,195,0
707456.0,0,1080,0,195,0
707587.0,0,1081,0,195,0
707656.0,0,1081,0,196,0
707840.0,0,1082,0,196,0
707973.0,0,1083,0,196,0
707998.0,0,1084,0,196,0
708040.0,0,1085,0,196,0
708157.0,0,1086,0,196,0
708415.0,0,1087,0,196,0
708499.0,0,1088,0,196,0
708591.0,0,1089,0,196,0
708683.0,0,1090,0,196,0
708858.0,0,1091,0,196,0
708908.0,0,1092,0,196,0
708991.0,0,1093,0,196,0
709050.0,0,1094,0,196,0
709100.0,0,1095,0,196,0
709233.0,0,1096,0,196,0
709300.0,0,1097,0,196,0
709317.0,0,1098,0,196,0
736410.0,0,1099,0,196,0
736527.0,0,1100,0,196,0
736576.0,0,1101,0,196,0
736593.0,0,1102,0,196,0
736610.0,0,1103,0,196,0
736627.0,0,1104,0,196,0
736718.0,0,1105,0,196,0
736777.0,0,1106,0,196,0
736827.0,0,1107,0,196,0
736843.0,0,1108,0,196,0
736893.0,0,1109,0,196,0
737086.0,0,1110,0,196,0
737102.0,0,1111,0,196,0
737136.0,0,1111,0,197,0
737186.0,0,1112,0,197,0
737219.0,0,1113,0,197,0
737269.0,0,1114,0,197,0
737394.0,0,1115,0,197,0
737453.0,0,1116,0,197,0
737520.0,0,1117,0,197,0
750806.0,0,1118,0,197,0
768625.0,0,1119,0,197,0
768733.0,0,1120,0,197,0
768750.0,0,1121,0,197,0
768800.0,0,1122,0,197,0
768867.0,0,1123,0,197,0
768967.0,0,1124,0,197,0
769050.0,0,1125,0,197,0
769134.0,0,1126,0,197,0
769275.0,0,1127,0,197,0
769659.0,0,1128,0,197,0
769759.0,0,1129,0,197,0
769911.0,0,1129,0,198,0
770218.0,0,1130,0,198,0
770385.0,0,1130,0,199,0
770519.0,0,1131,0,199,0
770602.0,0,1132,0,199,0
770995.0,0,1132,0,200,0
771094.0,0,1133,0,200,0
771228.0,0,1134,0,200,0
771295.0,0,1134,0,201,0
778045.0,0,1135,0,201,0
778246.0,0,1136,0,201,0
778354.0,0,1137,0,201,0
778471.0,0,1138,0,201,0
778554.0,0,1139,0,201,0
778938.0,0,1140,0,201,0
790762.0,0,1141,0,201,0
790812.0,0,1141,0,202,0
791171.0,0,1142,0,202,0
791213.0,0,1143,0,202,0
791288.0,0,1144,0,202,0
791338.0,0,1144,0,203,0
791371.0,0,1144,0,204,0
791438.0,0,1144,0,205,0
791504.0,0,1145,0,205,0
791521.0,0,1146,0,205,0
792264.0,0,1147,0,205,0
792280.0,0,1148,0,205,0
792322.0,0,1149,0,205,0
792422.0,0,1150,0,205,0
792439.0,0,1150,0,206,0
792531.0,0,1151,0,206,0
792614.0,0,1152,0,206,0
792848.0,0,1153,0,206,0
792956.0,0,1154,0,206,0
792973.0,0,1155,0,206,0
793065.0,0,1156,0,206,0
793115.0,0,1157,0,206,0
793181.0,0,1158,0,206,0
793307.0,0,1159,0,206,0
793357.0,0,1160,0,206,0
793540.0,0,1161,0,206,0
793582.0,0,1162,0,206,0
793674.0,0,1163,0,206,0
793724.0,0,1164,0,206,0
793833.0,0,1164,0,207,0
793908.0,0,1165,0,207,0
793941.0,0,1166,0,207,0
794016.0,0,1167,0,207,0
794033.0,0,1168,0,207,0
794116.0,0,1169,0,207,0
794141.0,0,1170,0,207,0
794308.0,0,1171,0,207,0
794391.0,0,1172,0,207,0
794425.0,0,1173,0,207,0
794542.0,0,1174,0,207,0
800859.0,0,1175,0,207,0
800877.0,0,1176,0,207,0
801060.0,0,1176,0,208,0
801110.0,0,1177,0,208,0
801227.0,0,1178,0,208,0
801310.0,0,1179,0,208,0
801385.0,0,1180,0,208,0
801519.0,0,1180,0,209,0
801535.0,0,1181,0,209,0
801653.0,0,1182,0,209,0
801792.0,0,1183,0,209,0
802019.0,0,1184,0,209,0
802095.0,0,1185,0,209,0
802170.0,0,1186,0,209,0
802254.0,0,1187,0,209,0
802312.0,0,1188,0,209,0
802369.0,0,1189,0,209,0
802496.0,0,1190,0,209,0
808221.0,0,1191,0,209,0
808304.0,0,1192,0,209,0
808404.0,0,1193,0,209,0
808554.0,0,1194,0,209,0
808621.0,0,1195,0,209,0
808696.0,0,1195,0,210,0
808771.0,0,1196,0,210,0
808797.0,0,1196,0,211,0
808863.0,0,1197,0,211,0
809348.0,0,1198,0,211,0
811317.0,0,1198,0,212,0
811492.0,0,1199,0,212,0
811559.0,0,1200,0,212,0
811776.0,0,1201,0,212,0
811851.0,0,1202,0,212,0
811926.0,0,1203,0,212,0
812043.0,0,1204,0,212,0
812527.0,0,1204,0,213,0
813169.0,0,1205,0,213,0
813319.0,0,1206,0,213,0
813361.0,0,1207,0,213,0
813536.0,0,1208,0,213,0
813570.0,0,1209,0,213,0
813670.0,0,1210,0,213,0
813686.0,0,1211,0,213,0
813720.0,0,1212,0,213,0
813753.0,0,1213,0,213,0
813787.0,0,1213,0,214,0
813820.0,0,1214,0,214,0
813887.0,0,1215,0,214,0
813903.0,0,1216,0,214,0
813979.0,0,1217,0,214,0
814004.0,0,1218,0,214,0
814045.0,0,1219,0,214,0
814146.0,0,1220,0,214,0
814212.0,0,1221,0,214,0
814229.0,0,1222,0,214,0
814296.0,0,1223,0,214,0
814396.0,0,1224,0,214,0
814463.0,0,1225,0,214,0
824995.0,0,1226,0,214,0
826744.0,0,1227,0,214,0
826835.0,0,1228,0,214,0
826960.0,0,1229,0,214,0
826994.0,0,1230,0,214,0
833078.0,0,1231,0,214,0
833353.0,0,1232,0,214,0
833495.0,0,1233,0,214,0
833562.0,0,1234,0,214,0
833628.0,0,1235,0,214,0
833645.0,0,1236,0,214,0
833795.0,0,1237,0,214,0
833828.0,0,1238,0,214,0
833845.0,0,1239,0,214,0
833945.0,0,1240,0,214,0
834096.0,0,1241,0,214,0
834271.0,0,1242,0,214,0
834338.0,0,1243,0,214,0
834371.0,0,1244,0,214,0
834387.0,0,1245,0,214,0
834471.0,0,1246,0,214,0
834563.0,0,1247,0,214,0
834663.0,0,1247,0,215,0
834930.0,0,1248,0,215,0
834980.0,0,1249,0,215,0
835230.0,0,1250,0,215,0
835489.0,0,1250,0,216,0
835573.0,0,1250,0,217,0
835631.0,0,1251,0,217,0
835664.0,0,1252,0,217,0
835731.0,0,1253,0,217,0
836031.0,0,1254,0,217,0
836132.0,0,1255,0,217,0
836257.0,0,1256,0,217,0
838318.0,0,1257,0,217,0
838468.0,0,1258,0,217,0
838577.0,0,1259,0,217,0
838619.0,0,1260,0,217,0
838635.0,0,1261,0,217,0
838869.0,0,1262,0,217,0
840171.0,0,1263,0,217,0
844068.0,0,1264,0,217,0
844243.0,0,1265,0,217,0
844402.0,0,1266,0,217,0
844519.0,0,1267,0,217,0
844702.0,0,1268,0,217,0
844786.0,0,1269,0,217,0
844844.0,0,1270,0,217,0
844944.0,0,1271,0,217,0
845094.0,0,1272,0,217,0
845111.0,0,1273,0,217,0
847264.0,0,1274,0,217,0
847531.0,0,1275,0,217,0
847656.0,0,1276,0,217,0
847756.0,0,1277,0,217,0
847806.0,0,1278,0,217,0
847873.0,0,1278,0,218,0
848190.0,0,1279,0,218,0
852596.0,0,1280,0,218,0
852713.0,0,1280,0,219,0
852738.0,0,1281,0,219,0
852980.0,0,1282,0,219,0
853055.0,0,1283,0,219,0
853089.0,0,1284,0,219,0
853138.0,0,1285,0,219,0
853155.0,0,1285,0,220,0
853656.0,0,1286,0,220,0
863170.0,0,1287,0,220,0
863237.0,0,1287,0,221,0
863270.0,0,1287,0,222,0
863545.0,0,1288,0,222,0
863837.0,0,1288,0,223,0
863887.0,0,1289,0,223,0
863937.0,0,1290,0,223,0
864046.0,0,1291,0,223,0
864129.0,0,1292,0,223,0
864288.0,0,1293,0,223,0
864471.0,0,1294,0,223,0
864521.0,0,1295,0,223,0
864554.0,0,1296,0,223,0
866407.0,0,1297,0,223,0
866508.0,0,1298,0,223,0
866624.0,0,1298,0,224,0
866716.0,0,1299,0,224,0
866800.0,0,1300,0,224,0
866841.0,0,1301,0,224,0
866942.0,0,1302,0,224,0
867075.0,0,1303,0,224,0
867175.0,0,1304,0,224,0
867192.0,0,1305,0,224,0
867309.0,0,1306,0,224,0
867392.0,0,1306,0,225,0
867417.0,0,1307,0,225,0
867609.0,0,1308,0,225,0
867785.0,0,1309,0,225,0
868035.0,0,1309,0,226,0
868210.0,0,1309,0,227,0
868302.0,0,1310,0,227,0
868443.0,0,1311,0,227,0
868585.0,0,1312,0,227,0
868669.0,0,1313,0,227,0
868761.0,0,1314,0,227,0
868844.0,0,1315,0,227,0
868894.0,0,1315,0,228,0
874218.0,0,1316,0,228,0
874326.0,0,1317,0,228,0
874468.0,0,1318,0,228,0
874518.0,0,1319,0,228,0
874669.0,0,1320,0,228,0
874719.0,0,1320,0,229,0
874819.0,0,1321,0,229,0
874902.0,0,1321,0,230,0
875044.0,0,1322,0,230,0
875244.0,0,1322,0,231,0
887322.0,0,1323,0,231,0
887339.0,0,1323,0,232,0
887523.0,0,1323,0,233,0
887589.0,0,1323,0,234,0
887723.0,0,1323,0,235,0
887781.0,0,1324,0,235,0
887840.0,0,1325,0,235,0
887973.0,0,1326,0,235,0
888090.0,0,1327,0,235,0
888207.0,0,1327,0,236,0
888249.0,0,1328,0,236,0
896334.0,0,1329,0,236,0
896393.0,0,1330,0,236,0
896484.0,0,1331,0,236,0
896576.0,0,1332,0,236,0
896718.0,0,1333,0,236,0
896760.0,0,1334,0,236,0
896843.0,0,1335,0,236,0
896918.0,0,1336,0,236,0
896968.0,0,1337,0,236,0
897035.0,0,1338,0,236,0
897102.0,0,1339,0,236,0
897177.0,0,1340,0,236,0
897218.0,0,1341,0,236,0
897235.0,0,1341,0,237,0
897394.0,0,1342,0,237,0
897486.0,0,1343,0,237,0
897519.0,0,1344,0,237,0
897586.0,0,1344,0,238,0
897602.0,0,1345,0,238,0
897652.0,0,1346,0,238,0
905437.0,0,1347,0,238,0
905654.0,0,1348,0,238,0
905771.0,0,1349,0,238,0
905896.0,0,1350,0,238,0
905930.0,0,1350,0,239,0
907398.0,0,1351,0,239,0
907490.0,0,1352,0,239,0
907581.0,0,1353,0,239,0
907623.0,0,1354,0,239,0
907648.0,0,1354,0,240,0
907688.0,0,1355,0,240,0
907933.0,0,1356,0,240,0
907974.0,0,1357,0,240,0
908033.0,0,1358,0,240,0
908325.0,0,1359,0,240,0
908383.0,0,1359,0,241,0
908400.0,0,1360,0,241,0
908450.0,0,1361,0,241,0
908525.0,0,1362,0,241,0
908575.0,0,1363,0,241,0
908592.0,0,1364,0,241,0
908784.0,0,1365,0,241,0
908850.0,0,1366,0,241,0
908909.0,0,1367,0,241,0
908925.0,0,1368,0,241,0
908992.0,0,1369,0,241,0
909009.0,0,1370,0,241,0
909026.0,0,1370,0,242,0
913673.0,0,1371,0,242,0
913790.0,0,1372,0,242,0
913948.0,0,1373,0,242,0
913990.0,0,1374,0,242,0
914007.0,0,1375,0,242,0
914157.0,0,1376,0,242,0
914190.0,0,1377,0,242,0
914282.0,0,1378,0,242,0
914324.0,0,1379,0,242,0
914374.0,0,1380,0,242,0
914457.0,0,1381,0,242,0
914591.0,0,1382,0,242,0
914950.0,0,1383,0,242,0
914966.0,0,1384,0,242,0
915042.0,0,1385,0,242,0
915108.0,0,1386,0,242,0
915150.0,0,1387,0,242,0
917438.0,0,1388,0,242,0
917596.0,0,1389,0,242,0
917621.0,0,1390,0,242,0
917688.0,0,1391,0,242,0
917704.0,0,1392,0,242,0
917738.0,0,1393,0,242,0
917905.0,0,1394,0,242,0
918088.0,0,1395,0,242,0
918188.0,0,1396,0,242,0
918222.0,0,1397,0,242,0
918305.0,0,1398,0,242,0
918372.0,0,1399,0,242,0
918464.0,0,1399,0,243,0
918689.0,0,1399,0,244,0
918706.0,0,1400,0,244,0
918839.0,0,1401,0,244,0
918964.0,0,1402,0,244,0
919056.0,0,1402,0,245,0
919106.0,0,1403,0,245,0
919281.0,0,1404,0,245,0
919306.0,0,1405,0,245,0
919323.0,0,1405,0,246,0
919749.0,0,1406,0,246,0
919832.0,0,1407,0,246,0
919865.0,0,1408,0,246,0
919882.0,0,1409,0,246,0
919966.0,0,1410,0,246,0
920149.0,0,1410,0,247,0
920258.0,0,1411,0,247,0
920333.0,0,1411,0,248,0
920366.0,0,1412,0,248,0
920449.0,0,1413,0,248,0
920541.0,0,1414,0,248,0
920633.0,0,1415,0,248,0
920675.0,0,1416,0,248,0
920758.0,0,1417,0,248,0
920808.0,0,1417,0,249,0
921851.0,0,1417,0,250,0
921909.0,0,1417,0,251,0
921976.0,0,1418,0,251,0
922027.0,0,1419,0,251,0
922085.0,0,1419,0,252,0
922168.0,0,1420,0,252,0
922218.0,0,1421,0,252,0
922285.0,0,1422,0,252,0
922794.0,0,1423,0,252,0
922986.0,0,1424,0,252,0
923120.0,0,1424,0,253,0
923170.0,0,1425,0,253,0
933241.0,0,1426,0,253,0
933308.0,0,1427,0,253,0
933459.0,0,1427,0,254,0
933634.0,0,1428,0,254,0
933817.0,0,1429,0,254,0
943063.0,0,1430,0,254,0
943163.0,0,1431,0,254,0
943280.0,0,1432,0,254,0
943413.0,0,1433,0,254,0
943480.0,0,1434,0,254,0
943547.0,0,1435,0,254,0
943605.0,0,1436,0,254,0
943697.0,0,1437,0,254,0
943856.0,0,1437,0,255,0
943889.0,0,1438,0,255,0
943914.0,0,1439,0,255,0
944097.0,0,1439,0,256,0
944656.0,0,1440,0,256,0
944715.0,0,1441,0,256,0
944748.0,0,1442,0,256,0
944815.0,0,1443,0,256,0
944873.0,0,1444,0,256,0
945082.0,0,1445,0,256,0
945124.0,0,1446,0,256,0
953618.0,0,1447,0,256,0
953676.0,0,1448,0,256,0
953709.0,0,1448,0,257,0
954335.0,0,1449,0,257,0
954427.0,0,1449,0,258,0
954518.0,0,1450,0,258,0
956413.0,0,1451,0,258,0
956504.0,0,1452,0,258,0
956521.0,0,1453,0,258,0
956571.0,0,1454,0,258,0
956696.0,0,1454,0,259,0
956780.0,0,1455,0,259,0
956830.0,0,1456,0,259,0
957347.0,0,1457,0,259,0
957686.0,0,1458,0,259,0
957806.0,0,1459,0,259,0
957847.0,0,1460,0,259,0
958348.0,0,1461,0,259,0
959091.0,0,1461,0,260,0
959258.0,0,1462,0,260,0
959283.0,0,1463,0,260,0
959299.0,0,1464,0,260,0
959825.0,0,1465,0,260,0
959916.0,0,1466,0,260,0
960108.0,0,1467,0,260,0
960317.0,0,1468,0,260,0
960617.0,0,1469,0,260,0
960685.0,0,1470,0,260,0
960743.0,0,1471,0,260,0
960793.0,0,1472,0,260,0
960877.0,0,1473,0,260,0
960968.0,0,1473,0,261,0
969604.0,0,1474,0,261,0
969630.0,0,1475,0,261,0
969730.0,0,1476,0,261,0
969763.0,0,1476,0,262,0
969880.0,0,1476,0,263,0
969980.0,0,1477,0,263,0
969997.0,0,1478,0,263,0
970072.0,0,1479,0,263,0
970139.0,0,1480,0,263,0
970155.0,0,1481,0,263,0
970606.0,0,1482,0,263,0
970639.0,0,1483,0,263,0
970740.0,0,1484,0,263,0
970831.0,0,1485,0,263,0
971507.0,0,1486,0,263,0
971616.0,0,1486,0,264,0
971632.0,0,1487,0,264,0
972117.0,0,1487,0,265,0
972408.0,0,1488,0,265,0
972692.0,0,1489,0,265,0
972709.0,0,1490,0,265,0
972759.0,0,1490,0,266,0
972834.0,0,1491,0,266,0
972884.0,0,1491,0,267,0
972901.0,0,1492,0,267,0
972984.0,0,1493,0,267,0
973151.0,0,1494,0,267,0
973234.0,0,1495,0,267,0
973368.0,0,1496,0,267,0
975012.0,0,1497,0,267,0
975078.0,0,1498,0,267,0
975112.0,0,1498,0,268,0
975204.0,0,1499,0,268,0
975254.0,0,1500,0,268,0
975412.0,0,1501,0,268,0
975504.0,0,1502,0,268,0
975521.0,0,1503,0,268,0
975929.0,0,1504,0,268,0
976004.0,0,1505,0,268,0
976188.0,0,1506,0,268,0
976463.0,0,1507,0,268,0
976531.0,0,1508,0,268,0
976547.0,0,1509,0,268,0
976664.0,0,1510,0,268,0
976698.0,0,1511,0,268,0
979678.0,0,1511,0,269,0
979811.0,0,1512,0,269,0
979895.0,0,1513,0,269,0
980328.0,0,1513,0,270,0
980361.0,0,1514,0,270,0
980462.0,0,1514,0,271,0
980670.0,0,1515,0,271,0
980804.0,0,1516,0,271,0
988389.0,0,1517,0,271,0
988406.0,0,1518,0,271,0
988464.0,0,1519,0,271,0
988573.0,0,1520,0,271,0
988698.0,0,1521,0,271,0
988723.0,0,1522,0,271,0
988790.0,0,1523,0,271,0
988898.0,0,1524,0,271,0
988998.0,0,1525,0,271,0
993705.0,0,1526,0,271,0
993721.0,0,1527,0,271,0
993738.0,0,1528,0,271,0
993863.0,0,1529,0,271,0
993913.0,0,1530,0,271,0
993980.0,0,1530,0,272,0
994047.0,0,1531,0,272,0
994172.0,0,1532,0,272,0
994330.0,0,1533,0,272,0
994373.0,0,1534,0,272,0
994606.0,0,1535,0,272,0
994707.0,0,1535,0,273,0
994798.0,0,1536,0,273,0
994831.0,0,1537,0,273,0
994923.0,0,1538,0,273,0
994948.0,0,1539,0,273,0
994981.0,0,1539,0,274,0
996717.0,0,1540,0,274,0
996826.0,0,1541,0,274,0
996859.0,0,1542,0,274,0
996901.0,0,1543,0,274,0
997034.0,0,1544,0,274,0
997076.0,0,1545,0,274,0
997126.0,0,1546,0,274,0
997451.0,0,1547,0,274,0
997935.0,0,1548,0,274,0
1004828.0,0,1549,0,274,0
1004879.0,0,1550,0,274,0
1004945.0,0,1551,0,274,0
1004995.0,0,1552,0,274,0
1005938.0,0,1553,0,274,0
1005972.0,0,1553,0,275,0
1006573.0,0,1554,0,275,0
1006748.0,0,1554,0,276,0
1006815.0,0,1555,0,276,0
1006890.0,0,1556,0,276,0
1007140.0,0,1557,0,276,0
1007174.0,0,1558,0,276,0
1007232.0,0,1559,0,276,0
1007290.0,0,1559,0,277,0
1007316.0,0,1560,0,277,0
1007358.0,0,1561,0,277,0
1007424.0,0,1562,0,277,0
1008796.0,0,1563,0,277,0
1008888.0,0,1564,0,277,0
1008905.0,0,1565,0,277,0
1008997.0,0,1565,0,278,0
1009097.0,0,1566,0,278,0
1009231.0,0,1566,0,279,0
1009356.0,0,1567,0,279,0
1009464.0,0,1568,0,279,0
1018151.0,0,1569,0,279,0
1028567.0,0,1570,0,279,0
1028634.0,0,1571,0,279,0
1028667.0,0,1572,0,279,0
1028859.0,0,1573,0,279,0
1028942.0,0,1573,0,280,0
1028993.0,0,1573,0,281,0
1029068.0,0,1574,0,281,0
1029109.0,0,1575,0,281,0
1029168.0,0,1576,0,281,0
1029460.0,0,1577,0,281,0
1029476.0,0,1577,0,282,0
1029543.0,0,1578,0,282,0
1030503.0,0,1578,0,283,0
1030553.0,0,1579,0,283,0
1030586.0,0,1580,0,283,0
1030728.0,0,1581,0,283,0
1030803.0,0,1582,0,283,0
1030837.0,0,1583,0,283,0
1030987.0,0,1584,0,283,0
1031154.0,0,1585,0,283,0
1031220.0,0,1586,0,283,0
1031312.0,0,1587,0,283,0
1031454.0,0,1588,0,283,0
1031537.0,0,1589,0,283,0
1031554.0,0,1590,0,283,0
1031638.0,0,1591,0,283,0
1076188.0,0,1592,0,283,0
1076238.0,0,1592,0,284,0
1076363.0,0,1593,0,284,0
1076388.0,0,1594,0,284,0
1076471.0,0,1595,0,284,0
1076588.0,0,1596,0,284,0
1076738.0,0,1597,0,284,0
1076805.0,0,1598,0,284,0
1076922.0,0,1598,0,285,0
1077005.0,0,1599,0,285,0
1077031.0,0,1600,0,285,0
1077172.0,0,1601,0,285,0
1077214.0,0,1601,0,286,0
1077289.0,0,1602,0,286,0
1077331.0,0,1603,0,286,0
1077365.0,0,1603,0,287,0
1077398.0,0,1603,0,288,0
1077514.0,0,1604,0,288,0
1077548.0,0,1605,0,288,0
1077598.0,0,1606,0,288,0
1077748.0,0,1607,0,288,0
1077848.0,0,1608,0,288,0
1077948.0,0,1609,0,288,0
1077998.0,0,1609,0,289,0
1078057.0,0,1610,0,289,0
1078257.0,0,1611,0,289,0
1078457.0,0,1612,0,289,0
1078524.0,0,1613,0,289,0
1078576.0,0,1614,0,289,0
1078591.0,0,1615,0,289,0
1078707.0,0,1616,0,289,0
1078908.0,0,1617,0,289,0
1078974.0,0,1618,0,289,0
1079208.0,0,1618,0,290,0
1079358.0,0,1619,0,290,0
1082997.0,0,1620,0,290,0
1083030.0,0,1621,0,290,0
1083113.0,0,1622,0,290,0
1083172.0,0,1623,0,290,0
1083205.0,0,1624,0,290,0
1083280.0,0,1625,0,290,0
1083405.0,0,1626,0,290,0
1083480.0,0,1627,0,290,0
1083514.0,0,1628,0,290,0
1083697.0,0,1628,0,291,0
1083731.0,0,1629,0,291,0
1083797.0,0,1630,0,291,0
1083831.0,0,1630,0,292,0
1083906.0,0,1631,0,292,0
1083939.0,0,1632,0,292,0
1084073.0,0,1633,0,292,0
1084432.0,0,1633,0,293,0
1084556.0,0,1634,0,293,0
1084573.0,0,1634,0,294,0
1084665.0,0,1634,0,295,0
1084698.0,0,1635,0,295,0
1084715.0,0,1636,0,295,0
1084815.0,0,1637,0,295,0
1084857.0,0,1638,0,295,0
1085065.0,0,1638,0,296,0
1085157.0,0,1639,0,296,0
1085274.0,0,1640,0,296,0
1085357.0,0,1641,0,296,0
1085424.0,0,1642,0,296,0
1085458.0,0,1643,0,296,0
1085491.0,0,1644,0,296,0
1085558.0,0,1645,0,296,0
1085633.0,0,1646,0,296,0
1085666.0,0,1647,0,296,0
1085683.0,0,1648,0,296,0
1085775.0,0,1648,0,297,0
1085808.0,0,1649,0,297,0
1088128.0,0,1650,0,297,0
1088153.0,0,1650,0,298,0
1088219.0,0,1651,0,298,0
1088236.0,0,1652,0,298,0
1088328.0,0,1653,0,298,0
1088378.0,0,1653,0,299,0
1088420.0,0,1654,0,299,0
1088436.0,0,1655,0,299,0
1088486.0,0,1656,0,299,0
1088511.0,0,1657,0,299,0
1088528.0,0,1658,0,299,0
1088570.0,0,1659,0,299,0
1088587.0,0,1660,0,299,0
1088695.0,0,1660,0,300,0
1088712.0,0,1661,0,300,0
1088762.0,0,1662,0,300,0
1088812.0,0,1663,0,300,0
1088846.0,0,1664,0,300,0
1088879.0,0,1664,0,301,0
1088929.0,0,1665,0,301,0
1089105.0,0,1666,0,301,0
1089154.0,0,1667,0,301,0
1089313.0,0,1668,0,301,0
1089380.0,0,1669,0,301,0
1089414.0,0,1669,0,302,0
1089488.0,0,1670,0,302,0
1089630.0,0,1671,0,302,0
1089739.0,0,1672,0,302,0
1090005.0,0,1673,0,302,0
1090289.0,0,1674,0,302,0
1090405.0,0,1675,0,302,0
1090448.0,0,1676,0,302,0
1093734.0,0,1677,0,302,0
1093834.0,0,1677,0,303,0
1093901.0,0,1678,0,303,0
1093935.0,0,1679,0,303,0
1093951.0,0,1680,0,303,0
1094118.0,0,1681,0,303,0
1094185.0,0,1682,0,303,0
1094202.0,0,1682,0,304,0
1094218.0,0,1683,0,304,0
1094285.0,0,1683,0,305,0
1094360.0,0,1683,0,306,0
1094427.0,0,1683,0,307,0
1094552.0,0,1684,0,307,0
1094585.0,0,1684,0,308,0
1094827.0,0,1685,0,308,0
1095178.0,0,1686,0,308,0
1095253.0,0,1687,0,308,0
1095328.0,0,1688,0,308,0
1095362.0,0,1688,0,309,0
1095495.0,0,1689,0,309,0
1095770.0,0,1690,0,309,0
1095870.0,0,1691,0,309,0
1096955.0,0,1692,0,309,0
1097038.0,0,1693,0,309,0
1097105.0,0,1694,0,309,0
1097205.0,0,1695,0,309,0
1097239.0,0,1696,0,309,0
1097306.0,0,1697,0,309,0
1097339.0,0,1698,0,309,0
1097554.0,0,1699,0,309,0
1097723.0,0,1700,0,309,0
1097740.0,0,1701,0,309,0
1097857.0,0,1702,0,309,0
1098023.0,0,1703,0,309,0
1098299.0,0,1704,0,309,0
1098366.0,0,1704,0,310,0
1098466.0,0,1705,0,310,0
1121782.0,0,1705,0,311,0
1121841.0,0,1706,0,311,0
1121958.0,0,1707,0,311,0
1122158.0,0,1708,0,311,0
1122241.0,0,1709,0,311,0
1122316.0,0,1710,0,311,0
1122750.0,0,1711,0,311,0
1122892.0,0,1712,0,311,0
1123059.0,0,1712,0,312,0
1124937.0,0,1713,0,312,0
1124987.0,0,1714,0,312,0
1125037.0,0,1715,0,312,0
1125053.0,0,1716,0,312,0
1125179.0,0,1717,0,312,0
1125246.0,0,1717,0,313,0
1125855.0,0,1718,0,313,0
1125872.0,0,1719,0,313,0
1134715.0,0,1719,0,314,0
1134749.0,0,1720,0,314,0
1134790.0,0,1721,0,314,0
1134840.0,0,1722,0,314,0
1134857.0,0,1723,0,314,0
1134924.0,0,1724,0,314,0
1135041.0,0,1725,0,314,0
1135266.0,0,1726,0,314,0
1139038.0,0,1727,0,314,0
1139154.0,0,1728,0,314,0
1139188.0,0,1729,0,314,0
1139839.0,0,1730,0,314,0
1140056.0,0,1731,0,314,0
1140122.0,0,1732,0,314,0
1143102.0,0,1732,0,315,0
1143169.0,0,1733,0,315,0
1143285.0,0,1733,0,316,0
1143335.0,0,1734,0,316,0
1143452.0,0,1734,0,317,0
1143565.0,0,1734,0,318,0
1144454.0,0,1735,0,318,0
1144504.0,0,1735,0,319,0
1144537.0,0,1736,0,319,0
1144570.0,0,1737,0,319,0
1144620.0,0,1738,0,319,0
1144754.0,0,1739,0,319,0
1144770.0,0,1740,0,319,0
1144837.0,0,1741,0,319,0
1144946.0,0,1742,0,319,0
1144996.0,0,1743,0,319,0
1145063.0,0,1744,0,319,0
1145113.0,0,1745,0,319,0
1145163.0,0,1745,0,320,0
1145338.0,0,1746,0,320,0
1150654.0,0,1747,0,320,0
1150754.0,0,1748,0,320,0
1150796.0,0,1749,0,320,0
1150837.0,0,1750,0,320,0
1150854.0,0,1751,0,320,0
1150871.0,0,1752,0,320,0
1150988.0,0,1753,0,320,0
1151021.0,0,1754,0,320,0
1151037.0,0,1755,0,320,0
1152122.0,0,1756,0,320,0
1152156.0,0,1757,0,320,0
1152223.0,0,1758,0,320,0
1152556.0,0,1759,0,320,0
1152573.0,0,1760,0,320,0
1152732.0,0,1761,0,320,0
1152748.0,0,1762,0,320,0
1152798.0,0,1763,0,320,0
1154259.0,0,1763,0,321,0
1154276.0,0,1764,0,321,0
1154476.0,0,1765,0,321,0
1154576.0,0,1766,0,321,0
1154693.0,0,1766,0,322,0
1154717.0,0,1767,0,322,0
1154759.0,0,1768,0,322,0
1154793.0,0,1769,0,322,0
1154901.0,0,1770,0,322,0
1155252.0,0,1771,0,322,0
1155285.0,0,1772,0,322,0
1155335.0,0,1772,0,323,0
1155368.0,0,1772,0,324,0
1155452.0,0,1773,0,324,0
1155669.0,0,1774,0,324,0
1155744.0,0,1775,0,324,0
1155777.0,0,1776,0,324,0
1155802.0,0,1777,0,324,0
1155836.0,0,1777,0,325,0
1155861.0,0,1778,0,325,0
1155944.0,0,1779,0,325,0
1156036.0,0,1780,0,325,0
1156128.0,0,1781,0,325,0
1156244.0,0,1782,0,325,0
1156270.0,0,1782,0,326,0
1156303.0,0,1783,0,326,0
1156344.0,0,1784,0,326,0
1156395.0,0,1785,0,326,0
1159599.0,0,1786,0,326,0
1160184.0,0,1787,0,326,0
1162258.0,0,1788,0,326,0
1162366.0,0,1789,0,326,0
1162416.0,0,1790,0,326,0
1162683.0,0,1791,0,326,0
1162700.0,0,1792,0,326,0
1162758.0,0,1793,0,326,0
1162800.0,0,1794,0,326,0
1162834.0,0,1795,0,326,0
1162917.0,0,1796,0,326,0
1162950.0,0,1796,0,327,0
1163000.0,0,1797,0,327,0
1163059.0,0,1798,0,327,0
1163176.0,0,1799,0,327,0
1163226.0,0,1800,0,327,0
1164880.0,0,1801,0,327,0
1164897.0,0,1802,0,327,0
1164947.0,0,1803,0,327,0
1165089.0,0,1804,0,327,0
1165523.0,0,1805,0,327,0
1165564.0,0,1806,0,327,0
1165614.0,0,1807,0,327,0
1165748.0,0,1808,0,327,0
1165781.0,0,1808,0,328,0
1166824.0,0,1809,0,328,0
1167000.0,0,1810,0,328,0
1167350.0,0,1811,0,328,0
1167400.0,0,1812,0,328,0
1167575.0,0,1813,0,328,0
1167642.0,0,1814,0,328,0
1167717.0,0,1815,0,328,0
1167775.0,0,1815,0,329,0
1167851.0,0,1815,0,330,0
1167884.0,0,1816,0,330,0
1167917.0,0,1817,0,330,0
1167967.0,0,1818,0,330,0
1168059.0,0,1819,0,330,0
1174176.0,0,1820,0,330,0
1174234.0,0,1821,0,330,0
1174542.0,0,1822,0,330,0
1174793.0,0,1822,0,331,0
1175193.0,0,1823,0,331,0
1175218.0,0,1824,0,331,0
1176553.0,0,1825,0,331,0
1176745.0,0,1826,0,331,0
1177004.0,0,1827,0,331,0
1177071.0,0,1828,0,331,0
1177137.0,0,1829,0,331,0
1177246.0,0,1830,0,331,0
1177279.0,0,1831,0,331,0
1177313.0,0,1832,0,331,0
1177396.0,0,1833,0,331,0
1177496.0,0,1834,0,331,0
1177530.0,0,1834,0,332,0
1178322.0,0,1835,0,332,0
1178339.0,0,1836,0,332,0
1178356.0,0,1837,0,332,0
1178431.0,0,1838,0,332,0
1178481.0,0,1838,0,333,0
1178598.0,0,1839,0,333,0
1178631.0,0,1840,0,333,0
1178698.0,0,1840,0,334,0
1178748.0,0,1841,0,334,0
1178848.0,0,1842,0,334,0
1178931.0,0,1843,0,334,0
1178965.0,0,1844,0,334,0
1179724.0,0,1845,0,334,0
1179774.0,0,1846,0,334,0
1179791.0,0,1847,0,334,0
1179933.0,0,1848,0,334,0
1179949.0,0,1848,0,335,0
1179999.0,0,1849,0,335,0
1180175.0,0,1850,0,335,0
1180241.0,0,1851,0,335,0
1180400.0,0,1852,0,335,0
1180450.0,0,1853,0,335,0
1180542.0,0,1854,0,335,0
1180601.0,0,1854,0,336,0
1180676.0,0,1855,0,336,0
1180709.0,0,1856,0,336,0
1180759.0,0,1856,0,337,0
1180984.0,0,1857,0,337,0
1181010.0,0,1858,0,337,0
1181076.0,0,1858,0,338,0
1181151.0,0,1859,0,338,0
1181235.0,0,1860,0,338,0
1181368.0,0,1861,0,338,0
1181418.0,0,1862,0,338,0
1181585.0,0,1863,0,338,0
1181652.0,0,1864,0,338,0
1181761.0,0,1865,0,338,0
1181777.0,0,1866,0,338,0
1181861.0,0,1866,0,339,0
1181894.0,0,1867,0,339,0
1182044.0,0,1868,0,339,0
1182161.0,0,1869,0,339,0
1182186.0,0,1870,0,339,0
1182211.0,0,1871,0,339,0
1182294.0,0,1872,0,339,0
1182470.0,0,1873,0,339,0
1182486.0,0,1874,0,339,0
1182503.0,0,1874,0,340,0
1182536.0,0,1875,0,340,0
1182587.0,0,1876,0,340,0
1182603.0,0,1876,0,341,0
1182670.0,0,1877,0,341,0
1182703.0,0,1878,0,341,0
1182737.0,0,1879,0,341,0
1182837.0,0,1880,0,341,0
1182903.0,0,1881,0,341,0
1182920.0,0,1882,0,341,0
1182953.0,0,1883,0,341,0
1183012.0,0,1884,0,341,0
1183096.0,0,1885,0,341,0
1183212.0,0,1885,0,342,0
1183254.0,0,1886,0,342,0
1183321.0,0,1887,0,342,0
1183354.0,0,1888,0,342,0
1183463.0,0,1888,0,343,0
1183479.0,0,1889,0,343,0
1183496.0,0,1890,0,343,0
1183638.0,0,1891,0,343,0
1185782.0,0,1892,0,343,0
1185816.0,0,1893,0,343,0
1185832.0,0,1893,0,344,0
1185899.0,0,1894,0,344,0
1185983.0,0,1895,0,344,0
1186008.0,0,1896,0,344,0
1186024.0,0,1897,0,344,0
1186058.0,0,1897,0,345,0
1186083.0,0,1898,0,345,0
1186133.0,0,1899,0,345,0
1186175.0,0,1899,0,346,0
1186191.0,0,1900,0,346,0
1186216.0,0,1901,0,346,0
1186391.0,0,1902,0,346,0
1186508.0,0,1903,0,346,0
1186659.0,0,1904,0,346,0
1186725.0,0,1905,0,346,0
1186775.0,0,1906,0,346,0
1186909.0,0,1907,0,346,0
1186959.0,0,1908,0,346,0
1187017.0,0,1909,0,346,0
1187726.0,0,1910,0,346,0
1187743.0,0,1910,0,347,0
1187868.0,0,1911,0,347,0
1188160.0,0,1912,0,347,0
1188260.0,0,1913,0,347,0
1188386.0,0,1914,0,347,0
1190247.0,0,1915,0,347,0
1190363.0,0,1916,0,347,0
1191291.0,0,1917,0,347,0
1192443.0,0,1918,0,347,0
1192552.0,0,1919,0,347,0
1192928.0,0,1920,0,347,0
1192961.0,0,1921,0,347,0
1196023.0,0,1922,0,347,0
1196140.0,0,1923,0,347,0
1196224.0,0,1924,0,347,0
1196291.0,0,1925,0,347,0
1196349.0,0,1926,0,347,0
1196391.0,0,1927,0,347,0
1196441.0,0,1928,0,347,0
1196516.0,0,1929,0,347,0
1196608.0,0,1930,0,347,0
1196674.0,0,1931,0,347,0
1196716.0,0,1932,0,347,0
1196866.0,0,1933,0,347,0
1196900.0,0,1934,0,347,0
1197008.0,0,1934,0,348,0
1197384.0,0,1934,0,349,0
1197468.0,0,1934,0,350,0
1197626.0,0,1935,0,350,0
1197885.0,0,1935,0,351,0
1197902.0,0,1936,0,351,0
1197977.0,0,1937,0,351,0
1198093.0,0,1937,0,352,0
1198211.0,0,1938,0,352,0
1198411.0,0,1938,0,353,0
1198470.0,0,1939,0,353,0
1198570.0,0,1940,0,353,0
1199246.0,0,1941,0,353,0
1199279.0,0,1942,0,353,0
1199296.0,0,1942,0,354,0
1199346.0,0,1942,0,355,0
1205021.0,0,1943,0,355,0
1205079.0,0,1944,0,355,0
1205130.0,0,1945,0,355,0
1205171.0,0,1945,0,356,0
1205247.0,0,1946,0,356,0
1205322.0,0,1947,0,356,0
1205572.0,0,1948,0,356,0
1205630.0,0,1949,0,356,0
1205697.0,0,1950,0,356,0
1205714.0,0,1951,0,356,0
1205781.0,0,1952,0,356,0
1206056.0,0,1953,0,356,0
1206198.0,0,1954,0,356,0
1207382.0,0,1955,0,356,0
1207499.0,0,1956,0,356,0
1207658.0,0,1957,0,356,0
1207791.0,0,1958,0,356,0
1207850.0,0,1959,0,356,0
1207867.0,0,1960,0,356,0
1207933.0,0,1961,0,356,0
1209461.0,0,1962,0,356,0
1209594.0,0,1962,0,357,0
1209719.0,0,1963,0,357,0
1213759.0,0,1963,0,358,0
1229703.0,0,1964,0,358,0
1229812.0,0,1965,0,358,0
1229828.0,0,1966,0,358,0
1229845.0,0,1967,0,358,0
1229962.0,0,1968,0,358,0
1230079.0,0,1969,0,358,0
1230112.0,0,1970,0,358,0
1230154.0,0,1970,0,359,0
1230221.0,0,1971,0,359,0
1230237.0,0,1972,0,359,0
1230279.0,0,1973,0,359,0
1230438.0,0,1974,0,359,0
1230813.0,0,1975,0,359,0
1230872.0,0,1976,0,359,0
1230997.0,0,1977,0,359,0
1231039.0,0,1978,0,359,0
1231097.0,0,1979,0,359,0
1231130.0,0,1980,0,359,0
1231147.0,0,1981,0,359,0
1231197.0,0,1982,0,359,0
1231280.0,0,1982,0,360,0
1231331.0,0,1983,0,360,0
1231714.0,0,1984,0,360,0
1231739.0,0,1985,0,360,0
1231806.0,0,1986,0,360,0
1231848.0,0,1987,0,360,0
1231881.0,0,1988,0,360,0
1231915.0,0,1989,0,360,0
1231948.0,0,1990,0,360,0
1245075.0,0,1991,0,360,0
1245158.0,0,1992,0,360,0
1245367.0,0,1993,0,360,0
1245400.0,0,1993,0,361,0
1250977.0,0,1994,0,361,0
1251120.0,0,1995,0,361,0
1251203.0,0,1996,0,361,0
1251253.0,0,1997,0,361,0
1251270.0,0,1998,0,361,0
1251312.0,0,1999,0,361,0
1251345.0,0,2000,0,361,0
1251445.0,0,2001,0,361,0
1251554.0,0,2002,0,361,0
1251579.0,0,2003,0,361,0
1251596.0,0,2003,0,362,0
1256084.0,0,2004,0,362,0
1256151.0,0,2005,0,362,0
1256209.0,0,2006,0,362,0
1256259.0,0,2006,0,363,0
1256293.0,0,2007,0,363,0
1256359.0,0,2008,0,363,0
1256401.0,0,2009,0,363,0
1256535.0,0,2010,0,363,0
1256701.0,0,2010,0,364,0
1256752.0,0,2011,0,364,0
1258846.0,0,2011,0,365,0
1258955.0,0,2012,0,365,0
1259021.0,0,2013,0,365,0
1259063.0,0,2014,0,365,0
1259088.0,0,2014,0,366,0
1259180.0,0,2015,0,366,0
1259347.0,0,2016,0,366,0
1259481.0,0,2016,0,367,0
1260574.0,0,2017,0,367,0
1260590.0,0,2018,0,367,0
1260624.0,0,2019,0,367,0
1263327.0,0,2019,0,368,0
1263393.0,0,2020,0,368,0
1263427.0,0,2021,0,368,0
1263511.0,0,2022,0,368,0
1263535.0,0,2023,0,368,0
1263577.0,0,2024,0,368,0
1263594.0,0,2025,0,368,0
1263611.0,0,2026,0,368,0
1263744.0,0,2027,0,368,0
1263777.0,0,2028,0,368,0
1263794.0,0,2029,0,368,0
1263877.0,0,2029,0,369,0
1263911.0,0,2030,0,369,0
1263994.0,0,2031,0,369,0
1264028.0,0,2032,0,369,0
1264078.0,0,2033,0,369,0
1264111.0,0,2034,0,369,0
1264178.0,0,2034,0,370,0
1264195.0,0,2035,0,370,0
1264311.0,0,2036,0,370,0
1264403.0,0,2037,0,370,0
1264462.0,0,2038,0,370,0
1264487.0,0,2039,0,370,0
1264587.0,0,2040,0,370,0
1264620.0,0,2041,0,370,0
1264637.0,0,2042,0,370,0
1264704.0,0,2043,0,370,0
1264754.0,0,2044,0,370,0
1264971.0,0,2045,0,370,0
1265037.0,0,2046,0,370,0
1265096.0,0,2047,0,370,0
1265112.0,0,2048,0,370,0
1265129.0,0,2049,0,370,0
1265196.0,0,2050,0,370,0
1268426.0,0,2050,0,371,0
1268492.0,0,2051,0,371,0
1268509.0,0,2052,0,371,0
1269009.0,0,2053,0,371,0
1269076.0,0,2054,0,371,0
1269093.0,0,2055,0,371,0
1269135.0,0,2056,0,371,0
1269151.0,0,2056,0,372,0
1269235.0,0,2056,0,373,0
1269476.0,0,2057,0,373,0
1269685.0,0,2058,0,373,0
1269761.0,0,2059,0,373,0
1269861.0,0,2060,0,373,0
1269919.0,0,2061,0,373,0
1269978.0,0,2062,0,373,0
1270019.0,0,2063,0,373,0
1270094.0,0,2064,0,373,0
1270194.0,0,2065,0,373,0
1270294.0,0,2066,0,373,0
1270345.0,0,2067,0,373,0
1270361.0,0,2068,0,373,0
1274325.0,0,2069,0,373,0
1274591.0,0,2070,0,373,0
1274608.0,0,2071,0,373,0
1274808.0,0,2071,0,374,0
1274942.0,0,2071,0,375,0
1274975.0,0,2072,0,375,0
1275059.0,0,2073,0,375,0
1275100.0,0,2073,0,376,0
1275268.0,0,2073,0,377,0
1275334.0,0,2073,0,378,0
1275435.0,0,2074,0,378,0
1275576.0,0,2075,0,378,0
1275643.0,0,2075,0,379,0
1275660.0,0,2076,0,379,0
1275702.0,0,2077,0,379,0
1275719.0,0,2078,0,379,0
1275802.0,0,2079,0,379,0
1275919.0,0,2080,0,379,0
1275935.0,0,2081,0,379,0
1276002.0,0,2082,0,379,0
1276035.0,0,2083,0,379,0
1276152.0,0,2083,0,380,0
1276219.0,0,2084,0,380,0
1277279.0,0,2085,0,380,0
1277512.0,0,2085,0,381,0
1277988.0,0,2085,0,382,0
1278180.0,0,2085,0,383,0
1278263.0,0,2085,0,384,0
1278338.0,0,2086,0,384,0
1278572.0,0,2087,0,384,0
1278655.0,0,2088,0,384,0
1278739.0,0,2089,0,384,0
1282569.0,0,2090,0,384,0
1282719.0,0,2091,0,384,0
1282877.0,0,2092,0,384,0
1282894.0,0,2093,0,384,0
1283070.0,0,2094,0,384,0
1283128.0,0,2095,0,384,0
1283186.0,0,2096,0,384,0
1283220.0,0,2097,0,384,0
1283445.0,0,2098,0,384,0
1288027.0,0,2099,0,384,0
1288160.0,0,2100,0,384,0
1288194.0,0,2101,0,384,0
1288252.0,0,2102,0,384,0
1288561.0,0,2103,0,384,0
1289563.0,0,2104,0,384,0
1289629.0,0,2105,0,384,0
1289771.0,0,2106,0,384,0
1289847.0,0,2107,0,384,0
1289906.0,0,2107,0,385,0
1289963.0,0,2108,0,385,0
1290055.0,0,2109,0,385,0
1290238.0,0,2109,0,386,0
1290497.0,0,2110,0,386,0
1290572.0,0,2111,0,386,0
1290589.0,0,2112,0,386,0
1290848.0,0,2112,0,387,0
1290906.0,0,2113,0,387,0
1290923.0,0,2113,0,388,0
1291015.0,0,2114,0,388,0
1291048.0,0,2115,0,388,0
1291098.0,0,2115,0,389,0
1291190.0,0,2115,0,390,0
1291290.0,0,2115,0,391,0
1291323.0,0,2116,0,391,0
1291382.0,0,2117,0,391,0
1291574.0,0,2118,0,391,0
1291674.0,0,2119,0,391,0
1291841.0,0,2120,0,391,0
1292075.0,0,2121,0,391,0
1292091.0,0,2122,0,391,0
1292183.0,0,2122,0,392,0
1292275.0,0,2122,0,393,0
1292342.0,0,2123,0,393,0
1292567.0,0,2124,0,393,0
1292600.0,0,2125,0,393,0
1292659.0,0,2126,0,393,0
1292692.0,0,2127,0,393,0
1292776.0,0,2128,0,393,0
1295137.0,0,2129,0,393,0
1295396.0,0,2130,0,393,0
1295463.0,0,2130,0,394,0
1296081.0,0,2130,0,395,0
1296139.0,0,2131,0,395,0
1296273.0,0,2131,0,396,0
1296306.0,0,2132,0,396,0
1296473.0,0,2133,0,396,0
1296556.0,0,2133,0,397,0
1300545.0,0,2133,0,398,0
1300612.0,0,2133,0,399,0
1300704.0,0,2134,0,399,0
1300996.0,0,2134,0,400,0
1301012.0,0,2134,0,401,0
1301188.0,0,2135,0,401,0
1301263.0,0,2136,0,401,0
1301363.0,0,2137,0,401,0
1301396.0,0,2138,0,401,0
1301546.0,0,2139,0,401,0
1301563.0,0,2140,0,401,0
1301580.0,0,2140,0,402,0
1301697.0,0,2141,0,402,0
1301814.0,0,2142,0,402,0
1301830.0,0,2142,0,403,0
1301864.0,0,2143,0,403,0
1302114.0,0,2144,0,403,0
1302222.0,0,2145,0,403,0
1305277.0,0,2146,0,403,0
1305369.0,0,2147,0,403,0
1305578.0,0,2147,0,404,0
1305644.0,0,2148,0,404,0
1305786.0,0,2149,0,404,0
1305853.0,0,2150,0,404,0
1305911.0,0,2151,0,404,0
1306003.0,0,2152,0,404,0
1310376.0,0,2153,0,404,0
1310418.0,0,2153,0,405,0
1310477.0,0,2154,0,405,0
1310719.0,0,2155,0,405,0
1311170.0,0,2155,0,406,0
1311219.0,0,2156,0,406,0
1311295.0,0,2157,0,406,0
1311370.0,0,2158,0,406,0
1311428.0,0,2159,0,406,0
1311479.0,0,2160,0,406,0
1311898.0,0,2161,0,406,0
1312032.0,0,2161,0,407,0
1312099.0,0,2162,0,407,0
1312391.0,0,2162,0,408,0
1312516.0,0,2163,0,408,0
1312574.0,0,2163,0,409,0
1312691.0,0,2164,0,409,0
1312758.0,0,2164,0,410,0
1312825.0,0,2165,0,410,0
1313016.0,0,2166,0,410,0
1313083.0,0,2167,0,410,0
1313392.0,0,2168,0,410,0
1313467.0,0,2169,0,410,0
1313551.0,0,2170,0,410,0
1313584.0,0,2171,0,410,0
1313759.0,0,2172,0,410,0
1313810.0,0,2173,0,410,0
1313884.0,0,2174,0,410,0
1314076.0,0,2175,0,410,0
1314151.0,0,2176,0,410,0
1314168.0,0,2177,0,410,0
1314202.0,0,2178,0,410,0
1314327.0,0,2179,0,410,0
1314360.0,0,2179,0,411,0
1314435.0,0,2180,0,411,0
1314452.0,0,2181,0,411,0
1314519.0,0,2182,0,411,0
1314586.0,0,2183,0,411,0
1314894.0,0,2184,0,411,0
1314986.0,0,2185,0,411,0
1315120.0,0,2185,0,412,0
1315169.0,0,2186,0,412,0
1315395.0,0,2187,0,412,0
1315445.0,0,2188,0,412,0
1315528.0,0,2189,0,412,0
1315612.0,0,2190,0,412,0
1315687.0,0,2191,0,412,0
1315837.0,0,2192,0,412,0
1315937.0,0,2193,0,412,0
1316096.0,0,2194,0,412,0
1316155.0,0,2195,0,412,0
1316188.0,0,2196,0,412,0
1316255.0,0,2197,0,412,0
1316413.0,0,2198,0,412,0
1316447.0,0,2198,0,413,0
1316497.0,0,2199,0,413,0
1316588.0,0,2200,0,413,0
1316981.0,0,2200,0,414,0
1317006.0,0,2201,0,414,0
1317089.0,0,2202,0,414,0
1317189.0,0,2203,0,414,0
1317239.0,0,2204,0,414,0
1317323.0,0,2205,0,414,0
1317515.0,0,2206,0,414,0
1317615.0,0,2207,0,414,0
1317707.0,0,2208,0,414,0
1317816.0,0,2208,0,415,0
1317840.0,0,2209,0,415,0
1317873.0,0,2210,0,415,0
1317907.0,0,2211,0,415,0
1318065.0,0,2212,0,415,0
1318099.0,0,2212,0,416,0
1318232.0,0,2213,0,416,0
1318382.0,0,2213,0,417,0
1318416.0,0,2214,0,417,0
1318499.0,0,2215,0,417,0
1318583.0,0,2216,0,417,0
1318649.0,0,2217,0,417,0
1318741.0,0,2218,0,417,0
1318783.0,0,2218,0,418,0
1318892.0,0,2219,0,418,0
1318950.0,0,2220,0,418,0
1319150.0,0,2221,0,418,0
1319167.0,0,2222,0,418,0
1319225.0,0,2223,0,418,0
1319317.0,0,2224,0,418,0
1319367.0,0,2225,0,418,0
1319467.0,0,2226,0,418,0
1319651.0,0,2227,0,418,0
1319684.0,0,2228,0,418,0
1319793.0,0,2229,0,418,0
1319835.0,0,2230,0,418,0
1319934.0,0,2231,0,418,0
1319960.0,0,2231,0,419,0
1320059.0,0,2231,0,420,0
1320126.0,0,2232,0,420,0
1320160.0,0,2232,0,421,0
1320235.0,0,2233,0,421,0
1320260.0,0,2234,0,421,0
1320293.0,0,2235,0,421,0
1320335.0,0,2236,0,421,0
1320410.0,0,2237,0,421,0
1320619.0,0,2238,0,421,0
1320652.0,0,2239,0,421,0
1320702.0,0,2240,0,421,0
1320736.0,0,2240,0,422,0
1320769.0,0,2240,0,423,0
1320802.0,0,2241,0,423,0
1320869.0,0,2242,0,423,0
1320902.0,0,2242,0,424,0
1320978.0,0,2243,0,424,0
1321094.0,0,2244,0,424,0
1321136.0,0,2245,0,424,0
1321203.0,0,2246,0,424,0
1321587.0,0,2247,0,424,0
1321645.0,0,2248,0,424,0
1321712.0,0,2249,0,424,0
1321771.0,0,2249,0,425,0
1321862.0,0,2250,0,425,0
1321912.0,0,2251,0,425,0
1321954.0,0,2252,0,425,0
1322054.0,0,2253,0,425,0
1322121.0,0,2254,0,425,0
1322204.0,0,2255,0,425,0
1322263.0,0,2255,0,426,0
1322388.0,0,2256,0,426,0
1322663.0,0,2257,0,426,0
1322821.0,0,2258,0,426,0
1323155.0,0,2259,0,426,0
1323281.0,0,2259,0,427,0
1323455.0,0,2259,0,428,0
1323572.0,0,2260,0,428,0
1323681.0,0,2261,0,428,0
1323698.0,0,2261,0,429,0
1326727.0,0,2262,0,429,0
1326844.0,0,2263,0,429,0
1326911.0,0,2264,0,429,0
1326936.0,0,2265,0,429,0
1327011.0,0,2266,0,429,0
1327052.0,0,2267,0,429,0
1327111.0,0,2268,0,429,0
1327199.0,0,2268,0,430,0
1327770.0,0,2269,0,430,0
1327787.0,0,2270,0,430,0
1327886.0,0,2270,0,431,0
1327962.0,0,2271,0,431,0
1328062.0,0,2271,0,432,0
1329598.0,0,2272,0,432,0
1329673.0,0,2273,0,432,0
1329689.0,0,2273,0,433,0
1329798.0,0,2274,0,433,0
1330006.0,0,2275,0,433,0
1330465.0,0,2276,0,433,0
1330499.0,0,2277,0,433,0
1330590.0,0,2278,0,433,0
1330657.0,0,2279,0,433,0
1330674.0,0,2280,0,433,0
1330782.0,0,2281,0,433,0
