time,AdrenergicStimulus,CorticalStimulus,EmotionalStimulus,NutritiveStimulus,EvaluationStimulus,FocusStimulus,MuscularStimulus,ProprioceptiveStimulus,SomaticStimulus,VisualStimulus
0.0,2654,2654,2654,28,27,2654,2654,2651,0,2085
1.0,2534,2533,2534,0,1,2533,2533,1903,0,1903
2.0,2516,2516,2516,5,0,2515,2515,1972,0,1937
3.0,2560,2561,2560,0,5,2562,2562,1984,0,1984
4.0,2366,2366,2366,2,0,2366,2366,1525,0,1511
5.0,2356,2356,2356,0,2,2356,2356,1573,0,1573
6.0,2387,2387,2387,0,0,2387,2387,1648,0,1648
7.0,2334,2333,2334,37,0,2333,2333,1736,0,1391
8.0,2579,2580,2579,121,23,2579,2579,2575,0,1423
9.0,2223,2222,2223,20,113,2223,2223,1559,0,1437
10.0,2211,2212,2211,22,42,2212,2212,1544,0,1355
11.0,2214,2212,2214,0,22,2211,2211,1464,0,1464
12.0,2160,2161,2160,33,0,2162,2162,1619,0,1389
13.0,2349,2350,2349,86,0,2349,2349,1997,0,1351
14.0,2100,2100,2100,4,96,2100,2100,1275,0,1262
15.0,2027,2027,2027,2,27,2027,2027,1207,0,1197
16.0,2114,2113,2114,3,0,2114,2114,1266,0,1244
17.0,2000,2001,2000,0,2,2001,2001,1203,0,1203
18.0,2244,2244,2244,6,3,2244,2244,1610,0,1591
19.0,2631,2630,2631,4,1,2630,2630,2174,0,2152
20.0,2589,2589,2589,0,9,2589,2589,2117,0,2117
21.0,2601,2601,2601,0,0,2601,2601,2102,0,2102
22.0,2564,2565,2564,0,0,2565,2565,2082,0,2083
23.0,2592,2592,2592,1,0,2591,2591,2123,0,2119
24.0,2614,2613,2614,0,0,2614,2614,2087,0,2087
25.0,2592,2593,2592,0,1,2591,2591,2087,0,2087
26.0,2544,2544,2544,0,0,2545,2545,2035,0,2035
27.0,2433,2432,2433,0,0,2433,2433,1809,0,1810
28.0,2475,2475,2475,0,0,2475,2475,1849,0,1848
29.0,2456,2457,2456,0,0,2456,2456,1926,0,1926
30.0,2483,2483,2483,0,0,2483,2483,1979,0,1979
31.0,1723,1722,1723,0,0,1722,1722,1374,0,1375
32.0,0,0,0,0,0,0,0,0,0,0
