time,AdrenergicStimulus,CorticalStimulus,EmotionalStimulus,NutritiveStimulus,EvaluationStimulus,FocusStimulus,MuscularStimulus,ProprioceptiveStimulus,SomaticStimulus,VisualStimulus
0.0,1179,1179,1179,8,8,1175,1175,1117,0,922
1.0,1228,1228,1228,0,0,1232,1232,1140,0,1000
2.0,1206,1203,1206,0,0,1203,1203,1035,0,1035
3.0,1189,1192,1189,0,0,1192,1192,948,0,948
4.0,1316,1316,1316,8,8,1311,1311,1280,0,1087
5.0,1361,1360,1361,22,22,1364,1364,1464,0,1035
6.0,1378,1376,1378,30,28,1374,1374,1576,0,780
7.0,1337,1338,1337,17,19,1341,1341,1411,0,820
8.0,1335,1337,1335,14,14,1337,1337,1350,0,855
9.0,1324,1322,1324,22,22,1313,1313,1362,0,930
10.0,1330,1332,1330,16,16,1341,1341,1388,0,951
11.0,1405,1405,1405,16,14,1405,1405,1425,0,1097
12.0,1381,1378,1381,4,6,1371,1371,1430,0,1274
13.0,1317,1320,1317,12,12,1327,1327,1302,0,1083
14.0,1310,1310,1310,5,5,1310,1310,1358,0,1240
15.0,1302,1302,1302,4,4,1292,1292,1210,0,1111
16.0,1335,1334,1335,1,1,1344,1344,1173,0,1139
17.0,1359,1357,1359,2,2,1357,1357,1405,0,1252
18.0,1333,1335,1333,1,1,1335,1335,1275,0,1258
19.0,1369,1369,1369,2,2,1368,1368,1346,0,1274
20.0,1317,1312,1317,3,3,1313,1313,1183,0,1105
21.0,1389,1391,1389,0,0,1390,1390,1347,0,1292
22.0,1331,1335,1331,0,0,1336,1336,1340,0,1291
23.0,1320,1318,1320,0,0,1318,1318,1260,0,1110
24.0,1360,1360,1360,2,2,1348,1348,1391,0,1269
25.0,1297,1299,1297,0,0,1309,1309,1320,0,1247
26.0,1294,1282,1294,0,0,1279,1279,1336,0,1295
27.0,1327,1339,1327,0,0,1338,1338,1255,0,1232
28.0,1257,1249,1257,0,0,1246,1246,1158,0,1155
29.0,1253,1261,1253,0,0,1270,1270,1236,0,1199
30.0,1247,1247,1247,1,1,1241,1241,1058,0,1034
31.0,1296,1294,1296,0,0,1300,1300,1219,0,1209
32.0,1299,1295,1299,1,1,1293,1293,1165,0,1154
33.0,1281,1287,1281,1,1,1289,1289,1224,0,1183
34.0,1228,1228,1228,0,0,1225,1225,1104,0,992
35.0,1270,1267,1270,0,0,1264,1264,1412,0,1226
36.0,1229,1232,1229,0,0,1238,1238,1233,0,1072
37.0,1259,1259,1259,1,1,1258,1258,1280,0,1168
38.0,1329,1327,1329,0,0,1328,1328,1422,0,1241
39.0,1243,1237,1243,0,0,1237,1237,1229,0,1099
40.0,1257,1255,1257,0,0,1249,1249,1308,0,1185
41.0,1239,1244,1239,2,2,1250,1250,1332,0,1198
42.0,1225,1230,1225,0,0,1230,1230,1364,0,1205
43.0,1308,1307,1308,0,0,1306,1306,1310,0,1149
44.0,1295,1292,1295,2,2,1290,1290,1301,0,1174
45.0,1168,1171,1168,0,0,1174,1174,1095,0,1041
46.0,1194,1195,1194,2,2,1195,1195,1131,0,996
47.0,1197,1196,1197,1,1,1190,1190,1076,0,987
48.0,1225,1222,1225,1,1,1228,1228,1182,0,1043
49.0,1199,1198,1199,0,0,1195,1195,1149,0,1004
50.0,1098,1103,1098,0,0,1103,1103,944,0,823
51.0,1175,1174,1175,0,0,1177,1177,1091,0,856
52.0,1087,1088,1087,3,3,1084,1084,998,0,832
53.0,430,426,430,0,0,430,430,465,0,341
54.0,0,0,0,0,0,0,0,0,0,0
