time,AdrenergicStimulus,CorticalStimulus,EmotionalStimulus,NutritiveStimulus,EvaluationStimulus,FocusStimulus,MuscularStimulus,ProprioceptiveStimulus,SomaticStimulus,VisualStimulus
0.0,1385,1385,1385,7,7,1385,1385,1219,0,1054
1.0,1383,1383,1383,7,7,1381,1381,1470,0,955
2.0,1517,1512,1517,19,19,1514,1514,1580,0,1152
3.0,1532,1532,1532,25,25,1526,1526,1704,0,1052
4.0,1538,1543,1538,28,26,1541,1541,1752,0,1285
5.0,1541,1540,1541,20,21,1547,1547,1837,0,1287
6.0,1628,1629,1628,22,23,1627,1627,1881,0,1195
7.0,1570,1569,1570,36,28,1570,1570,1821,0,1266
8.0,1597,1596,1597,19,21,1593,1593,1771,0,1355
9.0,1538,1540,1538,25,27,1545,1545,1643,0,1316
10.0,1550,1544,1550,12,11,1543,1543,1741,0,1453
11.0,1484,1485,1484,6,10,1486,1486,1736,0,1422
12.0,1508,1513,1508,0,1,1513,1513,1642,0,1316
13.0,1521,1511,1521,1,0,1509,1509,1587,0,1394
14.0,1516,1521,1516,2,1,1522,1522,1618,0,1471
15.0,1495,1499,1495,3,5,1500,1500,1534,0,1325
16.0,1506,1506,1506,17,3,1503,1503,1613,0,1325
17.0,1475,1475,1475,0,14,1478,1478,1397,0,1322
18.0,1474,1474,1474,7,3,1471,1471,1520,0,1263
19.0,1479,1479,1479,9,10,1482,1482,1484,0,1220
20.0,1448,1447,1448,7,10,1444,1444,1577,0,1318
21.0,1481,1483,1481,1,0,1486,1486,1531,0,1367
22.0,1534,1530,1534,1,2,1525,1525,1532,0,1230
23.0,1451,1455,1451,0,0,1457,1457,1262,0,1215
24.0,1437,1430,1437,3,3,1432,1432,1350,0,1150
25.0,1452,1458,1452,6,6,1458,1458,1376,0,1132
26.0,1359,1359,1359,3,3,1360,1360,1237,0,1080
27.0,1495,1492,1495,1,1,1492,1492,1460,0,1305
28.0,1443,1442,1443,1,1,1440,1440,1356,0,1205
29.0,1448,1453,1448,1,0,1455,1455,1425,0,1286
30.0,1445,1443,1445,0,1,1443,1443,1307,0,1179
31.0,1448,1445,1448,0,0,1439,1439,1451,0,1221
32.0,1467,1472,1467,2,1,1469,1469,1467,0,1257
33.0,1486,1486,1486,0,1,1494,1494,1552,0,1315
34.0,1539,1538,1539,6,6,1539,1539,1694,0,1341
35.0,1419,1419,1419,1,1,1413,1413,1304,0,1210
36.0,1479,1480,1479,2,2,1482,1482,1387,0,1271
37.0,1477,1477,1477,0,0,1472,1472,1514,0,1269
38.0,1420,1420,1420,0,0,1426,1426,1239,0,1052
39.0,1382,1380,1382,0,0,1383,1383,1258,0,1026
40.0,1462,1464,1462,0,0,1463,1463,1461,0,1295
41.0,1462,1462,1462,1,1,1462,1462,1410,0,1187
42.0,1505,1502,1505,0,0,1502,1502,1662,0,1338
43.0,1391,1392,1391,0,0,1388,1388,1462,0,1144
44.0,1455,1457,1455,2,2,1462,1462,1642,0,1371
45.0,1437,1432,1437,3,3,1432,1432,1476,0,1031
46.0,151,156,151,0,0,156,156,167,0,131
47.0,0,0,0,0,0,0,0,0,0,0
