time,RED_APPLE,GREEN_APPLE,GRAY_APPLE
0.0,0,0,0
0.1,0,1,0
0.2,0,2,0
0.3,0,3,1
0.4,0,6,1
0.5,0,6,1
0.6,2,6,3
0.7,2,6,4
0.8,3,6,5
0.9,3,7,5
1.0,4,7,5
1.1,4,8,5
1.2,4,8,6
1.3,4,9,6
1.4,7,10,6
1.5,7,12,8
1.6,9,15,10
1.7,9,15,10
1.8,10,16,11
1.9,10,17,11
2.0,10,17,11
2.1,11,19,11
2.2,11,19,12
2.3,11,20,14
2.4,11,20,15
2.5,13,22,15
2.6,14,23,15
2.7,15,23,15
2.8,15,26,15
2.9,15,26,15
3.0,15,27,15
3.1,16,28,15
3.2,16,28,15
3.3,20,29,15
3.4,20,29,16
3.5,21,29,16
3.6,21,30,17
3.7,21,31,18
3.8,21,32,18
3.9,21,32,18
4.0,21,32,18
4.1,21,32,20
4.2,21,33,21
4.3,21,35,21
4.4,22,35,21
4.5,22,35,22
4.6,24,35,22
4.7,26,35,22
4.8,26,35,23
4.9,26,35,23
5.0,27,38,23
5.1,28,38,23
5.2,28,41,23
5.3,28,43,23
5.4,28,43,23
5.5,29,43,23
5.6,30,44,24
5.7,30,45,25
5.8,30,45,25
5.9,30,46,25
6.0,30,48,25
6.1,30,48,25
6.2,32,48,26
6.3,32,50,27
6.4,32,51,27
6.5,32,52,27
6.6,32,52,27
6.7,32,52,27
6.8,32,53,27
6.9,32,54,27
7.0,32,54,27
7.1,32,54,27
7.2,32,54,29
7.3,33,55,30
7.4,33,56,31
7.5,33,57,31
7.6,33,59,32
7.7,33,59,34
7.8,34,60,34
7.9,35,60,34
8.0,35,60,34
8.1,35,60,34
8.2,36,61,35
8.3,38,62,35
8.4,41,62,35
8.5,42,62,35
8.6,42,63,35
8.7,42,64,35
8.8,42,64,36
8.9,42,65,37
9.0,42,65,37
9.1,44,65,37
9.2,44,65,37
9.3,44,65,38
9.4,44,65,38
9.5,45,65,38
9.6,45,67,38
9.7,47,69,38
9.8,48,70,38
9.9,48,70,38
10.0,48,70,38
10.1,48,70,38
10.2,48,70,38
10.3,49,72,38
10.4,49,72,38
10.5,49,73,38
10.6,50,73,38
10.7,52,74,38
10.8,53,74,38
10.9,53,74,38
11.0,54,74,38
11.1,54,75,38
11.2,55,80,38
11.3,57,80,38
11.4,57,81,38
11.5,57,81,38
11.6,57,81,38
11.7,57,82,38
11.8,58,82,38
11.9,58,82,38
12.0,58,82,38
12.1,58,82,38
12.2,58,83,38
12.3,58,83,38
12.4,58,83,38
12.5,58,83,38
12.6,59,85,38
12.7,59,85,38
12.8,59,85,38
12.9,59,85,38
13.0,59,85,38
13.1,59,85,38
13.2,59,86,38
13.3,60,87,38
13.4,60,88,38
13.5,61,89,38
13.6,62,90,38
13.7,62,90,38
13.8,63,90,38
13.9,63,90,38
14.0,63,90,38
14.1,63,91,38
14.2,64,92,38
14.3,64,92,38
14.4,64,92,38
14.5,65,92,38
14.6,65,92,38
14.7,65,92,38
14.8,65,92,38
14.9,66,92,38
15.0,67,92,38
15.1,67,94,38
15.2,68,95,38
15.3,68,95,38
15.4,68,97,38
15.5,68,97,38
15.6,68,97,38
15.7,68,97,38
15.8,69,97,38
15.9,70,97,38
16.0,70,97,38
16.1,70,97,38
16.2,70,97,38
16.3,71,97,38
16.4,71,97,38
16.5,71,97,38
16.6,71,97,38
16.7,71,97,38
16.8,71,97,38
16.9,71,98,38
17.0,71,98,38
17.1,72,98,38
17.2,73,98,38
17.3,73,98,38
17.4,73,98,38
17.5,74,98,38
17.6,74,98,38
17.7,75,98,38
17.8,75,98,38
17.9,75,98,38
18.0,75,98,38
18.1,75,98,38
18.2,76,99,38
18.3,76,99,38
18.4,76,99,38
18.5,76,99,38
18.6,77,99,38
18.7,77,99,38
18.8,78,100,38
18.9,79,100,38
19.0,79,100,38
19.1,79,100,38
19.2,80,101,38
19.3,80,101,38
19.4,80,101,38
19.5,80,101,38
19.6,82,101,38
19.7,84,102,38
19.8,84,102,38
19.9,84,102,38
20.0,85,103,38
20.1,85,105,38
20.2,86,105,38
20.3,86,105,38
20.4,86,105,38
20.5,86,106,38
20.6,86,109,38
20.7,86,110,38
20.8,86,110,38
20.9,87,110,38
21.0,87,110,38
21.1,87,110,38
21.2,87,112,38
21.3,87,112,38
21.4,87,112,38
21.5,87,112,38
21.6,87,112,38
21.7,87,112,38
21.8,87,112,38
21.9,87,112,38
22.0,87,113,38
22.1,89,114,38
22.2,90,114,38
22.3,90,114,38
22.4,91,114,38
22.5,92,114,38
22.6,92,116,38
22.7,93,116,38
22.8,93,117,38
22.9,93,117,38
23.0,93,117,38
23.1,93,117,38
23.2,94,117,38
23.3,94,117,38
23.4,94,117,38
23.5,94,117,38
23.6,95,117,38
23.7,95,117,38
23.8,95,117,38
23.9,95,117,38
24.0,95,117,38
24.1,97,117,38
24.2,97,117,38
24.3,97,118,38
24.4,97,118,38
24.5,98,118,38
24.6,98,118,38
24.7,100,118,38
24.8,100,118,38
24.9,101,119,38
25.0,102,120,38
25.1,102,121,38
25.2,102,121,38
25.3,103,121,38
25.4,103,121,38
25.5,103,122,38
25.6,103,122,38
25.7,103,123,38
25.8,103,123,38
25.9,104,125,38
26.0,105,125,38
26.1,105,127,38
26.2,105,128,38
26.3,105,128,38
26.4,105,128,38
26.5,105,129,38
26.6,105,129,38
26.7,107,129,38
26.8,107,129,38
26.9,107,129,38
27.0,107,129,38
27.1,107,129,38
27.2,107,129,38
27.3,107,129,38
27.4,107,130,38
27.5,109,130,38
27.6,109,130,38
