time,AdrenergicStimulus,CorticalStimulus,EmotionalStimulus,NutritiveStimulus,EvaluationStimulus,FocusStimulus,MuscularStimulus,ProprioceptiveStimulus,SomaticStimulus,VisualStimulus
0.0,2550,2550,2550,11,11,2550,2550,2149,0,2028
1.0,2102,2101,2102,0,0,2101,2101,1368,0,1368
2.0,2140,2141,2140,0,0,2141,2141,1386,0,1386
3.0,2308,2308,2308,0,0,2307,2307,1635,0,1636
4.0,2416,2416,2416,0,0,2417,2417,1804,0,1803
5.0,2421,2421,2421,1,1,2420,2420,1732,0,1731
6.0,2578,2578,2578,72,36,2579,2579,2373,0,1688
7.0,2366,2365,2366,0,36,2365,2365,1660,0,1660
8.0,2397,2398,2397,0,0,2398,2398,1744,0,1744
9.0,2311,2311,2311,0,0,2311,2311,1510,0,1510
10.0,2231,2231,2231,2,0,2231,2231,1473,0,1466
11.0,2298,2298,2298,0,2,2297,2297,1531,0,1531
12.0,2318,2318,2318,0,0,2318,2318,1629,0,1628
13.0,2360,2360,2360,9,0,2361,2361,1660,0,1596
14.0,2274,2274,2274,1,9,2274,2274,1536,0,1535
15.0,2376,2376,2376,0,1,2376,2376,1661,0,1661
16.0,2583,2583,2583,9,0,2583,2583,2092,0,2013
17.0,2534,2534,2534,0,7,2533,2533,2073,0,2073
18.0,2614,2614,2614,0,2,2614,2614,2067,0,2067
19.0,2487,2487,2487,2,0,2486,2486,1871,0,1863
20.0,2096,2096,2096,1,0,2098,2098,1370,0,1359
21.0,2043,2043,2043,11,2,2042,2042,1242,0,1179
22.0,2152,2151,2152,1,2,2152,2152,1307,0,1303
23.0,2162,2162,2162,0,10,2162,2162,1364,0,1364
24.0,2143,2144,2143,0,1,2144,2144,1453,0,1451
25.0,2345,2342,2345,0,0,2342,2342,1649,0,1649
26.0,2236,2239,2236,0,0,2239,2239,1543,0,1543
27.0,1969,1969,1969,0,0,1969,1969,1267,0,1267
28.0,2139,2139,2139,0,0,2138,2138,1447,0,1447
29.0,2166,2166,2166,0,0,2167,2167,1447,0,1447
30.0,2128,2128,2128,0,0,2127,2127,1360,0,1360
31.0,330,329,330,0,0,330,330,182,0,183
32.0,0,0,0,0,0,0,0,0,0,0
