time,AdrenergicStimulus,CorticalStimulus,EmotionalStimulus,NutritiveStimulus,EvaluationStimulus,FocusStimulus,MuscularStimulus,ProprioceptiveStimulus,SomaticStimulus,VisualStimulus
0.0,1769,1769,1769,5,5,1769,1769,1544,0,1458
1.0,1433,1432,1433,0,0,1432,1432,915,0,914
2.0,1731,1729,1731,0,0,1729,1729,1143,0,1143
3.0,1699,1702,1699,1,1,1702,1702,1182,0,1163
4.0,1488,1486,1488,0,0,1486,1486,844,0,844
5.0,1564,1564,1564,0,0,1562,1562,971,0,971
6.0,1619,1618,1619,0,0,1620,1620,1110,0,1110
7.0,1792,1795,1792,0,0,1793,1793,1230,0,1230
8.0,1515,1515,1515,0,0,1517,1517,950,0,950
9.0,1734,1734,1734,0,0,1733,1733,1128,0,1128
10.0,1700,1698,1700,1,1,1699,1699,1159,0,1107
11.0,1791,1793,1791,0,0,1790,1790,1258,0,1259
12.0,1663,1661,1663,0,0,1664,1664,1137,0,1131
13.0,1594,1596,1594,2,2,1595,1595,1116,0,1071
14.0,1728,1728,1728,0,0,1729,1729,1306,0,1304
15.0,1779,1779,1779,14,12,1778,1778,1505,0,1149
16.0,1641,1641,1641,0,2,1642,1642,1145,0,1145
17.0,1725,1724,1725,2,2,1723,1723,1276,0,1203
18.0,1627,1628,1627,4,4,1629,1629,1219,0,1162
19.0,1680,1676,1680,0,0,1676,1676,1316,0,1316
20.0,1733,1736,1733,0,0,1736,1736,1282,0,1283
21.0,1706,1704,1706,6,6,1704,1704,1293,0,1225
22.0,1689,1691,1689,0,0,1690,1690,1255,0,1246
23.0,1729,1730,1729,3,3,1729,1729,1458,0,1390
24.0,1686,1686,1686,1,0,1688,1688,1366,0,1344
25.0,1745,1743,1745,5,6,1743,1743,1432,0,1361
26.0,1820,1822,1820,1,1,1821,1821,1575,0,1561
27.0,1717,1717,1717,1,1,1715,1715,1418,0,1381
28.0,1708,1708,1708,0,0,1711,1711,1394,0,1394
29.0,1747,1747,1747,0,0,1745,1745,1361,0,1363
30.0,1761,1761,1761,0,0,1763,1763,1379,0,1377
31.0,1722,1722,1722,0,0,1721,1721,1344,0,1344
32.0,1712,1712,1712,0,0,1712,1712,1358,0,1358
33.0,1813,1810,1813,0,0,1809,1809,1555,0,1555
34.0,1872,1875,1872,0,0,1877,1877,1671,0,1672
35.0,1766,1766,1766,0,0,1764,1764,1499,0,1498
36.0,1759,1758,1759,0,0,1760,1760,1458,0,1458
37.0,1806,1804,1806,0,0,1804,1804,1549,0,1549
38.0,1775,1775,1775,0,0,1773,1773,1411,0,1411
39.0,1680,1683,1680,0,0,1682,1682,1364,0,1364
40.0,1765,1765,1765,0,0,1768,1768,1442,0,1443
41.0,641,640,641,0,0,640,640,491,0,493
42.0,0,0,0,0,0,0,0,0,0,0
