time,AdrenergicStimulus,CorticalStimulus,EmotionalStimulus,NutritiveStimulus,EvaluationStimulus,FocusStimulus,MuscularStimulus,ProprioceptiveStimulus,SomaticStimulus,VisualStimulus
0.0,1186,1182,1186,8,8,1182,1182,1199,0,1062
1.0,1263,1263,1263,0,0,1263,1263,1124,0,1051
2.0,1342,1346,1342,0,0,1346,1346,1117,0,1117
3.0,1165,1165,1165,0,0,1165,1165,931,0,931
4.0,1229,1227,1229,0,0,1227,1227,965,0,965
5.0,1120,1121,1120,0,0,1121,1121,810,0,787
6.0,1180,1181,1180,0,0,1180,1180,810,0,810
7.0,1197,1194,1197,0,0,1193,1193,979,0,943
8.0,1147,1148,1147,0,0,1150,1150,866,0,868
9.0,1224,1226,1224,0,0,1224,1224,955,0,952
10.0,1232,1232,1232,0,0,1234,1234,1042,0,1042
11.0,1117,1117,1117,0,0,1116,1116,874,0,807
12.0,1240,1236,1240,1,1,1235,1235,952,0,882
13.0,1227,1229,1227,1,1,1229,1229,1136,0,924
14.0,1229,1231,1229,1,1,1233,1233,1108,0,711
15.0,1098,1096,1098,4,4,1096,1096,966,0,728
16.0,1120,1122,1120,3,3,1118,1118,933,0,792
17.0,1194,1193,1194,4,4,1197,1197,1079,0,976
18.0,1155,1155,1155,0,0,1147,1147,872,0,864
19.0,1222,1221,1222,0,0,1226,1226,985,0,908
20.0,1102,1100,1102,0,0,1103,1103,831,0,696
21.0,1077,1081,1077,0,0,1081,1081,872,0,712
22.0,1161,1161,1161,0,0,1155,1155,949,0,822
23.0,1138,1138,1138,0,0,1142,1142,952,0,738
24.0,1194,1193,1194,0,0,1195,1195,934,0,800
25.0,1170,1171,1170,2,2,1171,1171,978,0,853
26.0,1212,1210,1212,0,0,1210,1210,1143,0,954
27.0,1294,1296,1294,2,2,1293,1293,1169,0,1106
28.0,1219,1218,1219,4,4,1221,1221,1100,0,936
29.0,1169,1169,1169,0,0,1169,1169,940,0,920
30.0,1186,1182,1186,2,2,1182,1182,1127,0,937
31.0,1211,1216,1211,1,1,1216,1216,1055,0,1010
32.0,1143,1137,1143,0,0,1136,1136,1044,0,1031
33.0,1227,1233,1227,2,2,1234,1234,1049,0,904
34.0,1208,1198,1208,2,2,1197,1197,1221,0,1019
35.0,1191,1196,1191,6,6,1194,1194,1124,0,907
36.0,1140,1145,1140,3,3,1148,1148,1124,0,858
37.0,1197,1197,1197,4,4,1197,1197,1149,0,893
38.0,1091,1090,1091,6,6,1086,1086,922,0,731
39.0,1218,1219,1218,0,0,1218,1218,1320,0,1081
40.0,1149,1149,1149,0,0,1153,1153,1133,0,953
41.0,1198,1198,1198,2,2,1198,1198,1214,0,1023
42.0,1152,1151,1152,2,2,1151,1151,1119,0,951
43.0,1271,1270,1271,0,0,1271,1271,1245,0,1100
44.0,1272,1269,1272,4,4,1267,1267,1285,0,1059
45.0,1198,1199,1198,0,0,1201,1201,1214,0,1107
46.0,1195,1199,1195,1,1,1198,1198,1114,0,949
47.0,1157,1157,1157,2,2,1156,1156,1271,0,1092
48.0,1249,1249,1249,1,1,1251,1251,1377,0,1132
49.0,1246,1246,1246,3,3,1246,1246,1373,0,1122
50.0,1244,1237,1244,0,0,1237,1237,1225,0,1029
51.0,1275,1282,1275,1,1,1282,1282,1470,0,1131
52.0,1212,1212,1212,2,2,1212,1212,1354,0,1067
53.0,1337,1323,1337,0,0,1323,1323,1261,0,1130
54.0,1347,1361,1347,0,0,1361,1361,1028,0,1028
55.0,1541,1540,1541,0,0,1540,1540,1242,0,1242
56.0,860,860,860,0,0,860,860,631,0,631
57.0,0,0,0,0,0,0,0,0,0,0
