time,AdrenergicStimulus,CorticalStimulus,EmotionalStimulus,NutritiveStimulus,EvaluationStimulus,FocusStimulus,MuscularStimulus,ProprioceptiveStimulus,SomaticStimulus,VisualStimulus
0.0,1177,1177,1177,5,5,1174,1174,1097,0,949
1.0,1294,1294,1294,9,9,1296,1296,1192,0,897
2.0,1270,1268,1270,1,1,1269,1269,1242,0,1215
3.0,1330,1332,1330,0,0,1332,1332,1230,0,1230
4.0,1265,1264,1265,0,0,1259,1259,1168,0,1168
5.0,1305,1301,1305,0,0,1302,1302,1118,0,1118
6.0,1292,1297,1292,2,2,1297,1297,1089,0,1046
7.0,1268,1268,1268,6,6,1272,1272,1124,0,989
8.0,1109,1109,1109,0,0,1109,1109,792,0,761
9.0,899,899,899,0,0,899,899,523,0,523
10.0,998,998,998,1,1,998,998,613,0,558
11.0,780,778,780,0,0,774,774,377,0,323
12.0,898,900,898,0,0,904,904,597,0,379
13.0,1134,1127,1134,0,0,1122,1122,1009,0,709
14.0,1196,1203,1196,1,1,1205,1205,1161,0,779
15.0,1278,1277,1278,1,1,1280,1280,1472,0,1024
16.0,1357,1358,1357,11,11,1357,1357,1522,0,932
17.0,1262,1262,1262,4,4,1255,1255,1510,0,926
18.0,1152,1150,1152,1,1,1158,1158,1082,0,942
19.0,1171,1173,1171,10,10,1171,1171,1184,0,883
20.0,1282,1278,1282,4,4,1280,1280,1371,0,1050
21.0,1257,1260,1257,13,13,1258,1258,1385,0,911
22.0,1226,1227,1226,13,13,1229,1229,1287,0,933
23.0,1308,1308,1308,12,12,1301,1301,1417,0,926
24.0,1303,1295,1303,0,0,1302,1302,1236,0,1019
25.0,1223,1230,1223,2,2,1228,1228,1354,0,1072
26.0,1259,1260,1259,0,0,1258,1258,1406,0,1012
27.0,1323,1320,1323,4,4,1324,1324,1267,0,997
28.0,1283,1286,1283,13,13,1286,1286,1363,0,891
29.0,1137,1137,1137,10,10,1137,1137,1045,0,811
30.0,1183,1183,1183,3,3,1178,1178,1213,0,888
31.0,1213,1213,1213,1,1,1214,1214,1164,0,1003
32.0,1271,1271,1271,4,4,1271,1271,1442,0,1207
33.0,1309,1303,1309,8,8,1307,1307,1480,0,1200
34.0,1265,1268,1265,3,3,1268,1268,1404,0,1123
35.0,1264,1267,1264,1,1,1262,1262,1466,0,1191
36.0,1225,1224,1225,1,1,1229,1229,1287,0,1002
37.0,1248,1246,1248,3,3,1245,1245,1320,0,1012
38.0,1226,1229,1226,15,14,1230,1230,1363,0,1086
39.0,1294,1294,1294,4,5,1294,1294,1467,0,1133
40.0,1288,1286,1288,8,8,1286,1286,1476,0,1242
41.0,1219,1213,1219,2,2,1210,1210,1452,0,1077
42.0,1286,1294,1286,2,2,1292,1292,1405,0,1102
43.0,1197,1194,1197,2,2,1186,1186,1304,0,1081
44.0,1189,1187,1189,4,4,1199,1199,1249,0,948
45.0,1227,1228,1227,1,1,1228,1228,1195,0,897
46.0,1169,1165,1169,3,3,1164,1164,1238,0,987
47.0,1105,1113,1105,0,0,1111,1111,978,0,786
48.0,1168,1168,1168,1,1,1171,1171,1107,0,865
49.0,1260,1250,1260,2,2,1250,1250,1336,0,1085
50.0,1278,1283,1278,1,1,1282,1282,1390,0,1117
51.0,1227,1231,1227,0,0,1233,1233,1348,0,1092
52.0,1207,1208,1207,2,2,1206,1206,1310,0,1027
53.0,1417,1416,1417,0,0,1418,1418,1185,0,1128
54.0,1415,1415,1415,0,0,1415,1415,1253,0,1252
55.0,1018,1019,1018,0,0,1017,1017,909,0,909
56.0,0,0,0,0,0,0,0,0,0,0
