time,AdrenergicStimulus,CorticalStimulus,EmotionalStimulus,NutritiveStimulus,EvaluationStimulus,FocusStimulus,MuscularStimulus,ProprioceptiveStimulus,SomaticStimulus,VisualStimulus
0.0,1168,1168,1168,6,6,1167,1167,1185,0,1012
1.0,1242,1242,1242,0,0,1239,1239,1104,0,1104
2.0,1225,1225,1225,0,0,1229,1229,939,0,939
3.0,1101,1101,1101,0,0,1101,1101,692,0,692
4.0,1252,1251,1252,0,0,1250,1250,883,0,883
5.0,1218,1219,1218,0,0,1220,1220,901,0,901
6.0,1227,1227,1227,0,0,1227,1227,855,0,855
7.0,1202,1202,1202,0,0,1201,1201,804,0,804
8.0,1160,1160,1160,0,0,1161,1161,749,0,749
9.0,1204,1204,1204,0,0,1204,1204,853,0,853
10.0,1193,1191,1193,0,0,1190,1190,809,0,809
11.0,1193,1195,1193,0,0,1196,1196,771,0,771
12.0,1196,1194,1196,0,0,1194,1194,782,0,782
13.0,1153,1155,1153,3,3,1155,1155,846,0,800
14.0,1222,1218,1222,0,0,1215,1215,977,0,978
15.0,1271,1275,1271,3,3,1278,1278,1050,0,1041
16.0,1186,1184,1186,1,1,1184,1184,952,0,950
17.0,1203,1201,1203,0,0,1201,1201,890,0,889
18.0,1232,1235,1232,0,0,1235,1235,936,0,936
19.0,1172,1173,1172,0,0,1173,1173,872,0,874
20.0,1247,1245,1247,0,0,1244,1244,985,0,983
21.0,1252,1249,1252,0,0,1247,1247,1014,0,1014
22.0,1175,1173,1175,0,0,1176,1176,940,0,940
23.0,1048,1054,1048,1,1,1054,1054,772,0,691
24.0,1145,1146,1145,4,4,1141,1141,926,0,877
25.0,1253,1253,1253,8,8,1255,1255,1382,0,1217
26.0,1255,1254,1255,18,18,1252,1252,1184,0,945
27.0,1232,1233,1232,2,2,1237,1237,979,0,917
28.0,1098,1098,1098,0,0,1099,1099,662,0,662
29.0,1234,1234,1234,0,0,1231,1231,1013,0,1013
30.0,1290,1287,1290,0,0,1286,1286,1250,0,1233
31.0,1435,1437,1435,6,6,1440,1440,1441,0,1316
32.0,1201,1202,1201,0,0,1203,1203,907,0,907
33.0,1050,1050,1050,0,0,1050,1050,717,0,717
34.0,1207,1205,1207,1,1,1205,1205,1152,0,1149
35.0,1255,1257,1255,0,0,1257,1257,949,0,949
36.0,1157,1157,1157,0,0,1157,1157,790,0,790
37.0,1148,1144,1148,0,0,1144,1144,886,0,894
38.0,1152,1156,1152,0,0,1156,1156,859,0,851
39.0,1244,1242,1244,0,0,1242,1242,906,0,908
40.0,1193,1195,1193,0,0,1194,1194,794,0,792
41.0,1178,1176,1178,0,0,1176,1176,791,0,791
42.0,1098,1099,1098,0,0,1100,1100,690,0,690
43.0,1187,1188,1187,4,4,1188,1188,940,0,904
44.0,1101,1101,1101,0,0,1101,1101,690,0,690
45.0,1316,1316,1316,0,0,1315,1315,1090,0,1090
46.0,1343,1340,1343,0,0,1341,1341,1176,0,1179
47.0,1131,1134,1131,0,0,1133,1133,940,0,937
48.0,1197,1192,1197,0,0,1193,1193,1008,0,1008
49.0,1303,1308,1303,0,0,1308,1308,1229,0,1229
50.0,1275,1275,1275,0,0,1275,1275,1070,0,1071
51.0,1222,1213,1222,0,0,1211,1211,1096,0,1097
52.0,1309,1301,1309,0,0,1301,1301,1273,0,1271
53.0,1258,1275,1258,0,0,1277,1277,1272,0,1272
54.0,1255,1255,1255,0,0,1253,1253,1247,0,1247
55.0,1359,1359,1359,0,0,1361,1361,1063,0,1063
56.0,378,377,378,0,0,375,375,250,0,250
57.0,0,0,0,0,0,0,0,0,0,0
