time,TARGET_DISTANCE,AFFORDANCE,MEMORY,RANDOM,SHORT_TERM_MEMORY
0.0,0,0,0,0,0
0.01,0,0,0,0,0
0.02,0,0,0,0,0
0.03,0,0,0,0,0
0.04,0,0,0,0,0
0.05,0,0,0,1,0
0.06,0,0,0,2,0
0.07,0,0,0,2,0
0.08,0,0,0,2,0
0.09,0,0,0,2,0
0.1,0,0,0,2,0
0.11,0,0,0,2,0
0.12,0,0,0,2,0
0.13,0,0,0,2,0
0.14,0,1,0,2,0
0.15,0,2,0,3,0
0.16,0,3,0,4,0
0.17,0,4,0,4,0
0.18,0,5,0,4,0
0.19,0,6,0,4,0
0.2,0,6,0,4,0
0.21,0,6,0,4,0
0.22,0,6,0,4,0
0.23,0,7,0,5,0
0.24,0,8,0,6,0
0.25,0,9,0,7,0
0.26,0,10,0,8,0
0.27,0,11,0,8,0
0.28,0,11,0,8,0
0.29,0,11,0,8,0
0.3,0,11,0,8,0
0.31,0,11,0,8,0
0.32,0,11,0,8,0
0.33,0,11,0,8,0
0.34,0,12,0,8,0
0.35,0,12,0,8,0
0.36,0,12,0,8,0
0.37,0,12,0,8,0
0.38,0,12,0,8,0
0.39,0,12,0,8,0
0.4,0,12,0,8,0
0.41,0,13,0,8,0
0.42,0,14,0,8,0
0.43,0,14,0,8,0
0.44,0,14,0,8,0
0.45,0,14,0,8,0
0.46,0,14,0,8,0
0.47,0,15,0,8,0
0.48,0,15,0,8,0
0.49,0,15,0,8,0
0.5,0,15,0,8,0
0.51,0,15,0,8,0
0.52,0,15,0,8,0
0.53,0,16,0,8,0
0.54,0,17,0,9,0
0.55,0,17,0,9,0
0.56,0,17,0,9,0
0.57,0,18,0,9,0
0.58,0,19,0,9,0
0.59,0,19,0,9,0
0.6,0,19,0,9,0
0.61,0,20,0,10,0
0.62,0,20,0,11,0
0.63,0,21,0,11,0
0.64,0,22,0,11,0
0.65,0,22,0,11,0
0.66,0,22,0,11,0
0.67,0,22,0,11,0
0.68,0,22,0,11,0
0.69,0,22,0,11,0
0.7,0,22,0,11,0
0.71,0,22,0,11,0
0.72,0,22,0,11,0
0.73,0,22,0,11,0
0.74,0,22,0,11,0
0.75,0,22,0,11,0
0.76,0,22,0,11,0
0.77,0,22,0,11,0
0.78,0,22,0,11,0
0.79,0,22,0,11,0
0.8,0,22,0,11,0
0.81,0,22,0,11,0
0.82,0,22,0,11,0
0.83,0,23,0,11,0
0.84,0,23,0,11,0
0.85,0,24,0,11,0
0.86,0,25,0,12,0
0.87,0,25,0,12,0
0.88,0,25,0,12,0
0.89,0,25,0,12,0
0.9,0,25,0,12,0
0.91,0,25,0,12,0
0.92,0,25,0,12,0
0.93,0,25,0,12,0
0.94,0,25,0,12,0
0.95,0,25,0,12,0
0.96,0,26,0,12,0
0.97,0,27,0,12,0
0.98,0,27,0,13,0
0.99,0,28,0,13,0
1.0,0,28,0,13,0
1.01,0,29,0,13,0
1.02,0,30,0,14,0
1.03,0,31,0,14,0
1.04,0,32,0,15,0
1.05,0,33,0,16,0
1.06,0,34,0,17,0
1.07,0,35,0,17,0
1.08,0,35,0,17,0
1.09,0,36,0,18,0
1.1,0,36,0,18,0
1.11,0,36,0,18,0
1.12,0,36,0,18,0
1.13,0,36,0,18,0
1.14,0,36,0,18,0
1.15,0,36,0,18,0
1.16,0,36,0,18,0
1.17,0,37,0,18,0
1.18,0,37,0,18,0
1.19,0,37,0,18,0
1.2,0,37,0,19,0
1.21,0,38,0,20,0
1.22,0,39,0,21,0
1.23,0,40,0,22,0
1.24,0,41,0,23,0
1.25,0,41,0,23,0
1.26,0,42,0,24,0
1.27,0,42,0,25,0
1.28,0,42,0,25,0
1.29,0,42,0,25,0
1.3,0,42,0,25,0
1.31,0,42,0,25,0
1.32,0,42,0,25,0
1.33,0,42,0,25,0
1.34,0,42,0,25,0
1.35,0,42,0,25,0
1.36,0,43,0,25,0
1.37,0,44,0,25,0
1.38,0,44,0,25,0
1.39,0,45,0,25,0
1.4,0,45,0,25,0
1.41,0,45,0,25,0
1.42,0,45,0,25,0
1.43,0,45,0,25,0
1.44,0,46,0,25,0
1.45,0,47,0,26,0
1.46,0,48,0,26,0
1.47,0,48,0,26,0
1.48,0,48,0,26,0
1.49,0,48,0,26,0
1.5,0,48,0,26,0
1.51,0,48,0,26,0
1.52,0,48,0,26,0
1.53,0,48,0,26,0
1.54,0,48,0,26,0
1.55,0,48,0,26,0
1.56,0,48,0,26,0
1.57,0,48,0,26,0
1.58,0,48,0,26,0
1.59,0,48,0,26,0
1.6,0,48,0,26,0
1.61,0,48,0,26,0
1.62,0,48,0,26,0
1.63,0,48,0,26,0
1.64,0,48,0,26,0
1.65,0,48,0,26,0
1.66,0,48,0,26,0
1.67,0,48,0,26,0
1.68,0,48,0,26,0
1.69,0,48,0,26,0
1.7,0,48,0,26,0
1.71,0,48,0,26,0
1.72,0,48,0,26,0
1.73,0,48,0,26,0
1.74,0,48,0,26,0
1.75,0,48,0,26,0
1.76,0,49,0,26,0
1.77,0,50,0,26,0
1.78,0,51,0,27,0
1.79,0,52,0,28,0
1.8,0,53,0,28,0
1.81,0,54,0,29,0
1.82,0,55,0,29,0
1.83,0,56,0,30,0
1.84,0,56,0,30,0
1.85,0,56,0,30,0
1.86,0,57,0,30,0
1.87,0,58,0,30,0
1.88,0,59,0,30,0
1.89,0,60,0,31,0
1.9,0,60,0,32,0
1.91,0,60,0,32,0
1.92,0,60,0,32,0
1.93,0,60,0,32,0
1.94,0,60,0,32,0
1.95,0,60,0,32,0
1.96,0,60,0,32,0
1.97,0,60,0,32,0
1.98,0,61,0,32,0
1.99,0,62,0,33,0
2.0,0,62,0,33,0
2.01,0,63,0,33,0
2.02,0,64,0,33,0
2.03,0,64,0,33,0
2.04,0,64,0,33,0
2.05,0,64,0,33,0
2.06,0,64,0,33,0
2.07,0,64,0,33,0
2.08,0,64,0,33,0
2.09,0,64,0,33,0
2.1,0,64,0,33,0
2.11,0,64,0,33,0
2.12,0,64,0,33,0
2.13,0,64,0,33,0
2.14,0,64,0,33,0
2.15,0,64,0,33,0
2.16,0,64,0,33,0
2.17,0,64,0,33,0
2.18,0,64,0,33,0
2.19,0,64,0,33,0
2.2,0,64,0,33,0
2.21,0,64,0,33,0
2.22,0,64,0,33,0
2.23,0,64,0,33,0
2.24,0,64,0,33,0
2.25,0,64,0,33,0
2.26,0,64,0,33,0
2.27,0,64,0,33,0
2.28,0,64,0,33,0
2.29,0,64,0,33,0
2.3,0,65,0,33,0
2.31,0,66,0,33,0
2.32,0,66,0,33,0
2.33,0,66,0,33,0
2.34,0,66,0,33,0
2.35,0,66,0,33,0
2.36,0,67,0,34,0
2.37,0,67,0,34,0
2.38,0,67,0,34,0
2.39,0,67,0,34,0
2.4,0,68,0,34,0
2.41,0,69,0,34,0
2.42,0,69,0,34,0
2.43,0,69,0,34,0
2.44,0,69,0,34,0
2.45,0,69,0,34,0
2.46,0,69,0,34,0
2.47,0,69,0,34,0
2.48,0,69,0,34,0
2.49,0,69,0,34,0
2.5,0,69,0,34,0
2.51,0,69,0,34,0
2.52,0,69,0,34,0
2.53,0,69,0,34,0
2.54,0,69,0,34,0
2.55,0,69,0,34,0
2.56,0,69,0,34,0
2.57,0,69,0,34,0
2.58,0,69,0,34,0
2.59,0,69,0,34,0
2.6,0,69,0,34,0
2.61,0,69,0,34,0
2.62,0,69,0,34,0
2.63,0,69,0,34,0
2.64,0,69,0,34,0
2.65,0,69,0,34,0
2.66,0,70,0,34,0
2.67,0,71,0,35,0
2.68,0,71,0,35,0
2.69,0,72,0,35,0
2.7,0,73,0,35,0
2.71,0,74,0,35,0
2.72,0,75,0,35,0
2.73,0,76,0,35,0
2.74,0,77,0,35,0
2.75,0,78,0,35,0
2.76,0,79,0,36,0
2.77,0,79,0,36,0
2.78,0,79,0,36,0
2.79,0,79,0,36,0
2.8,0,79,0,36,0
2.81,0,79,0,36,0
2.82,0,79,0,36,0
2.83,0,79,0,36,0
2.84,0,80,0,37,0
2.85,0,81,0,37,0
2.86,0,82,0,37,0
2.87,0,83,0,37,0
2.88,0,84,0,38,0
2.89,0,85,0,39,0
2.9,0,86,0,40,0
2.91,0,87,0,41,0
2.92,0,88,0,41,0
2.93,0,88,0,41,0
2.94,0,88,0,41,0
2.95,0,88,0,41,0
2.96,0,88,0,41,0
2.97,0,88,0,41,0
2.98,0,88,0,41,0
2.99,0,88,0,41,0
3.0,0,88,0,41,0
3.01,0,88,0,41,0
3.02,0,88,0,41,0
3.03,0,88,0,41,0
3.04,0,88,0,41,0
3.05,0,88,0,41,0
3.06,0,89,0,41,0
3.07,0,89,0,42,0
3.08,0,89,0,42,0
3.09,0,89,0,42,0
3.1,0,89,0,42,0
3.11,0,89,0,42,0
3.12,0,90,0,43,0
3.13,0,91,0,43,0
3.14,0,91,0,43,0
3.15,0,92,0,43,0
3.16,0,93,0,44,0
3.17,0,94,0,44,0
3.18,0,94,0,44,0
3.19,0,94,0,44,0
3.2,0,94,0,44,0
3.21,0,94,0,44,0
3.22,0,94,0,44,0
3.23,0,94,0,44,0
3.24,0,94,0,44,0
3.25,0,94,0,44,0
3.26,0,95,0,44,0
3.27,0,96,0,45,0
3.28,0,96,0,45,0
3.29,0,96,0,45,0
3.3,0,96,0,45,0
3.31,0,96,0,45,0
3.32,0,96,0,45,0
3.33,0,96,0,45,0
3.34,0,96,0,45,0
3.35,0,96,0,45,0
3.36,0,96,0,45,0
3.37,0,96,0,45,0
3.38,0,96,0,45,0
3.39,0,96,0,45,0
3.4,0,96,0,45,0
3.41,0,96,0,45,0
3.42,0,96,0,45,0
3.43,0,96,0,45,0
3.44,0,96,0,45,0
3.45,0,96,0,45,0
3.46,0,96,0,45,0
3.47,0,96,0,45,0
3.48,0,96,0,45,0
3.49,0,96,0,45,0
3.5,0,96,0,45,0
3.51,0,96,0,45,0
3.52,0,96,0,45,0
3.53,0,96,0,45,0
3.54,0,96,0,45,0
3.55,0,96,0,45,0
3.56,0,96,0,45,0
3.57,0,96,0,45,0
3.58,0,96,0,45,0
3.59,0,96,0,45,0
3.6,0,96,0,45,0
3.61,0,96,0,45,0
3.62,0,97,0,45,0
3.63,0,98,0,46,0
3.64,0,99,0,46,0
3.65,0,100,0,46,0
3.66,0,101,0,46,0
3.67,0,102,0,46,0
3.68,0,103,0,47,0
3.69,0,103,0,47,0
3.7,0,103,0,47,0
3.71,0,103,0,47,0
3.72,0,103,0,47,0
3.73,0,103,0,47,0
3.74,0,103,0,47,0
3.75,0,103,0,47,0
3.76,0,103,0,47,0
3.77,0,104,0,47,0
3.78,0,104,0,47,0
3.79,0,104,0,47,0
3.8,0,105,0,48,0
3.81,0,106,0,49,0
3.82,0,107,0,49,0
3.83,0,107,0,49,0
3.84,0,107,0,49,0
3.85,0,107,0,49,0
3.86,0,108,0,49,0
3.87,0,108,0,49,0
3.88,0,108,0,49,0
3.89,0,108,0,49,0
3.9,0,108,0,49,0
3.91,0,109,0,50,0
3.92,0,110,0,51,0
3.93,0,111,0,51,0
3.94,0,112,0,51,0
3.95,0,113,0,51,0
3.96,0,113,0,52,0
3.97,0,113,0,52,0
3.98,0,113,0,52,0
3.99,0,114,0,53,0
4.0,0,114,0,54,0
4.01,0,115,0,54,0
4.02,0,115,0,55,0
4.03,0,115,0,55,0
4.04,0,115,0,55,0
4.05,0,115,0,55,0
4.06,0,115,0,55,0
4.07,0,115,0,55,0
4.08,0,115,0,55,0
4.09,0,115,0,55,0
4.1,0,115,0,55,0
4.11,0,115,0,55,0
4.12,0,115,0,55,0
4.13,0,115,0,55,0
4.14,0,115,0,55,0
4.15,0,115,0,55,0
4.16,0,115,0,55,0
4.17,0,116,0,55,0
4.18,0,117,0,56,0
4.19,0,118,0,56,0
4.2,0,119,0,56,0
4.21,0,119,0,56,0
4.22,0,119,0,56,0
4.23,0,119,0,56,0
4.24,0,119,0,56,0
4.25,0,119,0,56,0
4.26,0,119,0,56,0
4.27,0,119,0,56,0
4.28,0,119,0,56,0
4.29,0,119,0,56,0
4.3,0,120,0,56,0
4.31,0,120,0,56,0
4.32,0,120,0,56,0
4.33,0,121,0,56,0
4.34,0,122,0,56,0
4.35,0,123,0,56,0
4.36,0,124,0,56,0
4.37,0,125,0,56,0
4.38,0,126,0,56,0
4.39,0,127,0,56,0
4.4,0,128,0,56,0
4.41,0,129,0,56,0
4.42,0,130,0,56,0
4.43,0,131,0,56,0
4.44,0,132,0,56,0
4.45,0,132,0,56,0
4.46,0,132,0,56,0
4.47,0,132,0,56,0
4.48,0,133,0,56,0
4.49,0,134,0,56,0
4.5,0,135,0,56,0
4.51,0,135,0,56,0
4.52,0,135,0,56,0
4.53,0,135,0,56,0
4.54,0,136,0,57,0
4.55,0,137,0,58,0
4.56,0,138,0,58,0
4.57,0,139,0,58,0
4.58,0,139,0,58,0
4.59,0,139,0,58,0
4.6,0,140,0,58,0
4.61,0,140,0,58,0
4.62,0,140,0,58,0
4.63,0,140,0,58,0
4.64,0,140,0,58,0
4.65,0,140,0,58,0
4.66,0,140,0,58,0
4.67,0,140,0,59,0
4.68,0,141,0,59,0
4.69,0,142,0,60,0
4.7,0,142,0,60,0
4.71,0,142,0,60,0
4.72,0,142,0,60,0
4.73,0,142,0,60,0
4.74,0,142,0,60,0
4.75,0,142,0,60,0
4.76,0,142,0,60,0
4.77,0,142,0,60,0
4.78,0,142,0,60,0
4.79,0,142,0,60,0
4.8,0,143,0,60,0
4.81,0,143,0,60,0
4.82,0,143,0,60,0
4.83,0,143,0,60,0
4.84,0,143,0,60,0
4.85,0,144,0,60,0
4.86,0,145,0,60,0
4.87,0,146,0,61,0
4.88,0,146,0,61,0
4.89,0,146,0,61,0
4.9,0,146,0,61,0
4.91,0,146,0,61,0
4.92,0,147,0,61,0
4.93,0,147,0,62,0
4.94,0,147,0,62,0
4.95,0,147,0,62,0
4.96,0,147,0,62,0
4.97,0,147,0,62,0
4.98,0,147,0,62,0
4.99,0,147,0,62,0
5.0,0,147,0,62,0
5.01,0,148,0,63,0
5.02,0,148,0,63,0
5.03,0,148,0,63,0
5.04,0,148,0,63,0
5.05,0,148,0,64,0
5.06,0,149,0,65,0
5.07,0,150,0,66,0
5.08,0,151,0,66,0
5.09,0,152,0,66,0
5.1,0,152,0,66,0
5.11,0,152,0,66,0
5.12,0,152,0,66,0
5.13,0,152,0,66,0
5.14,0,153,0,67,0
5.15,0,154,0,67,0
5.16,0,155,0,67,0
5.17,0,156,0,67,0
5.18,0,156,0,67,0
5.19,0,156,0,67,0
5.2,0,157,0,68,0
5.21,0,158,0,68,0
5.22,0,158,0,68,0
5.23,0,159,0,68,0
5.24,0,160,0,68,0
5.25,0,160,0,68,0
5.26,0,160,0,68,0
5.27,0,160,0,68,0
5.28,0,161,0,68,0
5.29,0,162,0,69,0
5.3,0,162,0,69,0
5.31,0,162,0,69,0
5.32,0,163,0,69,0
5.33,0,164,0,69,0
5.34,0,165,0,69,0
5.35,0,165,0,69,0
5.36,0,165,0,69,0
5.37,0,165,0,69,0
5.38,0,165,0,69,0
5.39,0,165,0,69,0
5.4,0,166,0,69,0
5.41,0,167,0,69,0
5.42,0,168,0,70,0
5.43,0,169,0,71,0
5.44,0,170,0,71,0
5.45,0,171,0,71,0
5.46,0,171,0,71,0
5.47,0,171,0,71,0
5.48,0,171,0,71,0
5.49,0,171,0,71,0
5.5,0,171,0,71,0
5.51,0,172,0,71,0
5.52,0,172,0,71,0
5.53,0,173,0,71,0
5.54,0,173,0,72,0
5.55,0,174,0,72,0
5.56,0,174,0,72,0
5.57,0,174,0,72,0
5.58,0,175,0,73,0
5.59,0,176,0,73,0
5.6,0,176,0,73,0
5.61,0,176,0,73,0
5.62,0,176,0,73,0
5.63,0,176,0,73,0
5.64,0,177,0,73,0
5.65,0,178,0,74,0
5.66,0,178,0,74,0
5.67,0,178,0,74,0
5.68,0,178,0,74,0
5.69,0,178,0,74,0
5.7,0,179,0,74,0
5.71,0,179,0,74,0
5.72,0,179,0,74,0
5.73,0,179,0,74,0
5.74,0,180,0,75,0
5.75,0,180,0,75,0
5.76,0,181,0,76,0
5.77,0,181,0,76,0
5.78,0,181,0,76,0
5.79,0,182,0,77,0
5.8,0,183,0,77,0
5.81,0,184,0,78,0
5.82,0,184,0,78,0
5.83,0,185,0,78,0
5.84,0,185,0,78,0
5.85,0,185,0,78,0
5.86,0,185,0,78,0
5.87,0,186,0,79,0
5.88,0,187,0,80,0
5.89,0,187,0,81,0
5.9,0,188,0,81,0
5.91,0,189,0,81,0
5.92,0,189,0,81,0
5.93,0,190,0,81,0
5.94,0,190,0,81,0
5.95,0,190,0,81,0
5.96,0,191,0,82,0
5.97,0,192,0,82,0
5.98,0,192,0,82,0
5.99,0,193,0,82,0
6.0,0,193,0,82,0
6.01,0,193,0,82,0
6.02,0,194,0,82,0
6.03,0,195,0,82,0
6.04,0,196,0,82,0
6.05,0,197,0,82,0
6.06,0,198,0,82,0
6.07,0,199,0,82,0
6.08,0,199,0,82,0
6.09,0,199,0,82,0
6.1,0,199,0,82,0
6.11,0,199,0,82,0
6.12,0,199,0,82,0
6.13,0,199,0,82,0
6.14,0,200,0,83,0
6.15,0,201,0,83,0
6.16,0,202,0,83,0
6.17,0,202,0,84,0
6.18,0,203,0,85,0
6.19,0,204,0,85,0
6.2,0,204,0,85,0
6.21,0,204,0,85,0
6.22,0,204,0,86,0
6.23,0,205,0,86,0
6.24,0,205,0,86,0
6.25,0,206,0,86,0
6.26,0,207,0,86,0
6.27,0,208,0,86,0
6.28,0,208,0,86,0
6.29,0,209,0,86,0
6.3,0,209,0,86,0
6.31,0,209,0,86,0
6.32,0,210,0,86,0
6.33,0,211,0,86,0
6.34,0,212,0,86,0
6.35,0,213,0,86,0
6.36,0,214,0,86,0
6.37,0,215,0,86,0
6.38,0,216,0,87,0
6.39,0,217,0,87,0
6.4,0,218,0,87,0
6.41,0,219,0,87,0
6.42,0,220,0,87,0
6.43,0,221,0,87,0
6.44,0,221,0,87,0
6.45,0,221,0,87,0
6.46,0,221,0,87,0
6.47,0,222,0,87,0
6.48,0,222,0,87,0
6.49,0,222,0,87,0
6.5,0,222,0,87,0
6.51,0,222,0,87,0
6.52,0,222,0,87,0
6.53,0,223,0,87,0
6.54,0,224,0,87,0
6.55,0,224,0,87,0
6.56,0,224,0,87,0
6.57,0,225,0,87,0
6.58,0,225,0,87,0
6.59,0,226,0,87,0
6.6,0,227,0,88,0
6.61,0,227,0,88,0
6.62,0,227,0,88,0
6.63,0,227,0,88,0
6.64,0,227,0,88,0
6.65,0,227,0,88,0
6.66,0,227,0,88,0
6.67,0,227,0,88,0
6.68,0,227,0,88,0
6.69,0,227,0,88,0
6.7,0,228,0,89,0
6.71,0,229,0,90,0
6.72,0,230,0,90,0
6.73,0,231,0,90,0
6.74,0,232,0,91,0
6.75,0,232,0,91,0
6.76,0,232,0,91,0
6.77,0,232,0,92,0
6.78,0,232,0,92,0
6.79,0,232,0,92,0
6.8,0,232,0,92,0
6.81,0,232,0,92,0
6.82,0,232,0,92,0
6.83,0,233,0,92,0
6.84,0,233,0,92,0
6.85,0,233,0,92,0
6.86,0,234,0,92,0
6.87,0,235,0,92,0
6.88,0,236,0,92,0
6.89,0,236,0,92,0
6.9,0,236,0,92,0
6.91,0,236,0,92,0
6.92,0,236,0,92,0
6.93,0,236,0,92,0
6.94,0,237,0,92,0
6.95,0,238,0,93,0
6.96,0,239,0,94,0
6.97,0,240,0,95,0
6.98,0,241,0,95,0
6.99,0,241,0,95,0
7.0,0,242,0,95,0
7.01,0,242,0,95,0
7.02,0,242,0,95,0
7.03,0,243,0,96,0
7.04,0,244,0,96,0
7.05,0,245,0,96,0
7.06,0,246,0,96,0
7.07,0,246,0,96,0
7.08,0,247,0,97,0
7.09,0,248,0,98,0
7.1,0,248,0,99,0
7.11,0,249,0,99,0
7.12,0,249,0,99,0
7.13,0,250,0,99,0
7.14,0,251,0,99,0
7.15,0,252,0,99,0
7.16,0,252,0,99,0
7.17,0,253,0,99,0
7.18,0,253,0,99,0
7.19,0,253,0,99,0
7.2,0,254,0,99,0
7.21,0,255,0,99,0
7.22,0,256,0,99,0
7.23,0,256,0,99,0
7.24,0,256,0,99,0
7.25,0,256,0,99,0
7.26,0,256,0,99,0
7.27,0,257,0,99,0
7.28,0,258,0,99,0
7.29,0,259,0,100,0
7.3,0,260,0,100,0
7.31,0,261,0,100,0
7.32,0,261,0,101,0
7.33,0,262,0,102,0
7.34,0,262,0,102,0
7.35,0,262,0,102,0
7.36,0,262,0,102,0
7.37,0,262,0,102,0
7.38,0,262,0,102,0
7.39,0,262,0,102,0
7.4,0,262,0,102,0
7.41,0,262,0,102,0
7.42,0,263,0,102,0
7.43,0,264,0,102,0
7.44,0,265,0,102,0
7.45,0,265,0,102,0
7.46,0,266,0,102,0
7.47,0,267,0,102,0
7.48,0,268,0,102,0
7.49,0,269,0,103,0
7.5,0,269,0,103,0
7.51,0,270,0,104,0
7.52,0,271,0,104,0
7.53,0,272,0,105,0
7.54,0,272,0,105,0
7.55,0,272,0,105,0
7.56,0,272,0,105,0
7.57,0,273,0,105,0
7.58,0,273,0,106,0
7.59,0,274,0,107,0
7.6,0,275,0,107,0
7.61,0,275,0,107,0
7.62,0,275,0,107,0
7.63,0,276,0,107,0
7.64,0,276,0,108,0
7.65,0,277,0,108,0
7.66,0,277,0,109,0
7.67,0,278,0,109,0
7.68,0,278,0,109,0
7.69,0,278,0,109,0
7.7,0,279,0,109,0
7.71,0,280,0,109,0
7.72,0,280,0,109,0
7.73,0,280,0,109,0
7.74,0,280,0,109,0
7.75,0,280,0,109,0
7.76,0,280,0,109,0
7.77,0,281,0,109,0
7.78,0,281,0,109,0
7.79,0,281,0,109,0
7.8,0,281,0,109,0
7.81,0,281,0,109,0
7.82,0,281,0,109,0
7.83,0,281,0,109,0
7.84,0,281,0,109,0
7.85,0,281,0,109,0
7.86,0,282,0,110,0
7.87,0,283,0,111,0
7.88,0,284,0,112,0
7.89,0,285,0,113,0
7.9,0,286,0,114,0
7.91,0,286,0,114,0
7.92,0,286,0,114,0
7.93,0,287,0,114,0
7.94,0,288,0,114,0
7.95,0,289,0,115,0
7.96,0,290,0,115,0
7.97,0,291,0,115,0
7.98,0,292,0,115,0
7.99,0,293,0,115,0
8.0,0,293,0,115,0
8.01,0,293,0,115,0
8.02,0,293,0,115,0
8.03,0,293,0,115,0
8.04,0,294,0,115,0
8.05,0,295,0,116,0
8.06,0,295,0,116,0
8.07,0,295,0,116,0
8.08,0,295,0,116,0
8.09,0,296,0,116,0
8.1,0,297,0,117,0
8.11,0,297,0,117,0
8.12,0,297,0,117,0
8.13,0,298,0,118,0
8.14,0,299,0,119,0
8.15,0,300,0,119,0
8.16,0,300,0,119,0
8.17,0,301,0,120,0
8.18,0,302,0,120,0
8.19,0,303,0,121,0
8.2,0,304,0,121,0
8.21,0,305,0,121,0
8.22,0,306,0,122,0
8.23,0,307,0,122,0
8.24,0,307,0,122,0
8.25,0,308,0,122,0
8.26,0,309,0,122,0
8.27,0,309,0,122,0
8.28,0,310,0,122,0
8.29,0,311,0,122,0
8.3,0,311,0,122,0
8.31,0,312,0,122,0
8.32,0,312,0,122,0
8.33,0,313,0,122,0
8.34,0,314,0,122,0
8.35,0,315,0,122,0
8.36,0,316,0,122,0
8.37,0,317,0,122,0
8.38,0,318,0,122,0
8.39,0,319,0,123,0
8.4,0,319,0,124,0
8.41,0,319,0,124,0
8.42,0,320,0,124,0
8.43,0,320,0,124,0
8.44,0,320,0,124,0
8.45,0,320,0,124,0
8.46,0,320,0,124,0
8.47,0,320,0,124,0
8.48,0,320,0,124,0
8.49,0,320,0,124,0
8.5,0,321,0,124,0
8.51,0,322,0,124,0
8.52,0,323,0,124,0
8.53,0,323,0,124,0
8.54,0,323,0,124,0
8.55,0,324,0,124,0
8.56,0,325,0,124,0
8.57,0,325,0,124,0
8.58,0,326,0,125,0
8.59,0,326,0,125,0
8.6,0,326,0,125,0
8.61,0,327,0,125,0
8.62,0,328,0,125,0
8.63,0,329,0,126,0
8.64,0,329,0,126,0
8.65,0,329,0,126,0
8.66,0,329,0,126,0
8.67,0,330,0,126,0
8.68,0,330,0,126,0
8.69,0,330,0,126,0
8.7,0,330,0,126,0
8.71,0,330,0,126,0
8.72,0,330,0,126,0
8.73,0,330,0,126,0
8.74,0,330,0,126,0
8.75,0,331,0,127,0
8.76,0,332,0,127,0
8.77,0,332,0,127,0
8.78,0,333,0,127,0
8.79,0,334,0,127,0
8.8,0,335,0,127,0
8.81,0,335,0,127,0
8.82,0,335,0,127,0
8.83,0,335,0,127,0
8.84,0,336,0,127,0
8.85,0,337,0,128,0
8.86,0,337,0,128,0
8.87,0,337,0,128,0
8.88,0,338,0,128,0
8.89,0,338,0,128,0
8.9,0,339,0,129,0
8.91,0,340,0,130,0
8.92,0,341,0,130,0
8.93,0,341,0,130,0
8.94,0,341,0,130,0
8.95,0,341,0,130,0
8.96,0,342,0,130,0
8.97,0,343,0,130,0
8.98,0,343,0,130,0
8.99,0,344,0,130,0
9.0,0,344,0,130,0
9.01,0,344,0,130,0
9.02,0,344,0,130,0
9.03,0,345,0,130,0
9.04,0,346,0,130,0
9.05,0,347,0,130,0
9.06,0,348,0,130,0
9.07,0,348,0,130,0
9.08,0,348,0,130,0
9.09,0,348,0,130,0
9.1,0,348,0,130,0
9.11,0,349,0,131,0
9.12,0,350,0,132,0
9.13,0,350,0,133,0
9.14,0,350,0,133,0
9.15,0,350,0,133,0
9.16,0,350,0,133,0
9.17,0,350,0,133,0
9.18,0,350,0,133,0
9.19,0,350,0,133,0
9.2,0,350,0,134,0
9.21,0,351,0,134,0
9.22,0,351,0,134,0
9.23,0,352,0,134,0
9.24,0,352,0,134,0
9.25,0,353,0,134,0
9.26,0,354,0,134,0
9.27,0,355,0,134,0
9.28,0,355,0,134,0
9.29,0,356,0,134,0
9.3,0,357,0,135,0
9.31,0,357,0,135,0
9.32,0,357,0,135,0
9.33,0,358,0,135,0
9.34,0,358,0,135,0
9.35,0,358,0,136,0
9.36,0,359,0,136,0
9.37,0,359,0,136,0
9.38,0,359,0,136,0
9.39,0,359,0,136,0
9.4,0,360,0,136,0
9.41,0,361,0,136,0
9.42,0,361,0,136,0
9.43,0,362,0,137,0
9.44,0,363,0,137,0
9.45,0,364,0,137,0
9.46,0,365,0,138,0
9.47,0,366,0,138,0
9.48,0,367,0,139,0
9.49,0,368,0,139,0
9.5,0,368,0,139,0
9.51,0,368,0,139,0
9.52,0,368,0,139,0
9.53,0,368,0,139,0
9.54,0,369,0,139,0
9.55,0,369,0,139,0
9.56,0,369,0,139,0
9.57,0,370,0,139,0
9.58,0,370,0,139,0
9.59,0,370,0,139,0
9.6,0,370,0,139,0
9.61,0,370,0,139,0
9.62,0,370,0,139,0
9.63,0,370,0,139,0
9.64,0,371,0,140,0
9.65,0,371,0,140,0
9.66,0,372,0,140,0
9.67,0,373,0,141,0
9.68,0,374,0,142,0
9.69,0,375,0,142,0
9.7,0,376,0,143,0
9.71,0,377,0,144,0
9.72,0,377,0,144,0
9.73,0,377,0,144,0
9.74,0,378,0,144,0
9.75,0,378,0,144,0
9.76,0,379,0,145,0
9.77,0,380,0,145,0
9.78,0,381,0,146,0
9.79,0,381,0,146,0
9.8,0,382,0,146,0
9.81,0,382,0,146,0
9.82,0,382,0,146,0
9.83,0,383,0,146,0
9.84,0,384,0,147,0
9.85,0,385,0,147,0
9.86,0,385,0,147,0
9.87,0,385,0,147,0
9.88,0,385,0,147,0
9.89,0,385,0,147,0
9.9,0,385,0,147,0
9.91,0,385,0,147,0
9.92,0,386,0,147,0
9.93,0,387,0,148,0
9.94,0,387,0,148,0
9.95,0,388,0,148,0
9.96,0,388,0,148,0
9.97,0,389,0,149,0
9.98,0,390,0,149,0
9.99,0,390,0,149,0
10.0,0,391,0,149,0
10.01,0,392,0,149,0
10.02,0,393,0,149,0
10.03,0,394,0,149,0
10.04,0,394,0,149,0
10.05,0,395,0,149,0
10.06,0,396,0,149,0
10.07,0,396,0,149,0
10.08,0,396,0,149,0
10.09,0,396,0,149,0
10.1,0,397,0,149,0
10.11,0,398,0,149,0
10.12,0,398,0,149,0
10.13,0,398,0,150,0
10.14,0,399,0,151,0
10.15,0,399,0,151,0
10.16,0,400,0,151,0
10.17,0,400,0,152,0
10.18,0,401,0,153,0
10.19,0,402,0,153,0
10.2,0,402,0,153,0
10.21,0,403,0,153,0
10.22,0,403,0,153,0
10.23,0,403,0,153,0
10.24,0,403,0,153,0
10.25,0,403,0,153,0
10.26,0,404,0,153,0
10.27,0,405,0,153,0
10.28,0,406,0,154,0
10.29,0,406,0,154,0
10.3,0,406,0,154,0
10.31,0,407,0,155,0
10.32,0,408,0,156,0
10.33,0,409,0,156,0
10.34,0,410,0,157,0
10.35,0,410,0,157,0
10.36,0,410,0,157,0
10.37,0,410,0,157,0
10.38,0,410,0,157,0
10.39,0,411,0,157,0
10.4,0,412,0,158,0
10.41,0,413,0,159,0
10.42,0,414,0,159,0
10.43,0,415,0,159,0
10.44,0,416,0,159,0
10.45,0,417,0,160,0
10.46,0,417,0,160,0
10.47,0,417,0,160,0
10.48,0,417,0,160,0
10.49,0,417,0,160,0
10.5,0,418,0,161,0
10.51,0,418,0,161,0
10.52,0,418,0,161,0
10.53,0,419,0,161,0
10.54,0,420,0,161,0
10.55,0,420,0,161,0
10.56,0,420,0,161,0
10.57,0,420,0,161,0
10.58,0,420,0,161,0
10.59,0,421,0,162,0
10.6,0,422,0,162,0
10.61,0,422,0,162,0
10.62,0,422,0,162,0
10.63,0,423,0,162,0
10.64,0,423,0,162,0
10.65,0,424,0,162,0
10.66,0,425,0,163,0
10.67,0,426,0,163,0
10.68,0,427,0,164,0
10.69,0,428,0,165,0
10.7,0,429,0,166,0
10.71,0,429,0,166,0
10.72,0,429,0,166,0
10.73,0,429,0,167,0
10.74,0,430,0,167,0
10.75,0,430,0,167,0
10.76,0,430,0,167,0
10.77,0,430,0,167,0
10.78,0,431,0,168,0
10.79,0,432,0,169,0
10.8,0,432,0,169,0
10.81,0,432,0,169,0
10.82,0,432,0,169,0
10.83,0,433,0,169,0
10.84,0,433,0,169,0
10.85,0,433,0,169,0
10.86,0,434,0,169,0
10.87,0,435,0,169,0
10.88,0,436,0,169,0
10.89,0,437,0,169,0
10.9,0,437,0,169,0
10.91,0,437,0,169,0
10.92,0,437,0,169,0
10.93,0,437,0,169,0
10.94,0,438,0,170,0
10.95,0,439,0,171,0
10.96,0,440,0,171,0
10.97,0,441,0,171,0
10.98,0,441,0,171,0
10.99,0,441,0,171,0
11.0,0,441,0,171,0
11.01,0,441,0,171,0
11.02,0,442,0,171,0
11.03,0,442,0,171,0
11.04,0,442,0,171,0
11.05,0,442,0,171,0
11.06,0,443,0,172,0
11.07,0,443,0,172,0
11.08,0,443,0,172,0
11.09,0,443,0,172,0
11.1,0,443,0,172,0
11.11,0,444,0,172,0
11.12,0,444,0,172,0
11.13,0,444,0,172,0
11.14,0,445,0,173,0
11.15,0,446,0,173,0
11.16,0,447,0,174,0
11.17,0,448,0,174,0
11.18,0,448,0,174,0
11.19,0,448,0,174,0
11.2,0,449,0,175,0
11.21,0,450,0,175,0
11.22,0,451,0,175,0
11.23,0,452,0,175,0
11.24,0,452,0,175,0
11.25,0,452,0,175,0
11.26,0,452,0,175,0
11.27,0,453,0,175,0
11.28,0,454,0,175,0
11.29,0,454,0,175,0
11.3,0,454,0,175,0
11.31,0,454,0,175,0
11.32,0,455,0,176,0
11.33,0,456,0,176,0
11.34,0,457,0,176,0
11.35,0,457,0,176,0
11.36,0,457,0,176,0
11.37,0,457,0,176,0
11.38,0,457,0,176,0
11.39,0,457,0,176,0
11.4,0,457,0,176,0
11.41,0,457,0,176,0
11.42,0,457,0,176,0
11.43,0,457,0,176,0
11.44,0,458,0,177,0
11.45,0,458,0,177,0
11.46,0,459,0,177,0
11.47,0,459,0,177,0
11.48,0,459,0,177,0
11.49,0,460,0,177,0
11.5,0,460,0,177,0
11.51,0,460,0,177,0
11.52,0,461,0,177,0
11.53,0,462,0,177,0
11.54,0,462,0,177,0
11.55,0,463,0,177,0
11.56,0,464,0,178,0
11.57,0,465,0,179,0
11.58,0,465,0,179,0
11.59,0,465,0,179,0
11.6,0,465,0,179,0
11.61,0,466,0,179,0
11.62,0,466,0,180,0
11.63,0,467,0,180,0
11.64,0,467,0,180,0
11.65,0,467,0,180,0
11.66,0,467,0,180,0
11.67,0,467,0,180,0
11.68,0,468,0,180,0
11.69,0,469,0,180,0
11.7,0,470,0,181,0
11.71,0,471,0,182,0
11.72,0,471,0,182,0
11.73,0,471,0,182,0
11.74,0,472,0,182,0
11.75,0,472,0,182,0
11.76,0,472,0,182,0
11.77,0,473,0,183,0
11.78,0,474,0,183,0
11.79,0,475,0,183,0
11.8,0,476,0,183,0
11.81,0,476,0,183,0
11.82,0,477,0,184,0
11.83,0,478,0,185,0
11.84,0,479,0,186,0
11.85,0,480,0,186,0
11.86,0,480,0,186,0
11.87,0,480,0,186,0
11.88,0,481,0,187,0
11.89,0,481,0,187,0
11.9,0,481,0,187,0
11.91,0,481,0,187,0
11.92,0,482,0,187,0
11.93,0,482,0,187,0
11.94,0,483,0,188,0
11.95,0,484,0,188,0
11.96,0,484,0,188,0
11.97,0,484,0,188,0
11.98,0,484,0,188,0
11.99,0,484,0,188,0
12.0,0,484,0,188,0
12.01,0,484,0,188,0
12.02,0,484,0,188,0
12.03,0,484,0,188,0
12.04,0,484,0,188,0
12.05,0,484,0,188,0
12.06,0,484,0,188,0
12.07,0,484,0,189,0
12.08,0,485,0,189,0
12.09,0,485,0,189,0
12.1,0,485,0,189,0
12.11,0,485,0,189,0
12.12,0,485,0,189,0
12.13,0,485,0,189,0
12.14,0,485,0,189,0
12.15,0,486,0,189,0
12.16,0,487,0,190,0
12.17,0,487,0,190,0
12.18,0,487,0,190,0
12.19,0,487,0,190,0
12.2,0,487,0,190,0
12.21,0,488,0,190,0
12.22,0,488,0,190,0
12.23,0,489,0,191,0
12.24,0,489,0,191,0
12.25,0,489,0,191,0
12.26,0,489,0,191,0
12.27,0,489,0,191,0
12.28,0,490,0,191,0
12.29,0,491,0,192,0
12.3,0,492,0,192,0
12.31,0,492,0,192,0
12.32,0,492,0,192,0
12.33,0,493,0,192,0
12.34,0,494,0,192,0
12.35,0,494,0,192,0
12.36,0,495,0,192,0
12.37,0,496,0,193,0
12.38,0,497,0,193,0
12.39,0,497,0,193,0
12.4,0,497,0,193,0
12.41,0,497,0,193,0
12.42,0,497,0,193,0
12.43,0,498,0,193,0
12.44,0,499,0,194,0
12.45,0,499,0,194,0
12.46,0,499,0,194,0
12.47,0,500,0,194,0
12.48,0,501,0,194,0
12.49,0,502,0,195,0
12.5,0,503,0,196,0
12.51,0,504,0,197,0
12.52,0,505,0,198,0
12.53,0,505,0,198,0
12.54,0,506,0,198,0
12.55,0,507,0,198,0
12.56,0,507,0,198,0
12.57,0,508,0,198,0
12.58,0,508,0,198,0
12.59,0,508,0,198,0
12.6,0,508,0,198,0
12.61,0,508,0,198,0
12.62,0,509,0,198,0
12.63,0,509,0,198,0
12.64,0,509,0,198,0
12.65,0,509,0,198,0
12.66,0,509,0,198,0
12.67,0,509,0,198,0
12.68,0,509,0,198,0
12.69,0,510,0,198,0
12.7,0,510,0,198,0
12.71,0,510,0,198,0
12.72,0,510,0,198,0
12.73,0,511,0,198,0
12.74,0,512,0,199,0
12.75,0,512,0,199,0
12.76,0,512,0,199,0
12.77,0,512,0,199,0
12.78,0,512,0,199,0
12.79,0,512,0,199,0
12.8,0,512,0,199,0
12.81,0,512,0,199,0
12.82,0,512,0,199,0
12.83,0,512,0,199,0
12.84,0,513,0,200,0
12.85,0,514,0,201,0
12.86,0,515,0,202,0
12.87,0,516,0,202,0
12.88,0,517,0,202,0
12.89,0,518,0,203,0
12.9,0,519,0,204,0
12.91,0,519,0,204,0
12.92,0,519,0,204,0
12.93,0,519,0,204,0
12.94,0,520,0,204,0
12.95,0,521,0,204,0
12.96,0,522,0,204,0
12.97,0,522,0,204,0
12.98,0,523,0,204,0
12.99,0,523,0,204,0
13.0,0,524,0,204,0
13.01,0,525,0,204,0
13.02,0,525,0,204,0
13.03,0,525,0,204,0
13.04,0,525,0,204,0
13.05,0,526,0,205,0
13.06,0,527,0,206,0
13.07,0,528,0,207,0
13.08,0,528,0,207,0
13.09,0,529,0,207,0
13.1,0,530,0,207,0
13.11,0,530,0,207,0
13.12,0,530,0,207,0
13.13,0,530,0,207,0
13.14,0,530,0,207,0
13.15,0,531,0,207,0
13.16,0,532,0,208,0
13.17,0,533,0,208,0
13.18,0,533,0,208,0
13.19,0,533,0,208,0
13.2,0,533,0,208,0
13.21,0,533,0,208,0
13.22,0,533,0,208,0
13.23,0,533,0,208,0
13.24,0,533,0,208,0
13.25,0,534,0,208,0
13.26,0,535,0,209,0
13.27,0,535,0,209,0
13.28,0,536,0,210,0
13.29,0,536,0,210,0
13.3,0,536,0,210,0
13.31,0,536,0,210,0
13.32,0,536,0,210,0
13.33,0,536,0,210,0
13.34,0,536,0,210,0
13.35,0,536,0,210,0
13.36,0,536,0,210,0
13.37,0,536,0,210,0
13.38,0,536,0,210,0
13.39,0,536,0,210,0
13.4,0,536,0,210,0
13.41,0,536,0,210,0
13.42,0,536,0,210,0
13.43,0,536,0,210,0
13.44,0,536,0,210,0
13.45,0,536,0,210,0
13.46,0,536,0,210,0
13.47,0,536,0,210,0
13.48,0,537,0,210,0
13.49,0,537,0,210,0
13.5,0,537,0,210,0
13.51,0,537,0,210,0
13.52,0,537,0,210,0
13.53,0,537,0,210,0
13.54,0,537,0,210,0
13.55,0,537,0,210,0
13.56,0,537,0,210,0
13.57,0,537,0,210,0
13.58,0,537,0,210,0
13.59,0,537,0,210,0
13.6,0,537,0,210,0
13.61,0,537,0,210,0
13.62,0,537,0,210,0
13.63,0,537,0,210,0
13.64,0,537,0,210,0
13.65,0,537,0,210,0
13.66,0,537,0,210,0
13.67,0,537,0,210,0
13.68,0,537,0,210,0
13.69,0,537,0,210,0
13.7,0,537,0,210,0
13.71,0,537,0,210,0
13.72,0,537,0,210,0
13.73,0,537,0,210,0
13.74,0,538,0,211,0
13.75,0,539,0,211,0
13.76,0,539,0,211,0
13.77,0,539,0,211,0
13.78,0,539,0,211,0
13.79,0,539,0,211,0
13.8,0,539,0,211,0
13.81,0,539,0,211,0
13.82,0,539,0,211,0
13.83,0,539,0,211,0
13.84,0,540,0,211,0
13.85,0,541,0,211,0
13.86,0,541,0,211,0
13.87,0,541,0,211,0
13.88,0,541,0,211,0
13.89,0,541,0,211,0
13.9,0,541,0,211,0
13.91,0,541,0,211,0
13.92,0,542,0,211,0
13.93,0,542,0,211,0
13.94,0,542,0,211,0
13.95,0,542,0,211,0
13.96,0,542,0,211,0
13.97,0,542,0,211,0
13.98,0,543,0,211,0
13.99,0,544,0,212,0
14.0,0,544,0,212,0
14.01,0,545,0,213,0
14.02,0,546,0,213,0
14.03,0,547,0,213,0
14.04,0,548,0,213,0
14.05,0,549,0,213,0
14.06,0,550,0,213,0
14.07,0,551,0,214,0
14.08,0,552,0,215,0
14.09,0,553,0,216,0
14.1,0,554,0,217,0
14.11,0,555,0,218,0
14.12,0,555,0,218,0
14.13,0,555,0,218,0
14.14,0,555,0,218,0
14.15,0,555,0,218,0
14.16,0,555,0,218,0
14.17,0,555,0,218,0
14.18,0,555,0,218,0
14.19,0,555,0,218,0
14.2,0,555,0,218,0
14.21,0,555,0,218,0
14.22,0,555,0,218,0
14.23,0,555,0,218,0
14.24,0,556,0,218,0
14.25,0,557,0,219,0
14.26,0,558,0,220,0
14.27,0,558,0,220,0
14.28,0,558,0,220,0
14.29,0,558,0,220,0
14.3,0,558,0,220,0
14.31,0,558,0,220,0
14.32,0,558,0,220,0
14.33,0,558,0,220,0
14.34,0,558,0,220,0
14.35,0,558,0,220,0
14.36,0,558,0,220,0
14.37,0,559,0,221,0
14.38,0,560,0,221,0
14.39,0,561,0,222,0
14.4,0,561,0,222,0
14.41,0,562,0,222,0
14.42,0,563,0,223,0
14.43,0,564,0,223,0
14.44,0,564,0,223,0
14.45,0,564,0,223,0
14.46,0,564,0,223,0
14.47,0,564,0,223,0
14.48,0,564,0,223,0
14.49,0,564,0,223,0
14.5,0,564,0,223,0
14.51,0,564,0,223,0
14.52,0,564,0,223,0
14.53,0,564,0,223,0
14.54,0,564,0,223,0
14.55,0,564,0,223,0
14.56,0,564,0,223,0
14.57,0,564,0,223,0
14.58,0,564,0,223,0
14.59,0,564,0,223,0
14.6,0,564,0,223,0
14.61,0,564,0,223,0
14.62,0,564,0,223,0
14.63,0,565,0,223,0
14.64,0,566,0,224,0
14.65,0,567,0,225,0
14.66,0,568,0,225,0
14.67,0,568,0,225,0
14.68,0,568,0,225,0
14.69,0,568,0,225,0
14.7,0,568,0,225,0
14.71,0,568,0,225,0
14.72,0,568,0,225,0
14.73,0,568,0,225,0
14.74,0,569,0,225,0
14.75,0,570,0,226,0
14.76,0,571,0,226,0
14.77,0,572,0,226,0
14.78,0,572,0,226,0
14.79,0,572,0,226,0
14.8,0,573,0,226,0
14.81,0,573,0,226,0
14.82,0,574,0,227,0
14.83,0,575,0,228,0
14.84,0,576,0,228,0
14.85,0,577,0,229,0
14.86,0,578,0,229,0
14.87,0,579,0,229,0
14.88,0,579,0,229,0
14.89,0,579,0,229,0
14.9,0,579,0,229,0
14.91,0,579,0,229,0
14.92,0,579,0,229,0
14.93,0,580,0,229,0
14.94,0,581,0,230,0
14.95,0,582,0,231,0
14.96,0,583,0,231,0
14.97,0,584,0,232,0
14.98,0,584,0,232,0
14.99,0,584,0,232,0
15.0,0,584,0,232,0
15.01,0,584,0,232,0
15.02,0,584,0,232,0
15.03,0,584,0,232,0
15.04,0,584,0,232,0
15.05,0,585,0,232,0
15.06,0,586,0,233,0
15.07,0,587,0,234,0
15.08,0,587,0,234,0
15.09,0,588,0,235,0
15.1,0,589,0,236,0
15.11,0,589,0,236,0
15.12,0,590,0,237,0
15.13,0,591,0,238,0
15.14,0,591,0,238,0
15.15,0,591,0,238,0
15.16,0,592,0,239,0
15.17,0,593,0,240,0
15.18,0,593,0,240,0
15.19,0,593,0,240,0
15.2,0,593,0,240,0
15.21,0,593,0,240,0
15.22,0,593,0,240,0
15.23,0,593,0,240,0
15.24,0,593,0,240,0
15.25,0,594,0,240,0
15.26,0,595,0,241,0
15.27,0,596,0,241,0
15.28,0,596,0,241,0
15.29,0,596,0,241,0
15.3,0,596,0,241,0
15.31,0,596,0,241,0
15.32,0,596,0,241,0
15.33,0,596,0,241,0
15.34,0,597,0,242,0
15.35,0,598,0,242,0
15.36,0,599,0,242,0
15.37,0,599,0,242,0
15.38,0,599,0,242,0
15.39,0,600,0,243,0
15.4,0,601,0,243,0
15.41,0,602,0,243,0
15.42,0,603,0,244,0
15.43,0,604,0,245,0
15.44,0,605,0,246,0
15.45,0,606,0,246,0
15.46,0,607,0,247,0
15.47,0,608,0,247,0
15.48,0,609,0,247,0
15.49,0,610,0,248,0
15.5,0,610,0,248,0
15.51,0,610,0,248,0
15.52,0,610,0,248,0
15.53,0,610,0,248,0
15.54,0,610,0,248,0
15.55,0,610,0,248,0
15.56,0,610,0,248,0
15.57,0,610,0,248,0
15.58,0,610,0,248,0
15.59,0,610,0,248,0
15.6,0,610,0,248,0
15.61,0,610,0,248,0
15.62,0,610,0,248,0
15.63,0,610,0,248,0
15.64,0,610,0,248,0
15.65,0,610,0,248,0
15.66,0,610,0,248,0
15.67,0,610,0,248,0
15.68,0,611,0,248,0
15.69,0,612,0,248,0
15.7,0,612,0,248,0
15.71,0,612,0,248,0
15.72,0,612,0,248,0
15.73,0,612,0,248,0
15.74,0,612,0,248,0
15.75,0,612,0,248,0
15.76,0,612,0,248,0
15.77,0,612,0,248,0
15.78,0,612,0,248,0
15.79,0,612,0,248,0
15.8,0,612,0,248,0
15.81,0,612,0,248,0
15.82,0,612,0,248,0
15.83,0,613,0,249,0
15.84,0,614,0,249,0
15.85,0,614,0,249,0
15.86,0,614,0,249,0
15.87,0,614,0,249,0
15.88,0,614,0,249,0
15.89,0,614,0,249,0
15.9,0,615,0,249,0
15.91,0,616,0,250,0
15.92,0,616,0,250,0
15.93,0,616,0,251,0
15.94,0,617,0,251,0
15.95,0,618,0,252,0
15.96,0,619,0,253,0
15.97,0,620,0,253,0
15.98,0,621,0,254,0
15.99,0,621,0,254,0
16.0,0,621,0,254,0
16.01,0,621,0,254,0
16.02,0,621,0,254,0
16.03,0,622,0,255,0
16.04,0,622,0,256,0
16.05,0,623,0,257,0
16.06,0,624,0,257,0
16.07,0,625,0,258,0
16.08,0,626,0,259,0
16.09,0,626,0,259,0
16.1,0,626,0,259,0
16.11,0,626,0,259,0
16.12,0,626,0,259,0
16.13,0,626,0,259,0
16.14,0,626,0,259,0
16.15,0,626,0,259,0
16.16,0,626,0,259,0
16.17,0,626,0,259,0
16.18,0,626,0,259,0
16.19,0,626,0,259,0
16.2,0,626,0,259,0
16.21,0,626,0,259,0
16.22,0,626,0,259,0
16.23,0,626,0,259,0
16.24,0,626,0,259,0
16.25,0,627,0,260,0
16.26,0,627,0,260,0
16.27,0,628,0,260,0
16.28,0,629,0,260,0
16.29,0,629,0,260,0
16.3,0,629,0,260,0
16.31,0,629,0,260,0
16.32,0,629,0,260,0
16.33,0,630,0,261,0
16.34,0,631,0,261,0
16.35,0,632,0,261,0
16.36,0,633,0,262,0
16.37,0,634,0,262,0
16.38,0,634,0,262,0
16.39,0,634,0,262,0
16.4,0,634,0,262,0
16.41,0,634,0,262,0
16.42,0,634,0,262,0
16.43,0,634,0,262,0
16.44,0,634,0,262,0
16.45,0,634,0,262,0
16.46,0,635,0,262,0
16.47,0,636,0,262,0
16.48,0,637,0,263,0
16.49,0,637,0,263,0
16.5,0,637,0,263,0
16.51,0,637,0,263,0
16.52,0,637,0,263,0
16.53,0,637,0,263,0
16.54,0,638,0,264,0
16.55,0,639,0,264,0
16.56,0,639,0,264,0
16.57,0,639,0,264,0
16.58,0,640,0,264,0
16.59,0,641,0,265,0
16.6,0,642,0,266,0
16.61,0,643,0,266,0
16.62,0,644,0,267,0
16.63,0,645,0,268,0
16.64,0,646,0,269,0
16.65,0,647,0,270,0
16.66,0,648,0,271,0
16.67,0,649,0,272,0
16.68,0,649,0,272,0
16.69,0,649,0,272,0
16.7,0,649,0,272,0
16.71,0,649,0,272,0
16.72,0,649,0,272,0
16.73,0,649,0,272,0
16.74,0,649,0,272,0
16.75,0,649,0,272,0
16.76,0,649,0,272,0
16.77,0,649,0,272,0
16.78,0,649,0,272,0
16.79,0,649,0,272,0
16.8,0,650,0,272,0
16.81,0,650,0,272,0
16.82,0,650,0,272,0
16.83,0,650,0,272,0
16.84,0,650,0,272,0
16.85,0,650,0,272,0
16.86,0,650,0,272,0
16.87,0,650,0,272,0
16.88,0,650,0,272,0
16.89,0,650,0,272,0
16.9,0,650,0,272,0
16.91,0,650,0,272,0
16.92,0,650,0,272,0
16.93,0,650,0,272,0
16.94,0,651,0,272,0
16.95,0,652,0,272,0
16.96,0,652,0,272,0
16.97,0,653,0,272,0
16.98,0,654,0,272,0
16.99,0,655,0,272,0
17.0,0,656,0,273,0
17.01,0,657,0,274,0
17.02,0,658,0,275,0
17.03,0,659,0,276,0
17.04,0,660,0,277,0
17.05,0,661,0,278,0
17.06,0,662,0,278,0
17.07,0,663,0,278,0
17.08,0,664,0,279,0
17.09,0,665,0,280,0
17.1,0,665,0,281,0
17.11,0,665,0,281,0
17.12,0,665,0,281,0
17.13,0,665,0,281,0
17.14,0,665,0,281,0
17.15,0,665,0,281,0
17.16,0,666,0,281,0
17.17,0,667,0,281,0
17.18,0,668,0,281,0
17.19,0,669,0,281,0
17.2,0,669,0,281,0
17.21,0,669,0,281,0
17.22,0,669,0,281,0
17.23,0,670,0,282,0
17.24,0,671,0,283,0
17.25,0,672,0,284,0
17.26,0,673,0,284,0
17.27,0,673,0,284,0
17.28,0,673,0,284,0
17.29,0,673,0,284,0
17.3,0,673,0,284,0
17.31,0,673,0,284,0
17.32,0,673,0,284,0
17.33,0,673,0,284,0
17.34,0,673,0,284,0
17.35,0,673,0,284,0
17.36,0,673,0,284,0
17.37,0,673,0,284,0
17.38,0,673,0,284,0
17.39,0,674,0,284,0
17.4,0,675,0,285,0
17.41,0,676,0,286,0
17.42,0,676,0,286,0
17.43,0,676,0,286,0
17.44,0,676,0,286,0
17.45,0,676,0,286,0
17.46,0,676,0,286,0
17.47,0,676,0,286,0
17.48,0,677,0,286,0
17.49,0,678,0,287,0
17.5,0,679,0,287,0
17.51,0,680,0,287,0
17.52,0,680,0,287,0
17.53,0,680,0,287,0
17.54,0,680,0,287,0
17.55,0,680,0,287,0
17.56,0,680,0,287,0
17.57,0,681,0,288,0
17.58,0,682,0,289,0
17.59,0,683,0,290,0
17.6,0,684,0,291,0
17.61,0,685,0,291,0
17.62,0,685,0,291,0
17.63,0,686,0,291,0
17.64,0,686,0,291,0
17.65,0,686,0,291,0
17.66,0,686,0,291,0
17.67,0,686,0,291,0
17.68,0,686,0,291,0
17.69,0,687,0,292,0
17.7,0,688,0,293,0
17.71,0,689,0,294,0
17.72,0,689,0,294,0
17.73,0,689,0,294,0
17.74,0,689,0,294,0
17.75,0,689,0,294,0
17.76,0,689,0,294,0
17.77,0,690,0,295,0
17.78,0,691,0,295,0
17.79,0,692,0,295,0
17.8,0,693,0,296,0
17.81,0,693,0,296,0
17.82,0,694,0,296,0
17.83,0,695,0,297,0
17.84,0,696,0,297,0
17.85,0,697,0,298,0
17.86,0,698,0,299,0
17.87,0,699,0,299,0
17.88,0,699,0,299,0
17.89,0,700,0,300,0
17.9,0,700,0,300,0
17.91,0,700,0,300,0
17.92,0,700,0,300,0
17.93,0,700,0,300,0
17.94,0,700,0,300,0
17.95,0,700,0,300,0
17.96,0,700,0,300,0
17.97,0,700,0,300,0
17.98,0,700,0,300,0
17.99,0,700,0,300,0
18.0,0,700,0,300,0
18.01,0,700,0,300,0
18.02,0,700,0,300,0
18.03,0,700,0,300,0
18.04,0,700,0,300,0
18.05,0,700,0,300,0
18.06,0,701,0,300,0
18.07,0,701,0,300,0
18.08,0,701,0,300,0
18.09,0,701,0,300,0
18.1,0,701,0,300,0
18.11,0,701,0,300,0
18.12,0,702,0,300,0
18.13,0,703,0,301,0
18.14,0,704,0,301,0
18.15,0,704,0,301,0
18.16,0,704,0,301,0
18.17,0,704,0,301,0
18.18,0,704,0,301,0
18.19,0,705,0,301,0
18.2,0,706,0,301,0
18.21,0,707,0,301,0
18.22,0,708,0,301,0
18.23,0,708,0,301,0
18.24,0,708,0,301,0
18.25,0,708,0,301,0
18.26,0,708,0,301,0
18.27,0,708,0,301,0
18.28,0,708,0,301,0
18.29,0,708,0,301,0
18.3,0,708,0,301,0
18.31,0,708,0,301,0
18.32,0,708,0,301,0
18.33,0,708,0,301,0
18.34,0,708,0,301,0
18.35,0,708,0,301,0
18.36,0,708,0,301,0
18.37,0,708,0,301,0
18.38,0,709,0,302,0
18.39,0,710,0,302,0
18.4,0,711,0,302,0
18.41,0,712,0,303,0
18.42,0,712,0,303,0
18.43,0,713,0,304,0
18.44,0,713,0,304,0
18.45,0,714,0,304,0
18.46,0,715,0,305,0
18.47,0,715,0,305,0
18.48,0,715,0,305,0
18.49,0,715,0,305,0
18.5,0,715,0,305,0
18.51,0,715,0,305,0
18.52,0,715,0,305,0
18.53,0,715,0,305,0
18.54,0,715,0,305,0
18.55,0,716,0,305,0
18.56,0,717,0,306,0
18.57,0,718,0,307,0
18.58,0,718,0,307,0
18.59,0,718,0,307,0
18.6,0,718,0,307,0
18.61,0,719,0,307,0
18.62,0,720,0,307,0
18.63,0,721,0,307,0
18.64,0,722,0,307,0
18.65,0,723,0,308,0
18.66,0,724,0,308,0
18.67,0,724,0,308,0
18.68,0,725,0,309,0
18.69,0,726,0,310,0
18.7,0,727,0,310,0
18.71,0,728,0,310,0
18.72,0,728,0,310,0
18.73,0,728,0,310,0
18.74,0,728,0,310,0
18.75,0,728,0,310,0
18.76,0,728,0,310,0
18.77,0,729,0,311,0
18.78,0,730,0,311,0
18.79,0,731,0,311,0
18.8,0,732,0,312,0
18.81,0,733,0,312,0
18.82,0,733,0,312,0
18.83,0,733,0,312,0
18.84,0,733,0,312,0
18.85,0,733,0,312,0
18.86,0,733,0,312,0
18.87,0,733,0,312,0
18.88,0,733,0,312,0
18.89,0,733,0,312,0
18.9,0,733,0,312,0
18.91,0,733,0,312,0
18.92,0,733,0,312,0
18.93,0,733,0,312,0
18.94,0,733,0,312,0
18.95,0,733,0,312,0
18.96,0,733,0,312,0
18.97,0,733,0,313,0
18.98,0,734,0,313,0
18.99,0,735,0,314,0
19.0,0,736,0,314,0
19.01,0,737,0,315,0
19.02,0,738,0,315,0
19.03,0,739,0,316,0
19.04,0,740,0,317,0
19.05,0,741,0,318,0
19.06,0,741,0,318,0
19.07,0,741,0,318,0
19.08,0,741,0,318,0
19.09,0,741,0,318,0
19.1,0,741,0,318,0
19.11,0,741,0,318,0
19.12,0,742,0,318,0
19.13,0,743,0,318,0
19.14,0,744,0,318,0
19.15,0,744,0,318,0
19.16,0,744,0,318,0
19.17,0,744,0,318,0
19.18,0,745,0,318,0
19.19,0,746,0,319,0
19.2,0,747,0,319,0
19.21,0,748,0,320,0
19.22,0,749,0,320,0
19.23,0,750,0,321,0
19.24,0,750,0,321,0
19.25,0,750,0,321,0
19.26,0,750,0,321,0
19.27,0,750,0,321,0
19.28,0,750,0,321,0
19.29,0,751,0,321,0
19.3,0,752,0,322,0
19.31,0,753,0,322,0
19.32,0,754,0,323,0
19.33,0,755,0,324,0
19.34,0,756,0,325,0
19.35,0,757,0,325,0
19.36,0,758,0,325,0
19.37,0,758,0,325,0
19.38,0,758,0,325,0
19.39,0,759,0,326,0
19.4,0,759,0,326,0
19.41,0,760,0,326,0
19.42,0,761,0,326,0
19.43,0,762,0,327,0
19.44,0,763,0,328,0
19.45,0,764,0,328,0
19.46,0,765,0,328,0
19.47,0,765,0,328,0
19.48,0,765,0,328,0
19.49,0,765,0,328,0
19.5,0,765,0,328,0
19.51,0,765,0,328,0
19.52,0,765,0,328,0
19.53,0,765,0,328,0
19.54,0,765,0,328,0
19.55,0,765,0,328,0
19.56,0,765,0,328,0
19.57,0,766,0,328,0
19.58,0,767,0,328,0
19.59,0,768,0,328,0
19.6,0,769,0,328,0
19.61,0,770,0,329,0
19.62,0,770,0,329,0
19.63,0,770,0,329,0
19.64,0,770,0,329,0
19.65,0,770,0,329,0
19.66,0,770,0,329,0
19.67,0,770,0,329,0
19.68,0,770,0,329,0
19.69,0,770,0,329,0
19.7,0,770,0,329,0
19.71,0,770,0,329,0
19.72,0,770,0,329,0
19.73,0,770,0,329,0
19.74,0,770,0,329,0
19.75,0,770,0,329,0
19.76,0,770,0,329,0
19.77,0,770,0,329,0
19.78,0,770,0,329,0
19.79,0,770,0,329,0
19.8,0,770,0,329,0
19.81,0,770,0,329,0
19.82,0,770,0,329,0
19.83,0,770,0,329,0
19.84,0,770,0,329,0
19.85,0,770,0,329,0
19.86,0,771,0,329,0
19.87,0,772,0,329,0
19.88,0,773,0,330,0
19.89,0,773,0,330,0
19.9,0,774,0,330,0
19.91,0,775,0,330,0
19.92,0,776,0,331,0
19.93,0,777,0,332,0
19.94,0,777,0,332,0
19.95,0,777,0,332,0
19.96,0,777,0,332,0
19.97,0,777,0,332,0
19.98,0,777,0,332,0
19.99,0,777,0,332,0
20.0,0,777,0,332,0
20.01,0,777,0,332,0
20.02,0,777,0,332,0
20.03,0,777,0,332,0
20.04,0,778,0,332,0
20.05,0,779,0,332,0
20.06,0,779,0,332,0
20.07,0,779,0,332,0
20.08,0,779,0,332,0
20.09,0,779,0,332,0
20.1,0,780,0,332,0
20.11,0,781,0,332,0
20.12,0,782,0,333,0
20.13,0,782,0,333,0
20.14,0,782,0,333,0
20.15,0,782,0,333,0
20.16,0,782,0,333,0
20.17,0,782,0,333,0
20.18,0,782,0,333,0
20.19,0,782,0,333,0
20.2,0,782,0,333,0
20.21,0,782,0,333,0
20.22,0,782,0,333,0
20.23,0,782,0,333,0
20.24,0,783,0,334,0
20.25,0,784,0,334,0
20.26,0,785,0,334,0
20.27,0,786,0,335,0
20.28,0,787,0,335,0
20.29,0,787,0,335,0
20.3,0,787,0,335,0
20.31,0,787,0,335,0
20.32,0,787,0,335,0
20.33,0,787,0,335,0
20.34,0,787,0,335,0
20.35,0,787,0,335,0
20.36,0,787,0,335,0
20.37,0,788,0,336,0
20.38,0,788,0,336,0
20.39,0,788,0,336,0
20.4,0,788,0,336,0
20.41,0,788,0,337,0
20.42,0,789,0,338,0
20.43,0,790,0,339,0
20.44,0,791,0,340,0
20.45,0,791,0,340,0
20.46,0,791,0,340,0
20.47,0,791,0,340,0
20.48,0,791,0,340,0
20.49,0,791,0,340,0
20.5,0,792,0,340,0
20.51,0,793,0,340,0
20.52,0,794,0,340,0
20.53,0,795,0,341,0
20.54,0,796,0,342,0
20.55,0,797,0,342,0
20.56,0,798,0,342,0
20.57,0,798,0,342,0
20.58,0,798,0,342,0
20.59,0,798,0,342,0
20.6,0,798,0,342,0
20.61,0,798,0,342,0
20.62,0,798,0,342,0
20.63,0,798,0,342,0
20.64,0,798,0,342,0
20.65,0,798,0,342,0
20.66,0,798,0,342,0
20.67,0,798,0,342,0
20.68,0,798,0,342,0
20.69,0,798,0,342,0
20.7,0,798,0,342,0
20.71,0,798,0,342,0
20.72,0,798,0,342,0
20.73,0,798,0,342,0
20.74,0,798,0,342,0
20.75,0,799,0,342,0
20.76,0,800,0,343,0
20.77,0,801,0,344,0
20.78,0,801,0,344,0
20.79,0,801,0,344,0
20.8,0,801,0,344,0
20.81,0,801,0,344,0
20.82,0,801,0,344,0
20.83,0,801,0,344,0
20.84,0,801,0,344,0
20.85,0,801,0,344,0
20.86,0,801,0,344,0
20.87,0,801,0,344,0
20.88,0,802,0,344,0
20.89,0,802,0,344,0
20.9,0,803,0,345,0
20.91,0,803,0,345,0
20.92,0,803,0,345,0
20.93,0,803,0,345,0
20.94,0,803,0,345,0
20.95,0,803,0,345,0
20.96,0,803,0,345,0
20.97,0,803,0,345,0
20.98,0,804,0,346,0
20.99,0,805,0,346,0
21.0,0,805,0,347,0
21.01,0,805,0,347,0
21.02,0,805,0,347,0
21.03,0,806,0,347,0
21.04,0,807,0,347,0
21.05,0,807,0,347,0
21.06,0,807,0,347,0
21.07,0,807,0,347,0
21.08,0,807,0,347,0
21.09,0,807,0,347,0
21.1,0,807,0,347,0
21.11,0,807,0,347,0
21.12,0,808,0,347,0
21.13,0,808,0,347,0
21.14,0,808,0,347,0
21.15,0,808,0,347,0
21.16,0,808,0,347,0
21.17,0,808,0,347,0
21.18,0,808,0,347,0
21.19,0,808,0,347,0
21.2,0,809,0,348,0
21.21,0,810,0,349,0
21.22,0,811,0,350,0
21.23,0,812,0,350,0
21.24,0,813,0,350,0
21.25,0,813,0,350,0
21.26,0,813,0,350,0
21.27,0,813,0,350,0
21.28,0,813,0,350,0
21.29,0,814,0,351,0
21.3,0,815,0,352,0
21.31,0,816,0,353,0
21.32,0,817,0,354,0
21.33,0,818,0,355,0
21.34,0,819,0,356,0
21.35,0,820,0,356,0
21.36,0,820,0,356,0
21.37,0,820,0,356,0
21.38,0,820,0,356,0
21.39,0,821,0,357,0
21.4,0,822,0,358,0
21.41,0,823,0,359,0
21.42,0,824,0,359,0
21.43,0,824,0,359,0
21.44,0,824,0,359,0
21.45,0,824,0,359,0
21.46,0,825,0,360,0
21.47,0,826,0,361,0
21.48,0,827,0,362,0
21.49,0,828,0,363,0
21.5,0,828,0,363,0
21.51,0,828,0,363,0
21.52,0,828,0,363,0
21.53,0,828,0,363,0
21.54,0,828,0,363,0
21.55,0,829,0,364,0
21.56,0,829,0,364,0
21.57,0,829,0,364,0
21.58,0,829,0,364,0
21.59,0,829,0,364,0
21.6,0,829,0,364,0
21.61,0,830,0,365,0
21.62,0,831,0,366,0
21.63,0,832,0,366,0
21.64,0,832,0,366,0
21.65,0,832,0,366,0
21.66,0,832,0,366,0
21.67,0,832,0,366,0
21.68,0,832,0,366,0
21.69,0,832,0,366,0
21.7,0,832,0,366,0
21.71,0,832,0,366,0
21.72,0,832,0,366,0
21.73,0,833,0,367,0
21.74,0,834,0,367,0
21.75,0,834,0,367,0
21.76,0,835,0,367,0
21.77,0,836,0,368,0
21.78,0,837,0,369,0
21.79,0,838,0,369,0
21.8,0,838,0,369,0
21.81,0,839,0,370,0
21.82,0,839,0,370,0
21.83,0,840,0,370,0
21.84,0,841,0,370,0
21.85,0,841,0,370,0
21.86,0,842,0,371,0
21.87,0,843,0,372,0
21.88,0,843,0,372,0
21.89,0,843,0,372,0
21.9,0,843,0,372,0
21.91,0,843,0,372,0
21.92,0,843,0,372,0
21.93,0,843,0,372,0
21.94,0,843,0,372,0
21.95,0,843,0,372,0
21.96,0,843,0,372,0
21.97,0,843,0,372,0
21.98,0,843,0,372,0
21.99,0,844,0,373,0
22.0,0,844,0,373,0
22.01,0,845,0,374,0
22.02,0,846,0,375,0
22.03,0,847,0,376,0
22.04,0,847,0,376,0
22.05,0,847,0,376,0
22.06,0,848,0,376,0
22.07,0,849,0,377,0
22.08,0,850,0,378,0
22.09,0,851,0,378,0
22.1,0,852,0,378,0
22.11,0,853,0,379,0
22.12,0,854,0,380,0
22.13,0,854,0,380,0
22.14,0,854,0,380,0
22.15,0,854,0,380,0
22.16,0,855,0,380,0
22.17,0,856,0,381,0
22.18,0,857,0,381,0
22.19,0,857,0,381,0
22.2,0,857,0,381,0
22.21,0,857,0,381,0
22.22,0,857,0,381,0
22.23,0,857,0,381,0
22.24,0,857,0,381,0
22.25,0,857,0,381,0
22.26,0,857,0,381,0
22.27,0,858,0,381,0
22.28,0,859,0,381,0
22.29,0,860,0,382,0
22.3,0,861,0,382,0
22.31,0,862,0,383,0
22.32,0,863,0,383,0
22.33,0,863,0,383,0
22.34,0,863,0,383,0
22.35,0,863,0,383,0
22.36,0,863,0,384,0
22.37,0,863,0,384,0
22.38,0,863,0,384,0
22.39,0,863,0,384,0
22.4,0,863,0,384,0
22.41,0,863,0,384,0
22.42,0,863,0,384,0
22.43,0,863,0,384,0
22.44,0,864,0,384,0
22.45,0,865,0,384,0
22.46,0,866,0,385,0
22.47,0,866,0,385,0
22.48,0,867,0,385,0
22.49,0,868,0,386,0
22.5,0,869,0,386,0
22.51,0,869,0,386,0
22.52,0,869,0,386,0
22.53,0,869,0,386,0
22.54,0,869,0,386,0
22.55,0,870,0,386,0
22.56,0,871,0,387,0
22.57,0,871,0,387,0
22.58,0,872,0,388,0
22.59,0,873,0,389,0
22.6,0,874,0,390,0
22.61,0,875,0,390,0
22.62,0,875,0,390,0
22.63,0,875,0,390,0
22.64,0,875,0,390,0
22.65,0,875,0,390,0
22.66,0,875,0,390,0
22.67,0,875,0,390,0
22.68,0,876,0,391,0
22.69,0,877,0,392,0
22.7,0,878,0,393,0
22.71,0,878,0,393,0
22.72,0,878,0,393,0
22.73,0,878,0,393,0
22.74,0,878,0,393,0
22.75,0,878,0,393,0
22.76,0,878,0,393,0
22.77,0,878,0,393,0
22.78,0,878,0,393,0
22.79,0,878,0,393,0
22.8,0,878,0,393,0
22.81,0,878,0,393,0
22.82,0,878,0,393,0
22.83,0,878,0,393,0
22.84,0,878,0,393,0
22.85,0,878,0,393,0
22.86,0,878,0,393,0
22.87,0,878,0,393,0
22.88,0,879,0,394,0
22.89,0,880,0,394,0
22.9,0,881,0,394,0
22.91,0,882,0,395,0
22.92,0,883,0,396,0
22.93,0,884,0,396,0
22.94,0,884,0,396,0
22.95,0,885,0,397,0
22.96,0,886,0,397,0
22.97,0,886,0,397,0
22.98,0,886,0,397,0
22.99,0,886,0,397,0
23.0,0,886,0,397,0
23.01,0,886,0,397,0
23.02,0,886,0,397,0
23.03,0,886,0,397,0
23.04,0,887,0,398,0
23.05,0,888,0,398,0
23.06,0,888,0,398,0
23.07,0,888,0,398,0
23.08,0,889,0,399,0
23.09,0,890,0,400,0
23.1,0,890,0,400,0
23.11,0,890,0,400,0
23.12,0,891,0,401,0
23.13,0,892,0,401,0
23.14,0,892,0,401,0
23.15,0,892,0,401,0
23.16,0,893,0,402,0
23.17,0,893,0,402,0
23.18,0,894,0,403,0
23.19,0,895,0,403,0
23.2,0,895,0,403,0
23.21,0,895,0,403,0
23.22,0,895,0,403,0
23.23,0,895,0,403,0
23.24,0,895,0,403,0
23.25,0,895,0,403,0
23.26,0,895,0,403,0
23.27,0,895,0,403,0
23.28,0,896,0,403,0
23.29,0,896,0,403,0
23.3,0,896,0,403,0
23.31,0,896,0,403,0
23.32,0,896,0,403,0
23.33,0,896,0,403,0
23.34,0,896,0,403,0
23.35,0,896,0,403,0
23.36,0,896,0,403,0
23.37,0,897,0,404,0
23.38,0,898,0,404,0
23.39,0,899,0,405,0
23.4,0,900,0,406,0
23.41,0,900,0,406,0
23.42,0,900,0,406,0
23.43,0,900,0,406,0
23.44,0,900,0,406,0
23.45,0,900,0,406,0
23.46,0,900,0,406,0
23.47,0,901,0,407,0
23.48,0,902,0,407,0
23.49,0,903,0,408,0
23.5,0,903,0,408,0
23.51,0,903,0,408,0
23.52,0,903,0,408,0
23.53,0,903,0,408,0
23.54,0,903,0,408,0
23.55,0,904,0,409,0
23.56,0,905,0,410,0
23.57,0,906,0,411,0
23.58,0,906,0,411,0
23.59,0,906,0,411,0
23.6,0,906,0,411,0
23.61,0,906,0,411,0
23.62,0,906,0,411,0
23.63,0,906,0,411,0
23.64,0,906,0,411,0
23.65,0,907,0,411,0
23.66,0,908,0,411,0
23.67,0,909,0,412,0
23.68,0,910,0,413,0
23.69,0,911,0,413,0
23.7,0,911,0,413,0
23.71,0,912,0,413,0
23.72,0,912,0,413,0
23.73,0,913,0,414,0
23.74,0,914,0,414,0
23.75,0,915,0,414,0
23.76,0,915,0,414,0
23.77,0,915,0,414,0
23.78,0,916,0,415,0
23.79,0,917,0,416,0
23.8,0,918,0,417,0
23.81,0,919,0,418,0
23.82,0,920,0,418,0
23.83,0,920,0,418,0
23.84,0,920,0,418,0
23.85,0,920,0,418,0
23.86,0,920,0,418,0
23.87,0,921,0,419,0
23.88,0,922,0,419,0
23.89,0,923,0,420,0
23.9,0,924,0,421,0
23.91,0,924,0,421,0
23.92,0,924,0,421,0
23.93,0,925,0,421,0
23.94,0,925,0,422,0
23.95,0,926,0,423,0
23.96,0,927,0,423,0
23.97,0,927,0,423,0
23.98,0,927,0,423,0
23.99,0,927,0,423,0
24.0,0,927,0,423,0
24.01,0,927,0,423,0
24.02,0,927,0,423,0
24.03,0,927,0,423,0
24.04,0,927,0,423,0
24.05,0,927,0,423,0
24.06,0,927,0,423,0
24.07,0,927,0,423,0
24.08,0,927,0,423,0
24.09,0,928,0,424,0
24.1,0,929,0,425,0
24.11,0,930,0,425,0
24.12,0,931,0,425,0
24.13,0,931,0,425,0
24.14,0,931,0,425,0
24.15,0,931,0,425,0
24.16,0,931,0,425,0
24.17,0,931,0,425,0
24.18,0,931,0,425,0
24.19,0,931,0,425,0
24.2,0,931,0,425,0
24.21,0,931,0,425,0
24.22,0,931,0,425,0
24.23,0,931,0,425,0
24.24,0,931,0,425,0
24.25,0,931,0,425,0
24.26,0,931,0,425,0
24.27,0,931,0,425,0
24.28,0,931,0,425,0
24.29,0,931,0,425,0
24.3,0,931,0,425,0
24.31,0,931,0,425,0
24.32,0,931,0,425,0
24.33,0,932,0,426,0
24.34,0,933,0,426,0
24.35,0,934,0,427,0
24.36,0,935,0,428,0
24.37,0,935,0,428,0
24.38,0,935,0,428,0
24.39,0,935,0,428,0
24.4,0,935,0,428,0
24.41,0,936,0,429,0
24.42,0,937,0,429,0
24.43,0,938,0,430,0
24.44,0,939,0,431,0
24.45,0,939,0,432,0
24.46,0,939,0,432,0
24.47,0,939,0,432,0
24.48,0,939,0,432,0
24.49,0,939,0,432,0
24.5,0,939,0,432,0
24.51,0,939,0,432,0
24.52,0,939,0,432,0
24.53,0,939,0,432,0
24.54,0,939,0,432,0
24.55,0,939,0,432,0
24.56,0,939,0,432,0
24.57,0,939,0,432,0
24.58,0,939,0,432,0
24.59,0,939,0,432,0
24.6,0,939,0,432,0
24.61,0,939,0,432,0
24.62,0,939,0,432,0
24.63,0,939,0,432,0
24.64,0,939,0,432,0
24.65,0,939,0,432,0
24.66,0,939,0,432,0
24.67,0,939,0,432,0
24.68,0,939,0,432,0
24.69,0,939,0,432,0
24.7,0,939,0,432,0
24.71,0,939,0,432,0
24.72,0,939,0,432,0
24.73,0,939,0,432,0
24.74,0,939,0,432,0
24.75,0,939,0,432,0
24.76,0,939,0,432,0
24.77,0,940,0,432,0
24.78,0,941,0,433,0
24.79,0,942,0,434,0
24.8,0,943,0,434,0
24.81,0,944,0,434,0
24.82,0,945,0,435,0
24.83,0,946,0,436,0
24.84,0,946,0,436,0
24.85,0,946,0,436,0
24.86,0,946,0,436,0
24.87,0,947,0,437,0
24.88,0,948,0,438,0
24.89,0,948,0,438,0
24.9,0,948,0,438,0
24.91,0,949,0,439,0
24.92,0,950,0,440,0
24.93,0,951,0,440,0
24.94,0,951,0,440,0
24.95,0,951,0,440,0
24.96,0,951,0,440,0
24.97,0,951,0,440,0
24.98,0,952,0,441,0
24.99,0,953,0,442,0
25.0,0,953,0,442,0
25.01,0,954,0,443,0
25.02,0,955,0,444,0
25.03,0,956,0,445,0
25.04,0,957,0,445,0
25.05,0,958,0,446,0
25.06,0,959,0,447,0
25.07,0,960,0,448,0
25.08,0,960,0,448,0
25.09,0,960,0,448,0
25.1,0,960,0,448,0
25.11,0,960,0,448,0
25.12,0,961,0,448,0
25.13,0,962,0,448,0
25.14,0,963,0,448,0
25.15,0,964,0,449,0
25.16,0,965,0,450,0
25.17,0,965,0,450,0
25.18,0,965,0,450,0
25.19,0,965,0,450,0
25.2,0,966,0,451,0
25.21,0,967,0,452,0
25.22,0,968,0,452,0
25.23,0,968,0,452,0
25.24,0,968,0,452,0
25.25,0,968,0,452,0
25.26,0,969,0,453,0
25.27,0,969,0,453,0
25.28,0,969,0,453,0
25.29,0,969,0,453,0
25.3,0,969,0,453,0
25.31,0,969,0,453,0
25.32,0,969,0,453,0
25.33,0,970,0,453,0
25.34,0,971,0,454,0
25.35,0,972,0,455,0
25.36,0,973,0,455,0
25.37,0,974,0,455,0
25.38,0,974,0,455,0
25.39,0,974,0,455,0
25.4,0,974,0,455,0
25.41,0,974,0,455,0
25.42,0,974,0,455,0
25.43,0,974,0,455,0
25.44,0,974,0,455,0
25.45,0,974,0,455,0
25.46,0,974,0,455,0
25.47,0,974,0,455,0
25.48,0,974,0,455,0
25.49,0,974,0,455,0
25.5,0,974,0,455,0
25.51,0,974,0,455,0
25.52,0,974,0,455,0
25.53,0,974,0,455,0
25.54,0,975,0,456,0
25.55,0,976,0,457,0
25.56,0,977,0,458,0
25.57,0,977,0,458,0
25.58,0,977,0,458,0
25.59,0,977,0,458,0
25.6,0,977,0,458,0
25.61,0,977,0,458,0
25.62,0,977,0,458,0
25.63,0,977,0,458,0
25.64,0,977,0,458,0
25.65,0,977,0,458,0
25.66,0,977,0,458,0
25.67,0,977,0,458,0
25.68,0,978,0,458,0
25.69,0,979,0,458,0
25.7,0,980,0,459,0
25.71,0,980,0,459,0
25.72,0,980,0,459,0
25.73,0,980,0,459,0
25.74,0,981,0,460,0
25.75,0,982,0,461,0
25.76,0,983,0,461,0
25.77,0,984,0,461,0
25.78,0,984,0,461,0
25.79,0,984,0,461,0
25.8,0,984,0,461,0
25.81,0,984,0,461,0
25.82,0,985,0,461,0
25.83,0,985,0,461,0
25.84,0,986,0,462,0
25.85,0,986,0,462,0
25.86,0,986,0,462,0
25.87,0,986,0,462,0
25.88,0,986,0,462,0
25.89,0,986,0,462,0
25.9,0,986,0,462,0
25.91,0,986,0,462,0
25.92,0,986,0,462,0
25.93,0,986,0,462,0
25.94,0,986,0,463,0
25.95,0,987,0,464,0
25.96,0,988,0,464,0
25.97,0,988,0,464,0
25.98,0,988,0,464,0
25.99,0,988,0,464,0
26.0,0,988,0,464,0
26.01,0,988,0,464,0
26.02,0,988,0,464,0
26.03,0,988,0,464,0
26.04,0,988,0,464,0
26.05,0,988,0,464,0
26.06,0,988,0,464,0
26.07,0,988,0,464,0
26.08,0,988,0,464,0
26.09,0,988,0,464,0
26.1,0,988,0,464,0
26.11,0,988,0,464,0
26.12,0,989,0,465,0
26.13,0,990,0,466,0
26.14,0,990,0,466,0
26.15,0,990,0,466,0
26.16,0,991,0,467,0
26.17,0,992,0,468,0
26.18,0,993,0,469,0
26.19,0,993,0,469,0
26.2,0,993,0,469,0
26.21,0,993,0,469,0
26.22,0,993,0,469,0
26.23,0,993,0,469,0
26.24,0,993,0,469,0
26.25,0,993,0,469,0
26.26,0,993,0,469,0
26.27,0,993,0,469,0
26.28,0,993,0,469,0
26.29,0,993,0,469,0
26.3,0,993,0,469,0
26.31,0,993,0,469,0
26.32,0,993,0,469,0
26.33,0,993,0,469,0
26.34,0,993,0,469,0
26.35,0,993,0,469,0
26.36,0,993,0,469,0
26.37,0,993,0,469,0
26.38,0,993,0,469,0
26.39,0,993,0,469,0
26.4,0,994,0,470,0
26.41,0,995,0,470,0
26.42,0,995,0,470,0
26.43,0,995,0,470,0
26.44,0,995,0,470,0
26.45,0,995,0,470,0
26.46,0,995,0,470,0
26.47,0,995,0,470,0
26.48,0,995,0,470,0
26.49,0,995,0,470,0
26.5,0,995,0,470,0
26.51,0,996,0,470,0
26.52,0,997,0,470,0
26.53,0,998,0,470,0
26.54,0,998,0,470,0
26.55,0,998,0,470,0
26.56,0,998,0,470,0
26.57,0,998,0,470,0
26.58,0,999,0,471,0
26.59,0,1000,0,472,0
26.6,0,1001,0,472,0
26.61,0,1002,0,473,0
26.62,0,1002,0,473,0
26.63,0,1002,0,473,0
26.64,0,1002,0,473,0
26.65,0,1002,0,473,0
26.66,0,1002,0,473,0
26.67,0,1002,0,473,0
26.68,0,1002,0,473,0
26.69,0,1002,0,473,0
26.7,0,1002,0,473,0
26.71,0,1003,0,473,0
26.72,0,1004,0,474,0
26.73,0,1005,0,474,0
26.74,0,1005,0,474,0
26.75,0,1005,0,474,0
26.76,0,1005,0,474,0
26.77,0,1005,0,474,0
26.78,0,1005,0,474,0
26.79,0,1005,0,474,0
26.8,0,1005,0,474,0
26.81,0,1005,0,474,0
26.82,0,1005,0,474,0
26.83,0,1005,0,474,0
26.84,0,1005,0,474,0
26.85,0,1005,0,474,0
26.86,0,1005,0,474,0
26.87,0,1005,0,474,0
26.88,0,1005,0,474,0
26.89,0,1006,0,475,0
26.9,0,1007,0,476,0
26.91,0,1008,0,477,0
26.92,0,1008,0,477,0
26.93,0,1009,0,477,0
26.94,0,1010,0,477,0
26.95,0,1011,0,478,0
26.96,0,1012,0,479,0
26.97,0,1012,0,479,0
26.98,0,1012,0,479,0
26.99,0,1012,0,479,0
27.0,0,1012,0,479,0
27.01,0,1012,0,479,0
27.02,0,1013,0,479,0
27.03,0,1014,0,480,0
27.04,0,1015,0,481,0
27.05,0,1016,0,482,0
27.06,0,1017,0,483,0
27.07,0,1018,0,483,0
27.08,0,1019,0,484,0
27.09,0,1019,0,484,0
27.1,0,1019,0,484,0
27.11,0,1019,0,484,0
27.12,0,1019,0,484,0
27.13,0,1019,0,484,0
27.14,0,1019,0,484,0
27.15,0,1020,0,484,0
27.16,0,1021,0,484,0
27.17,0,1021,0,484,0
27.18,0,1021,0,484,0
27.19,0,1021,0,484,0
27.2,0,1021,0,484,0
27.21,0,1021,0,484,0
27.22,0,1021,0,484,0
27.23,0,1021,0,484,0
27.24,0,1021,0,484,0
27.25,0,1021,0,484,0
27.26,0,1021,0,484,0
27.27,0,1021,0,484,0
27.28,0,1021,0,484,0
27.29,0,1021,0,484,0
27.3,0,1021,0,484,0
27.31,0,1021,0,484,0
27.32,0,1021,0,484,0
27.33,0,1022,0,484,0
27.34,0,1023,0,484,0
27.35,0,1023,0,484,0
27.36,0,1023,0,484,0
27.37,0,1023,0,484,0
27.38,0,1023,0,484,0
27.39,0,1023,0,484,0
27.4,0,1023,0,484,0
27.41,0,1023,0,484,0
27.42,0,1023,0,484,0
27.43,0,1023,0,484,0
27.44,0,1024,0,485,0
27.45,0,1025,0,486,0
27.46,0,1026,0,487,0
27.47,0,1027,0,487,0
27.48,0,1027,0,487,0
27.49,0,1027,0,487,0
27.5,0,1027,0,487,0
27.51,0,1027,0,487,0
27.52,0,1028,0,488,0
27.53,0,1029,0,488,0
27.54,0,1030,0,488,0
27.55,0,1031,0,488,0
27.56,0,1031,0,488,0
27.57,0,1032,0,489,0
27.58,0,1033,0,490,0
27.59,0,1034,0,490,0
27.6,0,1035,0,491,0
27.61,0,1035,0,491,0
27.62,0,1036,0,492,0
27.63,0,1037,0,493,0
27.64,0,1038,0,494,0
27.65,0,1039,0,495,0
27.66,0,1039,0,495,0
27.67,0,1039,0,495,0
27.68,0,1039,0,495,0
27.69,0,1039,0,495,0
27.7,0,1040,0,495,0
27.71,0,1041,0,496,0
27.72,0,1042,0,497,0
27.73,0,1043,0,498,0
27.74,0,1043,0,498,0
27.75,0,1043,0,498,0
27.76,0,1043,0,498,0
27.77,0,1043,0,498,0
27.78,0,1044,0,498,0
27.79,0,1045,0,499,0
27.8,0,1046,0,499,0
27.81,0,1046,0,499,0
27.82,0,1046,0,499,0
27.83,0,1046,0,499,0
27.84,0,1046,0,499,0
27.85,0,1046,0,499,0
27.86,0,1046,0,499,0
27.87,0,1046,0,499,0
27.88,0,1046,0,499,0
27.89,0,1046,0,499,0
27.9,0,1047,0,500,0
27.91,0,1048,0,500,0
27.92,0,1048,0,500,0
27.93,0,1049,0,500,0
27.94,0,1050,0,500,0
27.95,0,1051,0,500,0
27.96,0,1051,0,500,0
27.97,0,1051,0,500,0
27.98,0,1051,0,500,0
27.99,0,1051,0,500,0
28.0,0,1051,0,500,0
28.01,0,1051,0,500,0
28.02,0,1051,0,500,0
28.03,0,1052,0,500,0
28.04,0,1052,0,500,0
28.05,0,1052,0,500,0
28.06,0,1052,0,500,0
28.07,0,1053,0,500,0
28.08,0,1054,0,500,0
28.09,0,1054,0,500,0
28.1,0,1054,0,500,0
28.11,0,1055,0,501,0
28.12,0,1056,0,502,0
28.13,0,1057,0,503,0
28.14,0,1058,0,503,0
28.15,0,1059,0,504,0
28.16,0,1059,0,504,0
28.17,0,1060,0,504,0
28.18,0,1061,0,505,0
28.19,0,1062,0,505,0
28.2,0,1062,0,505,0
28.21,0,1062,0,505,0
28.22,0,1062,0,505,0
28.23,0,1062,0,505,0
28.24,0,1062,0,505,0
28.25,0,1062,0,505,0
28.26,0,1062,0,505,0
28.27,0,1062,0,505,0
28.28,0,1062,0,505,0
28.29,0,1062,0,505,0
28.3,0,1062,0,505,0
28.31,0,1062,0,505,0
28.32,0,1062,0,505,0
28.33,0,1062,0,505,0
28.34,0,1062,0,505,0
28.35,0,1062,0,505,0
28.36,0,1062,0,505,0
28.37,0,1062,0,505,0
28.38,0,1062,0,505,0
28.39,0,1062,0,505,0
28.4,0,1062,0,505,0
28.41,0,1062,0,505,0
28.42,0,1062,0,505,0
28.43,0,1062,0,505,0
28.44,0,1062,0,505,0
28.45,0,1062,0,505,0
28.46,0,1062,0,505,0
28.47,0,1062,0,505,0
28.48,0,1062,0,505,0
28.49,0,1062,0,505,0
28.5,0,1062,0,505,0
28.51,0,1062,0,505,0
28.52,0,1062,0,505,0
28.53,0,1062,0,505,0
28.54,0,1062,0,505,0
28.55,0,1062,0,505,0
28.56,0,1063,0,506,0
28.57,0,1064,0,507,0
28.58,0,1065,0,508,0
28.59,0,1066,0,509,0
28.6,0,1066,0,509,0
28.61,0,1066,0,509,0
28.62,0,1066,0,509,0
28.63,0,1066,0,509,0
28.64,0,1066,0,509,0
28.65,0,1066,0,509,0
28.66,0,1066,0,509,0
28.67,0,1067,0,510,0
28.68,0,1068,0,510,0
28.69,0,1069,0,511,0
28.7,0,1069,0,511,0
28.71,0,1069,0,511,0
28.72,0,1069,0,511,0
28.73,0,1069,0,511,0
28.74,0,1069,0,511,0
28.75,0,1069,0,511,0
28.76,0,1069,0,511,0
28.77,0,1070,0,512,0
28.78,0,1071,0,513,0
28.79,0,1071,0,513,0
28.8,0,1071,0,513,0
28.81,0,1071,0,513,0
28.82,0,1071,0,513,0
28.83,0,1071,0,513,0
28.84,0,1071,0,513,0
28.85,0,1071,0,513,0
28.86,0,1071,0,513,0
28.87,0,1071,0,513,0
28.88,0,1071,0,513,0
28.89,0,1071,0,513,0
28.9,0,1071,0,513,0
28.91,0,1071,0,513,0
28.92,0,1071,0,513,0
28.93,0,1071,0,513,0
28.94,0,1071,0,513,0
28.95,0,1071,0,513,0
28.96,0,1071,0,513,0
28.97,0,1071,0,513,0
28.98,0,1071,0,513,0
28.99,0,1071,0,513,0
29.0,0,1071,0,513,0
29.01,0,1072,0,513,0
29.02,0,1073,0,513,0
29.03,0,1073,0,513,0
29.04,0,1074,0,513,0
29.05,0,1075,0,513,0
29.06,0,1075,0,513,0
29.07,0,1075,0,513,0
29.08,0,1075,0,513,0
29.09,0,1075,0,513,0
29.1,0,1075,0,513,0
29.11,0,1075,0,513,0
29.12,0,1076,0,514,0
29.13,0,1076,0,514,0
29.14,0,1076,0,514,0
29.15,0,1077,0,515,0
29.16,0,1078,0,515,0
29.17,0,1079,0,515,0
29.18,0,1079,0,515,0
29.19,0,1079,0,515,0
29.2,0,1079,0,515,0
29.21,0,1079,0,515,0
29.22,0,1080,0,516,0
29.23,0,1080,0,516,0
29.24,0,1080,0,516,0
29.25,0,1080,0,516,0
29.26,0,1080,0,516,0
29.27,0,1080,0,516,0
29.28,0,1080,0,516,0
29.29,0,1080,0,516,0
29.3,0,1081,0,516,0
29.31,0,1082,0,517,0
29.32,0,1083,0,517,0
29.33,0,1084,0,518,0
29.34,0,1084,0,518,0
29.35,0,1084,0,518,0
29.36,0,1084,0,518,0
29.37,0,1084,0,518,0
29.38,0,1084,0,518,0
29.39,0,1084,0,518,0
29.4,0,1084,0,518,0
29.41,0,1084,0,518,0
29.42,0,1084,0,518,0
29.43,0,1084,0,518,0
29.44,0,1084,0,518,0
29.45,0,1084,0,518,0
29.46,0,1084,0,518,0
29.47,0,1084,0,518,0
29.48,0,1084,0,518,0
29.49,0,1084,0,518,0
29.5,0,1084,0,518,0
29.51,0,1084,0,518,0
29.52,0,1084,0,518,0
29.53,0,1084,0,518,0
29.54,0,1084,0,518,0
29.55,0,1085,0,518,0
29.56,0,1086,0,518,0
29.57,0,1086,0,518,0
29.58,0,1087,0,518,0
29.59,0,1088,0,518,0
29.6,0,1088,0,518,0
29.61,0,1088,0,518,0
29.62,0,1088,0,518,0
29.63,0,1088,0,518,0
29.64,0,1088,0,518,0
29.65,0,1088,0,518,0
29.66,0,1088,0,518,0
29.67,0,1088,0,518,0
29.68,0,1089,0,519,0
29.69,0,1090,0,519,0
29.7,0,1090,0,519,0
29.71,0,1090,0,519,0
29.72,0,1090,0,519,0
29.73,0,1090,0,519,0
29.74,0,1090,0,519,0
29.75,0,1090,0,519,0
29.76,0,1090,0,519,0
29.77,0,1090,0,519,0
29.78,0,1090,0,519,0
29.79,0,1090,0,519,0
29.8,0,1090,0,519,0
29.81,0,1090,0,519,0
29.82,0,1090,0,519,0
29.83,0,1090,0,519,0
29.84,0,1090,0,519,0
29.85,0,1091,0,519,0
29.86,0,1092,0,519,0
29.87,0,1093,0,519,0
29.88,0,1094,0,519,0
29.89,0,1094,0,519,0
29.9,0,1094,0,519,0
29.91,0,1094,0,519,0
29.92,0,1094,0,519,0
29.93,0,1095,0,519,0
29.94,0,1096,0,520,0
29.95,0,1097,0,521,0
29.96,0,1098,0,522,0
29.97,0,1099,0,522,0
29.98,0,1100,0,522,0
29.99,0,1101,0,523,0
30.0,0,1102,0,524,0
30.01,0,1103,0,524,0
30.02,0,1103,0,524,0
30.03,0,1103,0,524,0
30.04,0,1104,0,525,0
30.05,0,1105,0,526,0
30.06,0,1106,0,526,0
30.07,0,1107,0,527,0
30.08,0,1108,0,527,0
30.09,0,1108,0,527,0
30.1,0,1109,0,528,0
30.11,0,1110,0,529,0
30.12,0,1111,0,530,0
30.13,0,1111,0,530,0
30.14,0,1112,0,530,0
30.15,0,1112,0,530,0
30.16,0,1112,0,530,0
30.17,0,1112,0,530,0
30.18,0,1112,0,530,0
30.19,0,1112,0,530,0
30.2,0,1112,0,530,0
30.21,0,1112,0,530,0
30.22,0,1112,0,530,0
30.23,0,1112,0,530,0
30.24,0,1112,0,530,0
30.25,0,1112,0,530,0
30.26,0,1112,0,530,0
30.27,0,1112,0,530,0
30.28,0,1112,0,530,0
30.29,0,1112,0,530,0
30.3,0,1112,0,530,0
30.31,0,1113,0,531,0
30.32,0,1114,0,532,0
30.33,0,1114,0,532,0
30.34,0,1114,0,532,0
30.35,0,1114,0,532,0
30.36,0,1114,0,532,0
30.37,0,1114,0,532,0
30.38,0,1114,0,532,0
30.39,0,1114,0,532,0
30.4,0,1114,0,532,0
30.41,0,1114,0,532,0
30.42,0,1114,0,532,0
30.43,0,1115,0,533,0
30.44,0,1116,0,534,0
30.45,0,1117,0,535,0
30.46,0,1118,0,536,0
30.47,0,1119,0,536,0
30.48,0,1119,0,536,0
30.49,0,1119,0,536,0
30.5,0,1119,0,536,0
30.51,0,1119,0,536,0
30.52,0,1119,0,536,0
30.53,0,1119,0,536,0
30.54,0,1119,0,536,0
30.55,0,1119,0,536,0
30.56,0,1119,0,536,0
30.57,0,1119,0,536,0
30.58,0,1119,0,536,0
30.59,0,1119,0,536,0
30.6,0,1119,0,536,0
30.61,0,1119,0,536,0
30.62,0,1119,0,536,0
30.63,0,1120,0,537,0
30.64,0,1121,0,538,0
30.65,0,1121,0,539,0
30.66,0,1122,0,539,0
30.67,0,1122,0,539,0
30.68,0,1122,0,539,0
30.69,0,1122,0,539,0
30.7,0,1122,0,539,0
30.71,0,1122,0,539,0
30.72,0,1122,0,539,0
30.73,0,1122,0,539,0
30.74,0,1122,0,539,0
30.75,0,1122,0,539,0
30.76,0,1122,0,539,0
30.77,0,1122,0,539,0
30.78,0,1122,0,539,0
30.79,0,1122,0,539,0
30.8,0,1122,0,539,0
30.81,0,1122,0,539,0
30.82,0,1122,0,539,0
30.83,0,1122,0,539,0
30.84,0,1122,0,539,0
30.85,0,1122,0,539,0
30.86,0,1122,0,539,0
30.87,0,1122,0,539,0
30.88,0,1122,0,539,0
30.89,0,1122,0,539,0
30.9,0,1122,0,539,0
30.91,0,1122,0,539,0
30.92,0,1122,0,539,0
30.93,0,1122,0,539,0
30.94,0,1122,0,539,0
30.95,0,1122,0,539,0
30.96,0,1122,0,539,0
30.97,0,1122,0,539,0
30.98,0,1122,0,539,0
30.99,0,1122,0,539,0
31.0,0,1122,0,539,0
31.01,0,1123,0,540,0
31.02,0,1124,0,541,0
31.03,0,1125,0,541,0
31.04,0,1126,0,542,0
31.05,0,1127,0,542,0
31.06,0,1128,0,543,0
31.07,0,1129,0,544,0
31.08,0,1129,0,544,0
31.09,0,1129,0,544,0
31.1,0,1129,0,544,0
31.11,0,1129,0,544,0
31.12,0,1129,0,544,0
31.13,0,1129,0,545,0
31.14,0,1130,0,546,0
31.15,0,1131,0,546,0
31.16,0,1132,0,546,0
31.17,0,1133,0,547,0
31.18,0,1133,0,547,0
31.19,0,1133,0,547,0
31.2,0,1133,0,547,0
31.21,0,1133,0,547,0
31.22,0,1133,0,547,0
31.23,0,1133,0,547,0
31.24,0,1133,0,547,0
31.25,0,1133,0,547,0
31.26,0,1134,0,548,0
31.27,0,1135,0,548,0
31.28,0,1135,0,548,0
31.29,0,1135,0,548,0
31.3,0,1135,0,548,0
31.31,0,1135,0,548,0
31.32,0,1135,0,548,0
31.33,0,1136,0,548,0
31.34,0,1137,0,549,0
31.35,0,1137,0,549,0
31.36,0,1137,0,549,0
31.37,0,1137,0,549,0
31.38,0,1137,0,549,0
31.39,0,1137,0,549,0
31.4,0,1138,0,550,0
31.41,0,1138,0,550,0
31.42,0,1138,0,550,0
31.43,0,1138,0,550,0
31.44,0,1138,0,550,0
31.45,0,1139,0,550,0
31.46,0,1140,0,551,0
31.47,0,1140,0,551,0
31.48,0,1140,0,551,0
31.49,0,1140,0,551,0
31.5,0,1141,0,551,0
31.51,0,1142,0,551,0
31.52,0,1143,0,551,0
31.53,0,1144,0,552,0
31.54,0,1145,0,553,0
31.55,0,1146,0,553,0
31.56,0,1146,0,553,0
31.57,0,1146,0,553,0
31.58,0,1146,0,553,0
31.59,0,1147,0,553,0
31.6,0,1148,0,554,0
31.61,0,1149,0,555,0
31.62,0,1150,0,555,0
31.63,0,1150,0,555,0
31.64,0,1150,0,555,0
31.65,0,1150,0,555,0
31.66,0,1150,0,555,0
31.67,0,1150,0,555,0
31.68,0,1151,0,556,0
31.69,0,1152,0,556,0
31.7,0,1153,0,556,0
31.71,0,1154,0,556,0
31.72,0,1154,0,556,0
31.73,0,1155,0,557,0
31.74,0,1156,0,557,0
31.75,0,1157,0,557,0
31.76,0,1157,0,557,0
31.77,0,1157,0,557,0
31.78,0,1157,0,557,0
31.79,0,1157,0,557,0
31.8,0,1157,0,557,0
31.81,0,1157,0,557,0
31.82,0,1157,0,557,0
31.83,0,1157,0,557,0
31.84,0,1157,0,557,0
31.85,0,1158,0,558,0
31.86,0,1159,0,559,0
31.87,0,1160,0,560,0
31.88,0,1160,0,560,0
31.89,0,1160,0,560,0
31.9,0,1160,0,560,0
31.91,0,1160,0,560,0
31.92,0,1160,0,560,0
31.93,0,1160,0,560,0
31.94,0,1161,0,560,0
31.95,0,1162,0,560,0
31.96,0,1163,0,560,0
31.97,0,1163,0,560,0
31.98,0,1163,0,560,0
31.99,0,1163,0,560,0
32.0,0,1163,0,560,0
32.01,0,1163,0,560,0
32.02,0,1164,0,560,0
32.03,0,1165,0,560,0
32.04,0,1165,0,560,0
32.05,0,1165,0,560,0
32.06,0,1165,0,560,0
32.07,0,1165,0,560,0
32.08,0,1165,0,560,0
32.09,0,1165,0,560,0
32.1,0,1165,0,560,0
32.11,0,1165,0,560,0
32.12,0,1165,0,560,0
32.13,0,1165,0,560,0
32.14,0,1165,0,560,0
32.15,0,1166,0,561,0
32.16,0,1167,0,561,0
32.17,0,1168,0,562,0
32.18,0,1169,0,563,0
32.19,0,1170,0,564,0
32.2,0,1170,0,564,0
32.21,0,1170,0,564,0
32.22,0,1170,0,564,0
32.23,0,1170,0,564,0
32.24,0,1170,0,564,0
32.25,0,1171,0,564,0
32.26,0,1171,0,564,0
32.27,0,1171,0,564,0
32.28,0,1171,0,564,0
32.29,0,1171,0,564,0
32.3,0,1171,0,564,0
32.31,0,1171,0,564,0
32.32,0,1172,0,565,0
32.33,0,1173,0,566,0
32.34,0,1174,0,567,0
32.35,0,1175,0,568,0
32.36,0,1176,0,569,0
32.37,0,1176,0,569,0
32.38,0,1177,0,569,0
32.39,0,1178,0,569,0
32.4,0,1178,0,569,0
32.41,0,1178,0,569,0
32.42,0,1178,0,569,0
32.43,0,1178,0,569,0
32.44,0,1178,0,569,0
32.45,0,1178,0,569,0
32.46,0,1178,0,569,0
32.47,0,1178,0,569,0
32.48,0,1178,0,569,0
32.49,0,1178,0,569,0
32.5,0,1178,0,569,0
32.51,0,1178,0,569,0
32.52,0,1178,0,569,0
32.53,0,1178,0,569,0
32.54,0,1179,0,569,0
32.55,0,1179,0,569,0
32.56,0,1179,0,569,0
32.57,0,1179,0,569,0
32.58,0,1179,0,569,0
32.59,0,1179,0,569,0
32.6,0,1179,0,569,0
32.61,0,1179,0,569,0
32.62,0,1179,0,569,0
32.63,0,1179,0,569,0
32.64,0,1179,0,569,0
32.65,0,1180,0,570,0
32.66,0,1181,0,571,0
32.67,0,1182,0,572,0
32.68,0,1183,0,572,0
32.69,0,1184,0,573,0
32.7,0,1184,0,573,0
32.71,0,1184,0,573,0
32.72,0,1184,0,573,0
32.73,0,1185,0,573,0
