time,AdrenergicStimulus,CorticalStimulus,EmotionalStimulus,NutritiveStimulus,EvaluationStimulus,FocusStimulus,MuscularStimulus,ProprioceptiveStimulus,SomaticStimulus,VisualStimulus
0.0,1136,1135,1136,6,6,1133,1133,1033,0,906
1.0,1184,1185,1184,1,1,1187,1187,1152,0,913
2.0,1268,1267,1268,0,0,1264,1264,1106,0,1081
3.0,1226,1223,1226,0,0,1226,1226,1026,0,1021
4.0,1196,1199,1196,1,1,1194,1194,970,0,962
5.0,1211,1212,1211,0,0,1217,1217,913,0,886
6.0,1191,1184,1191,0,0,1184,1184,986,0,992
7.0,1220,1227,1220,1,1,1227,1227,981,0,950
8.0,1233,1230,1233,1,1,1230,1230,1003,0,991
9.0,1256,1259,1256,0,0,1257,1257,934,0,937
10.0,1171,1171,1171,0,0,1173,1173,915,0,914
11.0,1163,1160,1163,0,0,1160,1160,964,0,948
12.0,1209,1211,1209,1,1,1209,1209,1104,0,1087
13.0,1209,1207,1209,0,0,1207,1207,1042,0,1037
14.0,1214,1215,1214,0,0,1213,1213,946,0,932
15.0,1207,1209,1207,0,0,1212,1212,1029,0,933
16.0,1248,1242,1248,7,7,1241,1241,1196,0,1038
17.0,1264,1263,1264,6,6,1265,1265,1208,0,1082
18.0,1260,1267,1260,11,11,1263,1263,1168,0,999
19.0,1220,1220,1220,6,6,1222,1222,1081,0,889
20.0,1258,1249,1258,6,5,1248,1248,1149,0,1041
21.0,1238,1246,1238,12,13,1247,1247,1345,0,981
22.0,1256,1256,1256,21,21,1258,1258,1350,0,934
23.0,1237,1238,1237,5,5,1238,1238,1126,0,926
24.0,1257,1256,1257,7,7,1253,1253,1370,0,1026
25.0,1221,1220,1221,8,8,1222,1222,1153,0,994
26.0,1267,1269,1267,6,6,1265,1265,1126,0,990
27.0,1280,1274,1280,2,2,1274,1274,1214,0,1021
28.0,1182,1188,1182,1,1,1191,1191,1053,0,894
29.0,1196,1196,1196,10,10,1198,1198,1217,0,941
30.0,1237,1226,1237,4,4,1223,1223,1153,0,937
31.0,1169,1180,1169,1,1,1173,1173,1148,0,994
32.0,1208,1208,1208,2,2,1218,1218,1086,0,917
33.0,1299,1299,1299,3,3,1285,1285,1346,0,1079
34.0,1234,1223,1234,2,2,1237,1237,1034,0,992
35.0,1200,1211,1200,6,6,1207,1207,1158,0,929
36.0,1246,1245,1246,0,0,1249,1249,1131,0,1048
37.0,1218,1219,1218,2,2,1215,1215,1238,0,1013
38.0,1212,1212,1212,1,1,1214,1214,1100,0,987
39.0,1195,1195,1195,1,1,1192,1192,1181,0,975
40.0,1097,1091,1097,1,1,1096,1096,986,0,859
41.0,1243,1249,1243,0,0,1248,1248,1015,0,912
42.0,1250,1248,1250,5,5,1244,1244,1353,0,959
43.0,1236,1231,1236,3,3,1236,1236,1038,0,876
44.0,1126,1132,1126,0,0,1132,1132,867,0,849
45.0,1119,1116,1119,4,3,1100,1100,982,0,822
46.0,1185,1187,1185,0,1,1203,1203,1193,0,1090
47.0,1246,1246,1246,1,1,1245,1245,1077,0,945
48.0,1323,1325,1323,2,2,1326,1326,1448,0,1185
49.0,1242,1242,1242,0,0,1242,1242,1205,0,1125
50.0,1133,1133,1133,0,0,1133,1133,900,0,824
51.0,1154,1152,1154,3,3,1151,1151,1154,0,922
52.0,1260,1260,1260,4,4,1261,1261,1283,0,1178
53.0,1434,1436,1434,0,0,1431,1431,1154,0,1153
54.0,1395,1395,1395,0,0,1399,1399,980,0,980
55.0,878,877,878,0,0,863,863,760,0,760
56.0,0,0,0,0,0,0,0,0,0,0
