time,AdrenergicStimulus,CorticalStimulus,EmotionalStimulus,NutritiveStimulus,EvaluationStimulus,FocusStimulus,MuscularStimulus,ProprioceptiveStimulus,SomaticStimulus,VisualStimulus
0.0,2340,2340,2340,33,30,2339,2339,2441,0,1851
1.0,2245,2245,2245,4,7,2246,2246,1895,0,1803
2.0,2208,2207,2208,1,1,2206,2206,1798,0,1795
3.0,2197,2197,2197,0,0,2194,2194,1795,0,1795
4.0,2142,2139,2142,1,1,2143,2143,1722,0,1713
5.0,2301,2300,2301,1,0,2290,2290,1967,0,1959
6.0,1982,1987,1982,4,5,1993,1993,1506,0,1493
7.0,1695,1691,1695,0,0,1694,1694,1101,0,1101
8.0,1646,1650,1646,0,0,1651,1651,1079,0,1079
9.0,1529,1529,1529,0,0,1529,1529,891,0,891
10.0,1330,1330,1330,0,0,1330,1330,692,0,692
11.0,946,946,946,0,0,945,945,434,0,434
12.0,1569,1569,1569,0,0,1570,1570,862,0,862
13.0,1590,1590,1590,9,9,1589,1589,1067,0,940
14.0,1917,1909,1917,16,15,1907,1907,1472,0,1253
15.0,1744,1752,1744,10,11,1753,1753,1233,0,1128
16.0,1884,1884,1884,14,14,1886,1886,1333,0,1213
17.0,1915,1915,1915,9,9,1915,1915,1402,0,1283
18.0,1863,1863,1863,0,0,1863,1863,1296,0,1296
19.0,1840,1839,1840,1,1,1837,1837,1267,0,1262
20.0,1824,1823,1824,3,3,1825,1825,1254,0,1244
21.0,1885,1884,1885,4,4,1884,1884,1340,0,1306
22.0,1950,1953,1950,4,4,1953,1953,1463,0,1432
23.0,2005,2005,2005,13,13,2005,2005,1648,0,1498
24.0,1968,1968,1968,0,0,1965,1965,1491,0,1490
25.0,1949,1949,1949,0,0,1949,1949,1429,0,1428
26.0,2137,2137,2137,0,0,2138,2138,1638,0,1638
27.0,2207,2207,2207,2,2,2208,2208,1758,0,1741
28.0,2332,2330,2332,0,0,2312,2312,1974,0,1974
29.0,2235,2237,2235,0,0,2255,2255,1850,0,1851
30.0,2199,2197,2199,0,0,2193,2193,1744,0,1743
31.0,2293,2293,2293,0,0,2296,2296,1955,0,1955
32.0,2279,2277,2279,0,0,2276,2276,1910,0,1910
33.0,2296,2298,2296,0,0,2294,2294,1889,0,1889
34.0,2348,2350,2348,0,0,2357,2357,1968,0,1968
35.0,748,747,748,0,0,746,746,637,0,639
36.0,0,0,0,0,0,0,0,0,0,0
