time,AdrenergicStimulus,CorticalStimulus,EmotionalStimulus,NutritiveStimulus,EvaluationStimulus,FocusStimulus,MuscularStimulus,ProprioceptiveStimulus,SomaticStimulus,VisualStimulus
0.0,1496,1496,1496,13,13,1493,1493,1630,0,1333
1.0,1444,1444,1444,1,1,1447,1447,1247,0,1241
2.0,1505,1505,1505,0,0,1504,1504,1298,0,1298
3.0,1185,1185,1185,0,0,1186,1186,786,0,786
4.0,1023,1020,1023,0,0,1020,1020,620,0,620
5.0,1332,1333,1332,0,0,1333,1333,1047,0,1047
6.0,1225,1227,1225,0,0,1227,1227,897,0,897
7.0,1180,1180,1180,0,0,1180,1180,755,0,755
8.0,1429,1427,1429,0,0,1427,1427,1075,0,1075
9.0,1334,1336,1334,0,0,1336,1336,929,0,929
10.0,1340,1340,1340,0,0,1340,1340,831,0,831
11.0,1311,1310,1311,0,0,1310,1310,873,0,873
12.0,1314,1315,1314,0,0,1315,1315,883,0,883
13.0,1439,1439,1439,1,1,1437,1437,1112,0,1108
14.0,1367,1364,1367,0,0,1366,1366,958,0,960
15.0,1368,1369,1368,0,0,1368,1368,1020,0,1020
16.0,1448,1449,1448,0,0,1450,1450,1075,0,1073
17.0,1365,1366,1365,0,0,1366,1366,1008,0,1008
18.0,1425,1424,1425,0,0,1424,1424,1142,0,1142
19.0,1411,1412,1411,2,2,1408,1408,1124,0,1077
20.0,1455,1455,1455,1,1,1454,1454,1109,0,1108
21.0,1474,1474,1474,0,0,1479,1479,1052,0,1050
22.0,1458,1458,1458,2,2,1458,1458,1189,0,1164
23.0,1407,1406,1407,1,1,1406,1406,1014,0,1005
24.0,1387,1388,1387,0,0,1388,1388,986,0,986
25.0,1432,1432,1432,0,0,1432,1432,1020,0,1020
26.0,1375,1374,1375,0,0,1374,1374,1008,0,1008
27.0,1361,1362,1361,0,0,1362,1362,983,0,983
28.0,1447,1447,1447,0,0,1447,1447,1073,0,1073
29.0,1549,1549,1549,3,3,1549,1549,1165,0,1132
30.0,1461,1459,1461,0,0,1458,1458,985,0,976
31.0,1383,1385,1383,0,0,1383,1383,973,0,974
32.0,1488,1485,1488,0,0,1488,1488,1167,0,1166
33.0,1354,1356,1354,0,0,1356,1356,1011,0,1011
34.0,1393,1392,1393,0,0,1389,1389,953,0,953
35.0,1213,1215,1213,0,0,1218,1218,719,0,719
36.0,1284,1283,1284,1,1,1283,1283,962,0,959
37.0,1243,1244,1243,0,0,1243,1243,835,0,834
38.0,1311,1311,1311,0,0,1312,1312,909,0,909
39.0,1229,1229,1229,0,0,1229,1229,867,0,867
40.0,1405,1405,1405,0,0,1403,1403,1030,0,1030
41.0,1400,1400,1400,0,0,1402,1402,1183,0,1183
42.0,1273,1273,1273,0,0,1273,1273,850,0,850
43.0,1312,1312,1312,0,0,1312,1312,1030,0,1030
44.0,1279,1274,1279,0,0,1274,1274,936,0,937
45.0,1321,1325,1321,0,0,1325,1325,982,0,981
46.0,1280,1278,1280,0,0,1278,1278,946,0,946
47.0,1280,1283,1280,0,0,1283,1283,889,0,889
48.0,1591,1590,1591,0,0,1590,1590,1128,0,1128
49.0,1415,1416,1415,0,0,1416,1416,1020,0,1020
50.0,0,0,0,0,0,0,0,0,0,0
