time,AdrenergicStimulus,CorticalStimulus,EmotionalStimulus,NutritiveStimulus,EvaluationStimulus,FocusStimulus,MuscularStimulus,ProprioceptiveStimulus,SomaticStimulus,VisualStimulus
0.0,2445,2445,2445,10,10,2445,2445,2027,0,1935
1.0,2295,2295,2295,0,0,2295,2295,1464,0,1464
2.0,2241,2241,2241,0,0,2241,2241,1277,0,1277
3.0,2299,2299,2299,2,1,2299,2299,1541,0,1532
4.0,2165,2165,2165,1,2,2165,2165,1401,0,1397
5.0,2378,2378,2378,1,1,2377,2377,1568,0,1563
6.0,2256,2255,2256,1,1,2256,2256,1484,0,1474
7.0,2260,2261,2260,5,5,2260,2260,1537,0,1496
8.0,2287,2287,2287,40,4,2287,2287,1611,0,1322
9.0,2249,2249,2249,14,50,2249,2249,1491,0,1375
10.0,2302,2301,2302,31,0,2302,2302,1726,0,1458
11.0,2217,2218,2217,1,32,2217,2217,1417,0,1412
12.0,2294,2294,2294,1,1,2295,2295,1471,0,1467
13.0,2181,2181,2181,0,0,2181,2181,1320,0,1320
14.0,2272,2272,2272,0,0,2272,2272,1486,0,1486
15.0,2450,2450,2450,1,1,2450,2450,1846,0,1840
16.0,2259,2259,2259,0,0,2258,2258,1375,0,1375
17.0,2252,2252,2252,6,0,2252,2252,1484,0,1455
18.0,2295,2295,2295,21,25,2296,2296,1692,0,1497
19.0,2513,2512,2513,0,2,2512,2512,2006,0,2007
20.0,2637,2638,2637,0,0,2637,2637,2173,0,2173
21.0,2548,2548,2548,0,0,2549,2549,2014,0,2013
22.0,2583,2583,2583,0,0,2583,2583,1953,0,1953
23.0,2458,2458,2458,1,0,2458,2458,1821,0,1818
24.0,2555,2554,2555,0,0,2554,2554,2033,0,2033
25.0,2429,2429,2429,0,1,2429,2429,1833,0,1833
26.0,2427,2428,2427,0,0,2428,2428,1738,0,1738
27.0,2486,2485,2486,0,0,2485,2485,1914,0,1914
28.0,2462,2463,2462,0,0,2462,2462,1886,0,1886
29.0,2625,2625,2625,0,0,2625,2625,2114,0,2114
30.0,2547,2546,2547,0,0,2547,2547,2048,0,2050
31.0,0,0,0,0,0,0,0,0,0,0
