time,AdrenergicStimulus,CorticalStimulus,EmotionalStimulus,NutritiveStimulus,EvaluationStimulus,FocusStimulus,MuscularStimulus,ProprioceptiveStimulus,SomaticStimulus,VisualStimulus
0.0,1940,1940,1940,14,14,1940,1940,1865,0,1642
1.0,1781,1779,1781,0,0,1779,1779,1447,0,1447
2.0,1823,1824,1823,0,0,1824,1824,1475,0,1476
3.0,1656,1657,1656,0,0,1657,1657,1272,0,1271
4.0,1744,1741,1744,0,0,1738,1738,1279,0,1279
5.0,1659,1662,1659,0,0,1662,1662,1278,0,1278
6.0,1619,1619,1619,0,0,1622,1622,1269,0,1269
7.0,1637,1637,1637,2,2,1637,1637,1312,0,1306
8.0,1750,1749,1750,1,1,1749,1749,1380,0,1376
9.0,1665,1665,1665,0,0,1665,1665,1247,0,1247
10.0,1739,1735,1739,8,6,1735,1735,1453,0,1383
11.0,1697,1702,1697,1,3,1702,1702,1295,0,1290
12.0,1762,1760,1762,2,2,1759,1759,1478,0,1461
13.0,1684,1686,1684,0,0,1687,1687,1345,0,1346
14.0,1770,1770,1770,0,0,1769,1769,1392,0,1392
15.0,1734,1734,1734,0,0,1735,1735,1365,0,1364
16.0,1650,1645,1650,0,0,1645,1645,1350,0,1349
17.0,1702,1705,1702,0,0,1704,1704,1345,0,1345
18.0,1696,1698,1696,0,0,1699,1699,1342,0,1343
19.0,1716,1715,1716,0,0,1715,1715,1414,0,1413
20.0,1762,1763,1762,1,0,1762,1762,1370,0,1359
21.0,1670,1669,1670,0,1,1669,1669,1350,0,1349
22.0,1692,1693,1692,1,0,1694,1694,1264,0,1249
23.0,1764,1754,1764,0,1,1751,1751,1408,0,1406
24.0,1730,1737,1730,1,0,1740,1740,1408,0,1406
25.0,1588,1591,1588,15,3,1589,1589,1348,0,1218
26.0,1764,1762,1764,0,13,1764,1764,1402,0,1403
27.0,1701,1703,1701,0,0,1686,1686,1330,0,1329
28.0,1673,1671,1673,1,1,1688,1688,1334,0,1329
29.0,1744,1746,1744,0,0,1745,1745,1409,0,1409
30.0,1679,1679,1679,1,0,1680,1680,1359,0,1353
31.0,1709,1709,1709,0,1,1709,1709,1316,0,1317
32.0,1812,1810,1812,0,0,1810,1810,1517,0,1516
33.0,1678,1680,1678,0,0,1680,1680,1350,0,1350
34.0,1684,1682,1684,0,0,1679,1679,1335,0,1335
35.0,1784,1786,1784,0,0,1788,1788,1499,0,1499
36.0,1733,1733,1733,0,0,1734,1734,1460,0,1460
37.0,1704,1704,1704,0,0,1704,1704,1340,0,1340
38.0,1776,1775,1776,0,0,1774,1774,1399,0,1399
39.0,1699,1700,1699,0,0,1701,1701,1298,0,1298
40.0,828,828,828,0,0,828,828,687,0,687
41.0,0,0,0,0,0,0,0,0,0,0
