time,AdrenergicStimulus,CorticalStimulus,EmotionalStimulus,NutritiveStimulus,EvaluationStimulus,FocusStimulus,MuscularStimulus,ProprioceptiveStimulus,SomaticStimulus,VisualStimulus
0.0,1195,1195,1195,11,11,1188,1188,1082,0,925
1.0,1235,1235,1235,4,4,1240,1240,1471,0,1090
2.0,1330,1330,1330,15,15,1331,1331,1518,0,1108
3.0,1396,1390,1396,12,12,1391,1391,1554,0,1230
4.0,1313,1318,1313,8,7,1310,1310,1506,0,1182
5.0,1352,1352,1352,7,8,1353,1353,1491,0,1092
6.0,1408,1409,1408,18,15,1388,1388,1535,0,1287
7.0,1400,1397,1400,14,16,1412,1412,1535,0,1171
8.0,1316,1313,1316,24,24,1322,1322,1495,0,1165
9.0,1417,1408,1417,23,22,1412,1412,1633,0,1064
10.0,1346,1361,1346,22,21,1361,1361,1504,0,1070
11.0,1377,1372,1377,22,22,1371,1371,1511,0,894
12.0,1411,1413,1411,27,27,1409,1409,1609,0,1109
13.0,1325,1328,1325,21,17,1333,1333,1565,0,1233
14.0,1355,1349,1355,18,23,1349,1349,1544,0,1206
15.0,1227,1233,1227,6,7,1231,1231,1316,0,816
16.0,1289,1288,1289,20,21,1290,1290,1479,0,1194
17.0,1332,1330,1332,22,21,1327,1327,1541,0,1158
18.0,1343,1346,1343,22,22,1346,1346,1573,0,1220
19.0,1312,1312,1312,3,4,1310,1310,1468,0,1229
20.0,1283,1281,1283,4,4,1286,1286,1423,0,1122
21.0,1245,1247,1245,1,1,1246,1246,1090,0,1022
22.0,1351,1346,1351,4,4,1346,1346,1311,0,1165
23.0,1318,1323,1318,0,0,1322,1322,1262,0,1127
24.0,1327,1327,1327,4,4,1329,1329,1349,0,1228
25.0,1400,1390,1400,0,0,1388,1388,1370,0,1188
26.0,1318,1325,1318,15,15,1326,1326,1358,0,1159
27.0,1404,1404,1404,14,14,1403,1403,1522,0,1290
28.0,1345,1346,1345,0,0,1343,1343,1483,0,1192
29.0,1301,1302,1301,1,1,1299,1299,1310,0,1174
30.0,1260,1261,1260,0,0,1269,1269,1131,0,1056
31.0,1329,1329,1329,0,0,1327,1327,1278,0,1203
32.0,1172,1166,1172,1,1,1167,1167,1126,0,904
33.0,1355,1361,1355,0,0,1356,1356,1505,0,1203
34.0,1279,1278,1279,1,1,1283,1283,1355,0,1105
35.0,1307,1307,1307,5,5,1308,1308,1301,0,1073
36.0,1254,1250,1254,7,7,1247,1247,1285,0,1107
37.0,1190,1195,1190,9,9,1198,1198,1163,0,935
38.0,1211,1209,1211,5,5,1207,1207,1307,0,1145
39.0,1267,1259,1267,0,0,1261,1261,1273,0,1083
40.0,1249,1259,1249,1,1,1259,1259,1289,0,1124
41.0,1200,1196,1200,0,0,1196,1196,1385,0,978
42.0,1188,1187,1188,0,0,1187,1187,1266,0,1024
43.0,1132,1135,1132,1,1,1130,1130,1056,0,815
44.0,1268,1270,1268,0,0,1271,1271,1358,0,1161
45.0,1287,1287,1287,2,2,1286,1286,1392,0,1169
46.0,1264,1263,1264,1,1,1260,1260,1261,0,1085
47.0,1214,1215,1214,0,0,1220,1220,1204,0,1133
48.0,1223,1223,1223,0,0,1226,1226,1292,0,1199
49.0,1270,1268,1270,0,0,1268,1268,1350,0,1156
50.0,1258,1260,1258,0,0,1257,1257,1284,0,1188
51.0,1333,1333,1333,0,0,1336,1336,1425,0,1303
52.0,727,714,727,0,0,714,714,666,0,655
53.0,0,0,0,0,0,0,0,0,0,0
