time,AdrenergicStimulus,CorticalStimulus,EmotionalStimulus,NutritiveStimulus,EvaluationStimulus,FocusStimulus,MuscularStimulus,ProprioceptiveStimulus,SomaticStimulus,VisualStimulus
0.0,1552,1543,1552,13,13,1543,1543,1856,0,1396
1.0,1473,1482,1473,13,13,1482,1482,1712,0,1277
2.0,1514,1514,1514,14,12,1514,1514,1738,0,1251
3.0,1540,1540,1540,10,12,1535,1535,1508,0,1255
4.0,1456,1453,1456,0,0,1457,1457,1154,0,1156
5.0,1522,1525,1522,0,0,1526,1526,1319,0,1317
6.0,1505,1500,1505,0,0,1499,1499,1362,0,1362
7.0,1566,1571,1566,0,0,1572,1572,1444,0,1444
8.0,1468,1468,1468,0,0,1468,1468,1282,0,1282
9.0,1462,1462,1462,0,0,1454,1454,1274,0,1274
10.0,1556,1556,1556,0,0,1564,1564,1376,0,1377
11.0,1501,1499,1501,22,22,1499,1499,1422,0,1224
12.0,1559,1561,1559,9,9,1558,1558,1447,0,1348
13.0,1494,1494,1494,0,0,1495,1495,1287,0,1287
14.0,1502,1502,1502,3,3,1501,1501,1262,0,1246
15.0,1530,1530,1530,0,0,1533,1533,1385,0,1385
16.0,1305,1303,1305,1,1,1303,1303,882,0,878
17.0,1311,1313,1311,2,2,1311,1311,941,0,904
18.0,1354,1354,1354,0,0,1356,1356,932,0,930
19.0,1233,1233,1233,0,0,1233,1233,860,0,860
20.0,1202,1201,1202,0,0,1201,1201,809,0,789
21.0,1278,1278,1278,1,1,1278,1278,927,0,871
22.0,1349,1349,1349,3,3,1349,1349,998,0,912
23.0,1313,1312,1313,5,5,1312,1312,916,0,815
24.0,1338,1340,1338,3,3,1340,1340,1018,0,934
25.0,1322,1322,1322,0,0,1322,1322,863,0,854
26.0,1046,1046,1046,0,0,1046,1046,635,0,635
27.0,1263,1263,1263,0,0,1263,1263,874,0,872
28.0,1348,1348,1348,0,0,1348,1348,978,0,845
29.0,1369,1366,1369,0,0,1366,1366,1145,0,910
30.0,1542,1545,1542,26,25,1545,1545,1578,0,1231
31.0,1512,1512,1512,14,14,1512,1512,1381,0,1045
32.0,1585,1581,1585,7,8,1578,1578,1455,0,1316
33.0,1345,1346,1345,7,7,1344,1344,1201,0,977
34.0,1202,1205,1202,0,0,1210,1210,847,0,801
35.0,1044,1044,1044,0,0,1044,1044,588,0,581
36.0,1164,1163,1164,1,1,1163,1163,886,0,779
37.0,1320,1321,1320,1,1,1321,1321,1027,0,970
38.0,997,997,997,1,1,997,997,566,0,564
39.0,1246,1246,1246,0,0,1246,1246,762,0,762
40.0,1355,1355,1355,0,0,1351,1351,948,0,948
41.0,1502,1502,1502,0,0,1506,1506,1167,0,1167
42.0,1471,1467,1471,0,0,1467,1467,1131,0,1131
43.0,1354,1358,1354,0,0,1358,1358,1117,0,1117
44.0,1378,1378,1378,0,0,1378,1378,1109,0,1109
45.0,1403,1403,1403,0,0,1403,1403,1032,0,1032
46.0,1303,1303,1303,0,0,1303,1303,906,0,907
47.0,1389,1389,1389,0,0,1388,1388,1106,0,1106
48.0,1566,1564,1566,0,0,1565,1565,1151,0,1150
49.0,296,298,296,0,0,298,298,242,0,242
50.0,0,0,0,0,0,0,0,0,0,0
