time,AdrenergicStimulus,CorticalStimulus,EmotionalStimulus,NutritiveStimulus,EvaluationStimulus,FocusStimulus,MuscularStimulus,ProprioceptiveStimulus,SomaticStimulus,VisualStimulus
0.0,1254,1254,1254,8,8,1253,1253,1373,0,1146
1.0,1250,1248,1250,5,5,1239,1239,1142,0,962
2.0,1198,1200,1198,3,3,1210,1210,982,0,863
3.0,1219,1218,1219,0,0,1217,1217,1196,0,924
4.0,1209,1210,1209,3,3,1210,1210,968,0,867
5.0,1287,1286,1287,4,4,1287,1287,1067,0,899
6.0,1312,1313,1312,3,3,1313,1313,1048,0,951
7.0,1196,1196,1196,0,0,1194,1194,810,0,810
8.0,1125,1125,1125,2,2,1126,1126,767,0,732
9.0,1260,1260,1260,0,0,1261,1261,876,0,876
10.0,1319,1319,1319,2,2,1319,1319,1037,0,1013
11.0,1314,1314,1314,4,4,1314,1314,1255,0,926
12.0,1320,1320,1320,0,0,1320,1320,1151,0,1038
13.0,1330,1323,1330,0,0,1316,1316,1045,0,1045
14.0,942,941,942,0,0,948,948,612,0,606
15.0,832,840,832,0,0,840,840,445,0,441
16.0,1059,1056,1059,1,1,1056,1056,849,0,761
17.0,885,888,885,2,2,888,888,578,0,488
18.0,881,881,881,1,1,881,881,462,0,404
19.0,1317,1310,1317,0,0,1309,1309,1088,0,1006
20.0,1384,1384,1384,3,3,1383,1383,1303,0,1236
21.0,1233,1240,1233,1,1,1242,1242,1125,0,1061
22.0,1247,1247,1247,0,0,1246,1246,1147,0,1005
23.0,1303,1301,1303,0,0,1301,1301,1203,0,1078
24.0,1234,1234,1234,0,0,1230,1230,1029,0,1005
25.0,1095,1097,1095,0,0,1102,1102,789,0,757
26.0,1099,1098,1099,0,0,1098,1098,679,0,658
27.0,906,907,906,0,0,907,907,527,0,490
28.0,855,855,855,0,0,855,855,461,0,448
29.0,1096,1095,1096,0,0,1093,1093,769,0,718
30.0,1074,1071,1074,0,0,1069,1069,718,0,718
31.0,1165,1169,1165,0,0,1173,1173,938,0,925
32.0,1103,1103,1103,0,0,1102,1102,726,0,708
33.0,1047,1047,1047,4,4,1048,1048,684,0,485
34.0,1055,1055,1055,3,3,1051,1051,753,0,651
35.0,860,860,860,0,0,864,864,392,0,299
36.0,1095,1095,1095,1,1,1095,1095,783,0,731
37.0,1113,1113,1113,0,0,1112,1112,734,0,731
38.0,953,953,953,0,0,954,954,627,0,599
39.0,993,992,993,0,0,992,992,657,0,658
40.0,1006,1007,1006,0,0,1007,1007,629,0,540
41.0,1006,1001,1006,2,2,1000,1000,627,0,517
42.0,967,971,967,0,0,972,972,638,0,586
43.0,1102,1098,1102,0,0,1091,1091,827,0,794
44.0,1108,1109,1108,0,0,1116,1116,838,0,767
45.0,1107,1111,1107,0,0,1110,1110,835,0,811
46.0,1211,1211,1211,0,0,1212,1212,923,0,813
47.0,1164,1164,1164,0,0,1164,1164,753,0,690
48.0,1154,1147,1154,0,0,1144,1144,818,0,810
49.0,1266,1273,1266,0,0,1276,1276,1163,0,895
50.0,1110,1108,1110,0,0,1106,1106,855,0,692
51.0,1174,1175,1174,0,0,1177,1177,863,0,863
52.0,1136,1137,1136,0,0,1137,1137,760,0,759
53.0,1244,1243,1244,0,0,1240,1240,1100,0,967
54.0,1244,1243,1244,0,0,1246,1246,1188,0,1124
55.0,1839,1841,1839,0,0,1838,1838,1741,0,1741
56.0,2220,2220,2220,0,0,2223,2223,1727,0,1727
57.0,2388,2388,2388,0,0,2388,2388,1808,0,1808
58.0,8,7,8,0,0,7,7,4,0,6
59.0,0,0,0,0,0,0,0,0,0,0
