time,AdrenergicStimulus,CorticalStimulus,EmotionalStimulus,NutritiveStimulus,EvaluationStimulus,FocusStimulus,MuscularStimulus,ProprioceptiveStimulus,SomaticStimulus,VisualStimulus
0.0,1650,1650,1650,5,5,1650,1650,1386,0,1312
1.0,1704,1703,1704,0,0,1699,1699,1321,0,1321
2.0,1874,1875,1874,0,0,1878,1878,1493,0,1493
3.0,1789,1785,1789,0,0,1786,1786,1263,0,1263
4.0,1702,1706,1702,0,0,1704,1704,1315,0,1315
5.0,1723,1718,1723,0,0,1720,1720,1271,0,1271
6.0,1664,1668,1664,0,0,1667,1667,1183,0,1183
7.0,1636,1636,1636,0,0,1636,1636,1187,0,1187
8.0,1703,1704,1703,0,0,1705,1705,1315,0,1315
9.0,1748,1747,1748,0,0,1742,1742,1307,0,1307
10.0,1660,1659,1660,0,0,1664,1664,1214,0,1214
11.0,1672,1674,1672,0,0,1674,1674,1242,0,1242
12.0,1670,1670,1670,0,0,1669,1669,1233,0,1233
13.0,1762,1762,1762,5,4,1761,1761,1384,0,1334
14.0,1695,1695,1695,4,5,1697,1697,1264,0,1220
15.0,1626,1626,1626,0,0,1626,1626,1262,0,1261
16.0,1757,1755,1757,0,0,1755,1755,1283,0,1283
17.0,1706,1703,1706,0,0,1703,1703,1302,0,1302
18.0,1729,1734,1729,0,0,1734,1734,1342,0,1342
19.0,1691,1691,1691,1,1,1690,1690,1232,0,1228
20.0,1639,1639,1639,0,0,1640,1640,1219,0,1219
21.0,1601,1601,1601,0,0,1601,1601,1177,0,1177
22.0,1698,1694,1698,0,0,1694,1694,1273,0,1273
23.0,1656,1660,1656,0,0,1659,1659,1199,0,1199
24.0,1707,1707,1707,2,2,1708,1708,1327,0,1318
25.0,1748,1748,1748,1,1,1748,1748,1312,0,1311
26.0,1684,1682,1684,0,0,1682,1682,1297,0,1297
27.0,1659,1659,1659,0,0,1653,1653,1233,0,1233
28.0,1784,1785,1784,1,1,1790,1790,1371,0,1370
29.0,1635,1636,1635,0,0,1637,1637,1262,0,1262
30.0,1733,1733,1733,0,0,1733,1733,1389,0,1389
31.0,1686,1685,1686,0,0,1682,1682,1265,0,1262
32.0,1744,1745,1744,0,0,1748,1748,1331,0,1331
33.0,1771,1771,1771,0,0,1770,1770,1370,0,1371
34.0,1714,1714,1714,0,0,1712,1712,1364,0,1363
35.0,1821,1821,1821,0,0,1821,1821,1601,0,1601
36.0,1808,1808,1808,0,0,1807,1807,1367,0,1367
37.0,1691,1691,1691,0,0,1695,1695,1176,0,1176
38.0,1779,1779,1779,0,0,1777,1777,1222,0,1223
39.0,1710,1709,1710,0,0,1711,1711,1183,0,1182
40.0,206,207,206,0,0,207,207,139,0,139
41.0,0,0,0,0,0,0,0,0,0,0
