time,AdrenergicStimulus,CorticalStimulus,EmotionalStimulus,NutritiveStimulus,EvaluationStimulus,FocusStimulus,MuscularStimulus,ProprioceptiveStimulus,SomaticStimulus,VisualStimulus
0.0,1236,1228,1236,7,7,1227,1227,1230,0,1045
1.0,1181,1187,1181,5,5,1185,1185,1220,0,874
2.0,1219,1220,1219,1,1,1223,1223,1154,0,1098
3.0,1206,1207,1206,11,11,1207,1207,1110,0,919
4.0,1340,1335,1340,17,17,1335,1335,1453,0,1051
5.0,1368,1368,1368,17,17,1365,1365,1498,0,1002
6.0,1392,1397,1392,23,22,1400,1400,1468,0,1021
7.0,1398,1398,1398,13,13,1398,1398,1354,0,1150
8.0,1353,1351,1353,0,1,1349,1349,1168,0,1170
9.0,1378,1378,1378,0,0,1380,1380,1199,0,1196
10.0,1330,1331,1330,0,0,1328,1328,1095,0,1095
11.0,1269,1268,1269,0,0,1267,1267,966,0,966
12.0,1356,1358,1356,0,0,1361,1361,1270,0,1270
13.0,1405,1404,1405,0,0,1403,1403,1295,0,1299
14.0,1379,1380,1379,0,0,1382,1382,1301,0,1298
15.0,1328,1322,1328,0,0,1322,1322,1222,0,1221
16.0,1346,1351,1346,0,0,1350,1350,1296,0,1296
17.0,1311,1308,1311,8,8,1309,1309,1151,0,1082
18.0,1403,1407,1403,0,0,1404,1404,1145,0,1143
19.0,1335,1335,1335,1,1,1338,1338,1108,0,1105
20.0,1306,1303,1306,0,0,1301,1301,1120,0,1120
21.0,1376,1371,1376,0,0,1362,1362,1103,0,1103
22.0,1323,1330,1323,0,0,1338,1338,1122,0,1122
23.0,1350,1351,1350,0,0,1351,1351,1303,0,1304
24.0,1338,1338,1338,0,0,1335,1335,1203,0,1202
25.0,1370,1369,1370,0,0,1375,1375,1230,0,1230
26.0,1321,1322,1321,0,0,1322,1322,1104,0,1104
27.0,1304,1304,1304,0,0,1303,1303,1161,0,1161
28.0,1388,1388,1388,0,0,1388,1388,1256,0,1258
29.0,1244,1244,1244,0,0,1245,1245,1067,0,1065
30.0,1171,1171,1171,0,0,1171,1171,864,0,864
31.0,970,968,970,0,0,968,968,557,0,557
32.0,971,973,971,0,0,973,973,575,0,575
33.0,890,890,890,3,3,890,890,571,0,530
34.0,1215,1213,1215,9,9,1212,1212,1180,0,846
35.0,1005,1007,1005,4,4,1008,1008,833,0,639
36.0,848,846,848,7,7,844,844,504,0,352
37.0,1098,1098,1098,10,10,1098,1098,741,0,443
38.0,1006,1008,1006,1,1,1009,1009,647,0,599
39.0,1053,1053,1053,0,0,1053,1053,734,0,734
40.0,980,980,980,0,0,981,981,653,0,653
41.0,1096,1096,1096,0,0,1095,1095,699,0,699
42.0,1064,1063,1064,0,0,1064,1064,662,0,662
43.0,987,988,987,0,0,986,986,621,0,621
44.0,1214,1214,1214,0,0,1216,1216,1016,0,1016
45.0,706,706,706,0,0,706,706,346,0,346
46.0,1318,1318,1318,0,0,1318,1318,1103,0,1103
47.0,895,895,895,0,0,895,895,488,0,488
48.0,665,665,665,0,0,665,665,285,0,285
49.0,710,710,710,0,0,710,710,371,0,371
50.0,985,985,985,0,0,985,985,745,0,745
51.0,870,870,870,0,0,870,870,509,0,509
52.0,1025,1025,1025,0,0,1025,1025,711,0,711
53.0,783,783,783,0,0,782,782,343,0,344
54.0,772,772,772,0,0,773,773,453,0,452
55.0,960,960,960,0,0,960,960,636,0,636
56.0,1200,1200,1200,0,0,1200,1200,675,0,675
57.0,990,990,990,0,0,990,990,475,0,475
58.0,1007,1006,1007,0,0,1006,1006,713,0,716
59.0,0,0,0,0,0,0,0,0,0,0
