time,AdrenergicStimulus,CorticalStimulus,EmotionalStimulus,NutritiveStimulus,EvaluationStimulus,FocusStimulus,MuscularStimulus,ProprioceptiveStimulus,SomaticStimulus,VisualStimulus
0.0,1200,1200,1200,2,2,1200,1200,1163,0,1116
1.0,1240,1239,1240,0,0,1239,1239,1099,0,1072
2.0,1021,1019,1021,0,0,1019,1019,758,0,758
3.0,1056,1059,1056,0,0,1059,1059,685,0,686
4.0,1153,1148,1153,0,0,1148,1148,792,0,792
5.0,1204,1209,1204,0,0,1209,1209,998,0,1000
6.0,1226,1226,1226,0,0,1226,1226,1065,0,1062
7.0,1290,1289,1290,0,0,1286,1286,1260,0,1260
8.0,1229,1230,1229,0,0,1233,1233,1073,0,1073
9.0,1256,1255,1256,0,0,1255,1255,1192,0,1193
10.0,1091,1092,1091,0,0,1090,1090,925,0,925
11.0,1110,1110,1110,3,3,1112,1112,929,0,889
12.0,1232,1232,1232,0,0,1232,1232,1090,0,1083
13.0,1166,1166,1166,0,0,1166,1166,982,0,984
14.0,1246,1246,1246,0,0,1246,1246,1017,0,1015
15.0,1222,1222,1222,0,0,1222,1222,1069,0,1059
16.0,1214,1214,1214,0,0,1214,1214,1099,0,1099
17.0,1257,1256,1257,0,0,1256,1256,1035,0,1035
18.0,1228,1228,1228,0,0,1228,1228,982,0,982
19.0,1244,1245,1244,0,0,1241,1241,997,0,997
20.0,1219,1215,1219,0,0,1219,1219,1094,0,1094
21.0,1287,1291,1287,0,0,1288,1288,1231,0,1233
22.0,1224,1223,1224,0,0,1224,1224,1095,0,1092
23.0,1206,1206,1206,0,0,1205,1205,1018,0,1018
24.0,1360,1358,1360,40,38,1361,1361,1451,0,1102
25.0,1296,1299,1296,32,34,1299,1299,1398,0,984
26.0,1288,1288,1288,7,7,1287,1287,1194,0,1133
27.0,1256,1256,1256,1,1,1257,1257,1209,0,1202
28.0,1240,1238,1240,4,4,1236,1236,1176,0,1117
29.0,1288,1289,1288,4,4,1290,1290,1228,0,1156
30.0,1190,1191,1190,3,3,1192,1192,1203,0,1139
31.0,1256,1248,1256,4,4,1247,1247,1163,0,1138
32.0,1335,1342,1335,5,5,1342,1342,1303,0,1222
33.0,1313,1313,1313,0,0,1314,1314,1279,0,1279
34.0,1192,1193,1192,0,0,1189,1189,1016,0,1016
35.0,1238,1238,1238,0,0,1241,1241,1035,0,1035
36.0,1230,1228,1230,0,0,1229,1229,1123,0,1126
37.0,1261,1248,1261,0,0,1246,1246,1012,0,1009
38.0,1220,1234,1220,0,0,1236,1236,1033,0,1033
39.0,1148,1149,1148,1,1,1143,1143,957,0,954
40.0,1183,1183,1183,0,0,1189,1189,1068,0,1068
41.0,1191,1189,1191,0,0,1187,1187,939,0,939
42.0,1298,1300,1298,0,0,1301,1301,1102,0,1111
43.0,1270,1270,1270,0,0,1266,1266,1162,0,1153
44.0,1255,1255,1255,0,0,1252,1252,1089,0,1089
45.0,1236,1231,1236,0,0,1238,1238,1034,0,1034
46.0,1228,1233,1228,0,0,1234,1234,1032,0,1034
47.0,1217,1217,1217,0,0,1217,1217,989,0,987
48.0,1207,1206,1207,0,0,1205,1205,995,0,995
49.0,1211,1212,1211,0,0,1213,1213,1037,0,1037
50.0,1179,1179,1179,0,0,1179,1179,965,0,965
51.0,1163,1161,1163,0,0,1161,1161,955,0,955
52.0,1299,1301,1299,0,0,1297,1297,1161,0,1161
53.0,1225,1222,1225,0,0,1226,1226,1022,0,1022
54.0,1419,1422,1419,0,0,1422,1422,1171,0,1171
55.0,709,708,709,0,0,708,708,542,0,542
56.0,0,0,0,0,0,0,0,0,0,0
