time,AdrenergicStimulus,CorticalStimulus,EmotionalStimulus,NutritiveStimulus,EvaluationStimulus,FocusStimulus,MuscularStimulus,ProprioceptiveStimulus,SomaticStimulus,VisualStimulus
0.0,1050,1050,1050,1,1,1050,1050,729,0,683
1.0,1055,1055,1055,0,0,1055,1055,632,0,632
2.0,1097,1097,1097,0,0,1097,1097,670,0,672
3.0,1024,1021,1024,0,0,1020,1020,612,0,610
4.0,970,972,970,0,0,971,971,593,0,593
5.0,1050,1051,1050,0,0,1053,1053,653,0,653
6.0,1269,1267,1269,0,0,1265,1265,900,0,900
7.0,1375,1377,1375,19,18,1379,1379,1299,0,1012
8.0,1309,1309,1309,8,9,1308,1308,1188,0,924
9.0,1375,1375,1375,4,4,1372,1372,1412,0,1206
10.0,1360,1360,1360,3,3,1362,1362,1226,0,1158
11.0,1390,1387,1390,3,3,1383,1383,1350,0,1243
12.0,1314,1317,1314,0,0,1313,1313,1160,0,1160
13.0,1273,1273,1273,2,2,1283,1283,1029,0,989
14.0,1199,1199,1199,0,0,1199,1199,1104,0,1027
15.0,1129,1129,1129,0,0,1128,1128,899,0,810
16.0,1296,1293,1296,0,0,1294,1294,1174,0,1150
17.0,1205,1208,1205,2,2,1208,1208,1036,0,968
18.0,1122,1115,1122,5,5,1114,1114,898,0,721
19.0,1163,1169,1163,1,1,1168,1168,928,0,762
20.0,1062,1063,1062,0,0,1065,1065,837,0,797
21.0,1163,1163,1163,0,0,1163,1163,912,0,846
22.0,870,870,870,8,8,870,870,636,0,317
23.0,1083,1083,1083,0,0,1083,1083,817,0,757
24.0,1087,1087,1087,3,3,1087,1087,922,0,674
25.0,990,987,990,1,1,982,982,749,0,644
26.0,1199,1202,1199,8,8,1205,1205,1026,0,667
27.0,1231,1230,1231,24,24,1227,1227,1342,0,775
28.0,1120,1121,1120,12,12,1126,1126,975,0,625
29.0,1182,1182,1182,2,2,1181,1181,990,0,873
30.0,1268,1268,1268,3,3,1269,1269,1164,0,861
31.0,1163,1163,1163,4,4,1157,1157,1096,0,767
32.0,1173,1172,1173,2,2,1178,1178,1192,0,990
33.0,1236,1231,1236,18,18,1231,1231,1329,0,1033
34.0,1213,1218,1213,5,5,1216,1216,1381,0,1161
35.0,1235,1236,1235,9,9,1237,1237,1418,0,1144
36.0,1311,1311,1311,10,9,1312,1312,1487,0,1243
37.0,1320,1318,1320,5,6,1304,1304,1483,0,1152
38.0,1179,1181,1179,3,3,1195,1195,1181,0,771
39.0,1072,1072,1072,4,4,1072,1072,994,0,709
40.0,1147,1147,1147,1,1,1145,1145,1188,0,939
41.0,1281,1281,1281,2,2,1283,1283,1380,0,1216
42.0,1100,1094,1100,0,0,1093,1093,956,0,852
43.0,1144,1149,1144,3,3,1150,1150,1095,0,960
44.0,1226,1226,1226,2,2,1223,1223,1245,0,1042
45.0,1129,1130,1129,0,0,1132,1132,1177,0,1096
46.0,1254,1251,1254,4,4,1252,1252,1425,0,1282
47.0,1277,1278,1277,2,2,1273,1273,1425,0,1245
48.0,1262,1264,1262,14,14,1269,1269,1410,0,1237
49.0,1247,1246,1247,9,9,1236,1236,1445,0,1034
50.0,1296,1293,1296,5,2,1300,1300,1412,0,1150
51.0,1223,1227,1223,8,11,1226,1226,1429,0,1094
52.0,1267,1263,1267,7,7,1261,1261,1352,0,1091
53.0,1260,1263,1260,0,0,1267,1267,1348,0,1135
54.0,1306,1307,1306,0,0,1309,1309,1222,0,1179
55.0,1522,1521,1522,0,0,1521,1521,1481,0,1473
56.0,1107,1108,1107,0,0,1108,1108,933,0,933
57.0,0,0,0,0,0,0,0,0,0,0
