time,AdrenergicStimulus,CorticalStimulus,EmotionalStimulus,NutritiveStimulus,EvaluationStimulus,FocusStimulus,MuscularStimulus,ProprioceptiveStimulus,SomaticStimulus,VisualStimulus
0.0,1401,1401,1401,6,6,1401,1401,1388,0,1130
1.0,1470,1470,1470,1,1,1470,1470,1188,0,1102
2.0,1443,1443,1443,0,0,1443,1443,1249,0,1083
3.0,1422,1422,1422,0,0,1422,1422,1158,0,1158
4.0,1237,1236,1237,0,0,1236,1236,844,0,844
5.0,1414,1415,1414,6,6,1413,1413,1215,0,1153
6.0,1257,1256,1257,10,10,1255,1255,1176,0,740
7.0,1554,1555,1554,27,27,1552,1552,1704,0,1072
8.0,1504,1499,1504,13,13,1503,1503,1219,0,1041
9.0,1423,1428,1423,6,6,1428,1428,1293,0,1130
10.0,1460,1459,1460,5,4,1454,1454,1263,0,1177
11.0,1483,1484,1483,5,6,1490,1490,1291,0,1219
12.0,1450,1450,1450,14,14,1450,1450,1202,0,1020
13.0,1431,1431,1431,0,0,1428,1428,1253,0,1213
14.0,1571,1570,1571,18,18,1574,1574,1466,0,1233
15.0,1620,1619,1620,17,17,1618,1618,1702,0,1518
16.0,1622,1623,1622,3,3,1624,1624,1379,0,1366
17.0,1567,1568,1567,0,0,1568,1568,1431,0,1422
18.0,1531,1528,1531,0,0,1528,1528,1301,0,1299
19.0,1569,1569,1569,1,0,1569,1569,1483,0,1467
20.0,1537,1540,1537,1,1,1540,1540,1441,0,1432
21.0,1473,1471,1473,0,1,1471,1471,1284,0,1283
22.0,1459,1459,1459,3,1,1458,1458,1315,0,1259
23.0,1479,1480,1479,3,4,1481,1481,1305,0,1229
24.0,1502,1500,1502,1,2,1499,1499,1358,0,1328
25.0,1474,1476,1474,0,0,1477,1477,1294,0,1293
26.0,1545,1545,1545,0,0,1540,1540,1403,0,1403
27.0,1456,1457,1456,0,0,1462,1462,1208,0,1208
28.0,1417,1416,1417,0,0,1416,1416,1077,0,1077
29.0,1462,1460,1462,0,0,1459,1459,1206,0,1206
30.0,1529,1532,1529,0,0,1530,1530,1244,0,1244
31.0,1460,1459,1460,0,0,1462,1462,1162,0,1162
32.0,1548,1549,1548,0,0,1544,1544,1208,0,1208
33.0,1481,1481,1481,0,0,1485,1485,1186,0,1186
34.0,1424,1424,1424,0,0,1425,1425,1070,0,1070
35.0,1505,1504,1505,0,0,1503,1503,1211,0,1213
36.0,1636,1637,1636,0,0,1637,1637,1255,0,1253
37.0,1549,1546,1549,0,0,1547,1547,1216,0,1216
38.0,1345,1348,1345,0,0,1348,1348,1002,0,1002
39.0,1115,1115,1115,0,0,1115,1115,689,0,689
40.0,1414,1409,1414,0,0,1406,1406,1070,0,1070
41.0,1493,1498,1493,0,0,1499,1499,1282,0,1282
42.0,1384,1382,1384,0,0,1382,1382,1180,0,1181
43.0,1477,1478,1477,0,0,1480,1480,1335,0,1334
44.0,1363,1360,1363,0,0,1360,1360,1106,0,1106
45.0,1309,1313,1309,0,0,1313,1313,981,0,981
46.0,940,940,940,0,0,936,936,669,0,669
47.0,0,0,0,0,0,0,0,0,0,0
