time,AdrenergicStimulus,CorticalStimulus,EmotionalStimulus,NutritiveStimulus,EvaluationStimulus,FocusStimulus,MuscularStimulus,ProprioceptiveStimulus,SomaticStimulus,VisualStimulus
0.0,1467,1462,1467,7,7,1462,1462,1441,0,1256
1.0,1385,1387,1385,1,1,1385,1385,1083,0,1037
2.0,1419,1422,1419,1,1,1420,1420,1274,0,1271
3.0,1372,1365,1372,0,0,1364,1364,1170,0,1170
4.0,1512,1517,1512,0,0,1521,1521,1323,0,1325
5.0,1437,1438,1437,0,0,1439,1439,1251,0,1249
6.0,1423,1410,1423,0,0,1410,1410,1146,0,1146
7.0,1440,1452,1440,20,20,1452,1452,1446,0,1048
8.0,1516,1518,1516,33,31,1516,1516,1698,0,1118
9.0,1499,1497,1499,24,26,1499,1499,1702,0,1206
10.0,1523,1513,1523,16,16,1503,1503,1678,0,1152
11.0,1482,1494,1482,25,21,1503,1503,1648,0,1152
12.0,1415,1415,1415,15,19,1406,1406,1283,0,1066
13.0,1396,1394,1396,11,10,1404,1404,1444,0,1107
14.0,1328,1327,1328,7,8,1327,1327,1167,0,1012
15.0,1377,1375,1377,8,8,1360,1360,1350,0,1045
16.0,1386,1391,1386,5,5,1403,1403,1259,0,1074
17.0,1355,1353,1355,2,2,1354,1354,1161,0,1073
18.0,1451,1452,1451,9,9,1453,1453,1483,0,1197
19.0,1377,1377,1377,0,0,1378,1378,1112,0,1079
20.0,1414,1415,1414,8,8,1414,1414,1375,0,1053
21.0,1420,1419,1420,5,5,1418,1418,1372,0,1188
22.0,1487,1488,1487,1,1,1486,1486,1480,0,1322
23.0,1520,1518,1520,2,2,1518,1518,1442,0,1308
24.0,1525,1521,1525,0,0,1525,1525,1498,0,1324
25.0,1530,1535,1530,4,4,1535,1535,1544,0,1360
26.0,1483,1484,1483,0,0,1480,1480,1502,0,1362
27.0,1460,1459,1460,0,0,1463,1463,1379,0,1328
28.0,1488,1489,1488,2,2,1476,1476,1501,0,1326
29.0,1465,1465,1465,8,8,1469,1469,1463,0,1290
30.0,1468,1463,1468,0,0,1472,1472,1292,0,1278
31.0,1438,1443,1438,0,0,1443,1443,1290,0,1234
32.0,1432,1432,1432,1,1,1432,1432,1252,0,1237
33.0,1446,1445,1446,2,2,1442,1442,1340,0,1292
34.0,1484,1485,1484,3,3,1483,1483,1453,0,1304
35.0,1475,1475,1475,0,0,1480,1480,1359,0,1250
36.0,1405,1401,1405,1,1,1401,1401,1311,0,1106
37.0,1446,1443,1446,0,0,1443,1443,1494,0,1097
38.0,1479,1465,1479,1,1,1465,1465,1558,0,1354
39.0,1421,1442,1421,0,0,1442,1442,1685,0,1315
40.0,1532,1526,1532,1,1,1525,1525,1705,0,1298
41.0,1474,1480,1474,4,4,1481,1481,1518,0,1330
42.0,1454,1454,1454,14,14,1454,1454,1659,0,1275
43.0,1465,1462,1465,18,18,1458,1458,1552,0,1130
44.0,1466,1460,1466,5,5,1464,1464,1381,0,1268
45.0,1550,1559,1550,4,4,1559,1559,1511,0,1373
46.0,1493,1492,1493,0,0,1492,1492,1234,0,1234
47.0,0,0,0,0,0,0,0,0,0,0
