time,RED_APPLE,GREEN_APPLE,GRAY_APPLE
0.0,0,0,0
0.1,1,0,0
0.2,1,1,1
0.3,2,3,3
0.4,2,4,4
0.5,4,4,5
0.6,5,5,5
0.7,6,6,6
0.8,6,7,6
0.9,6,7,6
1.0,8,7,7
1.1,8,8,7
1.2,8,9,7
1.3,9,12,7
1.4,9,12,9
1.5,9,13,11
1.6,10,13,11
1.7,12,15,12
1.8,13,16,12
1.9,13,16,12
2.0,13,16,12
2.1,13,17,12
2.2,13,17,12
2.3,13,18,13
2.4,13,18,13
2.5,13,18,13
2.6,13,18,13
2.7,13,18,13
2.8,13,18,13
2.9,14,18,13
3.0,14,20,13
3.1,14,20,13
3.2,14,20,14
3.3,17,23,14
3.4,17,24,15
3.5,18,25,15
3.6,18,25,15
3.7,18,27,15
3.8,19,27,15
3.9,21,28,15
4.0,21,28,15
4.1,22,28,15
4.2,22,28,16
4.3,23,30,16
4.4,23,31,16
4.5,23,32,16
4.6,23,32,16
4.7,23,32,16
4.8,23,32,16
4.9,24,34,16
5.0,24,34,16
5.1,24,35,16
5.2,25,36,16
5.3,26,36,18
5.4,26,37,18
5.5,26,37,18
5.6,26,38,18
5.7,29,38,19
5.8,30,39,19
5.9,31,40,19
6.0,31,40,19
6.1,31,40,20
6.2,33,40,20
6.3,33,40,20
6.4,33,40,21
6.5,34,40,21
6.6,36,40,22
6.7,37,40,23
6.8,37,41,23
6.9,39,41,23
7.0,41,41,23
7.1,41,41,23
7.2,41,41,23
7.3,41,41,24
7.4,41,41,25
7.5,41,44,25
7.6,41,47,25
7.7,41,47,25
7.8,41,48,27
7.9,42,48,27
8.0,43,50,27
8.1,45,51,27
8.2,45,51,27
8.3,45,56,27
8.4,45,56,27
8.5,45,57,27
8.6,46,57,29
8.7,48,60,30
8.8,48,60,30
8.9,49,60,31
9.0,49,60,32
9.1,49,61,33
9.2,51,62,33
9.3,51,62,33
9.4,51,62,33
9.5,51,62,33
9.6,51,62,34
9.7,51,63,34
9.8,52,63,34
9.9,52,63,34
10.0,53,65,34
10.1,53,67,35
10.2,53,67,35
10.3,53,68,35
10.4,53,69,35
10.5,53,69,35
10.6,53,70,35
10.7,53,70,35
10.8,54,71,35
10.9,55,71,35
11.0,55,71,35
11.1,55,71,35
11.2,55,71,35
11.3,55,71,35
11.4,55,71,35
11.5,57,72,35
11.6,57,72,36
11.7,58,72,37
11.8,58,72,37
11.9,58,73,37
12.0,58,73,37
12.1,58,75,37
12.2,58,75,37
12.3,58,75,37
12.4,58,75,37
12.5,58,75,37
12.6,58,75,37
12.7,58,75,37
12.8,59,76,37
12.9,60,76,37
13.0,60,76,37
13.1,61,76,37
13.2,62,77,37
13.3,65,78,37
13.4,65,79,37
13.5,65,79,37
13.6,66,79,37
13.7,66,81,37
13.8,66,82,37
13.9,66,82,37
14.0,66,82,37
14.1,66,84,37
14.2,67,85,37
14.3,67,85,37
14.4,69,86,37
14.5,69,86,37
14.6,69,86,37
14.7,70,86,37
14.8,71,86,37
14.9,71,87,37
15.0,71,87,37
15.1,71,87,37
15.2,71,87,37
15.3,72,87,37
15.4,72,87,37
15.5,72,87,37
15.6,72,87,37
15.7,72,88,37
15.8,72,88,37
15.9,72,88,37
16.0,72,89,37
16.1,72,89,37
16.2,72,89,37
16.3,72,89,37
16.4,72,89,37
16.5,72,89,37
16.6,72,90,37
16.7,72,90,37
16.8,73,92,37
16.9,73,92,37
17.0,73,92,37
17.1,74,92,37
17.2,74,93,37
17.3,75,93,37
17.4,77,93,37
17.5,77,93,37
17.6,77,93,37
17.7,78,95,37
17.8,78,97,37
17.9,79,97,37
18.0,81,98,37
18.1,81,99,37
18.2,82,100,37
18.3,82,102,37
18.4,82,102,37
18.5,82,102,37
18.6,82,103,37
18.7,82,103,37
18.8,82,103,37
18.9,84,103,37
19.0,84,105,37
19.1,84,105,37
19.2,85,105,37
19.3,85,105,37
19.4,86,105,37
19.5,86,105,37
19.6,86,105,37
19.7,86,105,37
19.8,86,105,37
19.9,89,106,37
20.0,90,106,37
20.1,91,106,37
20.2,91,107,37
20.3,92,107,37
20.4,92,107,37
20.5,93,107,37
20.6,93,108,37
20.7,93,108,37
20.8,94,110,37
20.9,94,110,37
21.0,94,110,37
21.1,94,110,37
21.2,94,110,37
21.3,95,110,37
21.4,95,110,37
21.5,95,110,37
21.6,95,110,37
21.7,95,110,37
21.8,95,110,37
21.9,95,110,37
22.0,95,110,37
22.1,95,110,37
22.2,96,111,37
22.3,96,112,37
22.4,97,112,37
22.5,97,112,37
22.6,98,112,37
22.7,98,112,37
22.8,98,113,37
22.9,98,113,37
23.0,99,113,37
23.1,99,113,37
23.2,99,114,37
23.3,99,116,37
23.4,99,116,37
23.5,99,116,37
23.6,99,116,37
23.7,99,117,37
23.8,99,117,37
23.9,99,117,37
24.0,99,117,37
24.1,99,117,37
24.2,99,117,37
24.3,99,117,37
24.4,100,118,37
24.5,101,118,37
24.6,101,119,37
24.7,103,120,37
24.8,103,120,37
24.9,103,120,37
25.0,103,120,37
25.1,103,120,37
25.2,103,120,37
25.3,103,120,37
25.4,103,120,37
25.5,103,120,37
25.6,103,120,37
25.7,103,120,37
25.8,103,120,37
25.9,104,120,37
26.0,104,120,37
26.1,104,120,37
26.2,104,120,37
26.3,104,121,37
26.4,106,122,37
26.5,106,123,37
26.6,106,123,37
26.7,107,123,37
26.8,107,123,37
26.9,107,123,37
27.0,107,123,37
27.1,107,124,37
27.2,107,125,37
27.3,107,126,37
27.4,107,126,37
27.5,107,126,37
27.6,108,127,37
27.7,108,127,37
27.8,108,127,37
27.9,108,127,37
28.0,108,127,37
28.1,108,127,37
28.2,108,127,37
28.3,109,127,37
28.4,109,127,37
28.5,109,128,37
28.6,109,128,37
28.7,109,128,37
28.8,109,130,37
28.9,110,130,37
29.0,111,130,37
29.1,111,131,37
29.2,111,132,37
29.3,111,132,37
29.4,111,132,37
29.5,111,132,37
29.6,111,132,37
29.7,111,132,37
29.8,111,132,37
29.9,111,132,37
30.0,111,132,37
30.1,111,132,37
30.2,111,132,37
30.3,111,133,37
30.4,111,133,37
30.5,111,133,37
30.6,112,133,37
30.7,112,133,37
30.8,112,133,37
30.9,112,135,37
31.0,112,136,37
31.1,113,137,37
31.2,114,137,37
31.3,114,138,37
31.4,114,139,37
31.5,114,139,37
31.6,114,139,37
31.7,114,139,37
31.8,116,141,37
31.9,117,141,37
32.0,118,142,37
32.1,118,142,37
32.2,119,142,37
32.3,119,143,37
32.4,119,143,37
32.5,119,143,37
32.6,120,143,37
32.7,120,143,37
32.8,122,144,37
32.9,124,144,37
33.0,125,144,37
33.1,126,144,37
33.2,126,144,37
33.3,126,146,37
33.4,126,146,37
33.5,126,146,37
33.6,126,146,37
33.7,126,147,37
33.8,126,148,37
33.9,126,148,37
34.0,127,148,37
34.1,127,148,37
34.2,127,148,37
34.3,128,149,37
34.4,128,149,37
34.5,130,149,37
34.6,130,149,37
34.7,131,149,37
34.8,131,149,37
34.9,132,149,37
35.0,132,149,37
35.1,132,149,37
35.2,132,149,37
