time,target distance,affordance,memory,random,short term memory
244.0,0,1,0,0,0
535.0,0,2,0,0,0
618.0,0,3,0,0,0
785.0,0,4,0,0,0
8015.0,0,5,0,0,0
8742.0,0,6,0,0,0
11061.0,0,7,0,0,0
11454.0,0,7,0,1,0
12413.0,0,8,0,1,0
12446.0,0,9,0,1,0
21700.0,0,10,0,1,0
21951.0,0,11,0,1,0
22226.0,0,12,0,1,0
22243.0,0,13,0,1,0
22426.0,0,13,0,2,0
22594.0,0,14,0,2,0
22677.0,0,15,0,2,0
22744.0,0,16,0,2,0
22927.0,0,16,0,3,0
26124.0,0,17,0,3,0
26457.0,0,17,0,4,0
28977.0,0,17,0,5,0
29269.0,0,18,0,5,0
29336.0,0,19,0,5,0
29553.0,0,20,0,5,0
29678.0,0,20,0,6,0
29845.0,0,21,0,6,0
29929.0,0,21,0,7,0
30045.0,0,21,0,8,0
30137.0,0,22,0,8,0
30178.0,0,23,0,8,0
30630.0,0,24,0,8,0
30813.0,0,25,0,8,0
30896.0,0,26,0,8,0
31256.0,0,26,0,9,0
42621.0,0,27,0,9,0
42821.0,0,28,0,9,0
43088.0,0,29,0,9,0
43722.0,0,29,0,10,0
43789.0,0,29,0,11,0
43881.0,0,30,0,11,0
43947.0,0,31,0,11,0
44006.0,0,32,0,11,0
45741.0,0,33,0,11,0
46434.0,0,34,0,11,0
48304.0,0,34,0,12,0
48321.0,0,34,0,13,0
48354.0,0,35,0,13,0
48445.0,0,36,0,13,0
48663.0,0,36,0,14,0
48996.0,0,37,0,14,0
50214.0,0,38,0,14,0
50431.0,0,39,0,14,0
50891.0,0,39,0,15,0
51074.0,0,40,0,15,0
51291.0,0,41,0,15,0
51349.0,0,41,0,16,0
51416.0,0,42,0,16,0
51483.0,0,42,0,17,0
55389.0,0,43,0,17,0
55506.0,0,44,0,17,0
55522.0,0,44,0,18,0
56440.0,0,45,0,18,0
56474.0,0,45,0,19,0
56832.0,0,46,0,19,0
59085.0,0,47,0,19,0
59244.0,0,48,0,19,0
59361.0,0,49,0,19,0
59461.0,0,49,0,20,0
60003.0,0,50,0,20,0
60120.0,0,51,0,20,0
60195.0,0,52,0,20,0
60496.0,0,53,0,20,0
60771.0,0,53,0,21,0
61756.0,0,54,0,21,0
62223.0,0,55,0,21,0
62557.0,0,56,0,21,0
62573.0,0,57,0,21,0
62657.0,0,58,0,21,0
65185.0,0,59,0,21,0
65873.0,0,60,0,21,0
67208.0,0,61,0,21,0
67333.0,0,62,0,21,0
67467.0,0,63,0,21,0
67517.0,0,64,0,21,0
68535.0,0,65,0,21,0
68718.0,0,66,0,21,0
68802.0,0,67,0,21,0
70062.0,0,68,0,21,0
70179.0,0,69,0,21,0
70246.0,0,70,0,21,0
70446.0,0,70,0,22,0
72415.0,0,71,0,22,0
72549.0,0,72,0,22,0
72674.0,0,72,0,23,0
72749.0,0,73,0,23,0
73099.0,0,74,0,23,0
73258.0,0,75,0,23,0
73342.0,0,76,0,23,0
73884.0,0,76,0,24,0
74109.0,0,77,0,24,0
74276.0,0,78,0,24,0
79241.0,0,78,0,25,0
79825.0,0,79,0,25,0
79975.0,0,79,0,26,0
80351.0,0,80,0,26,0
80451.0,0,81,0,26,0
80484.0,0,82,0,26,0
80810.0,0,83,0,26,0
80901.0,0,84,0,26,0
81144.0,0,84,0,27,0
81744.0,0,85,0,27,0
82395.0,0,86,0,27,0
82520.0,0,87,0,27,0
82671.0,0,88,0,27,0
82787.0,0,88,0,28,0
83313.0,0,89,0,28,0
83380.0,0,90,0,28,0
86467.0,0,91,0,28,0
86768.0,0,92,0,28,0
86943.0,0,93,0,28,0
86993.0,0,94,0,28,0
87452.0,0,95,0,28,0
87969.0,0,96,0,28,0
88091.0,0,97,0,28,0
88111.0,0,98,0,28,0
88595.0,0,98,0,29,0
89471.0,0,98,0,30,0
89713.0,0,99,0,30,0
89747.0,0,100,0,30,0
90005.0,0,101,0,30,0
94419.0,0,102,0,30,0
94494.0,0,103,0,30,0
94946.0,0,104,0,30,0
94963.0,0,105,0,30,0
95129.0,0,106,0,30,0
95413.0,0,107,0,30,0
95522.0,0,108,0,30,0
95730.0,0,109,0,30,0
95764.0,0,110,0,30,0
96423.0,0,110,0,31,0
96465.0,0,111,0,31,0
96515.0,0,112,0,31,0
96631.0,0,113,0,31,0
99502.0,0,114,0,31,0
99569.0,0,115,0,31,0
99644.0,0,116,0,31,0
99811.0,0,117,0,31,0
99978.0,0,118,0,31,0
100061.0,0,118,0,32,0
102691.0,0,119,0,32,0
102757.0,0,120,0,32,0
102816.0,0,121,0,32,0
102949.0,0,122,0,32,0
103116.0,0,123,0,32,0
105061.0,0,123,0,33,0
105128.0,0,124,0,33,0
105185.0,0,125,0,33,0
105327.0,0,126,0,33,0
105428.0,0,127,0,33,0
106580.0,0,128,0,33,0
106880.0,0,128,0,34,0
107147.0,0,129,0,34,0
107431.0,0,129,0,35,0
107773.0,0,130,0,35,0
107873.0,0,131,0,35,0
107889.0,0,132,0,35,0
108391.0,0,133,0,35,0
108449.0,0,134,0,35,0
108499.0,0,135,0,35,0
108566.0,0,135,0,36,0
108691.0,0,136,0,36,0
108916.0,0,137,0,36,0
108975.0,0,138,0,36,0
109935.0,0,139,0,36,0
109976.0,0,139,0,37,0
110101.0,0,140,0,37,0
111303.0,0,141,0,37,0
111370.0,0,142,0,37,0
111420.0,0,142,0,38,0
111562.0,0,142,0,39,0
111612.0,0,142,0,40,0
111737.0,0,143,0,40,0
117788.0,0,144,0,40,0
117855.0,0,144,0,41,0
118047.0,0,145,0,41,0
118264.0,0,146,0,41,0
118423.0,0,147,0,41,0
118715.0,0,147,0,42,0
118731.0,0,148,0,42,0
118907.0,0,148,0,43,0
119007.0,0,149,0,43,0
119082.0,0,149,0,44,0
119524.0,0,150,0,44,0
120092.0,0,151,0,44,0
120259.0,0,152,0,44,0
123163.0,0,153,0,44,0
123313.0,0,153,0,45,0
123463.0,0,153,0,46,0
123589.0,0,153,0,47,0
123739.0,0,154,0,47,0
123822.0,0,155,0,47,0
123906.0,0,156,0,47,0
124122.0,0,157,0,47,0
124273.0,0,158,0,47,0
124350.0,0,159,0,47,0
124517.0,0,160,0,47,0
124567.0,0,161,0,47,0
124584.0,0,162,0,47,0
124918.0,0,163,0,47,0
125110.0,0,164,0,47,0
125202.0,0,164,0,48,0
125285.0,0,164,0,49,0
137903.0,0,165,0,49,0
138012.0,0,166,0,49,0
138153.0,0,167,0,49,0
138220.0,0,167,0,50,0
138253.0,0,168,0,50,0
138420.0,0,169,0,50,0
138571.0,0,170,0,50,0
138621.0,0,171,0,50,0
138771.0,0,172,0,50,0
138904.0,0,173,0,50,0
139171.0,0,173,0,51,0
139372.0,0,174,0,51,0
139447.0,0,175,0,51,0
139889.0,0,176,0,51,0
139972.0,0,177,0,51,0
140089.0,0,178,0,51,0
141015.0,0,178,0,52,0
141174.0,0,178,0,53,0
141199.0,0,178,0,54,0
141249.0,0,179,0,54,0
141366.0,0,180,0,54,0
141399.0,0,181,0,54,0
141416.0,0,182,0,54,0
141458.0,0,183,0,54,0
141658.0,0,184,0,54,0
141741.0,0,185,0,54,0
141859.0,0,186,0,54,0
141925.0,0,187,0,54,0
142133.0,0,188,0,54,0
142234.0,0,189,0,54,0
142284.0,0,190,0,54,0
142592.0,0,191,0,54,0
142617.0,0,191,0,55,0
142659.0,0,192,0,55,0
143143.0,0,193,0,55,0
155961.0,0,193,0,56,0
156336.0,0,194,0,56,0
164898.0,0,195,0,56,0
164957.0,0,195,0,57,0
165007.0,0,196,0,57,0
165040.0,0,197,0,57,0
165632.0,0,198,0,57,0
165891.0,0,199,0,57,0
166074.0,0,200,0,57,0
166300.0,0,201,0,57,0
166433.0,0,202,0,57,0
166459.0,0,203,0,57,0
166542.0,0,204,0,57,0
166692.0,0,205,0,57,0
174186.0,0,206,0,57,0
174369.0,0,207,0,57,0
174386.0,0,208,0,57,0
174436.0,0,209,0,57,0
174853.0,0,209,0,58,0
174995.0,0,209,0,59,0
175045.0,0,210,0,59,0
175170.0,0,211,0,59,0
175371.0,0,212,0,59,0
175872.0,0,213,0,59,0
175989.0,0,213,0,60,0
176047.0,0,214,0,60,0
176139.0,0,215,0,60,0
177357.0,0,216,0,60,0
178150.0,0,216,0,61,0
178183.0,0,217,0,61,0
178542.0,0,218,0,61,0
178601.0,0,218,0,62,0
178951.0,0,218,0,63,0
178984.0,0,219,0,63,0
179536.0,0,219,0,64,0
181971.0,0,220,0,64,0
182022.0,0,220,0,65,0
182405.0,0,221,0,65,0
182505.0,0,222,0,65,0
182681.0,0,223,0,65,0
183115.0,0,224,0,65,0
186697.0,0,225,0,65,0
187364.0,0,226,0,65,0
187414.0,0,227,0,65,0
193239.0,0,228,0,65,0
193256.0,0,229,0,65,0
193348.0,0,230,0,65,0
193565.0,0,231,0,65,0
193840.0,0,232,0,65,0
193873.0,0,233,0,65,0
194316.0,0,233,0,66,0
194357.0,0,234,0,66,0
194866.0,0,235,0,66,0
198579.0,0,236,0,66,0
198713.0,0,237,0,66,0
198938.0,0,238,0,66,0
199013.0,0,239,0,66,0
199188.0,0,240,0,66,0
199597.0,0,241,0,66,0
199973.0,0,242,0,66,0
199989.0,0,243,0,66,0
200131.0,0,244,0,66,0
200164.0,0,245,0,66,0
200248.0,0,246,0,66,0
207850.0,0,247,0,66,0
208000.0,0,248,0,66,0
208067.0,0,249,0,66,0
208242.0,0,250,0,66,0
208292.0,0,250,0,67,0
208492.0,0,250,0,68,0
208525.0,0,251,0,68,0
208575.0,0,252,0,68,0
208651.0,0,252,0,69,0
208717.0,0,253,0,69,0
208859.0,0,254,0,69,0
209502.0,0,255,0,69,0
209953.0,0,256,0,69,0
210228.0,0,257,0,69,0
210437.0,0,258,0,69,0
214416.0,0,258,0,70,0
214516.0,0,259,0,70,0
214592.0,0,260,0,70,0
215050.0,0,261,0,70,0
215084.0,0,262,0,70,0
215634.0,0,263,0,70,0
215760.0,0,264,0,70,0
215851.0,0,265,0,70,0
215910.0,0,265,0,71,0
216035.0,0,266,0,71,0
216143.0,0,267,0,71,0
216186.0,0,267,0,72,0
216244.0,0,268,0,72,0
216369.0,0,268,0,73,0
216421.0,0,269,0,73,0
216853.0,0,269,0,74,0
217372.0,0,270,0,74,0
217389.0,0,271,0,74,0
217614.0,0,272,0,74,0
217664.0,0,273,0,74,0
218432.0,0,274,0,74,0
218524.0,0,275,0,74,0
218649.0,0,276,0,74,0
218883.0,0,277,0,74,0
218933.0,0,278,0,74,0
219066.0,0,279,0,74,0
219116.0,0,280,0,74,0
219500.0,0,281,0,74,0
219683.0,0,282,0,74,0
220059.0,0,283,0,74,0
220118.0,0,283,0,75,0
220201.0,0,284,0,75,0
220318.0,0,285,0,75,0
220510.0,0,286,0,75,0
220751.0,0,287,0,75,0
220785.0,0,288,0,75,0
221027.0,0,289,0,75,0
221377.0,0,289,0,76,0
221845.0,0,289,0,77,0
223071.0,0,290,0,77,0
223213.0,0,291,0,77,0
223304.0,0,292,0,77,0
223396.0,0,293,0,77,0
223446.0,0,294,0,77,0
223530.0,0,295,0,77,0
223613.0,0,296,0,77,0
223805.0,0,296,0,78,0
223855.0,0,297,0,78,0
223955.0,0,298,0,78,0
224039.0,0,298,0,79,0
224147.0,0,299,0,79,0
224264.0,0,300,0,79,0
224514.0,0,301,0,79,0
224648.0,0,302,0,79,0
225182.0,0,303,0,79,0
225366.0,0,303,0,80,0
225441.0,0,304,0,80,0
225458.0,0,305,0,80,0
225533.0,0,306,0,80,0
225550.0,0,307,0,80,0
226301.0,0,307,0,81,0
226609.0,0,308,0,81,0
227068.0,0,309,0,81,0
230698.0,0,310,0,81,0
230731.0,0,311,0,81,0
231031.0,0,312,0,81,0
231090.0,0,313,0,81,0
236789.0,0,314,0,81,0
236881.0,0,315,0,81,0
237122.0,0,316,0,81,0
237322.0,0,317,0,81,0
237556.0,0,318,0,81,0
237573.0,0,319,0,81,0
237949.0,0,320,0,81,0
249627.0,0,321,0,81,0
249735.0,0,322,0,81,0
249910.0,0,323,0,81,0
250152.0,0,324,0,81,0
252606.0,0,325,0,81,0
253157.0,0,326,0,81,0
253174.0,0,327,0,81,0
253199.0,0,328,0,81,0
253282.0,0,328,0,82,0
253316.0,0,329,0,82,0
253424.0,0,330,0,82,0
253491.0,0,331,0,82,0
253666.0,0,332,0,82,0
253724.0,0,333,0,82,0
253825.0,0,334,0,82,0
254092.0,0,335,0,82,0
254242.0,0,336,0,82,0
254517.0,0,337,0,82,0
254776.0,0,338,0,82,0
254976.0,0,339,0,82,0
255085.0,0,340,0,82,0
255452.0,0,341,0,82,0
255786.0,0,342,0,82,0
255861.0,0,343,0,82,0
255911.0,0,344,0,82,0
255977.0,0,345,0,82,0
256311.0,0,346,0,82,0
256528.0,0,347,0,82,0
256653.0,0,348,0,82,0
256695.0,0,349,0,82,0
256778.0,0,350,0,82,0
256937.0,0,350,0,83,0
257496.0,0,350,0,84,0
258756.0,0,351,0,84,0
258814.0,0,352,0,84,0
258898.0,0,352,0,85,0
258948.0,0,353,0,85,0
259149.0,0,353,0,86,0
259207.0,0,354,0,86,0
259224.0,0,355,0,86,0
259341.0,0,356,0,86,0
259391.0,0,357,0,86,0
259616.0,0,357,0,87,0
259775.0,0,358,0,87,0
259825.0,0,358,0,88,0
261385.0,0,358,0,89,0
261502.0,0,358,0,90,0
261610.0,0,359,0,90,0
261760.0,0,360,0,90,0
261944.0,0,360,0,91,0
261994.0,0,361,0,91,0
262161.0,0,362,0,91,0
262278.0,0,363,0,91,0
262336.0,0,363,0,92,0
262495.0,0,364,0,92,0
262545.0,0,364,0,93,0
262762.0,0,364,0,94,0
262837.0,0,365,0,94,0
263096.0,0,366,0,94,0
263129.0,0,367,0,94,0
265924.0,0,368,0,94,0
266008.0,0,369,0,94,0
266024.0,0,370,0,94,0
266041.0,0,371,0,94,0
266266.0,0,372,0,94,0
266316.0,0,373,0,94,0
266383.0,0,374,0,94,0
266433.0,0,375,0,94,0
266567.0,0,376,0,94,0
266785.0,0,377,0,94,0
266843.0,0,378,0,94,0
266926.0,0,379,0,94,0
267010.0,0,380,0,94,0
267135.0,0,381,0,94,0
267193.0,0,381,0,95,0
270113.0,0,382,0,95,0
271624.0,0,383,0,95,0
271657.0,0,384,0,95,0
271674.0,0,385,0,95,0
273509.0,0,386,0,95,0
273618.0,0,387,0,95,0
274912.0,0,387,0,96,0
275229.0,0,387,0,97,0
275262.0,0,387,0,98,0
275371.0,0,388,0,98,0
285975.0,0,389,0,98,0
286091.0,0,390,0,98,0
286141.0,0,391,0,98,0
286208.0,0,392,0,98,0
286225.0,0,393,0,98,0
286242.0,0,394,0,98,0
286325.0,0,395,0,98,0
286450.0,0,396,0,98,0
286500.0,0,397,0,98,0
286567.0,0,397,0,99,0
286867.0,0,397,0,100,0
287009.0,0,398,0,100,0
287209.0,0,399,0,100,0
287226.0,0,400,0,100,0
287468.0,0,401,0,100,0
287635.0,0,402,0,100,0
287777.0,0,402,0,101,0
291824.0,0,403,0,101,0
291891.0,0,404,0,101,0
291925.0,0,405,0,101,0
291991.0,0,405,0,102,0
292383.0,0,406,0,102,0
292859.0,0,407,0,102,0
292942.0,0,408,0,102,0
293051.0,0,409,0,102,0
293377.0,0,410,0,102,0
293468.0,0,411,0,102,0
293535.0,0,412,0,102,0
294077.0,0,413,0,102,0
294253.0,0,413,0,103,0
294369.0,0,414,0,103,0
294645.0,0,415,0,103,0
294661.0,0,416,0,103,0
294820.0,0,417,0,103,0
295020.0,0,418,0,103,0
298116.0,0,419,0,103,0
298725.0,0,420,0,103,0
298792.0,0,420,0,104,0
298825.0,0,421,0,104,0
299142.0,0,422,0,104,0
300661.0,0,423,0,104,0
301596.0,0,424,0,104,0
301638.0,0,424,0,105,0
301721.0,0,425,0,105,0
301814.0,0,426,0,105,0
301904.0,0,427,0,105,0
302005.0,0,428,0,105,0
302247.0,0,429,0,105,0
302346.0,0,430,0,105,0
302488.0,0,431,0,105,0
302522.0,0,432,0,105,0
302613.0,0,433,0,105,0
305408.0,0,434,0,105,0
305468.0,0,435,0,105,0
305526.0,0,436,0,105,0
305542.0,0,437,0,105,0
305885.0,0,438,0,105,0
306043.0,0,439,0,105,0
306202.0,0,440,0,105,0
306318.0,0,441,0,105,0
306352.0,0,441,0,106,0
306419.0,0,442,0,106,0
313873.0,0,442,0,107,0
318721.0,0,443,0,107,0
318871.0,0,444,0,107,0
319038.0,0,445,0,107,0
319255.0,0,446,0,107,0
319330.0,0,447,0,107,0
319647.0,0,448,0,107,0
319714.0,0,449,0,107,0
319730.0,0,450,0,107,0
319864.0,0,451,0,107,0
319947.0,0,452,0,107,0
320098.0,0,453,0,107,0
324144.0,0,454,0,107,0
324236.0,0,455,0,107,0
324303.0,0,455,0,108,0
324420.0,0,456,0,108,0
324545.0,0,457,0,108,0
324562.0,0,458,0,108,0
324862.0,0,459,0,108,0
324879.0,0,460,0,108,0
324962.0,0,461,0,108,0
325905.0,0,462,0,108,0
330895.0,0,463,0,108,0
330912.0,0,464,0,108,0
331079.0,0,465,0,108,0
331171.0,0,465,0,109,0
331237.0,0,466,0,109,0
331705.0,0,466,0,110,0
331722.0,0,467,0,110,0
331922.0,0,468,0,110,0
332798.0,0,469,0,110,0
332889.0,0,470,0,110,0
332981.0,0,471,0,110,0
333573.0,0,472,0,110,0
333974.0,0,473,0,110,0
334040.0,0,474,0,110,0
334207.0,0,475,0,110,0
334266.0,0,476,0,110,0
347426.0,0,477,0,110,0
348261.0,0,478,0,110,0
348327.0,0,479,0,110,0
348536.0,0,480,0,110,0
348611.0,0,481,0,110,0
351348.0,0,482,0,110,0
351532.0,0,483,0,110,0
351624.0,0,484,0,110,0
351816.0,0,485,0,110,0
351916.0,0,486,0,110,0
352475.0,0,486,0,111,0
352733.0,0,487,0,111,0
352759.0,0,488,0,111,0
352842.0,0,489,0,111,0
355329.0,0,489,0,112,0
355396.0,0,490,0,112,0
355471.0,0,491,0,112,0
355538.0,0,492,0,112,0
355855.0,0,492,0,113,0
361354.0,0,493,0,113,0
361588.0,0,494,0,113,0
361638.0,0,495,0,113,0
362438.0,0,495,0,114,0
362497.0,0,496,0,114,0
362597.0,0,496,0,115,0
362622.0,0,497,0,115,0
362789.0,0,498,0,115,0
362822.0,0,499,0,115,0
362897.0,0,500,0,115,0
362981.0,0,501,0,115,0
363406.0,0,502,0,115,0
363549.0,0,502,0,116,0
363707.0,0,503,0,116,0
363840.0,0,504,0,116,0
363857.0,0,505,0,116,0
363932.0,0,505,0,117,0
364216.0,0,506,0,117,0
365568.0,0,507,0,117,0
365751.0,0,508,0,117,0
365935.0,0,509,0,117,0
366026.0,0,510,0,117,0
366085.0,0,510,0,118,0
366202.0,0,511,0,118,0
366419.0,0,512,0,118,0
366594.0,0,513,0,118,0
366694.0,0,514,0,118,0
366903.0,0,515,0,118,0
366953.0,0,516,0,118,0
367195.0,0,516,0,119,0
367354.0,0,517,0,119,0
367479.0,0,517,0,120,0
367562.0,0,518,0,120,0
367596.0,0,519,0,120,0
367746.0,0,520,0,120,0
374250.0,0,521,0,120,0
374300.0,0,522,0,120,0
374425.0,0,522,0,121,0
374500.0,0,523,0,121,0
374775.0,0,524,0,121,0
375309.0,0,525,0,121,0
375384.0,0,526,0,121,0
375527.0,0,527,0,121,0
375651.0,0,528,0,121,0
375726.0,0,529,0,121,0
377262.0,0,530,0,121,0
377504.0,0,531,0,121,0
377621.0,0,532,0,121,0
377829.0,0,532,0,122,0
377946.0,0,533,0,122,0
378138.0,0,533,0,123,0
378213.0,0,533,0,124,0
378497.0,0,534,0,124,0
378597.0,0,535,0,124,0
378614.0,0,536,0,124,0
378739.0,0,537,0,124,0
378797.0,0,537,0,125,0
378814.0,0,538,0,125,0
379089.0,0,539,0,125,0
379114.0,0,539,0,126,0
379148.0,0,540,0,126,0
386558.0,0,541,0,126,0
386925.0,0,542,0,126,0
386942.0,0,543,0,126,0
386992.0,0,544,0,126,0
387076.0,0,545,0,126,0
387101.0,0,546,0,126,0
387193.0,0,547,0,126,0
389254.0,0,548,0,126,0
389321.0,0,549,0,126,0
389437.0,0,550,0,126,0
389455.0,0,551,0,126,0
390714.0,0,552,0,126,0
391757.0,0,552,0,127,0
395804.0,0,553,0,127,0
395980.0,0,554,0,127,0
396055.0,0,554,0,128,0
396080.0,0,555,0,128,0
396789.0,0,556,0,128,0
396806.0,0,557,0,128,0
396823.0,0,558,0,128,0
396948.0,0,559,0,128,0
397032.0,0,560,0,128,0
397298.0,0,561,0,128,0
397348.0,0,562,0,128,0
397382.0,0,563,0,128,0
397398.0,0,564,0,128,0
397615.0,0,564,0,129,0
397899.0,0,565,0,129,0
397932.0,0,566,0,129,0
397957.0,0,567,0,129,0
398041.0,0,567,0,130,0
398183.0,0,568,0,130,0
398199.0,0,568,0,131,0
398241.0,0,569,0,131,0
398441.0,0,570,0,131,0
398592.0,0,571,0,131,0
398633.0,0,572,0,131,0
398858.0,0,573,0,131,0
399935.0,0,573,0,132,0
399985.0,0,574,0,132,0
400144.0,0,575,0,132,0
400452.0,0,576,0,132,0
400627.0,0,577,0,132,0
400744.0,0,578,0,132,0
400803.0,0,579,0,132,0
400869.0,0,580,0,132,0
400961.0,0,581,0,132,0
401111.0,0,581,0,133,0
401504.0,0,582,0,133,0
402054.0,0,583,0,133,0
402071.0,0,584,0,133,0
402155.0,0,585,0,133,0
402238.0,0,586,0,133,0
402371.0,0,587,0,133,0
402480.0,0,588,0,133,0
402497.0,0,589,0,133,0
402547.0,0,590,0,133,0
404266.0,0,591,0,133,0
404600.0,0,591,0,134,0
404700.0,0,592,0,134,0
404734.0,0,593,0,134,0
405126.0,0,594,0,134,0
405543.0,0,595,0,134,0
405668.0,0,596,0,134,0
405827.0,0,597,0,134,0
406494.0,0,598,0,134,0
408088.0,0,599,0,134,0
410441.0,0,600,0,134,0
410474.0,0,600,0,135,0
410575.0,0,601,0,135,0
413412.0,0,602,0,135,0
414990.0,0,603,0,135,0
415107.0,0,604,0,135,0
415156.0,0,605,0,135,0
415256.0,0,606,0,135,0
415357.0,0,607,0,135,0
418745.0,0,608,0,135,0
427849.0,0,609,0,135,0
428108.0,0,610,0,135,0
428321.0,0,611,0,135,0
429838.0,0,612,0,135,0
429905.0,0,613,0,135,0
430314.0,0,614,0,135,0
430541.0,0,614,0,136,0
430574.0,0,615,0,136,0
431041.0,0,616,0,136,0
431183.0,0,617,0,136,0
431217.0,0,618,0,136,0
431317.0,0,619,0,136,0
431417.0,0,620,0,136,0
435331.0,0,620,0,137,0
435465.0,0,621,0,137,0
435498.0,0,622,0,137,0
436766.0,0,623,0,137,0
436983.0,0,623,0,138,0
437034.0,0,623,0,139,0
437092.0,0,624,0,139,0
437126.0,0,624,0,140,0
437159.0,0,625,0,140,0
437176.0,0,625,0,141,0
437326.0,0,626,0,141,0
437409.0,0,627,0,141,0
439037.0,0,628,0,141,0
439053.0,0,629,0,141,0
439170.0,0,630,0,141,0
439387.0,0,631,0,141,0
439838.0,0,631,0,142,0
440080.0,0,632,0,142,0
440105.0,0,633,0,142,0
440272.0,0,634,0,142,0
440439.0,0,635,0,142,0
440464.0,0,636,0,142,0
440497.0,0,637,0,142,0
440848.0,0,638,0,142,0
440923.0,0,639,0,142,0
441006.0,0,639,0,143,0
441073.0,0,640,0,143,0
441173.0,0,641,0,143,0
441858.0,0,641,0,144,0
442033.0,0,642,0,144,0
442067.0,0,643,0,144,0
442175.0,0,644,0,144,0
442317.0,0,645,0,144,0
442350.0,0,646,0,144,0
442625.0,0,647,0,144,0
442692.0,0,647,0,145,0
442742.0,0,648,0,145,0
442809.0,0,649,0,145,0
442859.0,0,649,0,146,0
442976.0,0,650,0,146,0
443059.0,0,651,0,146,0
443159.0,0,652,0,146,0
450838.0,0,653,0,146,0
450997.0,0,654,0,146,0
452573.0,0,655,0,146,0
452615.0,0,656,0,146,0
452682.0,0,657,0,146,0
452782.0,0,658,0,146,0
452857.0,0,658,0,147,0
452907.0,0,659,0,147,0
456738.0,0,659,0,148,0
456788.0,0,660,0,148,0
456855.0,0,661,0,148,0
456955.0,0,662,0,148,0
457014.0,0,663,0,148,0
457147.0,0,664,0,148,0
457439.0,0,665,0,148,0
457456.0,0,665,0,149,0
457522.0,0,666,0,149,0
457564.0,0,666,0,150,0
466932.0,0,667,0,150,0
467241.0,0,668,0,150,0
467299.0,0,669,0,150,0
467341.0,0,669,0,151,0
467441.0,0,670,0,151,0
467750.0,0,670,0,152,0
467883.0,0,671,0,152,0
468000.0,0,672,0,152,0
468025.0,0,673,0,152,0
468092.0,0,674,0,152,0
468125.0,0,675,0,152,0
468309.0,0,676,0,152,0
469861.0,0,677,0,152,0
479032.0,0,678,0,152,0
479133.0,0,679,0,152,0
479175.0,0,680,0,152,0
479216.0,0,681,0,152,0
479233.0,0,682,0,152,0
479300.0,0,683,0,152,0
479375.0,0,684,0,152,0
479491.0,0,685,0,152,0
479725.0,0,686,0,152,0
479784.0,0,687,0,152,0
479851.0,0,687,0,153,0
479900.0,0,688,0,153,0
479934.0,0,688,0,154,0
480118.0,0,689,0,154,0
480217.0,0,690,0,154,0
480284.0,0,691,0,154,0
480376.0,0,692,0,154,0
480418.0,0,693,0,154,0
480518.0,0,694,0,154,0
480601.0,0,695,0,154,0
480727.0,0,696,0,154,0
480844.0,0,697,0,154,0
480894.0,0,697,0,155,0
480902.0,0,698,0,155,0
481036.0,0,699,0,155,0
488154.0,0,700,0,155,0
488229.0,0,700,0,156,0
488245.0,0,701,0,156,0
488346.0,0,702,0,156,0
488529.0,0,703,0,156,0
488712.0,0,704,0,156,0
488854.0,0,705,0,156,0
488879.0,0,706,0,156,0
488929.0,0,707,0,156,0
488954.0,0,708,0,156,0
489038.0,0,708,0,157,0
489371.0,0,709,0,157,0
489880.0,0,710,0,157,0
490298.0,0,711,0,157,0
490915.0,0,712,0,157,0
491524.0,0,713,0,157,0
491591.0,0,714,0,157,0
491624.0,0,715,0,157,0
491799.0,0,715,0,158,0
497248.0,0,716,0,158,0
497298.0,0,717,0,158,0
497315.0,0,717,0,159,0
497691.0,0,717,0,160,0
497715.0,0,718,0,160,0
497900.0,0,719,0,160,0
497941.0,0,720,0,160,0
498149.0,0,721,0,160,0
505718.0,0,722,0,160,0
505776.0,0,723,0,160,0
505793.0,0,724,0,160,0
505810.0,0,725,0,160,0
505860.0,0,726,0,160,0
506035.0,0,727,0,160,0
506077.0,0,728,0,160,0
506168.0,0,729,0,160,0
506285.0,0,730,0,160,0
512685.0,0,731,0,160,0
512735.0,0,732,0,160,0
512777.0,0,733,0,160,0
512943.0,0,733,0,161,0
513252.0,0,734,0,161,0
513294.0,0,735,0,161,0
513336.0,0,736,0,161,0
513469.0,0,737,0,161,0
513611.0,0,738,0,161,0
516732.0,0,739,0,161,0
516924.0,0,740,0,161,0
516974.0,0,740,0,162,0
517208.0,0,741,0,162,0
517292.0,0,741,0,163,0
517350.0,0,742,0,163,0
517367.0,0,743,0,163,0
517467.0,0,743,0,164,0
521713.0,0,744,0,164,0
521971.0,0,744,0,165,0
522171.0,0,745,0,165,0
522422.0,0,746,0,165,0
522505.0,0,747,0,165,0
522656.0,0,748,0,165,0
522714.0,0,748,0,166,0
522772.0,0,749,0,166,0
522956.0,0,750,0,166,0
522989.0,0,751,0,166,0
523106.0,0,752,0,166,0
523156.0,0,753,0,166,0
523189.0,0,754,0,166,0
523256.0,0,755,0,166,0
523482.0,0,756,0,166,0
523581.0,0,757,0,166,0
523699.0,0,758,0,166,0
523748.0,0,759,0,166,0
523815.0,0,760,0,166,0
523849.0,0,760,0,167,0
523865.0,0,761,0,167,0
524099.0,0,762,0,167,0
524216.0,0,763,0,167,0
524299.0,0,764,0,167,0
524399.0,0,765,0,167,0
524483.0,0,766,0,167,0
524499.0,0,767,0,167,0
524608.0,0,768,0,167,0
524733.0,0,768,0,168,0
525092.0,0,769,0,168,0
525217.0,0,770,0,168,0
525267.0,0,771,0,168,0
525300.0,0,772,0,168,0
525384.0,0,773,0,168,0
525417.0,0,773,0,169,0
525450.0,0,774,0,169,0
525467.0,0,775,0,169,0
525609.0,0,776,0,169,0
525626.0,0,777,0,169,0
525718.0,0,778,0,169,0
525751.0,0,778,0,170,0
526077.0,0,779,0,170,0
526394.0,0,780,0,170,0
535890.0,0,780,0,171,0
536082.0,0,781,0,171,0
537950.0,0,782,0,171,0
538092.0,0,783,0,171,0
538126.0,0,784,0,171,0
538218.0,0,785,0,171,0
538376.0,0,786,0,171,0
539302.0,0,786,0,172,0
539336.0,0,787,0,172,0
539377.0,0,788,0,172,0
539402.0,0,789,0,172,0
539469.0,0,790,0,172,0
539594.0,0,791,0,172,0
539678.0,0,791,0,173,0
539728.0,0,792,0,173,0
539778.0,0,792,0,174,0
539812.0,0,792,0,175,0
539878.0,0,792,0,176,0
540746.0,0,793,0,176,0
540946.0,0,794,0,176,0
541046.0,0,794,0,177,0
549068.0,0,794,0,178,0
549152.0,0,795,0,178,0
549327.0,0,796,0,178,0
550186.0,0,797,0,178,0
550295.0,0,798,0,178,0
550562.0,0,799,0,178,0
550712.0,0,800,0,178,0
550796.0,0,801,0,178,0
550829.0,0,801,0,179,0
550904.0,0,802,0,179,0
551029.0,0,803,0,179,0
553382.0,0,804,0,179,0
558865.0,0,804,0,180,0
559090.0,0,805,0,180,0
559123.0,0,806,0,180,0
559307.0,0,806,0,181,0
559824.0,0,807,0,181,0
561234.0,0,808,0,181,0
561284.0,0,809,0,181,0
561335.0,0,810,0,181,0
561385.0,0,811,0,181,0
561610.0,0,812,0,181,0
561627.0,0,813,0,181,0
561644.0,0,814,0,181,0
561710.0,0,814,0,182,0
561743.0,0,815,0,182,0
561852.0,0,815,0,183,0
561935.0,0,816,0,183,0
562094.0,0,816,0,184,0
562169.0,0,817,0,184,0
562194.0,0,818,0,184,0
562311.0,0,819,0,184,0
562327.0,0,819,0,185,0
562378.0,0,819,0,186,0
562411.0,0,820,0,186,0
570255.0,0,821,0,186,0
570397.0,0,822,0,186,0
570514.0,0,823,0,186,0
570547.0,0,823,0,187,0
570580.0,0,824,0,187,0
571473.0,0,825,0,187,0
571540.0,0,826,0,187,0
571615.0,0,827,0,187,0
571715.0,0,828,0,187,0
574177.0,0,829,0,187,0
574535.0,0,830,0,187,0
574686.0,0,831,0,187,0
574827.0,0,832,0,187,0
574861.0,0,832,0,188,0
574927.0,0,833,0,188,0
574961.0,0,834,0,188,0
575103.0,0,835,0,188,0
575153.0,0,835,0,189,0
575178.0,0,835,0,190,0
575228.0,0,836,0,190,0
575286.0,0,837,0,190,0
575462.0,0,838,0,190,0
575495.0,0,838,0,191,0
575561.0,0,839,0,191,0
575862.0,0,839,0,192,0
575929.0,0,840,0,192,0
575987.0,0,841,0,192,0
576063.0,0,842,0,192,0
576183.0,0,843,0,192,0
580576.0,0,844,0,192,0
580635.0,0,845,0,192,0
580702.0,0,846,0,192,0
580785.0,0,847,0,192,0
580827.0,0,848,0,192,0
580877.0,0,849,0,192,0
581085.0,0,849,0,193,0
581206.0,0,850,0,193,0
581329.0,0,851,0,193,0
581346.0,0,851,0,194,0
581430.0,0,851,0,195,0
581546.0,0,852,0,195,0
581563.0,0,853,0,195,0
581613.0,0,854,0,195,0
581647.0,0,854,0,196,0
581939.0,0,855,0,196,0
582005.0,0,856,0,196,0
582039.0,0,857,0,196,0
582156.0,0,858,0,196,0
588906.0,0,858,0,197,0
589048.0,0,858,0,198,0
589115.0,0,859,0,198,0
589215.0,0,860,0,198,0
589249.0,0,861,0,198,0
589273.0,0,862,0,198,0
589348.0,0,863,0,198,0
589883.0,0,864,0,198,0
589899.0,0,865,0,198,0
589966.0,0,866,0,198,0
590058.0,0,866,0,199,0
590108.0,0,867,0,199,0
590124.0,0,868,0,199,0
590258.0,0,869,0,199,0
590292.0,0,870,0,199,0
590483.0,0,870,0,200,0
590500.0,0,871,0,200,0
590567.0,0,872,0,200,0
590683.0,0,873,0,200,0
590767.0,0,874,0,200,0
590817.0,0,874,0,201,0
590850.0,0,875,0,201,0
591017.0,0,876,0,201,0
591101.0,0,877,0,201,0
591117.0,0,878,0,201,0
591167.0,0,879,0,201,0
591201.0,0,880,0,201,0
591326.0,0,881,0,201,0
591434.0,0,882,0,201,0
591451.0,0,883,0,201,0
591468.0,0,884,0,201,0
591560.0,0,885,0,201,0
591602.0,0,886,0,201,0
591685.0,0,887,0,201,0
591735.0,0,888,0,201,0
591869.0,0,889,0,201,0
591968.0,0,890,0,201,0
592043.0,0,891,0,201,0
592069.0,0,892,0,201,0
592169.0,0,893,0,201,0
592235.0,0,894,0,201,0
592511.0,0,895,0,201,0
592586.0,0,896,0,201,0
592752.0,0,897,0,201,0
593570.0,0,898,0,201,0
593679.0,0,899,0,201,0
593896.0,0,900,0,201,0
594121.0,0,901,0,201,0
594254.0,0,902,0,201,0
594304.0,0,903,0,201,0
594446.0,0,904,0,201,0
594546.0,0,905,0,201,0
594630.0,0,906,0,201,0
594680.0,0,907,0,201,0
594763.0,0,908,0,201,0
594855.0,0,909,0,201,0
595022.0,0,910,0,201,0
595189.0,0,911,0,201,0
595323.0,0,911,0,202,0
595381.0,0,912,0,202,0
599737.0,0,913,0,202,0
599779.0,0,914,0,202,0
599837.0,0,915,0,202,0
599879.0,0,916,0,202,0
599954.0,0,917,0,202,0
600455.0,0,918,0,202,0
600488.0,0,919,0,202,0
600722.0,0,920,0,202,0
600880.0,0,921,0,202,0
601197.0,0,922,0,202,0
601347.0,0,923,0,202,0
601364.0,0,924,0,202,0
601448.0,0,924,0,203,0
602499.0,0,924,0,204,0
602557.0,0,925,0,204,0
602607.0,0,926,0,204,0
611594.0,0,927,0,204,0
611652.0,0,927,0,205,0
611736.0,0,928,0,205,0
611959.0,0,929,0,205,0
612101.0,0,930,0,205,0
612243.0,0,930,0,206,0
612318.0,0,931,0,206,0
612511.0,0,932,0,206,0
612577.0,0,932,0,207,0
642305.0,0,933,0,207,0
642394.0,0,934,0,207,0
642478.0,0,935,0,207,0
642912.0,0,936,0,207,0
642978.0,0,937,0,207,0
643137.0,0,938,0,207,0
643162.0,0,938,0,208,0
643196.0,0,939,0,208,0
643254.0,0,940,0,208,0
643271.0,0,941,0,208,0
646868.0,0,942,0,208,0
647343.0,0,943,0,208,0
647410.0,0,943,0,209,0
647452.0,0,944,0,209,0
647485.0,0,945,0,209,0
647568.0,0,946,0,209,0
647585.0,0,947,0,209,0
647810.0,0,948,0,209,0
647911.0,0,949,0,209,0
648486.0,0,949,0,210,0
648520.0,0,950,0,210,0
648653.0,0,951,0,210,0
648687.0,0,952,0,210,0
651741.0,0,953,0,210,0
651816.0,0,954,0,210,0
651866.0,0,954,0,211,0
651942.0,0,955,0,211,0
652008.0,0,956,0,211,0
652074.0,0,957,0,211,0
652458.0,0,958,0,211,0
652801.0,0,958,0,212,0
652867.0,0,959,0,212,0
652918.0,0,960,0,212,0
653026.0,0,961,0,212,0
656514.0,0,962,0,212,0
656548.0,0,962,0,213,0
656664.0,0,963,0,213,0
656681.0,0,964,0,213,0
656723.0,0,965,0,213,0
656781.0,0,966,0,213,0
656881.0,0,967,0,213,0
656982.0,0,968,0,213,0
657632.0,0,969,0,213,0
657682.0,0,969,0,214,0
657724.0,0,969,0,215,0
657816.0,0,970,0,215,0
657883.0,0,971,0,215,0
670592.0,0,972,0,215,0
670625.0,0,973,0,215,0
670675.0,0,974,0,215,0
670825.0,0,975,0,215,0
670900.0,0,976,0,215,0
670984.0,0,976,0,216,0
671151.0,0,977,0,216,0
671217.0,0,978,0,216,0
672237.0,0,979,0,216,0
672487.0,0,980,0,216,0
672529.0,0,981,0,216,0
672595.0,0,982,0,216,0
672679.0,0,983,0,216,0
672746.0,0,983,0,217,0
672779.0,0,984,0,217,0
672837.0,0,985,0,217,0
672963.0,0,986,0,217,0
673080.0,0,987,0,217,0
673113.0,0,988,0,217,0
674123.0,0,989,0,217,0
674507.0,0,990,0,217,0
674557.0,0,990,0,218,0
674774.0,0,990,0,219,0
675207.0,0,991,0,219,0
675257.0,0,992,0,219,0
675341.0,0,993,0,219,0
675441.0,0,994,0,219,0
675508.0,0,994,0,220,0
680739.0,0,995,0,220,0
680915.0,0,996,0,220,0
685980.0,0,997,0,220,0
686205.0,0,998,0,220,0
686522.0,0,999,0,220,0
691529.0,0,1000,0,220,0
691738.0,0,1001,0,220,0
691821.0,0,1002,0,220,0
691971.0,0,1003,0,220,0
692371.0,0,1004,0,220,0
692505.0,0,1005,0,220,0
694724.0,0,1006,0,220,0
696944.0,0,1006,0,221,0
697102.0,0,1007,0,221,0
697219.0,0,1008,0,221,0
697236.0,0,1009,0,221,0
697337.0,0,1009,0,222,0
697353.0,0,1010,0,222,0
698146.0,0,1011,0,222,0
698329.0,0,1012,0,222,0
698480.0,0,1013,0,222,0
698496.0,0,1014,0,222,0
702226.0,0,1015,0,222,0
702276.0,0,1016,0,222,0
702334.0,0,1017,0,222,0
702401.0,0,1017,0,223,0
711581.0,0,1018,0,223,0
711664.0,0,1019,0,223,0
711698.0,0,1020,0,223,0
711798.0,0,1021,0,223,0
711865.0,0,1022,0,223,0
712006.0,0,1023,0,223,0
712023.0,0,1024,0,223,0
712081.0,0,1025,0,223,0
712424.0,0,1026,0,223,0
712541.0,0,1027,0,223,0
712574.0,0,1028,0,223,0
712991.0,0,1028,0,224,0
713099.0,0,1029,0,224,0
713116.0,0,1030,0,224,0
713217.0,0,1030,0,225,0
713291.0,0,1031,0,225,0
713400.0,0,1032,0,225,0
715178.0,0,1033,0,225,0
715253.0,0,1033,0,226,0
715336.0,0,1034,0,226,0
715495.0,0,1035,0,226,0
715528.0,0,1036,0,226,0
715562.0,0,1037,0,226,0
715712.0,0,1038,0,226,0
715795.0,0,1039,0,226,0
715820.0,0,1040,0,226,0
715896.0,0,1041,0,226,0
716012.0,0,1041,0,227,0
716205.0,0,1042,0,227,0
716546.0,0,1043,0,227,0
716588.0,0,1044,0,227,0
716722.0,0,1044,0,228,0
716755.0,0,1045,0,228,0
716788.0,0,1046,0,228,0
716822.0,0,1046,0,229,0
716855.0,0,1047,0,229,0
716930.0,0,1048,0,229,0
716964.0,0,1049,0,229,0
725434.0,0,1050,0,229,0
725518.0,0,1050,0,230,0
725977.0,0,1051,0,230,0
726119.0,0,1051,0,231,0
726152.0,0,1051,0,232,0
726219.0,0,1052,0,232,0
726336.0,0,1053,0,232,0
726386.0,0,1054,0,232,0
726452.0,0,1055,0,232,0
726970.0,0,1056,0,232,0
727020.0,0,1056,0,233,0
727154.0,0,1057,0,233,0
727237.0,0,1058,0,233,0
727329.0,0,1059,0,233,0
727354.0,0,1059,0,234,0
727371.0,0,1059,0,235,0
727746.0,0,1060,0,235,0
727971.0,0,1061,0,235,0
738732.0,0,1062,0,235,0
738748.0,0,1063,0,235,0
738832.0,0,1064,0,235,0
738890.0,0,1065,0,235,0
738932.0,0,1066,0,235,0
739116.0,0,1067,0,235,0
739282.0,0,1067,0,236,0
739366.0,0,1067,0,237,0
739959.0,0,1068,0,237,0
740008.0,0,1069,0,237,0
745632.0,0,1070,0,237,0
745716.0,0,1071,0,237,0
745800.0,0,1072,0,237,0
746017.0,0,1073,0,237,0
746034.0,0,1074,0,237,0
746134.0,0,1075,0,237,0
746317.0,0,1076,0,237,0
752967.0,0,1076,0,238,0
753026.0,0,1077,0,238,0
753301.0,0,1078,0,238,0
753318.0,0,1079,0,238,0
753426.0,0,1080,0,238,0
753460.0,0,1080,0,239,0
753493.0,0,1081,0,239,0
753527.0,0,1082,0,239,0
753544.0,0,1083,0,239,0
753594.0,0,1084,0,239,0
753660.0,0,1085,0,239,0
753710.0,0,1086,0,239,0
753786.0,0,1087,0,239,0
753853.0,0,1088,0,239,0
754019.0,0,1088,0,240,0
754111.0,0,1089,0,240,0
754198.0,0,1090,0,240,0
754245.0,0,1090,0,241,0
754345.0,0,1091,0,241,0
754403.0,0,1092,0,241,0
754536.0,0,1093,0,241,0
754645.0,0,1094,0,241,0
754728.0,0,1094,0,242,0
754795.0,0,1095,0,242,0
755054.0,0,1096,0,242,0
755087.0,0,1097,0,242,0
756606.0,0,1098,0,242,0
756639.0,0,1099,0,242,0
756789.0,0,1100,0,242,0
757624.0,0,1101,0,242,0
757666.0,0,1102,0,242,0
757724.0,0,1103,0,242,0
757782.0,0,1104,0,242,0
757883.0,0,1105,0,242,0
757908.0,0,1106,0,242,0
757941.0,0,1107,0,242,0
758108.0,0,1107,0,243,0
761137.0,0,1108,0,243,0
761179.0,0,1109,0,243,0
761212.0,0,1110,0,243,0
761321.0,0,1111,0,243,0
761396.0,0,1112,0,243,0
761455.0,0,1113,0,243,0
761529.0,0,1114,0,243,0
761579.0,0,1115,0,243,0
766661.0,0,1115,0,244,0
766786.0,0,1116,0,244,0
766811.0,0,1117,0,244,0
766828.0,0,1118,0,244,0
766937.0,0,1119,0,244,0
767037.0,0,1120,0,244,0
767095.0,0,1121,0,244,0
767112.0,0,1122,0,244,0
768740.0,0,1122,0,245,0
768823.0,0,1123,0,245,0
768873.0,0,1124,0,245,0
768890.0,0,1125,0,245,0
769090.0,0,1125,0,246,0
769148.0,0,1126,0,246,0
769165.0,0,1126,0,247,0
769279.0,0,1127,0,247,0
769365.0,0,1128,0,247,0
769432.0,0,1129,0,247,0
769507.0,0,1130,0,247,0
769541.0,0,1131,0,247,0
769624.0,0,1132,0,247,0
769657.0,0,1133,0,247,0
769841.0,0,1134,0,247,0
770099.0,0,1135,0,247,0
784377.0,0,1135,0,248,0
784544.0,0,1135,0,249,0
784569.0,0,1136,0,249,0
784619.0,0,1137,0,249,0
785478.0,0,1138,0,249,0
785545.0,0,1138,0,250,0
785604.0,0,1139,0,250,0
785654.0,0,1140,0,250,0
785821.0,0,1141,0,250,0
785837.0,0,1142,0,250,0
792180.0,0,1143,0,250,0
792255.0,0,1144,0,250,0
792313.0,0,1145,0,250,0
792363.0,0,1146,0,250,0
792397.0,0,1146,0,251,0
792480.0,0,1147,0,251,0
792513.0,0,1148,0,251,0
792547.0,0,1149,0,251,0
792588.0,0,1150,0,251,0
792639.0,0,1151,0,251,0
792855.0,0,1152,0,251,0
792897.0,0,1153,0,251,0
792931.0,0,1154,0,251,0
792947.0,0,1155,0,251,0
792964.0,0,1156,0,251,0
793148.0,0,1157,0,251,0
793173.0,0,1158,0,251,0
793206.0,0,1159,0,251,0
793223.0,0,1160,0,251,0
793339.0,0,1161,0,251,0
793890.0,0,1162,0,251,0
793924.0,0,1163,0,251,0
793949.0,0,1164,0,251,0
794216.0,0,1165,0,251,0
794349.0,0,1165,0,252,0
797832.0,0,1165,0,253,0
797924.0,0,1166,0,253,0
798015.0,0,1167,0,253,0
798074.0,0,1168,0,253,0
798215.0,0,1169,0,253,0
798299.0,0,1170,0,253,0
798450.0,0,1171,0,253,0
798508.0,0,1172,0,253,0
798575.0,0,1173,0,253,0
798650.0,0,1174,0,253,0
798666.0,0,1175,0,253,0
798709.0,0,1175,0,254,0
798775.0,0,1176,0,254,0
798792.0,0,1177,0,254,0
798867.0,0,1178,0,254,0
798883.0,0,1179,0,254,0
798950.0,0,1180,0,254,0
799025.0,0,1181,0,254,0
801370.0,0,1182,0,254,0
801487.0,0,1183,0,254,0
801537.0,0,1184,0,254,0
801629.0,0,1185,0,254,0
801654.0,0,1186,0,254,0
801946.0,0,1187,0,254,0
802046.0,0,1188,0,254,0
802079.0,0,1189,0,254,0
802313.0,0,1190,0,254,0
802330.0,0,1191,0,254,0
802572.0,0,1192,0,254,0
802672.0,0,1193,0,254,0
802780.0,0,1194,0,254,0
802906.0,0,1195,0,254,0
802972.0,0,1196,0,254,0
803081.0,0,1196,0,255,0
803189.0,0,1197,0,255,0
803298.0,0,1197,0,256,0
803398.0,0,1198,0,256,0
803459.0,0,1199,0,256,0
803573.0,0,1200,0,256,0
803732.0,0,1200,0,257,0
803749.0,0,1201,0,257,0
803874.0,0,1202,0,257,0
803974.0,0,1203,0,257,0
804049.0,0,1204,0,257,0
804091.0,0,1205,0,257,0
804157.0,0,1206,0,257,0
804291.0,0,1207,0,257,0
804341.0,0,1208,0,257,0
804408.0,0,1209,0,257,0
804466.0,0,1209,0,258,0
804516.0,0,1210,0,258,0
804800.0,0,1211,0,258,0
804950.0,0,1212,0,258,0
804967.0,0,1213,0,258,0
805317.0,0,1214,0,258,0
805334.0,0,1215,0,258,0
805492.0,0,1216,0,258,0
805517.0,0,1217,0,258,0
805542.0,0,1218,0,258,0
805843.0,0,1218,0,259,0
805910.0,0,1219,0,259,0
805985.0,0,1220,0,259,0
806111.0,0,1221,0,259,0
806269.0,0,1222,0,259,0
806402.0,0,1223,0,259,0
806436.0,0,1224,0,259,0
806503.0,0,1225,0,259,0
806544.0,0,1226,0,259,0
806661.0,0,1227,0,259,0
806753.0,0,1228,0,259,0
806769.0,0,1229,0,259,0
806786.0,0,1230,0,259,0
806986.0,0,1231,0,259,0
807111.0,0,1232,0,259,0
807195.0,0,1233,0,259,0
813929.0,0,1234,0,259,0
814021.0,0,1235,0,259,0
814104.0,0,1236,0,259,0
814180.0,0,1237,0,259,0
814197.0,0,1237,0,260,0
814338.0,0,1238,0,260,0
814372.0,0,1239,0,260,0
814413.0,0,1240,0,260,0
814446.0,0,1241,0,260,0
814463.0,0,1242,0,260,0
814563.0,0,1243,0,260,0
814580.0,0,1243,0,261,0
814614.0,0,1244,0,261,0
814722.0,0,1245,0,261,0
814772.0,0,1246,0,261,0
814789.0,0,1247,0,261,0
814897.0,0,1247,0,262,0
814989.0,0,1247,0,263,0
815089.0,0,1247,0,264,0
815273.0,0,1248,0,264,0
815289.0,0,1249,0,264,0
818578.0,0,1249,0,265,0
818986.0,0,1250,0,265,0
819161.0,0,1251,0,265,0
819194.0,0,1252,0,265,0
819236.0,0,1253,0,265,0
819277.0,0,1254,0,265,0
819344.0,0,1255,0,265,0
819545.0,0,1256,0,265,0
819703.0,0,1257,0,265,0
819837.0,0,1258,0,265,0
820029.0,0,1259,0,265,0
820796.0,0,1260,0,265,0
820880.0,0,1261,0,265,0
820913.0,0,1262,0,265,0
821080.0,0,1263,0,265,0
821147.0,0,1264,0,265,0
821297.0,0,1265,0,265,0
821347.0,0,1266,0,265,0
821414.0,0,1267,0,265,0
821448.0,0,1268,0,265,0
821465.0,0,1269,0,265,0
821581.0,0,1270,0,265,0
845094.0,0,1271,0,265,0
845286.0,0,1272,0,265,0
845319.0,0,1273,0,265,0
845369.0,0,1274,0,265,0
845428.0,0,1275,0,265,0
845545.0,0,1276,0,265,0
847130.0,0,1277,0,265,0
847155.0,0,1278,0,265,0
847255.0,0,1279,0,265,0
847372.0,0,1280,0,265,0
847430.0,0,1281,0,265,0
847489.0,0,1282,0,265,0
847505.0,0,1283,0,265,0
847581.0,0,1284,0,265,0
847672.0,0,1285,0,265,0
847705.0,0,1286,0,265,0
847772.0,0,1286,0,266,0
847789.0,0,1287,0,266,0
847972.0,0,1288,0,266,0
848131.0,0,1289,0,266,0
848156.0,0,1290,0,266,0
848223.0,0,1291,0,266,0
848248.0,0,1292,0,266,0
848265.0,0,1293,0,266,0
848339.0,0,1294,0,266,0
848406.0,0,1295,0,266,0
848481.0,0,1296,0,266,0
848515.0,0,1297,0,266,0
848565.0,0,1298,0,266,0
849633.0,0,1298,0,267,0
849700.0,0,1299,0,267,0
850776.0,0,1300,0,267,0
850859.0,0,1300,0,268,0
850993.0,0,1301,0,268,0
851168.0,0,1302,0,268,0
851252.0,0,1302,0,269,0
851318.0,0,1303,0,269,0
851435.0,0,1304,0,269,0
851452.0,0,1305,0,269,0
851519.0,0,1305,0,270,0
851552.0,0,1306,0,270,0
851761.0,0,1307,0,270,0
851836.0,0,1308,0,270,0
854256.0,0,1309,0,270,0
854272.0,0,1310,0,270,0
854323.0,0,1311,0,270,0
854381.0,0,1311,0,271,0
854498.0,0,1311,0,272,0
854573.0,0,1311,0,273,0
854640.0,0,1312,0,273,0
854798.0,0,1313,0,273,0
854840.0,0,1313,0,274,0
855101.0,0,1314,0,274,0
855368.0,0,1315,0,274,0
855418.0,0,1316,0,274,0
855435.0,0,1317,0,274,0
855485.0,0,1318,0,274,0
855502.0,0,1319,0,274,0
855610.0,0,1320,0,274,0
855794.0,0,1321,0,274,0
858789.0,0,1322,0,274,0
858881.0,0,1322,0,275,0
858931.0,0,1323,0,275,0
867175.0,0,1324,0,275,0
867242.0,0,1325,0,275,0
867309.0,0,1326,0,275,0
867392.0,0,1327,0,275,0
867476.0,0,1328,0,275,0
867534.0,0,1329,0,275,0
867751.0,0,1330,0,275,0
867893.0,0,1331,0,275,0
868044.0,0,1332,0,275,0
868436.0,0,1333,0,275,0
868503.0,0,1333,0,276,0
868569.0,0,1334,0,276,0
868636.0,0,1335,0,276,0
868853.0,0,1335,0,277,0
869070.0,0,1336,0,277,0
869120.0,0,1336,0,278,0
869287.0,0,1337,0,278,0
869462.0,0,1338,0,278,0
869495.0,0,1339,0,278,0
869529.0,0,1340,0,278,0
869654.0,0,1341,0,278,0
869763.0,0,1342,0,278,0
869913.0,0,1343,0,278,0
869963.0,0,1343,0,279,0
869996.0,0,1343,0,280,0
870096.0,0,1344,0,280,0
877455.0,0,1345,0,280,0
877522.0,0,1346,0,280,0
877589.0,0,1346,0,281,0
878056.0,0,1347,0,281,0
878156.0,0,1348,0,281,0
878282.0,0,1349,0,281,0
878348.0,0,1350,0,281,0
903098.0,0,1351,0,281,0
903240.0,0,1352,0,281,0
903257.0,0,1353,0,281,0
903415.0,0,1354,0,281,0
903515.0,0,1355,0,281,0
903607.0,0,1356,0,281,0
903632.0,0,1357,0,281,0
903766.0,0,1358,0,281,0
903816.0,0,1359,0,281,0
903882.0,0,1360,0,281,0
903949.0,0,1360,0,282,0
904008.0,0,1361,0,282,0
904083.0,0,1362,0,282,0
904116.0,0,1363,0,282,0
904152.0,0,1364,0,282,0
904216.0,0,1365,0,282,0
904258.0,0,1365,0,283,0
904342.0,0,1366,0,283,0
904366.0,0,1367,0,283,0
904450.0,0,1368,0,283,0
904467.0,0,1369,0,283,0
904542.0,0,1370,0,283,0
904775.0,0,1371,0,283,0
904792.0,0,1372,0,283,0
904867.0,0,1373,0,283,0
904901.0,0,1374,0,283,0
905001.0,0,1375,0,283,0
905101.0,0,1376,0,283,0
905134.0,0,1377,0,283,0
905168.0,0,1378,0,283,0
905451.0,0,1379,0,283,0
905660.0,0,1380,0,283,0
905701.0,0,1381,0,283,0
905802.0,0,1381,0,284,0
906052.0,0,1382,0,284,0
906194.0,0,1383,0,284,0
906228.0,0,1383,0,285,0
906452.0,0,1384,0,285,0
906503.0,0,1385,0,285,0
906519.0,0,1385,0,286,0
906536.0,0,1386,0,286,0
906561.0,0,1387,0,286,0
906870.0,0,1388,0,286,0
906970.0,0,1389,0,286,0
907020.0,0,1389,0,287,0
907104.0,0,1390,0,287,0
910108.0,0,1390,0,288,0
910149.0,0,1391,0,288,0
910300.0,0,1392,0,288,0
910417.0,0,1392,0,289,0
910508.0,0,1393,0,289,0
911126.0,0,1394,0,289,0
911176.0,0,1395,0,289,0
911193.0,0,1395,0,290,0
911210.0,0,1395,0,291,0
911284.0,0,1396,0,291,0
911309.0,0,1397,0,291,0
911360.0,0,1397,0,292,0
911401.0,0,1398,0,292,0
912452.0,0,1399,0,292,0
912519.0,0,1399,0,293,0
912636.0,0,1400,0,293,0
912653.0,0,1400,0,294,0
912695.0,0,1401,0,294,0
912711.0,0,1402,0,294,0
912845.0,0,1403,0,294,0
912995.0,0,1404,0,294,0
913087.0,0,1404,0,295,0
913129.0,0,1405,0,295,0
913237.0,0,1405,0,296,0
913421.0,0,1406,0,296,0
913470.0,0,1407,0,296,0
913504.0,0,1408,0,296,0
913554.0,0,1409,0,296,0
913638.0,0,1410,0,296,0
913746.0,0,1411,0,296,0
914071.0,0,1412,0,296,0
914230.0,0,1413,0,296,0
914280.0,0,1414,0,296,0
920166.0,0,1415,0,296,0
920191.0,0,1416,0,296,0
920224.0,0,1416,0,297,0
920391.0,0,1417,0,297,0
920458.0,0,1418,0,297,0
920491.0,0,1419,0,297,0
920625.0,0,1419,0,298,0
920758.0,0,1420,0,298,0
920792.0,0,1420,0,299,0
920884.0,0,1421,0,299,0
920984.0,0,1422,0,299,0
921176.0,0,1423,0,299,0
921209.0,0,1423,0,300,0
921334.0,0,1424,0,300,0
921484.0,0,1425,0,300,0
921551.0,0,1426,0,300,0
921636.0,0,1427,0,300,0
921693.0,0,1428,0,300,0
921760.0,0,1429,0,300,0
921793.0,0,1430,0,300,0
921902.0,0,1430,0,301,0
921935.0,0,1431,0,301,0
921952.0,0,1432,0,301,0
922052.0,0,1433,0,301,0
922077.0,0,1434,0,301,0
922402.0,0,1435,0,301,0
922436.0,0,1436,0,301,0
922561.0,0,1436,0,302,0
922603.0,0,1437,0,302,0
922644.0,0,1438,0,302,0
922719.0,0,1438,0,303,0
922753.0,0,1439,0,303,0
922803.0,0,1440,0,303,0
922978.0,0,1441,0,303,0
923070.0,0,1442,0,303,0
923178.0,0,1443,0,303,0
927502.0,0,1444,0,303,0
927953.0,0,1445,0,303,0
928003.0,0,1446,0,303,0
928019.0,0,1447,0,303,0
928243.0,0,1448,0,303,0
928303.0,0,1449,0,303,0
928320.0,0,1450,0,303,0
928353.0,0,1450,0,304,0
928409.0,0,1451,0,304,0
928695.0,0,1452,0,304,0
928762.0,0,1453,0,304,0
930231.0,0,1454,0,304,0
930298.0,0,1455,0,304,0
930348.0,0,1456,0,304,0
930414.0,0,1456,0,305,0
930773.0,0,1457,0,305,0
930932.0,0,1458,0,305,0
930949.0,0,1458,0,306,0
930999.0,0,1458,0,307,0
931015.0,0,1459,0,307,0
937868.0,0,1460,0,307,0
938043.0,0,1461,0,307,0
939495.0,0,1462,0,307,0
939704.0,0,1462,0,308,0
939804.0,0,1463,0,308,0
939862.0,0,1464,0,308,0
939879.0,0,1465,0,308,0
939988.0,0,1466,0,308,0
940738.0,0,1467,0,308,0
940755.0,0,1468,0,308,0
943392.0,0,1469,0,308,0
943517.0,0,1470,0,308,0
943534.0,0,1471,0,308,0
943626.0,0,1471,0,309,0
943776.0,0,1472,0,309,0
943926.0,0,1473,0,309,0
945854.0,0,1473,0,310,0
945904.0,0,1474,0,310,0
945988.0,0,1475,0,310,0
946079.0,0,1476,0,310,0
946205.0,0,1476,0,311,0
946396.0,0,1476,0,312,0
947257.0,0,1476,0,313,0
947290.0,0,1477,0,313,0
947369.0,0,1478,0,313,0
947394.0,0,1478,0,314,0
947628.0,0,1478,0,315,0
947786.0,0,1478,0,316,0
947820.0,0,1479,0,316,0
947944.0,0,1480,0,316,0
947978.0,0,1481,0,316,0
949414.0,0,1482,0,316,0
949439.0,0,1483,0,316,0
949481.0,0,1484,0,316,0
949581.0,0,1485,0,316,0
949647.0,0,1486,0,316,0
949748.0,0,1486,0,317,0
949881.0,0,1487,0,317,0
949998.0,0,1488,0,317,0
950148.0,0,1489,0,317,0
950198.0,0,1490,0,317,0
950248.0,0,1491,0,317,0
950357.0,0,1492,0,317,0
950407.0,0,1493,0,317,0
950524.0,0,1494,0,317,0
956491.0,0,1495,0,317,0
956616.0,0,1496,0,317,0
956666.0,0,1497,0,317,0
956699.0,0,1498,0,317,0
956841.0,0,1499,0,317,0
959611.0,0,1500,0,317,0
959670.0,0,1500,0,318,0
959803.0,0,1501,0,318,0
960087.0,0,1502,0,318,0
960145.0,0,1503,0,318,0
960229.0,0,1504,0,318,0
960246.0,0,1504,0,319,0
960387.0,0,1505,0,319,0
960454.0,0,1506,0,319,0
962390.0,0,1506,0,320,0
962599.0,0,1507,0,320,0
962682.0,0,1508,0,320,0
962766.0,0,1509,0,320,0
962899.0,0,1510,0,320,0
962966.0,0,1511,0,320,0
963050.0,0,1512,0,320,0
963192.0,0,1513,0,320,0
963275.0,0,1514,0,320,0
963292.0,0,1515,0,320,0
963308.0,0,1516,0,320,0
963392.0,0,1517,0,320,0
963434.0,0,1518,0,320,0
963492.0,0,1519,0,320,0
963609.0,0,1520,0,320,0
963659.0,0,1521,0,320,0
963726.0,0,1522,0,320,0
963759.0,0,1523,0,320,0
963809.0,0,1524,0,320,0
963826.0,0,1524,0,321,0
963918.0,0,1525,0,321,0
963935.0,0,1526,0,321,0
964327.0,0,1526,0,322,0
964385.0,0,1527,0,322,0
964444.0,0,1528,0,322,0
964777.0,0,1529,0,322,0
964911.0,0,1530,0,322,0
964952.0,0,1531,0,322,0
965003.0,0,1532,0,322,0
965120.0,0,1533,0,322,0
965178.0,0,1534,0,322,0
965470.0,0,1535,0,322,0
965528.0,0,1536,0,322,0
965662.0,0,1537,0,322,0
965704.0,0,1538,0,322,0
965804.0,0,1538,0,323,0
965820.0,0,1539,0,323,0
965887.0,0,1540,0,323,0
966113.0,0,1541,0,323,0
966212.0,0,1542,0,323,0
966279.0,0,1543,0,323,0
966321.0,0,1544,0,323,0
966413.0,0,1545,0,323,0
966455.0,0,1546,0,323,0
966480.0,0,1547,0,323,0
966521.0,0,1548,0,323,0
966955.0,0,1548,0,324,0
966997.0,0,1549,0,324,0
967030.0,0,1550,0,324,0
967139.0,0,1551,0,324,0
967289.0,0,1552,0,324,0
967339.0,0,1553,0,324,0
967356.0,0,1554,0,324,0
967406.0,0,1555,0,324,0
969325.0,0,1556,0,324,0
969392.0,0,1557,0,324,0
969484.0,0,1558,0,324,0
969559.0,0,1559,0,324,0
969676.0,0,1560,0,324,0
969726.0,0,1561,0,324,0
969901.0,0,1562,0,324,0
969985.0,0,1563,0,324,0
970051.0,0,1564,0,324,0
970101.0,0,1565,0,324,0
970226.0,0,1566,0,324,0
970360.0,0,1567,0,324,0
970644.0,0,1568,0,324,0
971086.0,0,1569,0,324,0
971153.0,0,1570,0,324,0
971286.0,0,1571,0,324,0
971345.0,0,1572,0,324,0
971428.0,0,1573,0,324,0
971579.0,0,1574,0,324,0
971595.0,0,1575,0,324,0
971612.0,0,1576,0,324,0
971645.0,0,1577,0,324,0
971704.0,0,1578,0,324,0
971770.0,0,1579,0,324,0
971871.0,0,1580,0,324,0
971954.0,0,1581,0,324,0
971987.0,0,1582,0,324,0
972004.0,0,1583,0,324,0
973339.0,0,1584,0,324,0
973615.0,0,1585,0,324,0
973890.0,0,1586,0,324,0
973949.0,0,1587,0,324,0
974065.0,0,1588,0,324,0
974115.0,0,1589,0,324,0
974166.0,0,1590,0,324,0
974241.0,0,1591,0,324,0
974349.0,0,1592,0,324,0
974383.0,0,1593,0,324,0
974407.0,0,1594,0,324,0
974466.0,0,1595,0,324,0
974483.0,0,1596,0,324,0
974625.0,0,1597,0,324,0
974658.0,0,1598,0,324,0
974700.0,0,1599,0,324,0
974800.0,0,1600,0,324,0
974816.0,0,1601,0,324,0
975651.0,0,1601,0,325,0
975718.0,0,1602,0,325,0
975760.0,0,1603,0,325,0
975818.0,0,1604,0,325,0
975860.0,0,1605,0,325,0
975935.0,0,1605,0,326,0
976068.0,0,1606,0,326,0
976085.0,0,1607,0,326,0
976118.0,0,1608,0,326,0
976235.0,0,1609,0,326,0
976385.0,0,1610,0,326,0
976435.0,0,1611,0,326,0
976502.0,0,1611,0,327,0
976686.0,0,1612,0,327,0
976853.0,0,1613,0,327,0
976886.0,0,1614,0,327,0
977896.0,0,1615,0,327,0
977913.0,0,1616,0,327,0
977971.0,0,1617,0,327,0
977988.0,0,1618,0,327,0
978030.0,0,1619,0,327,0
982812.0,0,1620,0,327,0
982912.0,0,1621,0,327,0
983187.0,0,1622,0,327,0
983304.0,0,1622,0,328,0
983396.0,0,1623,0,328,0
983638.0,0,1624,0,328,0
983696.0,0,1625,0,328,0
983713.0,0,1626,0,328,0
983780.0,0,1627,0,328,0
983897.0,0,1628,0,328,0
983947.0,0,1629,0,328,0
984756.0,0,1630,0,328,0
984773.0,0,1631,0,328,0
984798.0,0,1632,0,328,0
985007.0,0,1633,0,328,0
985040.0,0,1634,0,328,0
985424.0,0,1635,0,328,0
985465.0,0,1636,0,328,0
985574.0,0,1637,0,328,0
989379.0,0,1638,0,328,0
989429.0,0,1639,0,328,0
989504.0,0,1640,0,328,0
990122.0,0,1641,0,328,0
990364.0,0,1641,0,329,0
990530.0,0,1642,0,329,0
990572.0,0,1643,0,329,0
990606.0,0,1644,0,329,0
990681.0,0,1645,0,329,0
990806.0,0,1646,0,329,0
990890.0,0,1647,0,329,0
990940.0,0,1648,0,329,0
990973.0,0,1649,0,329,0
991156.0,0,1650,0,329,0
991240.0,0,1651,0,329,0
991448.0,0,1652,0,329,0
991515.0,0,1652,0,330,0
994335.0,0,1653,0,330,0
994485.0,0,1654,0,330,0
994602.0,0,1655,0,330,0
994702.0,0,1656,0,330,0
994869.0,0,1657,0,330,0
994902.0,0,1658,0,330,0
994969.0,0,1659,0,330,0
995028.0,0,1660,0,330,0
995303.0,0,1661,0,330,0
995411.0,0,1662,0,330,0
995478.0,0,1663,0,330,0
995662.0,0,1664,0,330,0
998750.0,0,1664,0,331,0
998825.0,0,1665,0,331,0
998933.0,0,1666,0,331,0
998966.0,0,1667,0,331,0
999050.0,0,1667,0,332,0
999092.0,0,1668,0,332,0
999425.0,0,1669,0,332,0
999567.0,0,1670,0,332,0
999701.0,0,1671,0,332,0
999742.0,0,1672,0,332,0
999784.0,0,1673,0,332,0
999859.0,0,1674,0,332,0
999901.0,0,1675,0,332,0
999984.0,0,1676,0,332,0
1001069.0,0,1677,0,332,0
1001236.0,0,1678,0,332,0
1001320.0,0,1678,0,333,0
1001361.0,0,1679,0,333,0
1002438.0,0,1680,0,333,0
1002529.0,0,1681,0,333,0
1002546.0,0,1682,0,333,0
1002596.0,0,1683,0,333,0
1002947.0,0,1684,0,333,0
1002996.0,0,1684,0,334,0
1005342.0,0,1685,0,334,0
1005358.0,0,1686,0,334,0
1005467.0,0,1687,0,334,0
1005550.0,0,1688,0,334,0
1005584.0,0,1688,0,335,0
1005734.0,0,1689,0,335,0
1005842.0,0,1690,0,335,0
1005867.0,0,1691,0,335,0
1005976.0,0,1692,0,335,0
1006184.0,0,1693,0,335,0
1006293.0,0,1693,0,336,0
1006410.0,0,1694,0,336,0
1006426.0,0,1695,0,336,0
1006443.0,0,1696,0,336,0
1006643.0,0,1696,0,337,0
1006710.0,0,1697,0,337,0
1006827.0,0,1698,0,337,0
1007036.0,0,1699,0,337,0
1007227.0,0,1700,0,337,0
1010131.0,0,1701,0,337,0
1010198.0,0,1702,0,337,0
1010323.0,0,1703,0,337,0
1010440.0,0,1704,0,337,0
1010598.0,0,1705,0,337,0
1010899.0,0,1706,0,337,0
1011082.0,0,1707,0,337,0
1011199.0,0,1708,0,337,0
1011266.0,0,1709,0,337,0
1011349.0,0,1710,0,337,0
1011383.0,0,1711,0,337,0
1011458.0,0,1712,0,337,0
1011508.0,0,1713,0,337,0
1011542.0,0,1714,0,337,0
1011641.0,0,1715,0,337,0
1011725.0,0,1716,0,337,0
1011791.0,0,1717,0,337,0
1013394.0,0,1718,0,337,0
1013619.0,0,1719,0,337,0
1013882.0,0,1720,0,337,0
1014003.0,0,1720,0,338,0
1014103.0,0,1721,0,338,0
1014137.0,0,1722,0,338,0
1014221.0,0,1722,0,339,0
1014245.0,0,1723,0,339,0
1014871.0,0,1723,0,340,0
1014938.0,0,1724,0,340,0
1014971.0,0,1724,0,341,0
1015013.0,0,1725,0,341,0
1015071.0,0,1726,0,341,0
1020570.0,0,1727,0,341,0
1031044.0,0,1728,0,341,0
1031586.0,0,1729,0,341,0
1031636.0,0,1730,0,341,0
1031653.0,0,1731,0,341,0
1032262.0,0,1731,0,342,0
1032296.0,0,1732,0,342,0
1032330.0,0,1732,0,343,0
1032487.0,0,1733,0,343,0
1032638.0,0,1734,0,343,0
1032713.0,0,1735,0,343,0
1032780.0,0,1736,0,343,0
1032913.0,0,1737,0,343,0
1033172.0,0,1737,0,344,0
1033214.0,0,1738,0,344,0
1033314.0,0,1739,0,344,0
1033406.0,0,1740,0,344,0
1033464.0,0,1740,0,345,0
1033572.0,0,1741,0,345,0
1033614.0,0,1742,0,345,0
1033673.0,0,1743,0,345,0
1033689.0,0,1744,0,345,0
1033706.0,0,1745,0,345,0
1033773.0,0,1745,0,346,0
1033906.0,0,1746,0,346,0
1033973.0,0,1746,0,347,0
1037061.0,0,1747,0,347,0
1037162.0,0,1748,0,347,0
1043687.0,0,1749,0,347,0
1043904.0,0,1749,0,348,0
1043987.0,0,1750,0,348,0
1044029.0,0,1751,0,348,0
1044079.0,0,1752,0,348,0
1044238.0,0,1753,0,348,0
1044397.0,0,1754,0,348,0
1044455.0,0,1754,0,349,0
1044496.0,0,1755,0,349,0
1044513.0,0,1756,0,349,0
1044563.0,0,1757,0,349,0
1044780.0,0,1757,0,350,0
1044813.0,0,1758,0,350,0
1044889.0,0,1758,0,351,0
1044989.0,0,1759,0,351,0
1045047.0,0,1760,0,351,0
1045272.0,0,1760,0,352,0
1049411.0,0,1761,0,352,0
1050587.0,0,1762,0,352,0
1051005.0,0,1763,0,352,0
1051564.0,0,1764,0,352,0
1051581.0,0,1765,0,352,0
1051739.0,0,1766,0,352,0
1051864.0,0,1767,0,352,0
1051898.0,0,1768,0,352,0
1052090.0,0,1769,0,352,0
1052148.0,0,1770,0,352,0
1052448.0,0,1771,0,352,0
1052582.0,0,1772,0,352,0
1052715.0,0,1773,0,352,0
1053124.0,0,1774,0,352,0
1053182.0,0,1774,0,353,0
1053299.0,0,1774,0,354,0
1057196.0,0,1775,0,354,0
1057279.0,0,1775,0,355,0
1057713.0,0,1776,0,355,0
1057771.0,0,1777,0,355,0
1057930.0,0,1778,0,355,0
1057980.0,0,1779,0,355,0
1057997.0,0,1780,0,355,0
1058113.0,0,1781,0,355,0
1058205.0,0,1782,0,355,0
1058289.0,0,1783,0,355,0
1058389.0,0,1784,0,355,0
1058431.0,0,1785,0,355,0
1058464.0,0,1786,0,355,0
1058548.0,0,1786,0,356,0
1058773.0,0,1787,0,356,0
1058856.0,0,1788,0,356,0
1058873.0,0,1789,0,356,0
1059007.0,0,1790,0,356,0
1059023.0,0,1791,0,356,0
1059123.0,0,1792,0,356,0
1059590.0,0,1793,0,356,0
1059624.0,0,1794,0,356,0
1059741.0,0,1795,0,356,0
1059866.0,0,1795,0,357,0
1060075.0,0,1796,0,357,0
1060225.0,0,1797,0,357,0
1060367.0,0,1798,0,357,0
1060484.0,0,1798,0,358,0
1060500.0,0,1799,0,358,0
1060534.0,0,1800,0,358,0
1060584.0,0,1801,0,358,0
1060843.0,0,1801,0,359,0
1060968.0,0,1802,0,359,0
1061176.0,0,1803,0,359,0
1061193.0,0,1804,0,359,0
1061335.0,0,1805,0,359,0
1061418.0,0,1806,0,359,0
1061485.0,0,1807,0,359,0
1061577.0,0,1808,0,359,0
1061644.0,0,1809,0,359,0
1061694.0,0,1810,0,359,0
1061760.0,0,1811,0,359,0
1061844.0,0,1812,0,359,0
1062028.0,0,1813,0,359,0
1072241.0,0,1814,0,359,0
1072274.0,0,1815,0,359,0
1072391.0,0,1816,0,359,0
1072450.0,0,1817,0,359,0
1084866.0,0,1818,0,359,0
1084933.0,0,1819,0,359,0
1085033.0,0,1820,0,359,0
1085050.0,0,1821,0,359,0
1085083.0,0,1822,0,359,0
1085158.0,0,1823,0,359,0
1085184.0,0,1824,0,359,0
1085217.0,0,1825,0,359,0
1085317.0,0,1826,0,359,0
1085375.0,0,1827,0,359,0
1085392.0,0,1828,0,359,0
1085509.0,0,1829,0,359,0
1085642.0,0,1830,0,359,0
1085985.0,0,1831,0,359,0
1086051.0,0,1832,0,359,0
1086085.0,0,1833,0,359,0
1086168.0,0,1834,0,359,0
1086919.0,0,1835,0,359,0
1086969.0,0,1836,0,359,0
1087052.0,0,1837,0,359,0
1087086.0,0,1838,0,359,0
1087128.0,0,1838,0,360,0
1087286.0,0,1838,0,361,0
1087395.0,0,1839,0,361,0
1087411.0,0,1840,0,361,0
1087445.0,0,1841,0,361,0
1087520.0,0,1842,0,361,0
1087620.0,0,1843,0,361,0
1087662.0,0,1844,0,361,0
1087687.0,0,1845,0,361,0
1087720.0,0,1846,0,361,0
1087995.0,0,1846,0,362,0
1088571.0,0,1847,0,362,0
1088697.0,0,1848,0,362,0
1088821.0,0,1849,0,362,0
1088997.0,0,1850,0,362,0
1089122.0,0,1851,0,362,0
1089798.0,0,1852,0,362,0
1089864.0,0,1853,0,362,0
1089964.0,0,1854,0,362,0
1090115.0,0,1855,0,362,0
1090165.0,0,1856,0,362,0
1090248.0,0,1857,0,362,0
1090298.0,0,1858,0,362,0
1090365.0,0,1859,0,362,0
1090398.0,0,1860,0,362,0
1090448.0,0,1861,0,362,0
1090515.0,0,1861,0,363,0
1090565.0,0,1862,0,363,0
1090641.0,0,1863,0,363,0
1090724.0,0,1864,0,363,0
1090741.0,0,1865,0,363,0
1090807.0,0,1866,0,363,0
1090916.0,0,1867,0,363,0
1091116.0,0,1868,0,363,0
1107360.0,0,1869,0,363,0
1107452.0,0,1870,0,363,0
1107510.0,0,1870,0,364,0
1107627.0,0,1871,0,364,0
1107794.0,0,1872,0,364,0
1107886.0,0,1873,0,364,0
1108028.0,0,1874,0,364,0
1108178.0,0,1875,0,364,0
1108445.0,0,1876,0,364,0
1108595.0,0,1877,0,364,0
1108879.0,0,1878,0,364,0
1108921.0,0,1879,0,364,0
1110623.0,0,1880,0,364,0
1110706.0,0,1881,0,364,0
1110907.0,0,1882,0,364,0
1110923.0,0,1882,0,365,0
1111082.0,0,1883,0,365,0
1111115.0,0,1884,0,365,0
1111148.0,0,1885,0,365,0
1114028.0,0,1886,0,365,0
1114119.0,0,1886,0,366,0
1114203.0,0,1887,0,366,0
1114236.0,0,1888,0,366,0
1114286.0,0,1889,0,366,0
1114362.0,0,1890,0,366,0
1114428.0,0,1891,0,366,0
1114620.0,0,1891,0,367,0
1114753.0,0,1892,0,367,0
1115037.0,0,1893,0,367,0
1115137.0,0,1894,0,367,0
1115221.0,0,1895,0,367,0
1115288.0,0,1896,0,367,0
1115321.0,0,1896,0,368,0
1115638.0,0,1897,0,368,0
1115655.0,0,1898,0,368,0
1115721.0,0,1899,0,368,0
1115855.0,0,1900,0,368,0
1116581.0,0,1901,0,368,0
1116765.0,0,1902,0,368,0
1116823.0,0,1903,0,368,0
1116965.0,0,1904,0,368,0
1117023.0,0,1905,0,368,0
1117132.0,0,1906,0,368,0
1117149.0,0,1907,0,368,0
1117349.0,0,1908,0,368,0
1117440.0,0,1908,0,369,0
1130901.0,0,1909,0,369,0
1131009.0,0,1910,0,369,0
1131126.0,0,1911,0,369,0
1131201.0,0,1912,0,369,0
1131218.0,0,1913,0,369,0
1131243.0,0,1914,0,369,0
1131285.0,0,1914,0,370,0
1131351.0,0,1915,0,370,0
1131936.0,0,1916,0,370,0
1132086.0,0,1917,0,370,0
1132136.0,0,1918,0,370,0
1132169.0,0,1918,0,371,0
1132446.0,0,1919,0,371,0
1132486.0,0,1920,0,371,0
1132694.0,0,1921,0,371,0
1132828.0,0,1922,0,371,0
1132861.0,0,1923,0,371,0
1132895.0,0,1923,0,372,0
1133003.0,0,1923,0,373,0
1133270.0,0,1924,0,373,0
1133295.0,0,1925,0,373,0
1133345.0,0,1926,0,373,0
1133412.0,0,1927,0,373,0
1141023.0,0,1928,0,373,0
1141090.0,0,1928,0,374,0
1141123.0,0,1929,0,374,0
1141181.0,0,1930,0,374,0
1141198.0,0,1931,0,374,0
1141273.0,0,1932,0,374,0
1141307.0,0,1932,0,375,0
1141365.0,0,1933,0,375,0
1141515.0,0,1934,0,375,0
1141666.0,0,1935,0,375,0
1143994.0,0,1936,0,375,0
1144119.0,0,1937,0,375,0
1144778.0,0,1938,0,375,0
1144945.0,0,1938,0,376,0
1145087.0,0,1939,0,376,0
1145154.0,0,1940,0,376,0
1145212.0,0,1941,0,376,0
1147290.0,0,1942,0,376,0
1149977.0,0,1943,0,376,0
1149994.0,0,1944,0,376,0
1150027.0,0,1945,0,376,0
1150111.0,0,1946,0,376,0
1150144.0,0,1947,0,376,0
1150211.0,0,1948,0,376,0
1150803.0,0,1948,0,377,0
1150853.0,0,1949,0,377,0
1150887.0,0,1950,0,377,0
1151045.0,0,1951,0,377,0
1151104.0,0,1952,0,377,0
1151246.0,0,1953,0,377,0
1151312.0,0,1954,0,377,0
1151329.0,0,1955,0,377,0
1162073.0,0,1956,0,377,0
1162157.0,0,1957,0,377,0
1162382.0,0,1957,0,378,0
1162466.0,0,1957,0,379,0
1162515.0,0,1957,0,380,0
1162532.0,0,1958,0,380,0
1162565.0,0,1959,0,380,0
1162615.0,0,1960,0,380,0
1162716.0,0,1960,0,381,0
1162874.0,0,1960,0,382,0
1163033.0,0,1961,0,382,0
1163075.0,0,1961,0,383,0
1163108.0,0,1962,0,383,0
1163158.0,0,1963,0,383,0
1163233.0,0,1964,0,383,0
1163325.0,0,1965,0,383,0
1163425.0,0,1966,0,383,0
1163442.0,0,1967,0,383,0
1163525.0,0,1968,0,383,0
1163609.0,0,1969,0,383,0
1163701.0,0,1970,0,383,0
1163717.0,0,1971,0,383,0
1163876.0,0,1972,0,383,0
1165904.0,0,1973,0,383,0
1165971.0,0,1974,0,383,0
1166338.0,0,1975,0,383,0
1170385.0,0,1976,0,383,0
1170401.0,0,1977,0,383,0
1170426.0,0,1978,0,383,0
1170510.0,0,1978,0,384,0
1170576.0,0,1979,0,384,0
1171177.0,0,1980,0,384,0
1171336.0,0,1981,0,384,0
1176276.0,0,1982,0,384,0
1176343.0,0,1982,0,385,0
1176468.0,0,1983,0,385,0
1176584.0,0,1984,0,385,0
1176701.0,0,1985,0,385,0
1176810.0,0,1985,0,386,0
1177002.0,0,1985,0,387,0
1177052.0,0,1986,0,387,0
1177136.0,0,1987,0,387,0
1187468.0,0,1988,0,387,0
1187568.0,0,1989,0,387,0
1187602.0,0,1990,0,387,0
1187735.0,0,1991,0,387,0
1187768.0,0,1992,0,387,0
1187877.0,0,1993,0,387,0
1188010.0,0,1994,0,387,0
1188085.0,0,1995,0,387,0
1188152.0,0,1996,0,387,0
1188169.0,0,1997,0,387,0
1188286.0,0,1998,0,387,0
1188411.0,0,1999,0,387,0
1188444.0,0,2000,0,387,0
1190172.0,0,2000,0,388,0
1190313.0,0,2001,0,388,0
1190439.0,0,2002,0,388,0
1190581.0,0,2003,0,388,0
1191031.0,0,2004,0,388,0
1191098.0,0,2004,0,389,0
1191181.0,0,2005,0,389,0
1191215.0,0,2006,0,389,0
1191348.0,0,2007,0,389,0
1191382.0,0,2008,0,389,0
1191523.0,0,2009,0,389,0
1191640.0,0,2010,0,389,0
1191690.0,0,2011,0,389,0
1191757.0,0,2012,0,389,0
1191974.0,0,2013,0,389,0
1194745.0,0,2014,0,389,0
1194795.0,0,2015,0,389,0
1194837.0,0,2016,0,389,0
1194904.0,0,2017,0,389,0
1194937.0,0,2018,0,389,0
1194995.0,0,2019,0,389,0
1195104.0,0,2020,0,389,0
1195121.0,0,2021,0,389,0
1195254.0,0,2022,0,389,0
1195354.0,0,2023,0,389,0
1195454.0,0,2024,0,389,0
1195554.0,0,2025,0,389,0
1195696.0,0,2026,0,389,0
1195713.0,0,2027,0,389,0
1195880.0,0,2028,0,389,0
1195980.0,0,2029,0,389,0
1196047.0,0,2030,0,389,0
1196113.0,0,2031,0,389,0
1196163.0,0,2031,0,390,0
1196180.0,0,2032,0,390,0
1196230.0,0,2033,0,390,0
1196272.0,0,2034,0,390,0
1197515.0,0,2035,0,390,0
1197574.0,0,2036,0,390,0
1197641.0,0,2037,0,390,0
1197699.0,0,2037,0,391,0
1197724.0,0,2038,0,391,0
1197774.0,0,2039,0,391,0
1197841.0,0,2039,0,392,0
1197916.0,0,2040,0,392,0
1197932.0,0,2041,0,392,0
1197991.0,0,2042,0,392,0
1198024.0,0,2043,0,392,0
1198074.0,0,2044,0,392,0
1198133.0,0,2045,0,392,0
1198166.0,0,2046,0,392,0
1198250.0,0,2047,0,392,0
1198525.0,0,2048,0,392,0
1198559.0,0,2049,0,392,0
1198700.0,0,2050,0,392,0
1198750.0,0,2051,0,392,0
1198775.0,0,2052,0,392,0
1198809.0,0,2053,0,392,0
1217810.0,0,2054,0,392,0
1217844.0,0,2055,0,392,0
1217902.0,0,2056,0,392,0
1217935.0,0,2057,0,392,0
1218019.0,0,2058,0,392,0
1218136.0,0,2059,0,392,0
1218286.0,0,2060,0,392,0
1218319.0,0,2061,0,392,0
1218486.0,0,2062,0,392,0
1218544.0,0,2063,0,392,0
1218578.0,0,2064,0,392,0
1218712.0,0,2065,0,392,0
1218728.0,0,2066,0,392,0
1218745.0,0,2067,0,392,0
1218779.0,0,2068,0,392,0
1218828.0,0,2069,0,392,0
1218862.0,0,2070,0,392,0
1224696.0,0,2071,0,392,0
1224779.0,0,2071,0,393,0
1224821.0,0,2072,0,393,0
1224838.0,0,2073,0,393,0
1224871.0,0,2074,0,393,0
1224929.0,0,2075,0,393,0
1225030.0,0,2076,0,393,0
1225197.0,0,2076,0,394,0
1225238.0,0,2077,0,394,0
1225272.0,0,2078,0,394,0
1225330.0,0,2079,0,394,0
1225380.0,0,2080,0,394,0
1225413.0,0,2080,0,395,0
1225463.0,0,2081,0,395,0
1225514.0,0,2082,0,395,0
1225647.0,0,2083,0,395,0
1225764.0,0,2084,0,395,0
1225789.0,0,2085,0,395,0
1225856.0,0,2085,0,396,0
1225906.0,0,2086,0,396,0
1225981.0,0,2087,0,396,0
1226064.0,0,2088,0,396,0
1226114.0,0,2089,0,396,0
1226131.0,0,2090,0,396,0
1226248.0,0,2091,0,396,0
1226281.0,0,2092,0,396,0
1226724.0,0,2092,0,397,0
1226757.0,0,2093,0,397,0
1234542.0,0,2093,0,398,0
1234567.0,0,2094,0,398,0
1234650.0,0,2094,0,399,0
1234776.0,0,2095,0,399,0
1234851.0,0,2095,0,400,0
1234892.0,0,2096,0,400,0
1235001.0,0,2097,0,400,0
1235051.0,0,2098,0,400,0
1235068.0,0,2099,0,400,0
1235134.0,0,2100,0,400,0
1235168.0,0,2101,0,400,0
1235201.0,0,2102,0,400,0
1235226.0,0,2103,0,400,0
1235260.0,0,2104,0,400,0
1235276.0,0,2105,0,400,0
1235327.0,0,2105,0,401,0
1235385.0,0,2106,0,401,0
1235401.0,0,2107,0,401,0
1235493.0,0,2107,0,402,0
1235526.0,0,2108,0,402,0
1235543.0,0,2109,0,402,0
1235560.0,0,2110,0,402,0
1235602.0,0,2111,0,402,0
1235618.0,0,2112,0,402,0
1235660.0,0,2112,0,403,0
1235693.0,0,2113,0,403,0
1235727.0,0,2113,0,404,0
1235760.0,0,2113,0,405,0
1235977.0,0,2114,0,405,0
1236011.0,0,2115,0,405,0
1236035.0,0,2116,0,405,0
1236094.0,0,2117,0,405,0
1236119.0,0,2117,0,406,0
1236136.0,0,2117,0,407,0
1236286.0,0,2117,0,408,0
1236352.0,0,2118,0,408,0
1236419.0,0,2119,0,408,0
1236436.0,0,2120,0,408,0
1236478.0,0,2120,0,409,0
1236494.0,0,2121,0,409,0
1236636.0,0,2122,0,409,0
1236653.0,0,2123,0,409,0
1236678.0,0,2123,0,410,0
1236711.0,0,2123,0,411,0
1236753.0,0,2124,0,411,0
1236770.0,0,2125,0,411,0
1236803.0,0,2126,0,411,0
1236837.0,0,2127,0,411,0
1236928.0,0,2127,0,412,0
1236962.0,0,2128,0,412,0
1236995.0,0,2129,0,412,0
1237029.0,0,2129,0,413,0
1237129.0,0,2129,0,414,0
1237179.0,0,2129,0,415,0
1237196.0,0,2130,0,415,0
1237348.0,0,2131,0,415,0
1237388.0,0,2131,0,416,0
1237479.0,0,2132,0,416,0
1237563.0,0,2133,0,416,0
1237579.0,0,2134,0,416,0
1237613.0,0,2135,0,416,0
1237655.0,0,2136,0,416,0
1237671.0,0,2137,0,416,0
1237713.0,0,2138,0,416,0
1237838.0,0,2139,0,416,0
1237863.0,0,2140,0,416,0
1237889.0,0,2141,0,416,0
1237930.0,0,2142,0,416,0
1237947.0,0,2143,0,416,0
1237980.0,0,2144,0,416,0
1238005.0,0,2145,0,416,0
1238055.0,0,2146,0,416,0
1238105.0,0,2146,0,417,0
1256296.0,0,2147,0,417,0
1256379.0,0,2148,0,417,0
1256537.0,0,2149,0,417,0
1264850.0,0,2150,0,417,0
1264916.0,0,2151,0,417,0
1265016.0,0,2151,0,418,0
1265100.0,0,2151,0,419,0
1265184.0,0,2152,0,419,0
1265209.0,0,2153,0,419,0
1265417.0,0,2154,0,419,0
1265509.0,0,2155,0,419,0
1265525.0,0,2156,0,419,0
1271951.0,0,2157,0,419,0
1272022.0,0,2158,0,419,0
1272185.0,0,2158,0,420,0
1272219.0,0,2159,0,420,0
1272410.0,0,2160,0,420,0
1272435.0,0,2161,0,420,0
1272502.0,0,2162,0,420,0
1272561.0,0,2162,0,421,0
1272594.0,0,2163,0,421,0
1272669.0,0,2164,0,421,0
1272728.0,0,2165,0,421,0
1272769.0,0,2165,0,422,0
1272895.0,0,2166,0,422,0
1272928.0,0,2167,0,422,0
1273020.0,0,2168,0,422,0
1273037.0,0,2169,0,422,0
1273095.0,0,2170,0,422,0
1273254.0,0,2170,0,423,0
1273320.0,0,2171,0,423,0
1273379.0,0,2172,0,423,0
1273863.0,0,2172,0,424,0
1278060.0,0,2173,0,424,0
1278194.0,0,2174,0,424,0
1278361.0,0,2175,0,424,0
1278419.0,0,2176,0,424,0
1278670.0,0,2177,0,424,0
1278686.0,0,2178,0,424,0
1282511.0,0,2179,0,424,0
1282595.0,0,2180,0,424,0
1282628.0,0,2181,0,424,0
1282887.0,0,2182,0,424,0
1282903.0,0,2183,0,424,0
1287877.0,0,2184,0,424,0
1287986.0,0,2185,0,424,0
1288061.0,0,2186,0,424,0
1288086.0,0,2187,0,424,0
1288274.0,0,2188,0,424,0
1288411.0,0,2189,0,424,0
1288586.0,0,2190,0,424,0
1288603.0,0,2191,0,424,0
1288670.0,0,2192,0,424,0
1288712.0,0,2193,0,424,0
1288745.0,0,2193,0,425,0
1288795.0,0,2194,0,425,0
1288812.0,0,2195,0,425,0
1288879.0,0,2196,0,425,0
1288912.0,0,2197,0,425,0
1288987.0,0,2198,0,425,0
1290656.0,0,2199,0,425,0
1290756.0,0,2200,0,425,0
1291834.0,0,2201,0,425,0
1291892.0,0,2202,0,425,0
1292167.0,0,2203,0,425,0
1292409.0,0,2203,0,426,0
1292468.0,0,2204,0,426,0
1292484.0,0,2205,0,426,0
1292518.0,0,2206,0,426,0
1292635.0,0,2206,0,427,0
1292735.0,0,2207,0,427,0
1292885.0,0,2207,0,428,0
1292952.0,0,2208,0,428,0
1293002.0,0,2208,0,429,0
1294771.0,0,2209,0,429,0
1294830.0,0,2210,0,429,0
1294846.0,0,2211,0,429,0
1294871.0,0,2212,0,429,0
1294930.0,0,2213,0,429,0
1294947.0,0,2214,0,429,0
1295205.0,0,2214,0,430,0
1295247.0,0,2215,0,430,0
1295380.0,0,2216,0,430,0
1295480.0,0,2217,0,430,0
1295497.0,0,2218,0,430,0
1295514.0,0,2219,0,430,0
1295564.0,0,2220,0,430,0
1295597.0,0,2220,0,431,0
1296515.0,0,2221,0,431,0
1296598.0,0,2222,0,431,0
1296799.0,0,2223,0,431,0
1296891.0,0,2224,0,431,0
1297007.0,0,2225,0,431,0
1297308.0,0,2226,0,431,0
1297383.0,0,2226,0,432,0
1297450.0,0,2227,0,432,0
1298335.0,0,2228,0,432,0
1298401.0,0,2229,0,432,0
1298452.0,0,2230,0,432,0
1298594.0,0,2231,0,432,0
1298677.0,0,2232,0,432,0
1301122.0,0,2232,0,433,0
1301197.0,0,2232,0,434,0
1301281.0,0,2232,0,435,0
1301314.0,0,2233,0,435,0
1301381.0,0,2234,0,435,0
1301406.0,0,2235,0,435,0
1301456.0,0,2236,0,435,0
1301523.0,0,2237,0,435,0
1301540.0,0,2237,0,436,0
1301573.0,0,2238,0,436,0
1302408.0,0,2239,0,436,0
1302466.0,0,2240,0,436,0
1302482.0,0,2241,0,436,0
1302549.0,0,2242,0,436,0
1302616.0,0,2243,0,436,0
1302758.0,0,2244,0,436,0
1303017.0,0,2245,0,436,0
1303050.0,0,2246,0,436,0
1303067.0,0,2247,0,436,0
1303309.0,0,2248,0,436,0
1303376.0,0,2249,0,436,0
1303409.0,0,2250,0,436,0
1303893.0,0,2251,0,436,0
1303976.0,0,2252,0,436,0
1303993.0,0,2253,0,436,0
1304077.0,0,2254,0,436,0
1304094.0,0,2255,0,436,0
1304118.0,0,2255,0,437,0
1304135.0,0,2256,0,437,0
1304261.0,0,2257,0,437,0
1304436.0,0,2258,0,437,0
1304552.0,0,2259,0,437,0
1304687.0,0,2260,0,437,0
1304703.0,0,2261,0,437,0
1304812.0,0,2261,0,438,0
1304862.0,0,2262,0,438,0
1304878.0,0,2263,0,438,0
1304895.0,0,2264,0,438,0
1304962.0,0,2265,0,438,0
1305062.0,0,2266,0,438,0
1305496.0,0,2267,0,438,0
1305521.0,0,2268,0,438,0
1305721.0,0,2269,0,438,0
1305755.0,0,2269,0,439,0
1305788.0,0,2269,0,440,0
1305947.0,0,2270,0,440,0
1306339.0,0,2271,0,440,0
1308417.0,0,2272,0,440,0
1308583.0,0,2273,0,440,0
1308617.0,0,2274,0,440,0
1309543.0,0,2275,0,440,0
1309594.0,0,2276,0,440,0
1309626.0,0,2277,0,440,0
1309668.0,0,2278,0,440,0
1309760.0,0,2279,0,440,0
1309886.0,0,2280,0,440,0
1309961.0,0,2281,0,440,0
1310036.0,0,2282,0,440,0
1310086.0,0,2283,0,440,0
1310102.0,0,2283,0,441,0
1310153.0,0,2283,0,442,0
1310202.0,0,2284,0,442,0
1310219.0,0,2285,0,442,0
1310370.0,0,2286,0,442,0
1311555.0,0,2287,0,442,0
1311597.0,0,2288,0,442,0
1311689.0,0,2289,0,442,0
1311722.0,0,2290,0,442,0
1311789.0,0,2290,0,443,0
1311856.0,0,2291,0,443,0
1311964.0,0,2292,0,443,0
1312098.0,0,2293,0,443,0
1312114.0,0,2294,0,443,0
1312181.0,0,2295,0,443,0
1312318.0,0,2295,0,444,0
1312335.0,0,2295,0,445,0
1312418.0,0,2296,0,445,0
1312493.0,0,2297,0,445,0
1312510.0,0,2298,0,445,0
1312527.0,0,2299,0,445,0
1312577.0,0,2300,0,445,0
1317951.0,0,2301,0,445,0
1317968.0,0,2302,0,445,0
1318009.0,0,2303,0,445,0
1318051.0,0,2304,0,445,0
1318135.0,0,2305,0,445,0
1318201.0,0,2306,0,445,0
1319094.0,0,2306,0,446,0
1319128.0,0,2307,0,446,0
1319195.0,0,2308,0,446,0
1319287.0,0,2308,0,447,0
1319587.0,0,2309,0,447,0
1319654.0,0,2310,0,447,0
1319670.0,0,2311,0,447,0
1320246.0,0,2312,0,447,0
1320346.0,0,2313,0,447,0
1322141.0,0,2314,0,447,0
1322541.0,0,2315,0,447,0
1322574.0,0,2316,0,447,0
1322633.0,0,2317,0,447,0
1322649.0,0,2318,0,447,0
1322725.0,0,2319,0,447,0
1322808.0,0,2320,0,447,0
1323751.0,0,2321,0,447,0
1323801.0,0,2322,0,447,0
1323901.0,0,2323,0,447,0
1323968.0,0,2324,0,447,0
1323985.0,0,2325,0,447,0
1332305.0,0,2326,0,447,0
1332422.0,0,2327,0,447,0
1333339.0,0,2328,0,447,0
1333481.0,0,2329,0,447,0
1333915.0,0,2330,0,447,0
1333999.0,0,2331,0,447,0
1334049.0,0,2332,0,447,0
1334116.0,0,2333,0,447,0
1334199.0,0,2334,0,447,0
1334358.0,0,2334,0,448,0
1334458.0,0,2335,0,448,0
1337395.0,0,2336,0,448,0
1337463.0,0,2337,0,448,0
1337487.0,0,2338,0,448,0
1340275.0,0,2338,0,449,0
1340325.0,0,2339,0,449,0
1340492.0,0,2340,0,449,0
1340508.0,0,2341,0,449,0
1340675.0,0,2342,0,449,0
1340701.0,0,2342,0,450,0
1340775.0,0,2343,0,450,0
1340809.0,0,2344,0,450,0
1340917.0,0,2345,0,450,0
1340951.0,0,2346,0,450,0
1341093.0,0,2347,0,450,0
1341159.0,0,2348,0,450,0
1341284.0,0,2349,0,450,0
1341960.0,0,2350,0,450,0
1342027.0,0,2351,0,450,0
1342060.0,0,2352,0,450,0
1342119.0,0,2353,0,450,0
1342545.0,0,2353,0,451,0
1342561.0,0,2354,0,451,0
1343236.0,0,2355,0,451,0
1343311.0,0,2356,0,451,0
1343369.0,0,2357,0,451,0
1343486.0,0,2358,0,451,0
1343544.0,0,2359,0,451,0
1343569.0,0,2360,0,451,0
1343595.0,0,2361,0,451,0
1343679.0,0,2361,0,452,0
1343728.0,0,2362,0,452,0
1343812.0,0,2363,0,452,0
1343828.0,0,2364,0,452,0
1343879.0,0,2365,0,452,0
1344029.0,0,2366,0,452,0
1344104.0,0,2367,0,452,0
1344179.0,0,2367,0,453,0
1346549.0,0,2368,0,453,0
1346675.0,0,2369,0,453,0
1346691.0,0,2370,0,453,0
1346941.0,0,2371,0,453,0
1347025.0,0,2372,0,453,0
1347467.0,0,2372,0,454,0
1347534.0,0,2373,0,454,0
1347568.0,0,2374,0,454,0
1347651.0,0,2375,0,454,0
1347884.0,0,2376,0,454,0
1347951.0,0,2377,0,454,0
1347968.0,0,2378,0,454,0
1348034.0,0,2379,0,454,0
1348076.0,0,2379,0,455,0
1348401.0,0,2380,0,455,0
1348477.0,0,2381,0,455,0
1348510.0,0,2381,0,456,0
1348543.0,0,2382,0,456,0
1348610.0,0,2383,0,456,0
1348777.0,0,2383,0,457,0
1348811.0,0,2383,0,458,0
1353624.0,0,2384,0,458,0
1353641.0,0,2385,0,458,0
1353916.0,0,2386,0,458,0
1355895.0,0,2387,0,458,0
1355970.0,0,2388,0,458,0
1356195.0,0,2389,0,458,0
1356262.0,0,2389,0,459,0
1356279.0,0,2390,0,459,0
1356312.0,0,2391,0,459,0
1356445.0,0,2392,0,459,0
1356495.0,0,2393,0,459,0
1356529.0,0,2394,0,459,0
1356570.0,0,2395,0,459,0
1357222.0,0,2396,0,459,0
1357355.0,0,2397,0,459,0
1362737.0,0,2398,0,459,0
1362754.0,0,2398,0,460,0
1363196.0,0,2399,0,460,0
1363263.0,0,2400,0,460,0
1363379.0,0,2400,0,461,0
1363555.0,0,2400,0,462,0
1363588.0,0,2401,0,462,0
1363672.0,0,2402,0,462,0
1363847.0,0,2403,0,462,0
1363930.0,0,2404,0,462,0
1364080.0,0,2405,0,462,0
1364097.0,0,2406,0,462,0
1364130.0,0,2406,0,463,0
1364180.0,0,2407,0,463,0
1364197.0,0,2408,0,463,0
1364231.0,0,2408,0,464,0
1364406.0,0,2409,0,464,0
1364664.0,0,2410,0,464,0
1364723.0,0,2411,0,464,0
1364865.0,0,2411,0,465,0
1364932.0,0,2412,0,465,0
1365040.0,0,2413,0,465,0
1365182.0,0,2414,0,465,0
1365833.0,0,2415,0,465,0
1365916.0,0,2416,0,465,0
1365991.0,0,2417,0,465,0
1366083.0,0,2418,0,465,0
1366175.0,0,2419,0,465,0
1366258.0,0,2420,0,465,0
1366316.0,0,2421,0,465,0
1366492.0,0,2422,0,465,0
1366533.0,0,2423,0,465,0
1366651.0,0,2423,0,466,0
1366709.0,0,2424,0,466,0
1366742.0,0,2424,0,467,0
1366775.0,0,2425,0,467,0
1366859.0,0,2426,0,467,0
1367293.0,0,2426,0,468,0
1367559.0,0,2427,0,468,0
1367601.0,0,2428,0,468,0
1367718.0,0,2429,0,468,0
1367785.0,0,2430,0,468,0
1370940.0,0,2430,0,469,0
1371074.0,0,2431,0,469,0
1371091.0,0,2432,0,469,0
1371358.0,0,2433,0,469,0
1371433.0,0,2434,0,469,0
1371984.0,0,2434,0,470,0
1372059.0,0,2434,0,471,0
1373019.0,0,2435,0,471,0
1373135.0,0,2436,0,471,0
1373319.0,0,2437,0,471,0
1373352.0,0,2438,0,471,0
1373502.0,0,2439,0,471,0
1373669.0,0,2440,0,471,0
1373978.0,0,2441,0,471,0
1374011.0,0,2442,0,471,0
1374086.0,0,2443,0,471,0
1374262.0,0,2444,0,471,0
1374387.0,0,2445,0,471,0
1378660.0,0,2445,0,472,0
1378777.0,0,2446,0,472,0
1378910.0,0,2447,0,472,0
1378960.0,0,2447,0,473,0
1379194.0,0,2448,0,473,0
1379402.0,0,2449,0,473,0
1379511.0,0,2450,0,473,0
1379569.0,0,2451,0,473,0
1379686.0,0,2452,0,473,0
1379721.0,0,2452,0,474,0
1383124.0,0,2453,0,474,0
1383208.0,0,2454,0,474,0
1383308.0,0,2455,0,474,0
1383350.0,0,2456,0,474,0
1383408.0,0,2457,0,474,0
1383466.0,0,2457,0,475,0
1388423.0,0,2458,0,475,0
1388473.0,0,2459,0,475,0
1388490.0,0,2460,0,475,0
1388573.0,0,2461,0,475,0
1388623.0,0,2462,0,475,0
1388673.0,0,2463,0,475,0
1388782.0,0,2463,0,476,0
1388865.0,0,2463,0,477,0
1388915.0,0,2464,0,477,0
1389032.0,0,2464,0,478,0
1389116.0,0,2465,0,478,0
1389216.0,0,2466,0,478,0
1389449.0,0,2467,0,478,0
1389483.0,0,2468,0,478,0
1389500.0,0,2468,0,479,0
1389583.0,0,2469,0,479,0
1389766.0,0,2470,0,479,0
1389816.0,0,2471,0,479,0
1392529.0,0,2472,0,479,0
1392604.0,0,2473,0,479,0
1392637.0,0,2474,0,479,0
1392662.0,0,2475,0,479,0
1392679.0,0,2476,0,479,0
1392929.0,0,2477,0,479,0
1393046.0,0,2478,0,479,0
1400790.0,0,2478,0,480,0
1401608.0,0,2479,0,480,0
1401624.0,0,2480,0,480,0
1401641.0,0,2481,0,480,0
1401833.0,0,2482,0,480,0
1401867.0,0,2483,0,480,0
1401900.0,0,2484,0,480,0
1402117.0,0,2485,0,480,0
1402167.0,0,2486,0,480,0
1402193.0,0,2486,0,481,0
1402251.0,0,2486,0,482,0
1402309.0,0,2487,0,482,0
1402576.0,0,2488,0,482,0
1402693.0,0,2489,0,482,0
1402743.0,0,2490,0,482,0
1402760.0,0,2491,0,482,0
1402851.0,0,2492,0,482,0
1402943.0,0,2493,0,482,0
1403002.0,0,2494,0,482,0
1403127.0,0,2495,0,482,0
1403219.0,0,2496,0,482,0
1403294.0,0,2497,0,482,0
1403386.0,0,2498,0,482,0
1403519.0,0,2499,0,482,0
1403586.0,0,2499,0,483,0
1403644.0,0,2500,0,483,0
1403844.0,0,2500,0,484,0
1403878.0,0,2500,0,485,0
1405255.0,0,2501,0,485,0
1405338.0,0,2502,0,485,0
1405388.0,0,2503,0,485,0
1405463.0,0,2503,0,486,0
1405505.0,0,2504,0,486,0
1405538.0,0,2505,0,486,0
1405689.0,0,2505,0,487,0
1405706.0,0,2506,0,487,0
1405722.0,0,2507,0,487,0
1405772.0,0,2508,0,487,0
1405847.0,0,2509,0,487,0
1405939.0,0,2510,0,487,0
1405956.0,0,2511,0,487,0
1405989.0,0,2512,0,487,0
1406023.0,0,2513,0,487,0
1406073.0,0,2514,0,487,0
1406315.0,0,2515,0,487,0
1408376.0,0,2516,0,487,0
1408409.0,0,2517,0,487,0
1408468.0,0,2518,0,487,0
1408518.0,0,2518,0,488,0
1408660.0,0,2519,0,488,0
1410404.0,0,2520,0,488,0
1410479.0,0,2521,0,488,0
1410520.0,0,2522,0,488,0
1410721.0,0,2523,0,488,0
1410754.0,0,2524,0,488,0
1411338.0,0,2525,0,488,0
1411388.0,0,2525,0,489,0
1411505.0,0,2526,0,489,0
1411547.0,0,2527,0,489,0
1411597.0,0,2528,0,489,0
1411630.0,0,2528,0,490,0
1411664.0,0,2529,0,490,0
1411697.0,0,2530,0,490,0
1411747.0,0,2531,0,490,0
1411781.0,0,2532,0,490,0
1411839.0,0,2533,0,490,0
1411881.0,0,2534,0,490,0
1411914.0,0,2535,0,490,0
1411956.0,0,2536,0,490,0
1412156.0,0,2537,0,490,0
1412206.0,0,2538,0,490,0
1412648.0,0,2539,0,490,0
1412681.0,0,2540,0,490,0
1413017.0,0,2541,0,490,0
1413073.0,0,2542,0,490,0
1413115.0,0,2543,0,490,0
1413166.0,0,2544,0,490,0
1413190.0,0,2545,0,490,0
1413215.0,0,2546,0,490,0
1413290.0,0,2547,0,490,0
1413307.0,0,2548,0,490,0
1413357.0,0,2548,0,491,0
1413424.0,0,2549,0,491,0
1413474.0,0,2549,0,492,0
1413924.0,0,2550,0,492,0
1413983.0,0,2551,0,492,0
1414116.0,0,2552,0,492,0
1414150.0,0,2553,0,492,0
1414166.0,0,2554,0,492,0
1414208.0,0,2555,0,492,0
1414225.0,0,2556,0,492,0
1414250.0,0,2557,0,492,0
1414317.0,0,2558,0,492,0
1414376.0,0,2559,0,492,0
1414409.0,0,2560,0,492,0
1416996.0,0,2561,0,492,0
1418614.0,0,2562,0,492,0
1418723.0,0,2563,0,492,0
1418848.0,0,2564,0,492,0
1418865.0,0,2564,0,493,0
1418940.0,0,2565,0,493,0
1419057.0,0,2565,0,494,0
1419173.0,0,2566,0,494,0
1419207.0,0,2567,0,494,0
1419265.0,0,2568,0,494,0
1419282.0,0,2569,0,494,0
1419315.0,0,2570,0,494,0
1419390.0,0,2571,0,494,0
1419449.0,0,2571,0,495,0
1419557.0,0,2572,0,495,0
1419632.0,0,2573,0,495,0
1419666.0,0,2574,0,495,0
1419707.0,0,2575,0,495,0
1419732.0,0,2575,0,496,0
1419749.0,0,2576,0,496,0
1419841.0,0,2577,0,496,0
1419924.0,0,2578,0,496,0
1419941.0,0,2579,0,496,0
1420008.0,0,2580,0,496,0
1420075.0,0,2581,0,496,0
1420108.0,0,2582,0,496,0
1420141.0,0,2583,0,496,0
1420175.0,0,2584,0,496,0
1420217.0,0,2585,0,496,0
1420258.0,0,2586,0,496,0
1420291.0,0,2587,0,496,0
1420317.0,0,2588,0,496,0
1420342.0,0,2589,0,496,0
1420358.0,0,2590,0,496,0
1420442.0,0,2591,0,496,0
1420484.0,0,2592,0,496,0
1420534.0,0,2593,0,496,0
1420567.0,0,2594,0,496,0
1420592.0,0,2595,0,496,0
1420625.0,0,2596,0,496,0
1420659.0,0,2597,0,496,0
1420784.0,0,2598,0,496,0
1420826.0,0,2598,0,497,0
1420909.0,0,2599,0,497,0
1420951.0,0,2600,0,497,0
1420968.0,0,2601,0,497,0
1421018.0,0,2602,0,497,0
1421034.0,0,2603,0,497,0
1421101.0,0,2604,0,497,0
1421135.0,0,2605,0,497,0
1421251.0,0,2606,0,497,0
1421343.0,0,2607,0,497,0
1421460.0,0,2608,0,497,0
1421493.0,0,2609,0,497,0
1421551.0,0,2609,0,498,0
1421702.0,0,2610,0,498,0
1421794.0,0,2611,0,498,0
1421811.0,0,2612,0,498,0
1421861.0,0,2613,0,498,0
1422712.0,0,2614,0,498,0
1422795.0,0,2615,0,498,0
1422996.0,0,2615,0,499,0
1423029.0,0,2616,0,499,0
1423063.0,0,2617,0,499,0
1439140.0,0,2618,0,499,0
1439165.0,0,2619,0,499,0
1439398.0,0,2620,0,499,0
1439782.0,0,2620,0,500,0
1446416.0,0,2621,0,500,0
1447959.0,0,2622,0,500,0
1448059.0,0,2623,0,500,0
1449979.0,0,2623,0,501,0
1449995.0,0,2624,0,501,0
1450346.0,0,2625,0,501,0
1450612.0,0,2626,0,501,0
1450896.0,0,2627,0,501,0
1451013.0,0,2627,0,502,0
1451122.0,0,2628,0,502,0
1451155.0,0,2629,0,502,0
1451172.0,0,2630,0,502,0
1451221.0,0,2631,0,502,0
1451564.0,0,2632,0,502,0
1451580.0,0,2633,0,502,0
1451739.0,0,2634,0,502,0
1451814.0,0,2635,0,502,0
1452782.0,0,2636,0,502,0
1453324.0,0,2637,0,502,0
1457831.0,0,2638,0,502,0
1457989.0,0,2639,0,502,0
1458023.0,0,2640,0,502,0
1458098.0,0,2641,0,502,0
1458173.0,0,2642,0,502,0
1459474.0,0,2643,0,502,0
1459558.0,0,2644,0,502,0
1459583.0,0,2645,0,502,0
1459616.0,0,2646,0,502,0
1459691.0,0,2647,0,502,0
1459833.0,0,2648,0,502,0
1459908.0,0,2649,0,502,0
1459924.0,0,2650,0,502,0
1459975.0,0,2651,0,502,0
1460041.0,0,2651,0,503,0
1460108.0,0,2652,0,503,0
1460158.0,0,2653,0,503,0
1460175.0,0,2654,0,503,0
1460242.0,0,2655,0,503,0
1460292.0,0,2656,0,503,0
1460426.0,0,2656,0,504,0
1460476.0,0,2657,0,504,0
1460542.0,0,2658,0,504,0
1461009.0,0,2659,0,504,0
1461377.0,0,2660,0,504,0
1461468.0,0,2661,0,504,0
1461527.0,0,2662,0,504,0
1461552.0,0,2663,0,504,0
1461677.0,0,2664,0,504,0
1461903.0,0,2665,0,504,0
1462053.0,0,2666,0,504,0
1462103.0,0,2666,0,505,0
1462370.0,0,2667,0,505,0
1462395.0,0,2667,0,506,0
1462445.0,0,2668,0,506,0
1462612.0,0,2669,0,506,0
1463037.0,0,2669,0,507,0
1463088.0,0,2669,0,508,0
1463121.0,0,2670,0,508,0
1463146.0,0,2671,0,508,0
1463229.0,0,2672,0,508,0
1463246.0,0,2673,0,508,0
1463380.0,0,2674,0,508,0
1463471.0,0,2675,0,508,0
1463521.0,0,2676,0,508,0
1463555.0,0,2677,0,508,0
1463571.0,0,2678,0,508,0
1463738.0,0,2678,0,509,0
1463763.0,0,2679,0,509,0
1463797.0,0,2680,0,509,0
1463956.0,0,2680,0,510,0
1463989.0,0,2680,0,511,0
1464189.0,0,2680,0,512,0
1467060.0,0,2681,0,512,0
1467119.0,0,2682,0,512,0
1467202.0,0,2683,0,512,0
1467319.0,0,2683,0,513,0
1467369.0,0,2684,0,513,0
1467402.0,0,2685,0,513,0
1467436.0,0,2686,0,513,0
1467452.0,0,2687,0,513,0
1467552.0,0,2688,0,513,0
1467586.0,0,2689,0,513,0
1467636.0,0,2689,0,514,0
1467736.0,0,2690,0,514,0
1467769.0,0,2691,0,514,0
1469079.0,0,2692,0,514,0
1470014.0,0,2693,0,514,0
1470064.0,0,2694,0,514,0
1470114.0,0,2694,0,515,0
1471558.0,0,2695,0,515,0
1471616.0,0,2696,0,515,0
1471767.0,0,2697,0,515,0
1471783.0,0,2698,0,515,0
1471967.0,0,2699,0,515,0
1472100.0,0,2700,0,515,0
1472142.0,0,2700,0,516,0
1474086.0,0,2701,0,516,0
1474245.0,0,2701,0,517,0
1474303.0,0,2702,0,517,0
1475321.0,0,2703,0,517,0
1477215.0,0,2704,0,517,0
1477549.0,0,2705,0,517,0
1477599.0,0,2706,0,517,0
1479902.0,0,2706,0,518,0
1479919.0,0,2706,0,519,0
1479935.0,0,2707,0,519,0
1480019.0,0,2707,0,520,0
1480094.0,0,2708,0,520,0
1480186.0,0,2709,0,520,0
1480336.0,0,2710,0,520,0
1480395.0,0,2710,0,521,0
1481771.0,0,2711,0,521,0
1481788.0,0,2712,0,521,0
1481855.0,0,2713,0,521,0
1481880.0,0,2713,0,522,0
1482580.0,0,2714,0,522,0
1482622.0,0,2715,0,522,0
1484366.0,0,2716,0,522,0
1484482.0,0,2717,0,522,0
1485150.0,0,2717,0,523,0
1485200.0,0,2718,0,523,0
1485267.0,0,2719,0,523,0
1485300.0,0,2720,0,523,0
1485392.0,0,2721,0,523,0
1485434.0,0,2722,0,523,0
1486861.0,0,2723,0,523,0
1487037.0,0,2724,0,523,0
1487128.0,0,2725,0,523,0
1487195.0,0,2726,0,523,0
1487520.0,0,2727,0,523,0
1487679.0,0,2727,0,524,0
1487729.0,0,2727,0,525,0
1491008.0,0,2728,0,525,0
1491083.0,0,2729,0,525,0
1491108.0,0,2730,0,525,0
1491217.0,0,2731,0,525,0
1491250.0,0,2732,0,525,0
1491442.0,0,2733,0,525,0
1491526.0,0,2734,0,525,0
1492185.0,0,2735,0,525,0
1492226.0,0,2736,0,525,0
1492460.0,0,2736,0,526,0
1492527.0,0,2737,0,526,0
1492643.0,0,2738,0,526,0
1492777.0,0,2739,0,526,0
1494112.0,0,2740,0,526,0
1494204.0,0,2740,0,527,0
1494237.0,0,2741,0,527,0
1494271.0,0,2742,0,527,0
1494287.0,0,2743,0,527,0
1494546.0,0,2744,0,527,0
1502500.0,0,2745,0,527,0
1502558.0,0,2746,0,527,0
1502600.0,0,2747,0,527,0
1502666.0,0,2748,0,527,0
1502716.0,0,2749,0,527,0
1502733.0,0,2750,0,527,0
1503510.0,0,2751,0,527,0
1503593.0,0,2752,0,527,0
1503644.0,0,2752,0,528,0
1503668.0,0,2753,0,528,0
1503727.0,0,2754,0,528,0
1503827.0,0,2755,0,528,0
1503868.0,0,2756,0,528,0
1503918.0,0,2757,0,528,0
1503935.0,0,2758,0,528,0
1504052.0,0,2759,0,528,0
1504102.0,0,2760,0,528,0
1504152.0,0,2761,0,528,0
1504169.0,0,2762,0,528,0
1504186.0,0,2762,0,529,0
1504291.0,0,2763,0,529,0
1504336.0,0,2764,0,529,0
1504369.0,0,2765,0,529,0
1504953.0,0,2766,0,529,0
1505003.0,0,2767,0,529,0
1505020.0,0,2768,0,529,0
1505103.0,0,2769,0,529,0
1505128.0,0,2769,0,530,0
1505162.0,0,2770,0,530,0
1505212.0,0,2770,0,531,0
1505262.0,0,2771,0,531,0
1505295.0,0,2772,0,531,0
1505312.0,0,2773,0,531,0
1505345.0,0,2774,0,531,0
1505379.0,0,2775,0,531,0
1505429.0,0,2776,0,531,0
1505445.0,0,2777,0,531,0
1505479.0,0,2778,0,531,0
1505520.0,0,2779,0,531,0
1505562.0,0,2780,0,531,0
1505612.0,0,2781,0,531,0
1505646.0,0,2782,0,531,0
1505662.0,0,2783,0,531,0
1505712.0,0,2784,0,531,0
1505779.0,0,2785,0,531,0
1505829.0,0,2785,0,532,0
1505988.0,0,2786,0,532,0
1506004.0,0,2787,0,532,0
1506138.0,0,2788,0,532,0
1506171.0,0,2789,0,532,0
1506188.0,0,2790,0,532,0
1506296.0,0,2791,0,532,0
1506680.0,0,2792,0,532,0
1506714.0,0,2793,0,532,0
1506797.0,0,2794,0,532,0
1506830.0,0,2794,0,533,0
1507014.0,0,2795,0,533,0
1507072.0,0,2795,0,534,0
1507139.0,0,2796,0,534,0
1507156.0,0,2797,0,534,0
1507173.0,0,2797,0,535,0
1507206.0,0,2798,0,535,0
1507239.0,0,2799,0,535,0
1507315.0,0,2800,0,535,0
1507356.0,0,2800,0,536,0
1507506.0,0,2800,0,537,0
1507540.0,0,2801,0,537,0
1507606.0,0,2802,0,537,0
1519147.0,0,2803,0,537,0
1519205.0,0,2804,0,537,0
1519280.0,0,2805,0,537,0
1522167.0,0,2805,0,538,0
1522309.0,0,2806,0,538,0
1522376.0,0,2807,0,538,0
1522632.0,0,2808,0,538,0
1523135.0,0,2809,0,538,0
1523819.0,0,2810,0,538,0
1524036.0,0,2811,0,538,0
1524070.0,0,2811,0,539,0
1524128.0,0,2812,0,539,0
1524187.0,0,2813,0,539,0
1524253.0,0,2814,0,539,0
1524287.0,0,2815,0,539,0
1524337.0,0,2816,0,539,0
1524378.0,0,2817,0,539,0
1524470.0,0,2818,0,539,0
1524503.0,0,2819,0,539,0
1524537.0,0,2820,0,539,0
1524620.0,0,2821,0,539,0
1524654.0,0,2822,0,539,0
1524704.0,0,2823,0,539,0
1524812.0,0,2824,0,539,0
1524829.0,0,2825,0,539,0
1524862.0,0,2826,0,539,0
1524954.0,0,2827,0,539,0
1525062.0,0,2828,0,539,0
1528741.0,0,2829,0,539,0
1528883.0,0,2830,0,539,0
1528900.0,0,2831,0,539,0
1529042.0,0,2832,0,539,0
1529176.0,0,2833,0,539,0
1529242.0,0,2834,0,539,0
1529301.0,0,2835,0,539,0
1529334.0,0,2836,0,539,0
1529434.0,0,2837,0,539,0
1529610.0,0,2837,0,540,0
1529835.0,0,2838,0,540,0
1529885.0,0,2839,0,540,0
1529935.0,0,2840,0,540,0
1530018.0,0,2841,0,540,0
1530068.0,0,2842,0,540,0
1530110.0,0,2843,0,540,0
1530161.0,0,2844,0,540,0
1530277.0,0,2845,0,540,0
1530428.0,0,2846,0,540,0
1530536.0,0,2847,0,540,0
1530577.0,0,2848,0,540,0
1533339.0,0,2849,0,540,0
1533381.0,0,2850,0,540,0
1533398.0,0,2850,0,541,0
1533640.0,0,2851,0,541,0
1533698.0,0,2852,0,541,0
1533715.0,0,2853,0,541,0
1540524.0,0,2854,0,541,0
1540582.0,0,2855,0,541,0
1540649.0,0,2856,0,541,0
1540774.0,0,2856,0,542,0
1540791.0,0,2857,0,542,0
1540866.0,0,2858,0,542,0
1540891.0,0,2859,0,542,0
1540925.0,0,2860,0,542,0
1540991.0,0,2861,0,542,0
1541125.0,0,2861,0,543,0
1541158.0,0,2862,0,543,0
1541233.0,0,2863,0,543,0
1541409.0,0,2864,0,543,0
1541500.0,0,2864,0,544,0
1541675.0,0,2865,0,544,0
1541717.0,0,2866,0,544,0
1542485.0,0,2867,0,544,0
1542635.0,0,2868,0,544,0
1542685.0,0,2869,0,544,0
1542894.0,0,2869,0,545,0
1542927.0,0,2870,0,545,0
1543011.0,0,2871,0,545,0
1545148.0,0,2872,0,545,0
1545248.0,0,2873,0,545,0
1546624.0,0,2874,0,545,0
1546658.0,0,2875,0,545,0
1546725.0,0,2876,0,545,0
1546741.0,0,2877,0,545,0
1546791.0,0,2878,0,545,0
1546900.0,0,2879,0,545,0
1546975.0,0,2880,0,545,0
1547150.0,0,2881,0,545,0
1547375.0,0,2882,0,545,0
1547409.0,0,2883,0,545,0
1547475.0,0,2884,0,545,0
1547492.0,0,2884,0,546,0
1547559.0,0,2884,0,547,0
1547826.0,0,2885,0,547,0
1547884.0,0,2886,0,547,0
1549019.0,0,2887,0,547,0
1550629.0,0,2888,0,547,0
1550763.0,0,2889,0,547,0
1550846.0,0,2890,0,547,0
1550880.0,0,2891,0,547,0
1550930.0,0,2892,0,547,0
1550989.0,0,2893,0,547,0
1551105.0,0,2894,0,547,0
1551188.0,0,2895,0,547,0
1551239.0,0,2895,0,548,0
1551255.0,0,2896,0,548,0
1551389.0,0,2897,0,548,0
1554635.0,0,2898,0,548,0
1554685.0,0,2899,0,548,0
1554727.0,0,2900,0,548,0
1554811.0,0,2901,0,548,0
1555069.0,0,2902,0,548,0
1555103.0,0,2903,0,548,0
1555144.0,0,2904,0,548,0
1555178.0,0,2905,0,548,0
1555194.0,0,2906,0,548,0
1555211.0,0,2907,0,548,0
1555278.0,0,2908,0,548,0
1555328.0,0,2909,0,548,0
1555361.0,0,2910,0,548,0
1555395.0,0,2911,0,548,0
1555470.0,0,2912,0,548,0
1555520.0,0,2912,0,549,0
1555537.0,0,2913,0,549,0
1555587.0,0,2914,0,549,0
1555620.0,0,2915,0,549,0
1555678.0,0,2916,0,549,0
1555803.0,0,2917,0,549,0
1555837.0,0,2918,0,549,0
1555878.0,0,2919,0,549,0
1555945.0,0,2920,0,549,0
1556020.0,0,2921,0,549,0
1556054.0,0,2922,0,549,0
1556179.0,0,2923,0,549,0
1571049.0,0,2923,0,550,0
1571121.0,0,2924,0,550,0
1571299.0,0,2925,0,550,0
1571349.0,0,2926,0,550,0
1571458.0,0,2927,0,550,0
1571758.0,0,2928,0,550,0
1571800.0,0,2929,0,550,0
1571859.0,0,2930,0,550,0
1571917.0,0,2931,0,550,0
1571984.0,0,2932,0,550,0
1572076.0,0,2933,0,550,0
1572385.0,0,2934,0,550,0
1572493.0,0,2935,0,550,0
1572560.0,0,2935,0,551,0
1572593.0,0,2936,0,551,0
1572760.0,0,2937,0,551,0
1578367.0,0,2938,0,551,0
1578476.0,0,2939,0,551,0
1578543.0,0,2940,0,551,0
1578576.0,0,2940,0,552,0
1578660.0,0,2941,0,552,0
1578726.0,0,2942,0,552,0
1578751.0,0,2943,0,552,0
1578826.0,0,2944,0,552,0
1578852.0,0,2944,0,553,0
1578943.0,0,2945,0,553,0
1579043.0,0,2946,0,553,0
1579094.0,0,2946,0,554,0
1579110.0,0,2947,0,554,0
1579160.0,0,2947,0,555,0
1579227.0,0,2948,0,555,0
1579294.0,0,2949,0,555,0
1579386.0,0,2950,0,555,0
1579419.0,0,2951,0,555,0
1579503.0,0,2952,0,555,0
1579544.0,0,2953,0,555,0
1579644.0,0,2954,0,555,0
1579719.0,0,2955,0,555,0
1579753.0,0,2956,0,555,0
1579828.0,0,2956,0,556,0
1579878.0,0,2957,0,556,0
1579961.0,0,2958,0,556,0
1579995.0,0,2959,0,556,0
1580011.0,0,2960,0,556,0
1580120.0,0,2961,0,556,0
1580289.0,0,2962,0,556,0
1580328.0,0,2963,0,556,0
1580362.0,0,2964,0,556,0
1580412.0,0,2965,0,556,0
1580479.0,0,2966,0,556,0
1580495.0,0,2967,0,556,0
1580645.0,0,2968,0,556,0
1580762.0,0,2968,0,557,0
1580821.0,0,2969,0,557,0
1581004.0,0,2969,0,558,0
1581138.0,0,2970,0,558,0
1581288.0,0,2971,0,558,0
1581305.0,0,2972,0,558,0
1581405.0,0,2973,0,558,0
1581989.0,0,2974,0,558,0
1582056.0,0,2975,0,558,0
1582081.0,0,2976,0,558,0
1582248.0,0,2977,0,558,0
1582457.0,0,2978,0,558,0
1582473.0,0,2979,0,558,0
1582749.0,0,2979,0,559,0
1582858.0,0,2980,0,559,0
1583099.0,0,2981,0,559,0
1583842.0,0,2982,0,559,0
1583917.0,0,2983,0,559,0
1587203.0,0,2984,0,559,0
1587512.0,0,2985,0,559,0
1587620.0,0,2986,0,559,0
1587662.0,0,2987,0,559,0
1587679.0,0,2988,0,559,0
1587737.0,0,2989,0,559,0
1587754.0,0,2990,0,559,0
1588105.0,0,2991,0,559,0
1588180.0,0,2991,0,560,0
1588205.0,0,2992,0,560,0
1588221.0,0,2993,0,560,0
1588338.0,0,2994,0,560,0
1588380.0,0,2995,0,560,0
1588397.0,0,2996,0,560,0
1588497.0,0,2997,0,560,0
1588622.0,0,2998,0,560,0
1588655.0,0,2999,0,560,0
1588747.0,0,3000,0,560,0
1588881.0,0,3001,0,560,0
1588947.0,0,3002,0,560,0
1588964.0,0,3003,0,560,0
1588998.0,0,3004,0,560,0
1589047.0,0,3005,0,560,0
1589197.0,0,3006,0,560,0
1589231.0,0,3007,0,560,0
1589248.0,0,3008,0,560,0
1589306.0,0,3009,0,560,0
1589398.0,0,3010,0,560,0
1589431.0,0,3011,0,560,0
1589498.0,0,3012,0,560,0
1589640.0,0,3013,0,560,0
1589698.0,0,3014,0,560,0
1595664.0,0,3015,0,560,0
1595681.0,0,3016,0,560,0
1595756.0,0,3017,0,560,0
1595789.0,0,3018,0,560,0
1596023.0,0,3018,0,561,0
1596073.0,0,3019,0,561,0
1596123.0,0,3020,0,561,0
1596423.0,0,3020,0,562,0
1596474.0,0,3021,0,562,0
1598777.0,0,3022,0,562,0
1598827.0,0,3023,0,562,0
1598869.0,0,3023,0,563,0
1598927.0,0,3024,0,563,0
1603633.0,0,3025,0,563,0
1603758.0,0,3026,0,563,0
1604092.0,0,3027,0,563,0
1604175.0,0,3028,0,563,0
1604192.0,0,3028,0,564,0
1604250.0,0,3029,0,564,0
1604342.0,0,3030,0,564,0
1606420.0,0,3031,0,564,0
1606487.0,0,3032,0,564,0
1606688.0,0,3033,0,564,0
1606804.0,0,3034,0,564,0
1606854.0,0,3035,0,564,0
1606871.0,0,3036,0,564,0
1606921.0,0,3037,0,564,0
1607004.0,0,3037,0,565,0
1607054.0,0,3038,0,565,0
1607121.0,0,3039,0,565,0
1607188.0,0,3040,0,565,0
1607246.0,0,3041,0,565,0
1607497.0,0,3042,0,565,0
1607530.0,0,3043,0,565,0
1607613.0,0,3044,0,565,0
1607663.0,0,3045,0,565,0
1607747.0,0,3046,0,565,0
1615274.0,0,3047,0,565,0
1615415.0,0,3048,0,565,0
1615482.0,0,3049,0,565,0
1615607.0,0,3050,0,565,0
1615674.0,0,3051,0,565,0
1615808.0,0,3052,0,565,0
1615874.0,0,3053,0,565,0
1615949.0,0,3054,0,565,0
1616075.0,0,3055,0,565,0
1616225.0,0,3056,0,565,0
1616258.0,0,3056,0,566,0
1616317.0,0,3057,0,566,0
1616400.0,0,3058,0,566,0
1616417.0,0,3059,0,566,0
1616483.0,0,3060,0,566,0
1616650.0,0,3060,0,567,0
1616684.0,0,3061,0,567,0
1616759.0,0,3062,0,567,0
1616817.0,0,3063,0,567,0
1620178.0,0,3064,0,567,0
1620220.0,0,3065,0,567,0
1620262.0,0,3066,0,567,0
1620362.0,0,3067,0,567,0
1620396.0,0,3068,0,567,0
1620554.0,0,3069,0,567,0
1620646.0,0,3070,0,567,0
1620679.0,0,3071,0,567,0
1620712.0,0,3072,0,567,0
1620771.0,0,3073,0,567,0
1620804.0,0,3074,0,567,0
1620896.0,0,3075,0,567,0
1621005.0,0,3075,0,568,0
1621071.0,0,3075,0,569,0
1621121.0,0,3076,0,569,0
1621146.0,0,3077,0,569,0
1621180.0,0,3078,0,569,0
1621230.0,0,3079,0,569,0
1621297.0,0,3080,0,569,0
1621355.0,0,3081,0,569,0
1621372.0,0,3082,0,569,0
1621439.0,0,3083,0,569,0
1621455.0,0,3084,0,569,0
1621480.0,0,3085,0,569,0
1621564.0,0,3085,0,570,0
1621973.0,0,3086,0,570,0
1622098.0,0,3087,0,570,0
1622198.0,0,3088,0,570,0
1622490.0,0,3089,0,570,0
1622540.0,0,3090,0,570,0
1628506.0,0,3091,0,570,0
1628523.0,0,3092,0,570,0
1628774.0,0,3092,0,571,0
1628924.0,0,3093,0,571,0
1629190.0,0,3094,0,571,0
1629324.0,0,3095,0,571,0
1629407.0,0,3096,0,571,0
1629499.0,0,3097,0,571,0
1629533.0,0,3098,0,571,0
1629766.0,0,3099,0,571,0
1630742.0,0,3100,0,571,0
1630968.0,0,3101,0,571,0
1636876.0,0,3102,0,571,0
1636959.0,0,3103,0,571,0
1637034.0,0,3104,0,571,0
1637134.0,0,3104,0,572,0
1637168.0,0,3105,0,572,0
1637218.0,0,3106,0,572,0
1637368.0,0,3107,0,572,0
1637451.0,0,3107,0,573,0
1637535.0,0,3108,0,573,0
1637552.0,0,3109,0,573,0
1637760.0,0,3109,0,574,0
1637777.0,0,3110,0,574,0
1637802.0,0,3111,0,574,0
1637852.0,0,3112,0,574,0
1637885.0,0,3113,0,574,0
1638019.0,0,3114,0,574,0
1638144.0,0,3115,0,574,0
1638186.0,0,3116,0,574,0
1638311.0,0,3117,0,574,0
1638378.0,0,3118,0,574,0
1638436.0,0,3119,0,574,0
1638503.0,0,3120,0,574,0
1638578.0,0,3121,0,574,0
1638645.0,0,3121,0,575,0
1638928.0,0,3122,0,575,0
1639012.0,0,3123,0,575,0
1639028.0,0,3124,0,575,0
1659502.0,0,3124,0,576,0
1659552.0,0,3125,0,576,0
1659760.0,0,3126,0,576,0
1659894.0,0,3127,0,576,0
1659952.0,0,3128,0,576,0
1659969.0,0,3129,0,576,0
1659986.0,0,3130,0,576,0
1660061.0,0,3131,0,576,0
1660077.0,0,3132,0,576,0
1660111.0,0,3133,0,576,0
1660128.0,0,3134,0,576,0
1660153.0,0,3135,0,576,0
1661622.0,0,3135,0,577,0
1661722.0,0,3136,0,577,0
1661805.0,0,3137,0,577,0
1661914.0,0,3138,0,577,0
1661972.0,0,3139,0,577,0
1662030.0,0,3140,0,577,0
1662222.0,0,3141,0,577,0
1662240.0,0,3142,0,577,0
1662264.0,0,3143,0,577,0
1662373.0,0,3144,0,577,0
1662423.0,0,3145,0,577,0
1662473.0,0,3146,0,577,0
1662514.0,0,3147,0,577,0
1662565.0,0,3148,0,577,0
1662598.0,0,3149,0,577,0
1662615.0,0,3150,0,577,0
1662681.0,0,3151,0,577,0
1662748.0,0,3151,0,578,0
1662832.0,0,3152,0,578,0
1662890.0,0,3153,0,578,0
1663458.0,0,3154,0,578,0
1663508.0,0,3154,0,579,0
1663591.0,0,3155,0,579,0
1665394.0,0,3156,0,579,0
1665494.0,0,3157,0,579,0
1665577.0,0,3158,0,579,0
1665644.0,0,3159,0,579,0
1665719.0,0,3160,0,579,0
1665769.0,0,3161,0,579,0
1665803.0,0,3162,0,579,0
1665869.0,0,3163,0,579,0
1665903.0,0,3163,0,580,0
1665936.0,0,3164,0,580,0
1666078.0,0,3165,0,580,0
1666128.0,0,3166,0,580,0
1666162.0,0,3167,0,580,0
1666195.0,0,3168,0,580,0
1666237.0,0,3169,0,580,0
1666712.0,0,3170,0,580,0
1666838.0,0,3171,0,580,0
1666871.0,0,3171,0,581,0
1666896.0,0,3172,0,581,0
1666913.0,0,3173,0,581,0
1666930.0,0,3174,0,581,0
1666955.0,0,3175,0,581,0
1666988.0,0,3176,0,581,0
1667096.0,0,3177,0,581,0
1667138.0,0,3177,0,582,0
1667205.0,0,3177,0,583,0
1667247.0,0,3178,0,583,0
1667313.0,0,3179,0,583,0
1667489.0,0,3180,0,583,0
1667597.0,0,3181,0,583,0
1667747.0,0,3182,0,583,0
1667781.0,0,3183,0,583,0
1667797.0,0,3184,0,583,0
1667847.0,0,3185,0,583,0
1667989.0,0,3186,0,583,0
1668156.0,0,3187,0,583,0
1668190.0,0,3188,0,583,0
1668223.0,0,3189,0,583,0
1668290.0,0,3189,0,584,0
1668348.0,0,3190,0,584,0
1668457.0,0,3191,0,584,0
1668474.0,0,3192,0,584,0
1668582.0,0,3193,0,584,0
1668649.0,0,3194,0,584,0
1668699.0,0,3195,0,584,0
1668824.0,0,3196,0,584,0
1668949.0,0,3197,0,584,0
1668999.0,0,3198,0,584,0
1669116.0,0,3199,0,584,0
1669216.0,0,3200,0,584,0
1669559.0,0,3201,0,584,0
1669625.0,0,3202,0,584,0
1669659.0,0,3203,0,584,0
1669692.0,0,3203,0,585,0
1669826.0,0,3203,0,586,0
1669942.0,0,3203,0,587,0
1670126.0,0,3204,0,587,0
1670193.0,0,3204,0,588,0
1670326.0,0,3205,0,588,0
1670460.0,0,3205,0,589,0
1670477.0,0,3206,0,589,0
1671612.0,0,3207,0,589,0
1671737.0,0,3208,0,589,0
1671904.0,0,3209,0,589,0
1672054.0,0,3210,0,589,0
1672113.0,0,3211,0,589,0
1672179.0,0,3212,0,589,0
1672263.0,0,3213,0,589,0
1672343.0,0,3214,0,589,0
1672456.0,0,3215,0,589,0
1672555.0,0,3215,0,590,0
1672605.0,0,3216,0,590,0
1672639.0,0,3217,0,590,0
1672864.0,0,3218,0,590,0
1675860.0,0,3219,0,590,0
1676970.0,0,3220,0,590,0
1677362.0,0,3221,0,590,0
1677429.0,0,3222,0,590,0
1677513.0,0,3223,0,590,0
1677613.0,0,3224,0,590,0
1677680.0,0,3225,0,590,0
1677696.0,0,3226,0,590,0
1677772.0,0,3227,0,590,0
1677838.0,0,3228,0,590,0
1677888.0,0,3229,0,590,0
1678201.0,0,3230,0,590,0
1684877.0,0,3231,0,590,0
1684985.0,0,3231,0,591,0
1685119.0,0,3232,0,591,0
1685578.0,0,3233,0,591,0
1685611.0,0,3234,0,591,0
1685778.0,0,3234,0,592,0
1685811.0,0,3235,0,592,0
1687631.0,0,3235,0,593,0
1687698.0,0,3236,0,593,0
1687773.0,0,3237,0,593,0
1687806.0,0,3238,0,593,0
1687839.0,0,3239,0,593,0
1687865.0,0,3240,0,593,0
1687923.0,0,3241,0,593,0
1687956.0,0,3242,0,593,0
1687998.0,0,3243,0,593,0
1688023.0,0,3244,0,593,0
1688123.0,0,3245,0,593,0
1688173.0,0,3245,0,594,0
1688248.0,0,3246,0,594,0
1688265.0,0,3247,0,594,0
1688324.0,0,3247,0,595,0
1688391.0,0,3247,0,596,0
1688507.0,0,3248,0,596,0
1688624.0,0,3249,0,596,0
1688691.0,0,3250,0,596,0
1688707.0,0,3251,0,596,0
1688741.0,0,3251,0,597,0
1688788.0,0,3252,0,597,0
1688891.0,0,3252,0,598,0
1688991.0,0,3253,0,598,0
1689008.0,0,3254,0,598,0
1689058.0,0,3255,0,598,0
1689208.0,0,3256,0,598,0
1689242.0,0,3257,0,598,0
1689350.0,0,3258,0,598,0
1702436.0,0,3259,0,598,0
1702511.0,0,3260,0,598,0
1702544.0,0,3261,0,598,0
1702586.0,0,3262,0,598,0
1702644.0,0,3263,0,598,0
1702761.0,0,3263,0,599,0
1702794.0,0,3263,0,600,0
1702894.0,0,3264,0,600,0
1703061.0,0,3265,0,600,0
1704046.0,0,3266,0,600,0
1704154.0,0,3267,0,600,0
1704213.0,0,3268,0,600,0
1704229.0,0,3269,0,600,0
1704296.0,0,3270,0,600,0
1704321.0,0,3271,0,600,0
1704513.0,0,3272,0,600,0
1704589.0,0,3273,0,600,0
1712230.0,0,3274,0,600,0
1712263.0,0,3275,0,600,0
1712472.0,0,3276,0,600,0
1712563.0,0,3277,0,600,0
1712663.0,0,3278,0,600,0
1712697.0,0,3278,0,601,0
1712939.0,0,3279,0,601,0
1713072.0,0,3280,0,601,0
1713314.0,0,3281,0,601,0
1713364.0,0,3282,0,601,0
1713506.0,0,3283,0,601,0
1713556.0,0,3284,0,601,0
1713715.0,0,3285,0,601,0
1713832.0,0,3286,0,601,0
1713865.0,0,3287,0,601,0
1713915.0,0,3287,0,602,0
1714190.0,0,3288,0,602,0
1714249.0,0,3288,0,603,0
1714299.0,0,3288,0,604,0
1714382.0,0,3289,0,604,0
1714958.0,0,3290,0,604,0
1715033.0,0,3291,0,604,0
1715100.0,0,3292,0,604,0
1715134.0,0,3293,0,604,0
1715250.0,0,3294,0,604,0
1715267.0,0,3295,0,604,0
1715301.0,0,3295,0,605,0
1716878.0,0,3295,0,606,0
1717028.0,0,3296,0,606,0
1717070.0,0,3297,0,606,0
1717270.0,0,3298,0,606,0
1717312.0,0,3298,0,607,0
1717361.0,0,3299,0,607,0
1717586.0,0,3300,0,607,0
1718045.0,0,3301,0,607,0
1718212.0,0,3302,0,607,0
1718254.0,0,3303,0,607,0
1718271.0,0,3303,0,608,0
1718338.0,0,3304,0,608,0
1718429.0,0,3305,0,608,0
1718455.0,0,3306,0,608,0
1718521.0,0,3307,0,608,0
1718538.0,0,3308,0,608,0
1718604.0,0,3309,0,608,0
1718650.0,0,3310,0,608,0
1718721.0,0,3310,0,609,0
1718855.0,0,3311,0,609,0
1718938.0,0,3312,0,609,0
1719014.0,0,3313,0,609,0
1719064.0,0,3314,0,609,0
1719114.0,0,3315,0,609,0
1719139.0,0,3316,0,609,0
1719155.0,0,3317,0,609,0
1719247.0,0,3318,0,609,0
1719331.0,0,3319,0,609,0
1719414.0,0,3320,0,609,0
1719515.0,0,3321,0,609,0
1719531.0,0,3322,0,609,0
1719657.0,0,3323,0,609,0
1719715.0,0,3323,0,610,0
1719865.0,0,3323,0,611,0
1719890.0,0,3324,0,611,0
1719907.0,0,3325,0,611,0
1719990.0,0,3326,0,611,0
1720007.0,0,3326,0,612,0
1720116.0,0,3327,0,612,0
1720933.0,0,3328,0,612,0
1721067.0,0,3328,0,613,0
1721167.0,0,3329,0,613,0
1721309.0,0,3330,0,613,0
1721417.0,0,3330,0,614,0
1721467.0,0,3330,0,615,0
1721501.0,0,3331,0,615,0
1721559.0,0,3332,0,615,0
1721576.0,0,3333,0,615,0
1721643.0,0,3334,0,615,0
1721835.0,0,3335,0,615,0
1722252.0,0,3336,0,615,0
1722268.0,0,3337,0,615,0
1722404.0,0,3338,0,615,0
1722561.0,0,3339,0,615,0
1722936.0,0,3339,0,616,0
1724321.0,0,3340,0,616,0
1724405.0,0,3341,0,616,0
1724455.0,0,3342,0,616,0
1724830.0,0,3343,0,616,0
1724898.0,0,3343,0,617,0
1724964.0,0,3344,0,617,0
1725022.0,0,3345,0,617,0
1725172.0,0,3346,0,617,0
1725248.0,0,3347,0,617,0
1725381.0,0,3348,0,617,0
1725439.0,0,3349,0,617,0
1728996.0,0,3349,0,618,0
1729255.0,0,3350,0,618,0
1729338.0,0,3351,0,618,0
1729397.0,0,3352,0,618,0
1729430.0,0,3353,0,618,0
1729472.0,0,3354,0,618,0
1734086.0,0,3355,0,618,0
1734153.0,0,3356,0,618,0
1734211.0,0,3357,0,618,0
1734270.0,0,3358,0,618,0
1734303.0,0,3359,0,618,0
1734320.0,0,3360,0,618,0
1734395.0,0,3361,0,618,0
1734554.0,0,3361,0,619,0
1734571.0,0,3361,0,620,0
1735246.0,0,3362,0,620,0
1735338.0,0,3363,0,620,0
1735405.0,0,3364,0,620,0
1735439.0,0,3365,0,620,0
1735472.0,0,3365,0,621,0
1735539.0,0,3366,0,621,0
1736874.0,0,3367,0,621,0
1736946.0,0,3368,0,621,0
1737008.0,0,3368,0,622,0
1737333.0,0,3369,0,622,0
1737433.0,0,3370,0,622,0
1740296.0,0,3371,0,622,0
1740395.0,0,3372,0,622,0
1740496.0,0,3372,0,623,0
1740562.0,0,3373,0,623,0
1740687.0,0,3374,0,623,0
1740746.0,0,3375,0,623,0
1740787.0,0,3376,0,623,0
1741205.0,0,3377,0,623,0
1741338.0,0,3378,0,623,0
1741372.0,0,3379,0,623,0
1741597.0,0,3380,0,623,0
1741706.0,0,3381,0,623,0
1741915.0,0,3382,0,623,0
1741990.0,0,3383,0,623,0
1742023.0,0,3384,0,623,0
1742057.0,0,3384,0,624,0
1742081.0,0,3385,0,624,0
1744117.0,0,3385,0,625,0
1744150.0,0,3385,0,626,0
1744234.0,0,3386,0,626,0
1744443.0,0,3387,0,626,0
1744493.0,0,3387,0,627,0
1744559.0,0,3388,0,627,0
1744609.0,0,3389,0,627,0
1744685.0,0,3390,0,627,0
1744759.0,0,3391,0,627,0
1744801.0,0,3392,0,627,0
1744868.0,0,3393,0,627,0
1744977.0,0,3394,0,627,0
1745093.0,0,3395,0,627,0
1745227.0,0,3396,0,627,0
1745335.0,0,3397,0,627,0
1745419.0,0,3398,0,627,0
1745502.0,0,3398,0,628,0
1745577.0,0,3398,0,629,0
1745611.0,0,3399,0,629,0
1745636.0,0,3400,0,629,0
1745669.0,0,3401,0,629,0
1745719.0,0,3402,0,629,0
1745753.0,0,3403,0,629,0
1745828.0,0,3404,0,629,0
1745911.0,0,3405,0,629,0
1745995.0,0,3406,0,629,0
1746145.0,0,3407,0,629,0
1746262.0,0,3407,0,630,0
1746429.0,0,3408,0,630,0
1746529.0,0,3409,0,630,0
1746695.0,0,3410,0,630,0
1746754.0,0,3411,0,630,0
1746804.0,0,3412,0,630,0
1746837.0,0,3413,0,630,0
1746912.0,0,3414,0,630,0
1746929.0,0,3415,0,630,0
1747088.0,0,3416,0,630,0
1747180.0,0,3417,0,630,0
1747205.0,0,3418,0,630,0
1747630.0,0,3418,0,631,0
1753622.0,0,3419,0,631,0
1753738.0,0,3420,0,631,0
1753847.0,0,3421,0,631,0
1754180.0,0,3422,0,631,0
1754222.0,0,3423,0,631,0
1754239.0,0,3423,0,632,0
1754256.0,0,3424,0,632,0
1754381.0,0,3425,0,632,0
1754398.0,0,3426,0,632,0
1754523.0,0,3427,0,632,0
1754606.0,0,3428,0,632,0
1754715.0,0,3429,0,632,0
1754832.0,0,3430,0,632,0
1754982.0,0,3431,0,632,0
1755265.0,0,3432,0,632,0
1756542.0,0,3433,0,632,0
1756809.0,0,3434,0,632,0
1756992.0,0,3435,0,632,0
1757010.0,0,3435,0,633,0
1757093.0,0,3436,0,633,0
1757168.0,0,3437,0,633,0
1757352.0,0,3438,0,633,0
1757413.0,0,3439,0,633,0
1757469.0,0,3439,0,634,0
1757660.0,0,3440,0,634,0
1757702.0,0,3440,0,635,0
1757753.0,0,3441,0,635,0
1757828.0,0,3442,0,635,0
1757870.0,0,3443,0,635,0
1757919.0,0,3444,0,635,0
1757986.0,0,3445,0,635,0
1758078.0,0,3446,0,635,0
1758111.0,0,3447,0,635,0
1758195.0,0,3448,0,635,0
1758253.0,0,3449,0,635,0
1758270.0,0,3450,0,635,0
1763043.0,0,3450,0,636,0
1763068.0,0,3451,0,636,0
1763160.0,0,3451,0,637,0
1763209.0,0,3452,0,637,0
1763293.0,0,3453,0,637,0
1763377.0,0,3453,0,638,0
1763518.0,0,3454,0,638,0
1763585.0,0,3455,0,638,0
1763618.0,0,3455,0,639,0
1763710.0,0,3456,0,639,0
1763760.0,0,3457,0,639,0
