time,AdrenergicStimulus,CorticalStimulus,EmotionalStimulus,NutritiveStimulus,EvaluationStimulus,FocusStimulus,MuscularStimulus,ProprioceptiveStimulus,SomaticStimulus,VisualStimulus
0.0,1692,1692,1692,4,4,1692,1692,1491,0,1372
1.0,1833,1831,1833,0,0,1831,1831,1373,0,1373
2.0,1646,1648,1646,0,0,1648,1648,1051,0,1051
3.0,1772,1772,1772,0,0,1772,1772,1123,0,1123
4.0,1636,1633,1636,0,0,1633,1633,1119,0,1119
5.0,1692,1695,1692,0,0,1694,1694,1215,0,1157
6.0,1714,1713,1714,0,0,1708,1708,1165,0,1165
7.0,1663,1663,1663,0,0,1669,1669,1072,0,1066
8.0,1592,1593,1592,0,0,1593,1593,1016,0,1016
9.0,1637,1636,1637,1,1,1633,1633,1080,0,1074
10.0,1714,1715,1714,0,0,1718,1718,1304,0,1304
11.0,1710,1710,1710,0,0,1710,1710,1216,0,1216
12.0,1672,1672,1672,4,4,1672,1672,1176,0,1126
13.0,1653,1653,1653,9,9,1652,1652,1240,0,1130
14.0,1649,1649,1649,1,1,1650,1650,1116,0,1063
15.0,1701,1701,1701,3,3,1701,1701,1299,0,1180
16.0,1766,1766,1766,5,5,1765,1765,1420,0,1203
17.0,1665,1665,1665,1,1,1665,1665,1292,0,1171
18.0,1716,1716,1716,12,12,1716,1716,1309,0,1147
19.0,1587,1586,1587,7,7,1587,1587,1145,0,1066
20.0,1663,1664,1663,1,1,1664,1664,1192,0,1156
21.0,1620,1619,1620,5,4,1618,1618,1181,0,1112
22.0,1717,1715,1717,17,18,1716,1716,1675,0,1193
23.0,1729,1731,1729,0,0,1731,1731,1515,0,1339
24.0,1766,1767,1766,7,7,1767,1767,1604,0,1280
25.0,1639,1639,1639,0,0,1639,1639,1349,0,1134
26.0,1788,1788,1788,21,20,1788,1788,1621,0,1269
27.0,1652,1652,1652,0,1,1647,1647,1355,0,1141
28.0,1698,1697,1698,0,0,1701,1701,1390,0,1313
29.0,1781,1781,1781,6,6,1782,1782,1613,0,1375
30.0,1719,1720,1719,5,1,1717,1717,1763,0,1230
31.0,1678,1675,1678,9,10,1677,1677,1468,0,1139
32.0,1684,1687,1684,0,3,1688,1688,1291,0,1262
33.0,1708,1708,1708,4,4,1708,1708,1367,0,1256
34.0,1777,1775,1777,0,0,1775,1775,1630,0,1487
35.0,1739,1739,1739,5,3,1739,1739,1516,0,1453
36.0,1584,1581,1584,22,12,1581,1581,1541,0,1151
37.0,1749,1754,1749,4,16,1754,1754,1626,0,1413
38.0,1828,1826,1828,1,0,1826,1826,1598,0,1575
39.0,1692,1693,1692,6,5,1693,1693,1469,0,1231
40.0,1375,1375,1375,0,2,1375,1375,1247,0,992
41.0,0,0,0,0,0,0,0,0,0,0
