time,AdrenergicStimulus,CorticalStimulus,EmotionalStimulus,NutritiveStimulus,EvaluationStimulus,FocusStimulus,MuscularStimulus,ProprioceptiveStimulus,SomaticStimulus,VisualStimulus
0.0,1310,1310,1310,5,4,1306,1306,1144,0,1012
1.0,1523,1520,1523,7,8,1521,1521,1608,0,1294
2.0,1472,1475,1472,1,1,1475,1475,1272,0,1182
3.0,1488,1487,1488,5,5,1487,1487,1301,0,1189
4.0,1289,1290,1289,0,0,1291,1291,906,0,907
5.0,1398,1398,1398,0,0,1400,1400,1142,0,1142
6.0,1420,1420,1420,0,0,1420,1420,1088,0,1087
7.0,1408,1407,1408,0,0,1406,1406,1141,0,1141
8.0,1482,1482,1482,0,0,1480,1480,1317,0,1317
9.0,1387,1388,1387,0,0,1385,1385,1156,0,1157
10.0,1498,1498,1498,0,0,1501,1501,1220,0,1219
11.0,785,785,785,1,1,788,788,395,0,342
12.0,544,544,544,0,0,542,542,193,0,127
13.0,1347,1345,1347,27,27,1347,1347,1224,0,568
14.0,1471,1473,1471,26,26,1472,1472,1610,0,945
15.0,1223,1223,1223,36,36,1221,1221,940,0,405
16.0,1298,1298,1298,22,22,1298,1298,1052,0,494
17.0,1422,1422,1422,30,30,1425,1425,1446,0,826
18.0,1244,1244,1244,9,9,1241,1241,965,0,552
19.0,1131,1131,1131,22,22,1134,1134,815,0,452
20.0,1534,1534,1534,20,20,1530,1530,1621,0,1253
21.0,1635,1634,1635,9,9,1635,1635,1891,0,1605
22.0,1580,1580,1580,29,20,1578,1578,1864,0,1559
23.0,1634,1635,1634,7,12,1640,1640,1960,0,1651
24.0,1503,1503,1503,18,18,1500,1500,1748,0,1530
25.0,1516,1514,1516,18,17,1508,1508,1734,0,1518
26.0,1603,1601,1603,6,10,1606,1606,1878,0,1304
27.0,1519,1522,1519,12,9,1523,1523,1707,0,1377
28.0,1465,1466,1465,12,13,1465,1465,1659,0,1392
29.0,1500,1498,1500,10,9,1494,1494,1644,0,1349
30.0,1527,1529,1527,9,10,1531,1531,1484,0,1377
31.0,1522,1514,1522,9,10,1515,1515,1680,0,1479
32.0,1502,1510,1502,6,8,1513,1513,1757,0,1472
33.0,1526,1526,1526,11,6,1528,1528,1748,0,1404
34.0,1619,1619,1619,7,9,1619,1619,1874,0,1516
35.0,1625,1624,1625,1,3,1624,1624,1734,0,1442
36.0,1553,1552,1553,3,4,1551,1551,1593,0,1417
37.0,1611,1613,1611,8,5,1612,1612,1765,0,1528
38.0,1569,1569,1569,0,3,1570,1570,1492,0,1395
39.0,1510,1507,1510,1,0,1506,1506,1417,0,1362
40.0,1493,1496,1493,1,1,1496,1496,1380,0,1306
41.0,1463,1458,1463,4,4,1460,1460,1609,0,1369
42.0,1439,1433,1439,0,1,1433,1433,1590,0,1333
43.0,1469,1471,1469,2,1,1466,1466,1523,0,1327
44.0,1492,1501,1492,2,2,1506,1506,1664,0,1467
45.0,1502,1502,1502,8,2,1488,1488,1640,0,1460
46.0,1396,1396,1396,2,8,1406,1406,1619,0,1365
47.0,1406,1401,1406,0,1,1403,1403,1350,0,1270
48.0,157,160,157,0,0,158,158,154,0,131
49.0,0,0,0,0,0,0,0,0,0,0
