time,AdrenergicStimulus,CorticalStimulus,EmotionalStimulus,NutritiveStimulus,EvaluationStimulus,FocusStimulus,MuscularStimulus,ProprioceptiveStimulus,SomaticStimulus,VisualStimulus
0.0,2394,2381,2394,21,20,2374,2374,2373,0,2026
1.0,2173,2184,2173,0,1,2191,2191,1705,0,1695
2.0,2165,2166,2165,0,0,2166,2166,1769,0,1770
3.0,2151,2152,2151,0,0,2151,2151,1746,0,1745
4.0,1906,1905,1906,1,0,1906,1906,1469,0,1465
5.0,1670,1669,1670,0,1,1668,1668,1072,0,1072
6.0,1743,1745,1743,0,0,1744,1744,1135,0,1135
7.0,1969,1969,1969,0,0,1970,1970,1449,0,1449
8.0,1851,1849,1851,0,0,1849,1849,1408,0,1408
9.0,1694,1695,1694,0,0,1696,1696,1197,0,1197
10.0,1634,1635,1634,0,0,1635,1635,1116,0,1112
11.0,1621,1621,1621,0,0,1621,1621,1166,0,1166
12.0,2065,2064,2065,0,0,2064,2064,1629,0,1629
13.0,2014,2006,2014,0,0,2004,2004,1578,0,1578
14.0,2180,2188,2180,45,44,2188,2188,2114,0,1620
15.0,1935,1936,1935,2,3,1938,1938,1491,0,1481
16.0,1992,1984,1992,0,0,1983,1983,1616,0,1615
17.0,2007,2015,2007,1,1,2016,2016,1604,0,1595
18.0,2203,2201,2203,68,56,2201,2201,2139,0,1550
19.0,2010,2008,2010,18,28,2008,2008,1748,0,1573
20.0,2245,2246,2245,56,42,2235,2235,2252,0,1749
21.0,2102,2104,2102,5,21,2115,2115,1685,0,1642
22.0,2152,2152,2152,0,0,2152,2152,1768,0,1767
23.0,2100,2100,2100,0,0,2096,2096,1680,0,1680
24.0,2019,2020,2019,0,0,2021,2021,1530,0,1530
25.0,2145,2145,2145,65,13,2147,2147,2001,0,1701
26.0,2327,2323,2327,68,86,2322,2322,2466,0,1762
27.0,2267,2271,2267,65,49,2273,2273,2373,0,1793
28.0,2329,2329,2329,67,67,2328,2328,2481,0,1724
29.0,2251,2250,2251,51,53,2250,2250,2385,0,1790
30.0,2275,2275,2275,54,49,2276,2276,2413,0,1883
31.0,2321,2317,2321,44,47,2317,2317,2444,0,1751
32.0,2335,2336,2335,36,46,2335,2335,2457,0,1821
33.0,2403,2407,2403,42,36,2407,2407,2553,0,1667
34.0,801,800,801,4,4,801,801,850,0,519
35.0,0,0,0,0,0,0,0,0,0,0
