time,AdrenergicStimulus,CorticalStimulus,EmotionalStimulus,NutritiveStimulus,EvaluationStimulus,FocusStimulus,MuscularStimulus,ProprioceptiveStimulus,SomaticStimulus,VisualStimulus
0.0,1146,1146,1146,2,2,1145,1145,1043,0,970
1.0,1235,1235,1235,0,0,1236,1236,1035,0,995
2.0,1104,1104,1104,0,0,1104,1104,811,0,811
3.0,871,871,871,0,0,868,868,537,0,537
4.0,1168,1167,1168,0,0,1170,1170,788,0,788
5.0,1201,1202,1201,0,0,1199,1199,905,0,905
6.0,1302,1300,1302,0,0,1301,1301,1129,0,1129
7.0,1291,1293,1291,0,0,1289,1289,1114,0,1115
8.0,1277,1276,1277,0,0,1282,1282,1053,0,1052
9.0,1247,1247,1247,0,0,1247,1247,1051,0,1047
10.0,1285,1270,1285,1,1,1269,1269,1106,0,1099
11.0,1219,1235,1219,0,0,1236,1236,1013,0,991
12.0,1179,1177,1179,0,0,1177,1177,960,0,910
13.0,1176,1169,1176,0,0,1164,1164,1099,0,938
14.0,1138,1147,1138,1,1,1150,1150,1113,0,908
15.0,1268,1268,1268,1,1,1269,1269,1182,0,1019
16.0,1279,1277,1279,5,5,1278,1278,1160,0,1045
17.0,1224,1226,1224,2,2,1224,1224,1031,0,938
18.0,1245,1242,1245,1,1,1242,1242,1163,0,1074
19.0,1193,1194,1193,1,1,1194,1194,992,0,965
20.0,1130,1129,1130,0,0,1128,1128,880,0,865
21.0,1239,1242,1239,15,15,1243,1243,1167,0,855
22.0,1203,1203,1203,3,3,1205,1205,1133,0,948
23.0,1145,1139,1145,3,2,1139,1139,909,0,873
24.0,1225,1231,1225,8,9,1227,1227,1182,0,953
25.0,1212,1210,1212,13,13,1214,1214,1126,0,959
26.0,1196,1196,1196,2,2,1196,1196,988,0,942
27.0,1195,1197,1195,3,3,1193,1193,1121,0,899
28.0,1182,1182,1182,5,5,1183,1183,1220,0,925
29.0,1220,1220,1220,0,0,1223,1223,1114,0,875
30.0,1198,1198,1198,0,0,1198,1198,1071,0,960
31.0,1132,1132,1132,1,1,1132,1132,919,0,822
32.0,1166,1166,1166,0,0,1155,1155,966,0,886
33.0,1201,1201,1201,0,0,1212,1212,1026,0,895
34.0,1249,1249,1249,0,0,1247,1247,1099,0,960
35.0,1179,1178,1179,2,2,1177,1177,916,0,766
36.0,1298,1299,1298,1,1,1301,1301,1143,0,1076
37.0,1242,1241,1242,8,8,1242,1242,1063,0,947
38.0,1210,1211,1210,12,12,1211,1211,1041,0,801
39.0,1205,1202,1205,10,10,1202,1202,1086,0,824
40.0,1175,1178,1175,2,2,1178,1178,1072,0,938
41.0,1192,1191,1192,1,1,1187,1187,1145,0,936
42.0,1201,1202,1201,7,7,1206,1206,1049,0,872
43.0,1342,1337,1342,6,6,1336,1336,1330,0,1085
44.0,1047,1052,1047,0,0,1052,1052,765,0,704
45.0,1278,1278,1278,4,4,1271,1271,1178,0,874
46.0,1236,1233,1236,1,1,1237,1237,1103,0,1031
47.0,1075,1076,1075,4,4,1077,1077,977,0,859
48.0,1193,1195,1193,0,0,1196,1196,963,0,961
49.0,1327,1317,1327,5,5,1319,1319,1314,0,1201
50.0,1327,1337,1327,0,0,1337,1337,1328,0,1278
51.0,1249,1247,1249,0,0,1246,1246,1032,0,1032
52.0,1209,1211,1209,0,0,1212,1212,1097,0,1085
53.0,1401,1401,1401,0,0,1396,1396,1173,0,1173
54.0,1434,1434,1434,0,0,1439,1439,1275,0,1275
55.0,1544,1544,1544,0,0,1542,1542,1273,0,1273
56.0,0,0,0,0,0,0,0,0,0,0
