time,AdrenergicStimulus,CorticalStimulus,EmotionalStimulus,NutritiveStimulus,EvaluationStimulus,FocusStimulus,MuscularStimulus,ProprioceptiveStimulus,SomaticStimulus,VisualStimulus
0.0,2437,2437,2437,14,14,2435,2435,2288,0,1915
1.0,2123,2123,2123,0,0,2125,2125,1473,0,1473
2.0,1997,1997,1997,0,0,1995,1995,1513,0,1513
3.0,2078,2077,2078,1,1,2079,2079,1580,0,1578
4.0,1800,1801,1800,0,0,1801,1801,1206,0,1206
5.0,2141,2133,2141,1,1,2132,2132,1553,0,1547
6.0,1906,1914,1906,0,0,1915,1915,1377,0,1377
7.0,2013,2013,2013,4,4,2013,2013,1438,0,1406
8.0,1985,1985,1985,0,0,1984,1984,1450,0,1450
9.0,2203,2202,2203,30,27,2202,2202,2013,0,1501
10.0,2072,2073,2072,56,47,2074,2074,1972,0,1306
11.0,1786,1783,1786,18,28,1783,1783,1310,0,1008
12.0,1848,1849,1848,8,10,1848,1848,1418,0,1016
13.0,1710,1711,1710,3,3,1711,1711,1131,0,949
14.0,1535,1535,1535,11,11,1535,1535,1058,0,819
15.0,1529,1530,1529,6,6,1530,1530,1047,0,905
16.0,1907,1907,1907,1,1,1908,1908,1548,0,1451
17.0,1458,1457,1458,9,9,1457,1457,878,0,754
18.0,1903,1902,1903,2,2,1902,1902,1300,0,1259
19.0,2225,2221,2225,5,5,2221,2221,1928,0,1768
20.0,2248,2254,2248,17,16,2254,2254,1991,0,1833
21.0,2262,2260,2262,1,2,2258,2258,1789,0,1780
22.0,2306,2298,2306,0,0,2296,2296,1911,0,1911
23.0,2346,2355,2346,40,20,2352,2352,2196,0,1819
24.0,2313,2314,2313,67,61,2316,2316,2418,0,1889
25.0,2329,2328,2329,42,48,2333,2333,2458,0,2006
26.0,2314,2314,2314,68,53,2314,2314,2475,0,1675
27.0,2251,2247,2251,30,45,2245,2245,2382,0,1658
28.0,2365,2368,2365,41,24,2370,2370,2449,0,1769
29.0,2308,2310,2308,32,37,2310,2310,2411,0,1887
30.0,2383,2383,2383,28,32,2381,2381,2520,0,1724
31.0,2387,2386,2387,21,24,2387,2387,2501,0,1886
32.0,2271,2271,2271,32,20,2264,2264,2375,0,1887
33.0,2511,2511,2511,20,25,2519,2519,2515,0,1702
34.0,205,205,205,1,2,205,205,168,0,169
35.0,0,0,0,0,0,0,0,0,0,0
