time,AdrenergicStimulus,CorticalStimulus,EmotionalStimulus,NutritiveStimulus,EvaluationStimulus,FocusStimulus,MuscularStimulus,ProprioceptiveStimulus,SomaticStimulus,VisualStimulus
0.0,2532,2532,2532,25,25,2530,2530,2673,0,2203
1.0,2287,2287,2287,14,14,2289,2289,2003,0,1695
2.0,2104,2091,2104,0,0,2088,2088,1607,0,1607
3.0,2209,2216,2209,0,0,2218,2218,1687,0,1687
4.0,2205,2211,2205,22,21,2211,2211,2013,0,1644
5.0,2139,2138,2139,2,1,2138,2138,1724,0,1652
6.0,1424,1425,1424,0,2,1426,1426,937,0,886
7.0,1305,1305,1305,4,4,1305,1305,786,0,475
8.0,1717,1717,1717,4,4,1716,1716,1473,0,411
9.0,2140,2139,2140,25,22,2132,2132,2092,0,1613
10.0,2384,2385,2384,38,37,2390,2390,2487,0,2066
11.0,2397,2397,2397,16,8,2399,2399,2491,0,1657
12.0,1962,1962,1962,47,40,1963,1963,1770,0,538
13.0,1525,1525,1525,33,45,1525,1525,1005,0,421
14.0,2255,2254,2255,31,35,2253,2253,2108,0,1428
15.0,2472,2471,2472,14,16,2469,2469,2575,0,2201
16.0,2433,2435,2433,11,9,2437,2437,2547,0,2009
17.0,2507,2507,2507,8,9,2508,2508,2611,0,2264
18.0,2441,2440,2441,10,7,2437,2437,2581,0,2107
19.0,2450,2450,2450,12,8,2450,2450,2587,0,2086
20.0,2515,2516,2515,15,11,2518,2518,2639,0,2228
21.0,2407,2407,2407,15,15,2405,2405,2530,0,2149
22.0,2485,2484,2485,7,13,2482,2482,2627,0,2303
23.0,2489,2490,2489,6,6,2494,2494,2623,0,2286
24.0,2462,2458,2462,8,6,2453,2453,2576,0,2048
25.0,2476,2476,2476,16,7,2481,2481,2587,0,1747
26.0,2445,2449,2445,12,11,2446,2446,2591,0,2057
27.0,2446,2445,2446,6,11,2449,2449,2561,0,2015
28.0,2493,2494,2493,15,9,2493,2493,2623,0,2117
29.0,2460,2460,2460,6,11,2460,2460,2567,0,2149
30.0,2449,2449,2449,9,10,2449,2449,2568,0,2115
31.0,2471,2471,2471,12,5,2471,2471,2599,0,2104
32.0,397,396,397,2,2,396,396,433,0,313
33.0,0,0,0,0,0,0,0,0,0,0
