time,AdrenergicStimulus,CorticalStimulus,EmotionalStimulus,NutritiveStimulus,EvaluationStimulus,FocusStimulus,MuscularStimulus,ProprioceptiveStimulus,SomaticStimulus,VisualStimulus
0.0,1249,1249,1249,8,8,1246,1246,1399,0,1099
1.0,1241,1237,1241,2,2,1227,1227,1393,0,1088
2.0,1278,1270,1278,2,2,1283,1283,1431,0,1157
3.0,1316,1328,1316,8,8,1328,1328,1237,0,1038
4.0,1307,1307,1307,1,1,1303,1303,1134,0,1118
5.0,1325,1324,1325,1,1,1328,1328,1351,0,1167
6.0,1284,1285,1284,0,0,1285,1285,1076,0,1067
7.0,1264,1264,1264,5,5,1264,1264,1075,0,910
8.0,1437,1435,1437,3,3,1435,1435,1279,0,1215
9.0,1402,1402,1402,0,0,1402,1402,1254,0,1254
10.0,1297,1299,1297,0,0,1299,1299,1153,0,1153
11.0,1259,1253,1259,0,0,1253,1253,1052,0,1053
12.0,1322,1326,1322,1,1,1325,1325,1364,0,1028
13.0,1248,1249,1248,0,0,1247,1247,1162,0,978
14.0,1177,1177,1177,1,1,1180,1180,956,0,856
15.0,1206,1202,1206,0,0,1201,1201,1002,0,861
16.0,1253,1258,1253,7,7,1259,1259,1166,0,1032
17.0,1124,1123,1124,0,0,1123,1123,896,0,813
18.0,1086,1087,1086,0,0,1087,1087,696,0,623
19.0,1164,1154,1164,0,0,1149,1149,818,0,806
20.0,1278,1288,1278,0,0,1293,1293,1192,0,1163
21.0,1308,1308,1308,1,1,1308,1308,1172,0,1000
22.0,1279,1279,1279,4,4,1269,1269,1040,0,880
23.0,871,871,871,0,0,881,881,613,0,432
24.0,931,931,931,0,0,931,931,536,0,503
25.0,1281,1280,1281,1,1,1275,1275,1148,0,997
26.0,1273,1273,1273,0,0,1276,1276,1166,0,1156
27.0,1290,1288,1290,1,1,1287,1287,1244,0,1143
28.0,1140,1143,1140,1,1,1140,1140,1065,0,827
29.0,1010,1010,1010,0,0,1016,1016,605,0,494
30.0,1125,1125,1125,1,1,1118,1118,882,0,703
31.0,1175,1174,1175,0,0,1168,1168,1050,0,871
32.0,1139,1140,1139,0,0,1153,1153,952,0,805
33.0,1269,1268,1269,0,0,1266,1266,1108,0,869
34.0,1232,1232,1232,0,0,1225,1225,1266,0,1139
35.0,1242,1243,1242,1,1,1252,1252,1391,0,1204
36.0,1254,1251,1254,0,0,1250,1250,1358,0,1250
37.0,1202,1191,1202,3,3,1192,1192,1283,0,1102
38.0,1162,1176,1162,3,3,1176,1176,1019,0,812
39.0,1130,1130,1130,0,0,1130,1130,924,0,869
40.0,1124,1124,1124,0,0,1124,1124,1025,0,943
41.0,1167,1162,1167,3,3,1161,1161,1125,0,888
42.0,1223,1225,1223,1,1,1226,1226,1190,0,977
43.0,1186,1183,1186,0,0,1180,1180,1058,0,935
44.0,1084,1089,1084,0,0,1092,1092,888,0,836
45.0,1256,1256,1256,0,0,1253,1253,1255,0,1006
46.0,1239,1240,1239,2,2,1234,1234,1302,0,1051
47.0,1170,1166,1170,2,2,1174,1174,1114,0,848
48.0,1192,1196,1192,1,1,1197,1197,1045,0,813
49.0,1098,1094,1098,1,1,1094,1094,868,0,688
50.0,977,981,977,0,0,981,981,724,0,679
51.0,1159,1156,1159,0,0,1156,1156,984,0,886
52.0,1075,1078,1075,2,2,1076,1076,1058,0,846
53.0,1152,1152,1152,0,0,1149,1149,1037,0,1034
54.0,1257,1257,1257,1,1,1258,1258,1186,0,1099
55.0,1366,1365,1366,0,0,1368,1368,1007,0,1007
56.0,750,751,750,0,0,742,742,592,0,592
57.0,0,0,0,0,0,0,0,0,0,0
