time,AdrenergicStimulus,CorticalStimulus,EmotionalStimulus,NutritiveStimulus,EvaluationStimulus,FocusStimulus,MuscularStimulus,ProprioceptiveStimulus,SomaticStimulus,VisualStimulus
0.0,1755,1755,1755,9,9,1751,1751,1543,0,1328
1.0,1688,1688,1688,0,0,1692,1692,1283,0,1287
2.0,1746,1745,1746,1,1,1745,1745,1293,0,1264
3.0,1711,1712,1711,0,0,1712,1712,1221,0,1221
4.0,1684,1682,1684,0,0,1682,1682,1183,0,1183
5.0,1736,1736,1736,0,0,1736,1736,1054,0,1054
6.0,1781,1780,1781,0,0,1778,1778,1232,0,1232
7.0,1760,1763,1760,0,0,1764,1764,1133,0,1133
8.0,1674,1674,1674,0,0,1675,1675,1058,0,1058
9.0,1755,1753,1755,36,18,1751,1751,1578,0,1120
10.0,1814,1816,1814,62,47,1816,1816,1859,0,1139
11.0,1807,1807,1807,41,66,1809,1809,1756,0,1267
12.0,1754,1754,1754,12,20,1754,1754,1381,0,1225
13.0,1832,1832,1832,52,15,1831,1831,1718,0,1046
14.0,1796,1795,1796,59,64,1796,1796,2000,0,1203
15.0,1773,1773,1773,41,44,1772,1772,1629,0,1142
16.0,1709,1709,1709,12,36,1710,1710,1457,0,1226
17.0,1737,1738,1737,16,5,1738,1738,1604,0,1217
18.0,1621,1618,1621,9,16,1618,1618,1375,0,1175
19.0,1560,1563,1560,12,9,1563,1563,1214,0,988
20.0,1616,1615,1616,21,14,1615,1615,1533,0,1148
21.0,1723,1719,1723,7,19,1717,1717,1735,0,1452
22.0,1816,1821,1816,0,7,1822,1822,1730,0,1679
23.0,1827,1826,1827,1,0,1827,1827,1756,0,1678
24.0,1793,1794,1793,0,1,1792,1792,1560,0,1561
25.0,1836,1836,1836,2,0,1835,1835,1672,0,1658
26.0,1814,1811,1814,4,0,1814,1814,1623,0,1551
27.0,1817,1819,1817,3,2,1819,1819,1630,0,1594
28.0,1819,1819,1819,0,7,1819,1819,1606,0,1607
29.0,1801,1802,1801,0,0,1801,1801,1651,0,1650
30.0,1766,1765,1766,3,0,1759,1759,1607,0,1574
31.0,1793,1794,1793,0,0,1801,1801,1615,0,1616
32.0,1763,1763,1763,0,3,1761,1761,1592,0,1591
33.0,1791,1787,1791,0,0,1788,1788,1492,0,1493
34.0,1866,1869,1866,0,0,1869,1869,1696,0,1696
35.0,1843,1844,1843,0,0,1844,1844,1611,0,1610
36.0,1871,1870,1871,0,0,1870,1870,1658,0,1658
37.0,1879,1876,1879,0,0,1877,1877,1704,0,1704
38.0,1764,1767,1764,0,0,1765,1765,1499,0,1500
39.0,1801,1800,1801,0,0,1802,1802,1497,0,1497
40.0,1817,1818,1817,0,0,1817,1817,1545,0,1544
41.0,873,874,873,0,0,874,874,752,0,752
42.0,0,0,0,0,0,0,0,0,0,0
