time,AdrenergicStimulus,CorticalStimulus,EmotionalStimulus,NutritiveStimulus,EvaluationStimulus,FocusStimulus,MuscularStimulus,ProprioceptiveStimulus,SomaticStimulus,VisualStimulus
0.0,1480,1480,1480,6,6,1480,1480,1497,0,1370
1.0,1380,1380,1380,0,0,1378,1378,1137,0,1137
2.0,1318,1317,1318,0,0,1318,1318,1042,0,1042
3.0,1277,1278,1277,0,0,1279,1279,1004,0,1004
4.0,1470,1469,1470,0,0,1465,1465,1159,0,1159
5.0,1506,1506,1506,0,0,1509,1509,1129,0,1129
6.0,1544,1545,1544,0,0,1546,1546,1208,0,1208
7.0,1373,1372,1373,0,0,1371,1371,997,0,997
8.0,1452,1453,1452,0,0,1454,1454,1208,0,1208
9.0,1370,1370,1370,0,0,1369,1369,1159,0,1159
10.0,1362,1359,1362,0,0,1352,1352,1025,0,1025
11.0,1339,1340,1339,0,0,1348,1348,1078,0,1078
12.0,1370,1371,1370,9,9,1370,1370,1116,0,1026
13.0,1406,1405,1406,17,17,1406,1406,1231,0,1010
14.0,1315,1316,1315,0,0,1315,1315,1046,0,1041
15.0,1373,1374,1373,0,0,1375,1375,1160,0,1116
16.0,1392,1390,1392,2,2,1382,1382,1105,0,1081
17.0,1387,1386,1387,1,1,1393,1393,1114,0,1113
18.0,1329,1332,1329,0,0,1333,1333,1059,0,1039
19.0,1367,1367,1367,0,0,1367,1367,1020,0,1009
20.0,1351,1351,1351,1,1,1345,1345,995,0,987
21.0,1361,1361,1361,1,1,1367,1367,1128,0,1094
22.0,1276,1276,1276,0,0,1273,1273,1011,0,1011
23.0,1361,1361,1361,0,0,1364,1364,1085,0,1085
24.0,1354,1353,1354,0,0,1353,1353,1054,0,1054
25.0,1306,1307,1306,0,0,1307,1307,1047,0,1047
26.0,1396,1396,1396,0,0,1396,1396,1160,0,1163
27.0,1409,1408,1409,0,0,1407,1407,1087,0,1084
28.0,1433,1432,1433,0,0,1433,1433,1186,0,1186
29.0,1513,1515,1513,0,0,1507,1507,1291,0,1291
30.0,1470,1468,1470,0,0,1475,1475,1347,0,1347
31.0,1443,1442,1443,1,1,1440,1440,1246,0,1241
32.0,1511,1513,1511,0,0,1513,1513,1230,0,1231
33.0,1438,1439,1438,0,0,1442,1442,1267,0,1267
34.0,1406,1406,1406,0,0,1405,1405,1216,0,1215
35.0,1437,1437,1437,0,0,1438,1438,1349,0,1349
36.0,1410,1407,1410,0,0,1404,1404,1233,0,1233
37.0,1366,1369,1366,0,0,1372,1372,1183,0,1185
38.0,1409,1408,1409,0,0,1408,1408,1246,0,1244
39.0,1411,1412,1411,0,0,1412,1412,1166,0,1167
40.0,1484,1483,1484,0,0,1480,1480,1305,0,1304
41.0,1399,1400,1399,0,0,1400,1400,1201,0,1201
42.0,1464,1462,1464,0,0,1464,1464,1258,0,1258
43.0,1457,1459,1457,0,0,1460,1460,1228,0,1229
44.0,1393,1393,1393,0,0,1391,1391,1225,0,1224
45.0,1414,1413,1414,0,0,1414,1414,1216,0,1216
46.0,1407,1407,1407,0,0,1408,1408,1239,0,1239
47.0,1437,1438,1437,0,0,1438,1438,1241,0,1241
48.0,875,875,875,0,0,875,875,772,0,772
49.0,0,0,0,0,0,0,0,0,0,0
