time,AdrenergicStimulus,CorticalStimulus,EmotionalStimulus,NutritiveStimulus,EvaluationStimulus,FocusStimulus,MuscularStimulus,ProprioceptiveStimulus,SomaticStimulus,VisualStimulus
0.0,1189,1188,1189,8,8,1182,1182,1173,0,825
1.0,1465,1465,1465,4,4,1471,1471,1432,0,1314
2.0,1275,1270,1275,0,0,1269,1269,1080,0,1080
3.0,1337,1343,1337,0,0,1344,1344,1061,0,1061
4.0,1139,1139,1139,0,0,1139,1139,818,0,818
5.0,1425,1425,1425,0,0,1425,1425,1037,0,1037
6.0,1352,1350,1352,0,0,1349,1349,1004,0,1005
7.0,1404,1406,1404,0,0,1407,1407,1247,0,1246
8.0,1389,1388,1389,0,0,1388,1388,1157,0,1158
9.0,1453,1453,1453,1,1,1453,1453,1298,0,1294
10.0,1427,1428,1427,0,0,1428,1428,1125,0,1125
11.0,1388,1384,1388,0,0,1384,1384,1192,0,1192
12.0,1290,1289,1290,0,0,1289,1289,1047,0,1047
13.0,1300,1303,1300,0,0,1302,1302,1015,0,1015
14.0,1364,1363,1364,1,1,1364,1364,1084,0,1082
15.0,1233,1236,1233,0,0,1236,1236,831,0,815
16.0,1320,1320,1320,0,0,1320,1320,988,0,988
17.0,1389,1389,1389,0,0,1388,1388,1024,0,1022
18.0,1366,1362,1366,2,2,1360,1360,1084,0,1056
19.0,1369,1373,1369,0,0,1375,1375,1068,0,1059
20.0,1315,1315,1315,2,2,1313,1313,967,0,954
21.0,1320,1320,1320,2,2,1323,1323,971,0,958
22.0,1402,1402,1402,0,0,1399,1399,1110,0,1109
23.0,1363,1363,1363,0,0,1366,1366,1018,0,1018
24.0,1439,1439,1439,0,0,1437,1437,1175,0,1175
25.0,1383,1383,1383,0,0,1385,1385,1035,0,1035
26.0,1416,1416,1416,0,0,1415,1415,1215,0,1215
27.0,1448,1448,1448,0,0,1449,1449,1157,0,1160
28.0,1441,1439,1441,0,0,1439,1439,1219,0,1216
29.0,1390,1391,1390,0,0,1391,1391,1165,0,1165
30.0,1419,1420,1419,0,0,1419,1419,1244,0,1244
31.0,1441,1440,1441,0,0,1439,1439,1257,0,1257
32.0,1403,1402,1403,0,0,1404,1404,1141,0,1141
33.0,1414,1416,1414,0,0,1416,1416,1185,0,1185
34.0,1359,1358,1359,0,0,1354,1354,1180,0,1180
35.0,1482,1483,1482,0,0,1486,1486,1324,0,1324
36.0,1429,1426,1429,0,0,1418,1418,1226,0,1227
37.0,1473,1476,1473,0,0,1480,1480,1338,0,1337
38.0,1401,1400,1401,0,0,1404,1404,1233,0,1233
39.0,1337,1337,1337,0,0,1338,1338,1157,0,1163
40.0,1414,1413,1414,0,0,1411,1411,1167,0,1163
41.0,1427,1428,1427,0,0,1430,1430,1254,0,1252
42.0,1417,1417,1417,0,0,1412,1412,1237,0,1237
43.0,1463,1464,1463,0,0,1469,1469,1325,0,1325
44.0,1420,1419,1420,0,0,1419,1419,1303,0,1303
45.0,1415,1416,1415,0,0,1416,1416,1267,0,1267
46.0,1310,1310,1310,0,0,1310,1310,1124,0,1124
47.0,1500,1500,1500,0,0,1500,1500,1335,0,1335
48.0,1598,1598,1598,0,0,1597,1597,1329,0,1329
49.0,411,410,411,0,0,411,411,340,0,343
50.0,0,0,0,0,0,0,0,0,0,0
